{
    "activities": [
        {
            "act_0_9": {
                "duration": 30, 
                "time_window": {
                    "start": "2014-03-05T08:00:00", 
                    "finish": "2014-03-05T18:00:00"
                }, 
                "required_operators": 1, 
                "location": {
                    "latitude": 46.09674485805775, 
                    "longitude": 13.262403146084718
                }, 
                "patient_name": "Tyrone Connor"
            }, 
            "act_0_8": {
                "duration": 60, 
                "time_window": {
                    "start": "2014-03-05T08:00:00", 
                    "finish": "2014-03-05T13:00:00"
                }, 
                "required_operators": 1, 
                "location": {
                    "latitude": 46.07597618395455, 
                    "longitude": 13.115031321161933
                }, 
                "patient_name": "Vicki Chiariello"
            }, 
            "act_0_3": {
                "duration": 30, 
                "time_window": {
                    "start": "2014-03-05T08:00:00", 
                    "finish": "2014-03-05T18:00:00"
                }, 
                "required_operators": 1, 
                "location": {
                    "latitude": 46.01453023581213, 
                    "longitude": 13.347741680031922
                }, 
                "patient_name": "Orville Bachman"
            }, 
            "act_0_2": {
                "duration": 30, 
                "time_window": {
                    "start": "2014-03-05T08:00:00", 
                    "finish": "2014-03-05T13:00:00"
                }, 
                "required_operators": 1, 
                "location": {
                    "latitude": 46.07340482048868, 
                    "longitude": 13.089642687717738
                }, 
                "patient_name": "Gabriela Boes"
            }, 
            "act_0_1": {
                "duration": 60, 
                "time_window": {
                    "start": "2014-03-05T08:00:00", 
                    "finish": "2014-03-05T18:00:00"
                }, 
                "required_operators": 1, 
                "location": {
                    "latitude": 46.24487947690274, 
                    "longitude": 12.931202793648668
                }, 
                "patient_name": "Elizabeth Coon"
            }, 
            "act_0_0": {
                "duration": 30, 
                "time_window": {
                    "start": "2014-03-05T08:00:00", 
                    "finish": "2014-03-05T18:00:00"
                }, 
                "required_operators": 1, 
                "location": {
                    "latitude": 46.150240650427094, 
                    "longitude": 13.260242916197699
                }, 
                "patient_name": "Paul Dossantos"
            }, 
            "act_0_7": {
                "duration": 60, 
                "time_window": {
                    "start": "2014-03-05T08:00:00", 
                    "finish": "2014-03-05T13:00:00"
                }, 
                "required_operators": 3, 
                "location": {
                    "latitude": 46.0164102597364, 
                    "longitude": 13.130231735642965
                }, 
                "patient_name": "Kathleen Hurley"
            }, 
            "act_0_6": {
                "duration": 30, 
                "time_window": {
                    "start": "2014-03-05T14:40:00", 
                    "finish": "2014-03-05T18:00:00"
                }, 
                "required_operators": 1, 
                "location": {
                    "latitude": 46.05266045968835, 
                    "longitude": 12.864290557070696
                }, 
                "patient_name": "Joseph Atwood"
            }, 
            "act_0_5": {
                "duration": 30, 
                "time_window": {
                    "start": "2014-03-05T08:00:00", 
                    "finish": "2014-03-05T13:00:00"
                }, 
                "required_operators": 2, 
                "location": {
                    "latitude": 46.12438578549812, 
                    "longitude": 13.471959310896251
                }, 
                "patient_name": "Cecil Morgan"
            }, 
            "act_0_4": {
                "duration": 30, 
                "time_window": {
                    "start": "2014-03-05T08:00:00", 
                    "finish": "2014-03-05T18:00:00"
                }, 
                "required_operators": 1, 
                "location": {
                    "latitude": 46.17552328227647, 
                    "longitude": 13.409015244242235
                }, 
                "patient_name": "Mary Bent"
            }, 
            "act_0_19": {
                "duration": 60, 
                "time_window": {
                    "start": "2014-03-05T11:20:00", 
                    "finish": "2014-03-05T14:40:00"
                }, 
                "required_operators": 1, 
                "location": {
                    "latitude": 46.047601894921904, 
                    "longitude": 12.973041229286862
                }, 
                "patient_name": "Ronald Nailer"
            }, 
            "act_0_18": {
                "duration": 30, 
                "time_window": {
                    "start": "2014-03-05T11:20:00", 
                    "finish": "2014-03-05T14:40:00"
                }, 
                "required_operators": 1, 
                "location": {
                    "latitude": 46.05075834406217, 
                    "longitude": 13.272461976349883
                }, 
                "patient_name": "Earl Howze"
            }, 
            "act_0_17": {
                "duration": 60, 
                "time_window": {
                    "start": "2014-03-05T14:40:00", 
                    "finish": "2014-03-05T18:00:00"
                }, 
                "required_operators": 1, 
                "location": {
                    "latitude": 46.141825572330106, 
                    "longitude": 13.322987094967374
                }, 
                "patient_name": "Don Imler"
            }, 
            "act_0_16": {
                "duration": 30, 
                "time_window": {
                    "start": "2014-03-05T13:00:00", 
                    "finish": "2014-03-05T18:00:00"
                }, 
                "required_operators": 1, 
                "location": {
                    "latitude": 46.24122364734539, 
                    "longitude": 13.023485737745858
                }, 
                "patient_name": "Jane Burrows"
            }, 
            "act_0_15": {
                "duration": 30, 
                "time_window": {
                    "start": "2014-03-05T08:00:00", 
                    "finish": "2014-03-05T18:00:00"
                }, 
                "required_operators": 1, 
                "location": {
                    "latitude": 45.956950501027215, 
                    "longitude": 13.34728341702958
                }, 
                "patient_name": "Nellie Rodriguez"
            }, 
            "act_0_14": {
                "duration": 30, 
                "time_window": {
                    "start": "2014-03-05T08:00:00", 
                    "finish": "2014-03-05T13:00:00"
                }, 
                "required_operators": 1, 
                "location": {
                    "latitude": 46.20734422246334, 
                    "longitude": 13.31296454551407
                }, 
                "patient_name": "Christopher Morgan"
            }, 
            "act_0_13": {
                "duration": 30, 
                "time_window": {
                    "start": "2014-03-05T08:00:00", 
                    "finish": "2014-03-05T18:00:00"
                }, 
                "required_operators": 1, 
                "location": {
                    "latitude": 46.089662681020364, 
                    "longitude": 13.336019403965567
                }, 
                "patient_name": "Beatrice Maffit"
            }, 
            "act_0_12": {
                "duration": 60, 
                "time_window": {
                    "start": "2014-03-05T08:00:00", 
                    "finish": "2014-03-05T13:00:00"
                }, 
                "required_operators": 1, 
                "location": {
                    "latitude": 46.097672954487614, 
                    "longitude": 13.270576183698447
                }, 
                "patient_name": "Helen Perez"
            }, 
            "act_0_11": {
                "duration": 60, 
                "time_window": {
                    "start": "2014-03-05T08:00:00", 
                    "finish": "2014-03-05T13:00:00"
                }, 
                "required_operators": 2, 
                "location": {
                    "latitude": 45.973174244547366, 
                    "longitude": 13.010819668279032
                }, 
                "patient_name": "Patricia Peterson"
            }, 
            "act_0_10": {
                "duration": 30, 
                "time_window": {
                    "start": "2014-03-05T11:20:00", 
                    "finish": "2014-03-05T14:40:00"
                }, 
                "required_operators": 1, 
                "location": {
                    "latitude": 46.20133344083771, 
                    "longitude": 13.358352557229201
                }, 
                "patient_name": "William Carrington"
            }
        }, 
        {
            "act_1_14": {
                "duration": 30, 
                "time_window": {
                    "start": "2014-03-06T13:00:00", 
                    "finish": "2014-03-06T18:00:00"
                }, 
                "required_operators": 1, 
                "location": {
                    "latitude": 46.01803779852564, 
                    "longitude": 13.373174361545946
                }, 
                "patient_name": "Thomas Allen"
            }, 
            "act_1_15": {
                "duration": 30, 
                "time_window": {
                    "start": "2014-03-06T08:00:00", 
                    "finish": "2014-03-06T11:20:00"
                }, 
                "required_operators": 1, 
                "location": {
                    "latitude": 46.02423187096375, 
                    "longitude": 13.262710432008184
                }, 
                "patient_name": "Jack Sipple"
            }, 
            "act_1_16": {
                "duration": 30, 
                "time_window": {
                    "start": "2014-03-06T08:00:00", 
                    "finish": "2014-03-06T18:00:00"
                }, 
                "required_operators": 1, 
                "location": {
                    "latitude": 46.09364712973549, 
                    "longitude": 13.222353264260459
                }, 
                "patient_name": "Joshua Chu"
            }, 
            "act_1_17": {
                "duration": 30, 
                "time_window": {
                    "start": "2014-03-06T08:00:00", 
                    "finish": "2014-03-06T18:00:00"
                }, 
                "required_operators": 1, 
                "location": {
                    "latitude": 46.06211727575198, 
                    "longitude": 12.9845137153465
                }, 
                "patient_name": "Elizabeth Suarez"
            }, 
            "act_1_10": {
                "duration": 30, 
                "time_window": {
                    "start": "2014-03-06T14:40:00", 
                    "finish": "2014-03-06T18:00:00"
                }, 
                "required_operators": 2, 
                "location": {
                    "latitude": 46.0290409574598, 
                    "longitude": 12.930654327413768
                }, 
                "patient_name": "Christopher Perea"
            }, 
            "act_1_11": {
                "duration": 30, 
                "time_window": {
                    "start": "2014-03-06T08:00:00", 
                    "finish": "2014-03-06T18:00:00"
                }, 
                "required_operators": 1, 
                "location": {
                    "latitude": 45.97208214985686, 
                    "longitude": 13.115123197026037
                }, 
                "patient_name": "Timothy Whitney"
            }, 
            "act_1_12": {
                "duration": 60, 
                "time_window": {
                    "start": "2014-03-06T13:00:00", 
                    "finish": "2014-03-06T18:00:00"
                }, 
                "required_operators": 1, 
                "location": {
                    "latitude": 46.065977791224, 
                    "longitude": 13.353063411909574
                }, 
                "patient_name": "Paul Escalante"
            }, 
            "act_1_13": {
                "duration": 60, 
                "time_window": {
                    "start": "2014-03-06T08:00:00", 
                    "finish": "2014-03-06T18:00:00"
                }, 
                "required_operators": 1, 
                "location": {
                    "latitude": 46.227657478666615, 
                    "longitude": 13.234868672024756
                }, 
                "patient_name": "Douglas Willoughby"
            }, 
            "act_1_18": {
                "duration": 60, 
                "time_window": {
                    "start": "2014-03-06T08:00:00", 
                    "finish": "2014-03-06T18:00:00"
                }, 
                "required_operators": 1, 
                "location": {
                    "latitude": 46.08835336311277, 
                    "longitude": 13.074629585117055
                }, 
                "patient_name": "Lupita Whitney"
            }, 
            "act_1_19": {
                "duration": 30, 
                "time_window": {
                    "start": "2014-03-06T08:00:00", 
                    "finish": "2014-03-06T13:00:00"
                }, 
                "required_operators": 1, 
                "location": {
                    "latitude": 46.215304671601146, 
                    "longitude": 13.110920815591141
                }, 
                "patient_name": "Anna Palmer"
            }, 
            "act_1_2": {
                "duration": 60, 
                "time_window": {
                    "start": "2014-03-06T08:00:00", 
                    "finish": "2014-03-06T11:20:00"
                }, 
                "required_operators": 1, 
                "location": {
                    "latitude": 45.94421221086955, 
                    "longitude": 13.453142217928841
                }, 
                "patient_name": "Laticia Eger"
            }, 
            "act_1_3": {
                "duration": 30, 
                "time_window": {
                    "start": "2014-03-06T08:00:00", 
                    "finish": "2014-03-06T11:20:00"
                }, 
                "required_operators": 1, 
                "location": {
                    "latitude": 45.99789895169709, 
                    "longitude": 12.961703205514366
                }, 
                "patient_name": "William Zimmerebner"
            }, 
            "act_1_0": {
                "duration": 60, 
                "time_window": {
                    "start": "2014-03-06T11:20:00", 
                    "finish": "2014-03-06T14:40:00"
                }, 
                "required_operators": 1, 
                "location": {
                    "latitude": 46.229752398140654, 
                    "longitude": 13.379207459460776
                }, 
                "patient_name": "Thomas Causey"
            }, 
            "act_1_1": {
                "duration": 30, 
                "time_window": {
                    "start": "2014-03-06T08:00:00", 
                    "finish": "2014-03-06T13:00:00"
                }, 
                "required_operators": 1, 
                "location": {
                    "latitude": 46.05167457274832, 
                    "longitude": 13.270501281727599
                }, 
                "patient_name": "Richard Ashby"
            }, 
            "act_1_6": {
                "duration": 60, 
                "time_window": {
                    "start": "2014-03-06T08:00:00", 
                    "finish": "2014-03-06T13:00:00"
                }, 
                "required_operators": 2, 
                "location": {
                    "latitude": 46.22112411755684, 
                    "longitude": 13.299714712420096
                }, 
                "patient_name": "Jason Crain"
            }, 
            "act_1_7": {
                "duration": 60, 
                "time_window": {
                    "start": "2014-03-06T13:00:00", 
                    "finish": "2014-03-06T18:00:00"
                }, 
                "required_operators": 2, 
                "location": {
                    "latitude": 46.07984308181259, 
                    "longitude": 13.166599609121588
                }, 
                "patient_name": "Malcolm Bean"
            }, 
            "act_1_4": {
                "duration": 60, 
                "time_window": {
                    "start": "2014-03-06T08:00:00", 
                    "finish": "2014-03-06T18:00:00"
                }, 
                "required_operators": 1, 
                "location": {
                    "latitude": 45.945495106188396, 
                    "longitude": 12.923993179029274
                }, 
                "patient_name": "Angela Poindexter"
            }, 
            "act_1_5": {
                "duration": 30, 
                "time_window": {
                    "start": "2014-03-06T11:20:00", 
                    "finish": "2014-03-06T14:40:00"
                }, 
                "required_operators": 1, 
                "location": {
                    "latitude": 46.119452917170356, 
                    "longitude": 13.434344779361682
                }, 
                "patient_name": "Adam Wetherington"
            }, 
            "act_1_8": {
                "duration": 30, 
                "time_window": {
                    "start": "2014-03-06T08:00:00", 
                    "finish": "2014-03-06T11:20:00"
                }, 
                "required_operators": 1, 
                "location": {
                    "latitude": 46.02150496119266, 
                    "longitude": 13.31225067415599
                }, 
                "patient_name": "Sara Dudasik"
            }, 
            "act_1_9": {
                "duration": 60, 
                "time_window": {
                    "start": "2014-03-06T08:00:00", 
                    "finish": "2014-03-06T13:00:00"
                }, 
                "required_operators": 1, 
                "location": {
                    "latitude": 46.175754642043806, 
                    "longitude": 13.280218433249527
                }, 
                "patient_name": "Richard Warren"
            }
        }, 
        {
            "act_2_19": {
                "duration": 30, 
                "time_window": {
                    "start": "2014-03-07T11:20:00", 
                    "finish": "2014-03-07T14:40:00"
                }, 
                "required_operators": 1, 
                "location": {
                    "latitude": 46.079154668149734, 
                    "longitude": 13.375416056247113
                }, 
                "patient_name": "James Legace"
            }, 
            "act_2_18": {
                "duration": 60, 
                "time_window": {
                    "start": "2014-03-07T08:00:00", 
                    "finish": "2014-03-07T11:20:00"
                }, 
                "required_operators": 1, 
                "location": {
                    "latitude": 46.20118953245396, 
                    "longitude": 12.974815689047482
                }, 
                "patient_name": "Camille Ross"
            }, 
            "act_2_11": {
                "duration": 60, 
                "time_window": {
                    "start": "2014-03-07T13:00:00", 
                    "finish": "2014-03-07T18:00:00"
                }, 
                "required_operators": 3, 
                "location": {
                    "latitude": 45.94983461206741, 
                    "longitude": 12.96103524147921
                }, 
                "patient_name": "Bryan Tirk"
            }, 
            "act_2_10": {
                "duration": 30, 
                "time_window": {
                    "start": "2014-03-07T14:40:00", 
                    "finish": "2014-03-07T18:00:00"
                }, 
                "required_operators": 1, 
                "location": {
                    "latitude": 46.053523865329794, 
                    "longitude": 13.218147456676185
                }, 
                "patient_name": "Ryan Gilden"
            }, 
            "act_2_13": {
                "duration": 30, 
                "time_window": {
                    "start": "2014-03-07T08:00:00", 
                    "finish": "2014-03-07T18:00:00"
                }, 
                "required_operators": 1, 
                "location": {
                    "latitude": 46.19567609747067, 
                    "longitude": 13.417262090143156
                }, 
                "patient_name": "Jennifer Atencio"
            }, 
            "act_2_12": {
                "duration": 30, 
                "time_window": {
                    "start": "2014-03-07T13:00:00", 
                    "finish": "2014-03-07T18:00:00"
                }, 
                "required_operators": 2, 
                "location": {
                    "latitude": 46.00648603491294, 
                    "longitude": 13.3467262928653
                }, 
                "patient_name": "Peggy Sivertsen"
            }, 
            "act_2_15": {
                "duration": 60, 
                "time_window": {
                    "start": "2014-03-07T11:20:00", 
                    "finish": "2014-03-07T14:40:00"
                }, 
                "required_operators": 1, 
                "location": {
                    "latitude": 45.94751645006124, 
                    "longitude": 12.937548573326975
                }, 
                "patient_name": "Roxann Nesslein"
            }, 
            "act_2_14": {
                "duration": 30, 
                "time_window": {
                    "start": "2014-03-07T08:00:00", 
                    "finish": "2014-03-07T13:00:00"
                }, 
                "required_operators": 1, 
                "location": {
                    "latitude": 46.21301431798467, 
                    "longitude": 13.267944899311008
                }, 
                "patient_name": "Ronald Johnson"
            }, 
            "act_2_17": {
                "duration": 60, 
                "time_window": {
                    "start": "2014-03-07T08:00:00", 
                    "finish": "2014-03-07T18:00:00"
                }, 
                "required_operators": 1, 
                "location": {
                    "latitude": 45.95945403817256, 
                    "longitude": 13.36054788995133
                }, 
                "patient_name": "Stefania Alpers"
            }, 
            "act_2_16": {
                "duration": 60, 
                "time_window": {
                    "start": "2014-03-07T08:00:00", 
                    "finish": "2014-03-07T13:00:00"
                }, 
                "required_operators": 1, 
                "location": {
                    "latitude": 46.12695204066963, 
                    "longitude": 13.427217676407778
                }, 
                "patient_name": "Sophie Hutchison"
            }, 
            "act_2_9": {
                "duration": 60, 
                "time_window": {
                    "start": "2014-03-07T13:00:00", 
                    "finish": "2014-03-07T18:00:00"
                }, 
                "required_operators": 1, 
                "location": {
                    "latitude": 46.0684639601662, 
                    "longitude": 13.09496934769827
                }, 
                "patient_name": "Nancy Leonard"
            }, 
            "act_2_8": {
                "duration": 60, 
                "time_window": {
                    "start": "2014-03-07T14:40:00", 
                    "finish": "2014-03-07T18:00:00"
                }, 
                "required_operators": 3, 
                "location": {
                    "latitude": 45.96472624703362, 
                    "longitude": 12.921465739360544
                }, 
                "patient_name": "Edgar Perkins"
            }, 
            "act_2_5": {
                "duration": 30, 
                "time_window": {
                    "start": "2014-03-07T14:40:00", 
                    "finish": "2014-03-07T18:00:00"
                }, 
                "required_operators": 1, 
                "location": {
                    "latitude": 46.096112463102024, 
                    "longitude": 13.18051594526698
                }, 
                "patient_name": "Lila Moore"
            }, 
            "act_2_4": {
                "duration": 30, 
                "time_window": {
                    "start": "2014-03-07T13:00:00", 
                    "finish": "2014-03-07T18:00:00"
                }, 
                "required_operators": 1, 
                "location": {
                    "latitude": 45.94762287495022, 
                    "longitude": 12.983221310203568
                }, 
                "patient_name": "Dwight Thompson"
            }, 
            "act_2_7": {
                "duration": 30, 
                "time_window": {
                    "start": "2014-03-07T08:00:00", 
                    "finish": "2014-03-07T18:00:00"
                }, 
                "required_operators": 1, 
                "location": {
                    "latitude": 46.18263389549703, 
                    "longitude": 13.147885736246204
                }, 
                "patient_name": "Sandra Perry"
            }, 
            "act_2_6": {
                "duration": 60, 
                "time_window": {
                    "start": "2014-03-07T13:00:00", 
                    "finish": "2014-03-07T18:00:00"
                }, 
                "required_operators": 1, 
                "location": {
                    "latitude": 46.230617783608885, 
                    "longitude": 12.877773527995407
                }, 
                "patient_name": "Gary Watson"
            }, 
            "act_2_1": {
                "duration": 30, 
                "time_window": {
                    "start": "2014-03-07T08:00:00", 
                    "finish": "2014-03-07T13:00:00"
                }, 
                "required_operators": 1, 
                "location": {
                    "latitude": 46.08369682700551, 
                    "longitude": 12.947004167098896
                }, 
                "patient_name": "Latoya Zimmerman"
            }, 
            "act_2_0": {
                "duration": 60, 
                "time_window": {
                    "start": "2014-03-07T08:00:00", 
                    "finish": "2014-03-07T13:00:00"
                }, 
                "required_operators": 1, 
                "location": {
                    "latitude": 45.98112016955928, 
                    "longitude": 13.427647010718616
                }, 
                "patient_name": "Paul Landry"
            }, 
            "act_2_3": {
                "duration": 30, 
                "time_window": {
                    "start": "2014-03-07T08:00:00", 
                    "finish": "2014-03-07T11:20:00"
                }, 
                "required_operators": 1, 
                "location": {
                    "latitude": 46.08335912849542, 
                    "longitude": 13.293757367183701
                }, 
                "patient_name": "Tony Shain"
            }, 
            "act_2_2": {
                "duration": 30, 
                "time_window": {
                    "start": "2014-03-07T14:40:00", 
                    "finish": "2014-03-07T18:00:00"
                }, 
                "required_operators": 1, 
                "location": {
                    "latitude": 46.17496410527469, 
                    "longitude": 13.36557115336059
                }, 
                "patient_name": "John Taylor"
            }
        }, 
        {
            "act_3_4": {
                "duration": 60, 
                "time_window": {
                    "start": "2014-03-08T08:00:00", 
                    "finish": "2014-03-08T13:00:00"
                }, 
                "required_operators": 2, 
                "location": {
                    "latitude": 45.96454275098401, 
                    "longitude": 13.419113405140306
                }, 
                "patient_name": "Elsie Mcvey"
            }, 
            "act_3_5": {
                "duration": 60, 
                "time_window": {
                    "start": "2014-03-08T08:00:00", 
                    "finish": "2014-03-08T13:00:00"
                }, 
                "required_operators": 1, 
                "location": {
                    "latitude": 46.211994396824515, 
                    "longitude": 13.116906022070749
                }, 
                "patient_name": "John Pollock"
            }, 
            "act_3_6": {
                "duration": 30, 
                "time_window": {
                    "start": "2014-03-08T08:00:00", 
                    "finish": "2014-03-08T18:00:00"
                }, 
                "required_operators": 1, 
                "location": {
                    "latitude": 46.01182764272546, 
                    "longitude": 13.396912128621386
                }, 
                "patient_name": "Debra Willoughby"
            }, 
            "act_3_7": {
                "duration": 60, 
                "time_window": {
                    "start": "2014-03-08T11:20:00", 
                    "finish": "2014-03-08T14:40:00"
                }, 
                "required_operators": 1, 
                "location": {
                    "latitude": 45.98741832917534, 
                    "longitude": 13.027071193562088
                }, 
                "patient_name": "Daniel Henline"
            }, 
            "act_3_0": {
                "duration": 60, 
                "time_window": {
                    "start": "2014-03-08T11:20:00", 
                    "finish": "2014-03-08T14:40:00"
                }, 
                "required_operators": 1, 
                "location": {
                    "latitude": 45.94752406595774, 
                    "longitude": 13.369316776772619
                }, 
                "patient_name": "Rodney Allen"
            }, 
            "act_3_1": {
                "duration": 60, 
                "time_window": {
                    "start": "2014-03-08T14:40:00", 
                    "finish": "2014-03-08T18:00:00"
                }, 
                "required_operators": 1, 
                "location": {
                    "latitude": 46.123368459609004, 
                    "longitude": 12.9071116534693
                }, 
                "patient_name": "Danny Crawford"
            }, 
            "act_3_2": {
                "duration": 30, 
                "time_window": {
                    "start": "2014-03-08T13:00:00", 
                    "finish": "2014-03-08T18:00:00"
                }, 
                "required_operators": 1, 
                "location": {
                    "latitude": 46.01283892868534, 
                    "longitude": 13.449337689334723
                }, 
                "patient_name": "Christy Severy"
            }, 
            "act_3_3": {
                "duration": 30, 
                "time_window": {
                    "start": "2014-03-08T08:00:00", 
                    "finish": "2014-03-08T13:00:00"
                }, 
                "required_operators": 1, 
                "location": {
                    "latitude": 45.9504816003635, 
                    "longitude": 13.454737478768935
                }, 
                "patient_name": "Daniel Siler"
            }, 
            "act_3_8": {
                "duration": 30, 
                "time_window": {
                    "start": "2014-03-08T11:20:00", 
                    "finish": "2014-03-08T14:40:00"
                }, 
                "required_operators": 2, 
                "location": {
                    "latitude": 45.946985104836266, 
                    "longitude": 13.344122219643065
                }, 
                "patient_name": "Alice Walker"
            }, 
            "act_3_9": {
                "duration": 30, 
                "time_window": {
                    "start": "2014-03-08T08:00:00", 
                    "finish": "2014-03-08T11:20:00"
                }, 
                "required_operators": 1, 
                "location": {
                    "latitude": 45.98858531000173, 
                    "longitude": 13.212902066441911
                }, 
                "patient_name": "Adela Andrade"
            }, 
            "act_3_18": {
                "duration": 30, 
                "time_window": {
                    "start": "2014-03-08T11:20:00", 
                    "finish": "2014-03-08T14:40:00"
                }, 
                "required_operators": 1, 
                "location": {
                    "latitude": 46.13054339355998, 
                    "longitude": 13.032495683406284
                }, 
                "patient_name": "John Dodson"
            }, 
            "act_3_19": {
                "duration": 30, 
                "time_window": {
                    "start": "2014-03-08T13:00:00", 
                    "finish": "2014-03-08T18:00:00"
                }, 
                "required_operators": 1, 
                "location": {
                    "latitude": 45.95228089516027, 
                    "longitude": 13.457092699986234
                }, 
                "patient_name": "Dawn Miller"
            }, 
            "act_3_16": {
                "duration": 30, 
                "time_window": {
                    "start": "2014-03-08T08:00:00", 
                    "finish": "2014-03-08T18:00:00"
                }, 
                "required_operators": 2, 
                "location": {
                    "latitude": 46.18191681952823, 
                    "longitude": 13.388904329886756
                }, 
                "patient_name": "Eugene Maddox"
            }, 
            "act_3_17": {
                "duration": 60, 
                "time_window": {
                    "start": "2014-03-08T11:20:00", 
                    "finish": "2014-03-08T14:40:00"
                }, 
                "required_operators": 2, 
                "location": {
                    "latitude": 46.20232058535756, 
                    "longitude": 13.40751405024095
                }, 
                "patient_name": "Clara Sherrill"
            }, 
            "act_3_14": {
                "duration": 30, 
                "time_window": {
                    "start": "2014-03-08T08:00:00", 
                    "finish": "2014-03-08T11:20:00"
                }, 
                "required_operators": 1, 
                "location": {
                    "latitude": 46.04604365555826, 
                    "longitude": 13.093591149796515
                }, 
                "patient_name": "Jared Goodman"
            }, 
            "act_3_15": {
                "duration": 60, 
                "time_window": {
                    "start": "2014-03-08T08:00:00", 
                    "finish": "2014-03-08T13:00:00"
                }, 
                "required_operators": 1, 
                "location": {
                    "latitude": 46.05933097174378, 
                    "longitude": 13.03378826307296
                }, 
                "patient_name": "Martha Garcia"
            }, 
            "act_3_12": {
                "duration": 30, 
                "time_window": {
                    "start": "2014-03-08T08:00:00", 
                    "finish": "2014-03-08T13:00:00"
                }, 
                "required_operators": 1, 
                "location": {
                    "latitude": 46.13622785999631, 
                    "longitude": 13.469344834664694
                }, 
                "patient_name": "Kimberly Arenas"
            }, 
            "act_3_13": {
                "duration": 30, 
                "time_window": {
                    "start": "2014-03-08T08:00:00", 
                    "finish": "2014-03-08T18:00:00"
                }, 
                "required_operators": 1, 
                "location": {
                    "latitude": 46.098042073852476, 
                    "longitude": 13.326774443224782
                }, 
                "patient_name": "Thomas Shoemake"
            }, 
            "act_3_10": {
                "duration": 30, 
                "time_window": {
                    "start": "2014-03-08T13:00:00", 
                    "finish": "2014-03-08T18:00:00"
                }, 
                "required_operators": 1, 
                "location": {
                    "latitude": 46.059743495919896, 
                    "longitude": 13.160398347436983
                }, 
                "patient_name": "Lawrence Abrahams"
            }, 
            "act_3_11": {
                "duration": 30, 
                "time_window": {
                    "start": "2014-03-08T11:20:00", 
                    "finish": "2014-03-08T14:40:00"
                }, 
                "required_operators": 1, 
                "location": {
                    "latitude": 46.21338245342816, 
                    "longitude": 13.161383101021698
                }, 
                "patient_name": "Freddy Foster"
            }
        }, 
        {
            "act_4_13": {
                "duration": 30, 
                "time_window": {
                    "start": "2014-03-09T08:00:00", 
                    "finish": "2014-03-09T11:20:00"
                }, 
                "required_operators": 1, 
                "location": {
                    "latitude": 46.17536974823201, 
                    "longitude": 13.16394770886653
                }, 
                "patient_name": "Benjamin Levy"
            }, 
            "act_4_12": {
                "duration": 30, 
                "time_window": {
                    "start": "2014-03-09T08:00:00", 
                    "finish": "2014-03-09T18:00:00"
                }, 
                "required_operators": 1, 
                "location": {
                    "latitude": 46.08846394667663, 
                    "longitude": 13.224099623735787
                }, 
                "patient_name": "Ronnie Jordan"
            }, 
            "act_4_11": {
                "duration": 30, 
                "time_window": {
                    "start": "2014-03-09T11:20:00", 
                    "finish": "2014-03-09T14:40:00"
                }, 
                "required_operators": 1, 
                "location": {
                    "latitude": 46.121566395777165, 
                    "longitude": 12.918546031011532
                }, 
                "patient_name": "Daniel Kong"
            }, 
            "act_4_10": {
                "duration": 60, 
                "time_window": {
                    "start": "2014-03-09T08:00:00", 
                    "finish": "2014-03-09T13:00:00"
                }, 
                "required_operators": 1, 
                "location": {
                    "latitude": 46.0244977486779, 
                    "longitude": 12.878394803292332
                }, 
                "patient_name": "Robert Kropp"
            }, 
            "act_4_17": {
                "duration": 30, 
                "time_window": {
                    "start": "2014-03-09T08:00:00", 
                    "finish": "2014-03-09T18:00:00"
                }, 
                "required_operators": 1, 
                "location": {
                    "latitude": 46.07747134393786, 
                    "longitude": 13.285796066304448
                }, 
                "patient_name": "Rita Neidecker"
            }, 
            "act_4_15": {
                "duration": 30, 
                "time_window": {
                    "start": "2014-03-09T08:00:00", 
                    "finish": "2014-03-09T13:00:00"
                }, 
                "required_operators": 2, 
                "location": {
                    "latitude": 46.03472086499334, 
                    "longitude": 12.920106600632872
                }, 
                "patient_name": "Sabrina Colucci"
            }, 
            "act_4_9": {
                "duration": 30, 
                "time_window": {
                    "start": "2014-03-09T08:00:00", 
                    "finish": "2014-03-09T18:00:00"
                }, 
                "required_operators": 1, 
                "location": {
                    "latitude": 45.978363006390154, 
                    "longitude": 13.32576024270815
                }, 
                "patient_name": "Eugene Hanson"
            }, 
            "act_4_8": {
                "duration": 30, 
                "time_window": {
                    "start": "2014-03-09T08:00:00", 
                    "finish": "2014-03-09T18:00:00"
                }, 
                "required_operators": 1, 
                "location": {
                    "latitude": 45.96766651224737, 
                    "longitude": 13.052024584230821
                }, 
                "patient_name": "Donna Young"
            }, 
            "act_4_7": {
                "duration": 60, 
                "time_window": {
                    "start": "2014-03-09T13:00:00", 
                    "finish": "2014-03-09T18:00:00"
                }, 
                "required_operators": 1, 
                "location": {
                    "latitude": 46.25531808514939, 
                    "longitude": 13.445674523755283
                }, 
                "patient_name": "Harriet Dupont"
            }, 
            "act_4_6": {
                "duration": 60, 
                "time_window": {
                    "start": "2014-03-09T08:00:00", 
                    "finish": "2014-03-09T13:00:00"
                }, 
                "required_operators": 2, 
                "location": {
                    "latitude": 46.24859378126205, 
                    "longitude": 13.210264960247553
                }, 
                "patient_name": "Jeri Dukes"
            }, 
            "act_4_5": {
                "duration": 30, 
                "time_window": {
                    "start": "2014-03-09T14:40:00", 
                    "finish": "2014-03-09T18:00:00"
                }, 
                "required_operators": 2, 
                "location": {
                    "latitude": 46.22848120532295, 
                    "longitude": 13.306738532490204
                }, 
                "patient_name": "John Greeley"
            }, 
            "act_4_4": {
                "duration": 60, 
                "time_window": {
                    "start": "2014-03-09T11:20:00", 
                    "finish": "2014-03-09T14:40:00"
                }, 
                "required_operators": 1, 
                "location": {
                    "latitude": 46.209794435762085, 
                    "longitude": 13.369374400082958
                }, 
                "patient_name": "May Kamp"
            }, 
            "act_4_3": {
                "duration": 60, 
                "time_window": {
                    "start": "2014-03-09T08:00:00", 
                    "finish": "2014-03-09T18:00:00"
                }, 
                "required_operators": 2, 
                "location": {
                    "latitude": 46.084037283652165, 
                    "longitude": 13.340628509544416
                }, 
                "patient_name": "Carolyn Taylor"
            }, 
            "act_4_2": {
                "duration": 30, 
                "time_window": {
                    "start": "2014-03-09T08:00:00", 
                    "finish": "2014-03-09T11:20:00"
                }, 
                "required_operators": 2, 
                "location": {
                    "latitude": 46.242605305800005, 
                    "longitude": 13.25800988049596
                }, 
                "patient_name": "Ivan Thompson"
            }, 
            "act_4_1": {
                "duration": 60, 
                "time_window": {
                    "start": "2014-03-09T08:00:00", 
                    "finish": "2014-03-09T13:00:00"
                }, 
                "required_operators": 1, 
                "location": {
                    "latitude": 46.135483085623335, 
                    "longitude": 13.309107692553663
                }, 
                "patient_name": "Robert Bustamente"
            }, 
            "act_4_0": {
                "duration": 60, 
                "time_window": {
                    "start": "2014-03-09T08:00:00", 
                    "finish": "2014-03-09T13:00:00"
                }, 
                "required_operators": 1, 
                "location": {
                    "latitude": 46.00893563185887, 
                    "longitude": 13.206704835531925
                }, 
                "patient_name": "Barbara Braswell"
            }, 
            "act_4_18": {
                "duration": 30, 
                "time_window": {
                    "start": "2014-03-09T08:00:00", 
                    "finish": "2014-03-09T11:20:00"
                }, 
                "required_operators": 2, 
                "location": {
                    "latitude": 46.00382318836592, 
                    "longitude": 12.967140759823906
                }, 
                "patient_name": "Betty Gillespie"
            }, 
            "act_4_16": {
                "duration": 60, 
                "time_window": {
                    "start": "2014-03-09T13:00:00", 
                    "finish": "2014-03-09T18:00:00"
                }, 
                "required_operators": 1, 
                "location": {
                    "latitude": 45.95045373297047, 
                    "longitude": 13.403342017531472
                }, 
                "patient_name": "Arthur Johnson"
            }, 
            "act_4_19": {
                "duration": 30, 
                "time_window": {
                    "start": "2014-03-09T08:00:00", 
                    "finish": "2014-03-09T11:20:00"
                }, 
                "required_operators": 1, 
                "location": {
                    "latitude": 46.009285876995875, 
                    "longitude": 13.088563695089427
                }, 
                "patient_name": "Andrew Bryant"
            }, 
            "act_4_14": {
                "duration": 30, 
                "time_window": {
                    "start": "2014-03-09T08:00:00", 
                    "finish": "2014-03-09T11:20:00"
                }, 
                "required_operators": 1, 
                "location": {
                    "latitude": 46.081137288807646, 
                    "longitude": 12.969567140928618
                }, 
                "patient_name": "John Gardner"
            }
        }, 
        {
            "act_5_18": {
                "duration": 60, 
                "time_window": {
                    "start": "2014-03-10T08:00:00", 
                    "finish": "2014-03-10T18:00:00"
                }, 
                "required_operators": 1, 
                "location": {
                    "latitude": 46.10407806145501, 
                    "longitude": 13.362511221913257
                }, 
                "patient_name": "Dennis Dacruz"
            }, 
            "act_5_19": {
                "duration": 30, 
                "time_window": {
                    "start": "2014-03-10T08:00:00", 
                    "finish": "2014-03-10T13:00:00"
                }, 
                "required_operators": 1, 
                "location": {
                    "latitude": 46.236688572756606, 
                    "longitude": 13.24794725005704
                }, 
                "patient_name": "George Chisler"
            }, 
            "act_5_10": {
                "duration": 60, 
                "time_window": {
                    "start": "2014-03-10T08:00:00", 
                    "finish": "2014-03-10T18:00:00"
                }, 
                "required_operators": 1, 
                "location": {
                    "latitude": 46.215747097410535, 
                    "longitude": 12.974488146672385
                }, 
                "patient_name": "Christopher Thomas"
            }, 
            "act_5_11": {
                "duration": 30, 
                "time_window": {
                    "start": "2014-03-10T13:00:00", 
                    "finish": "2014-03-10T18:00:00"
                }, 
                "required_operators": 1, 
                "location": {
                    "latitude": 46.092067821954274, 
                    "longitude": 13.374791483376898
                }, 
                "patient_name": "Bernice Garcia"
            }, 
            "act_5_12": {
                "duration": 60, 
                "time_window": {
                    "start": "2014-03-10T14:40:00", 
                    "finish": "2014-03-10T18:00:00"
                }, 
                "required_operators": 1, 
                "location": {
                    "latitude": 46.20911617312487, 
                    "longitude": 13.169707320487527
                }, 
                "patient_name": "Joshua Mcclendon"
            }, 
            "act_5_13": {
                "duration": 30, 
                "time_window": {
                    "start": "2014-03-10T08:00:00", 
                    "finish": "2014-03-10T13:00:00"
                }, 
                "required_operators": 3, 
                "location": {
                    "latitude": 46.24281019892903, 
                    "longitude": 12.913606930716968
                }, 
                "patient_name": "Anita Toman"
            }, 
            "act_5_14": {
                "duration": 30, 
                "time_window": {
                    "start": "2014-03-10T08:00:00", 
                    "finish": "2014-03-10T13:00:00"
                }, 
                "required_operators": 1, 
                "location": {
                    "latitude": 46.16267704022281, 
                    "longitude": 13.240093477680881
                }, 
                "patient_name": "Marco Fridley"
            }, 
            "act_5_15": {
                "duration": 60, 
                "time_window": {
                    "start": "2014-03-10T13:00:00", 
                    "finish": "2014-03-10T18:00:00"
                }, 
                "required_operators": 3, 
                "location": {
                    "latitude": 46.1779164531735, 
                    "longitude": 12.995408123277754
                }, 
                "patient_name": "Amy Pauley"
            }, 
            "act_5_16": {
                "duration": 30, 
                "time_window": {
                    "start": "2014-03-10T08:00:00", 
                    "finish": "2014-03-10T18:00:00"
                }, 
                "required_operators": 2, 
                "location": {
                    "latitude": 45.96950120187363, 
                    "longitude": 13.172672398607721
                }, 
                "patient_name": "Tracy Harman"
            }, 
            "act_5_17": {
                "duration": 30, 
                "time_window": {
                    "start": "2014-03-10T08:00:00", 
                    "finish": "2014-03-10T13:00:00"
                }, 
                "required_operators": 1, 
                "location": {
                    "latitude": 46.06382657701377, 
                    "longitude": 13.091039507206307
                }, 
                "patient_name": "Rose Finnegan"
            }, 
            "act_5_6": {
                "duration": 30, 
                "time_window": {
                    "start": "2014-03-10T08:00:00", 
                    "finish": "2014-03-10T13:00:00"
                }, 
                "required_operators": 1, 
                "location": {
                    "latitude": 45.95187153252428, 
                    "longitude": 13.231300585858795
                }, 
                "patient_name": "Jeanne Jackson"
            }, 
            "act_5_7": {
                "duration": 30, 
                "time_window": {
                    "start": "2014-03-10T13:00:00", 
                    "finish": "2014-03-10T18:00:00"
                }, 
                "required_operators": 1, 
                "location": {
                    "latitude": 46.17343486221203, 
                    "longitude": 13.333082094700877
                }, 
                "patient_name": "Linda Campbell"
            }, 
            "act_5_4": {
                "duration": 60, 
                "time_window": {
                    "start": "2014-03-10T13:00:00", 
                    "finish": "2014-03-10T18:00:00"
                }, 
                "required_operators": 1, 
                "location": {
                    "latitude": 46.001341022974934, 
                    "longitude": 13.280752907698021
                }, 
                "patient_name": "Calvin Sutton"
            }, 
            "act_5_5": {
                "duration": 30, 
                "time_window": {
                    "start": "2014-03-10T11:20:00", 
                    "finish": "2014-03-10T14:40:00"
                }, 
                "required_operators": 2, 
                "location": {
                    "latitude": 46.25689659697921, 
                    "longitude": 13.397080434027586
                }, 
                "patient_name": "Juan Mix"
            }, 
            "act_5_2": {
                "duration": 30, 
                "time_window": {
                    "start": "2014-03-10T13:00:00", 
                    "finish": "2014-03-10T18:00:00"
                }, 
                "required_operators": 1, 
                "location": {
                    "latitude": 45.9793489988885, 
                    "longitude": 12.960346509714471
                }, 
                "patient_name": "Kimberly Wild"
            }, 
            "act_5_3": {
                "duration": 30, 
                "time_window": {
                    "start": "2014-03-10T08:00:00", 
                    "finish": "2014-03-10T13:00:00"
                }, 
                "required_operators": 1, 
                "location": {
                    "latitude": 46.15936294885898, 
                    "longitude": 13.034501513168749
                }, 
                "patient_name": "Jay Calhoun"
            }, 
            "act_5_0": {
                "duration": 30, 
                "time_window": {
                    "start": "2014-03-10T08:00:00", 
                    "finish": "2014-03-10T18:00:00"
                }, 
                "required_operators": 2, 
                "location": {
                    "latitude": 46.197569843249134, 
                    "longitude": 13.2123799157525
                }, 
                "patient_name": "Gregory Saba"
            }, 
            "act_5_1": {
                "duration": 60, 
                "time_window": {
                    "start": "2014-03-10T14:40:00", 
                    "finish": "2014-03-10T18:00:00"
                }, 
                "required_operators": 1, 
                "location": {
                    "latitude": 45.988754330421756, 
                    "longitude": 13.275688385393407
                }, 
                "patient_name": "Linda Hart"
            }, 
            "act_5_8": {
                "duration": 30, 
                "time_window": {
                    "start": "2014-03-10T11:20:00", 
                    "finish": "2014-03-10T14:40:00"
                }, 
                "required_operators": 2, 
                "location": {
                    "latitude": 46.21698566249723, 
                    "longitude": 13.088650823657176
                }, 
                "patient_name": "Frank Maher"
            }, 
            "act_5_9": {
                "duration": 30, 
                "time_window": {
                    "start": "2014-03-10T13:00:00", 
                    "finish": "2014-03-10T18:00:00"
                }, 
                "required_operators": 4, 
                "location": {
                    "latitude": 46.10727846975918, 
                    "longitude": 13.017101056337163
                }, 
                "patient_name": "Troy Smith"
            }
        }
    ], 
    "operators": {
        "op_4": {
            "time_windows": [
                {
                    "start": "2014-03-05T08:00:00", 
                    "finish": "2014-03-05T18:00:00", 
                    "regular_worktime": "8:00:00"
                }, 
                {
                    "start": "2014-03-06T08:00:00", 
                    "finish": "2014-03-06T18:00:00", 
                    "regular_worktime": "8:00:00"
                }, 
                {
                    "start": "2014-03-07T08:00:00", 
                    "finish": "2014-03-07T18:00:00", 
                    "regular_worktime": "8:00:00"
                }, 
                {
                    "start": "2014-03-08T08:00:00", 
                    "finish": "2014-03-08T18:00:00", 
                    "regular_worktime": "8:00:00"
                }, 
                {
                    "start": "2014-03-09T08:00:00", 
                    "finish": "2014-03-09T13:00:00", 
                    "regular_worktime": "4:00:00"
                }, 
                {
                    "start": "2014-03-10T08:00:00", 
                    "finish": "2014-03-10T18:00:00", 
                    "regular_worktime": "8:00:00"
                }
            ], 
            "incompatible_activities": [
                "act_4_15", 
                "act_1_11", 
                "act_5_19", 
                "act_2_0"
            ], 
            "maximum_working_hours": "40:00:00", 
            "name": "Ralph Clark", 
            "minimum_working_hours": "36:00:00"
        }, 
        "op_5": {
            "time_windows": [
                {
                    "start": "2014-03-05T08:00:00", 
                    "finish": "2014-03-05T18:00:00", 
                    "regular_worktime": "8:00:00"
                }, 
                {
                    "start": "2014-03-06T08:00:00", 
                    "finish": "2014-03-06T18:00:00", 
                    "regular_worktime": "8:00:00"
                }, 
                {
                    "start": "2014-03-07T08:00:00", 
                    "finish": "2014-03-07T18:00:00", 
                    "regular_worktime": "8:00:00"
                }, 
                {
                    "start": "2014-03-08T13:00:00", 
                    "finish": "2014-03-08T18:00:00", 
                    "regular_worktime": "4:00:00"
                }, 
                {
                    "start": "2014-03-09T13:00:00", 
                    "finish": "2014-03-09T18:00:00", 
                    "regular_worktime": "4:00:00"
                }, 
                {
                    "start": "2014-03-10T13:00:00", 
                    "finish": "2014-03-10T18:00:00", 
                    "regular_worktime": "4:00:00"
                }
            ], 
            "incompatible_activities": [
                "act_5_3", 
                "act_0_6", 
                "act_0_14", 
                "act_3_10"
            ], 
            "maximum_working_hours": "32:00:00", 
            "name": "Dwight Raymond", 
            "minimum_working_hours": "28:00:00"
        }, 
        "op_6": {
            "time_windows": [
                {
                    "start": "2014-03-05T08:00:00", 
                    "finish": "2014-03-05T18:00:00", 
                    "regular_worktime": "8:00:00"
                }, 
                {
                    "start": "2014-03-06T08:00:00", 
                    "finish": "2014-03-06T18:00:00", 
                    "regular_worktime": "8:00:00"
                }, 
                {
                    "start": "2014-03-07T08:00:00", 
                    "finish": "2014-03-07T13:00:00", 
                    "regular_worktime": "4:00:00"
                }, 
                {
                    "start": "2014-03-08T08:00:00", 
                    "finish": "2014-03-08T18:00:00", 
                    "regular_worktime": "8:00:00"
                }, 
                {
                    "start": "2014-03-09T08:00:00", 
                    "finish": "2014-03-09T18:00:00", 
                    "regular_worktime": "8:00:00"
                }, 
                {
                    "start": "2014-03-10T08:00:00", 
                    "finish": "2014-03-10T18:00:00", 
                    "regular_worktime": "8:00:00"
                }
            ], 
            "incompatible_activities": [
                "act_1_18", 
                "act_1_1", 
                "act_5_17", 
                "act_0_11"
            ], 
            "maximum_working_hours": "40:00:00", 
            "name": "Herbert Andrews", 
            "minimum_working_hours": "36:00:00"
        }, 
        "op_7": {
            "time_windows": [
                {
                    "start": "2014-03-05T08:00:00", 
                    "finish": "2014-03-05T18:00:00", 
                    "regular_worktime": "8:00:00"
                }, 
                {
                    "start": "2014-03-06T08:00:00", 
                    "finish": "2014-03-06T18:00:00", 
                    "regular_worktime": "8:00:00"
                }, 
                {
                    "start": "2014-03-07T13:00:00", 
                    "finish": "2014-03-07T18:00:00", 
                    "regular_worktime": "4:00:00"
                }, 
                {
                    "start": "2014-03-08T08:00:00", 
                    "finish": "2014-03-08T18:00:00", 
                    "regular_worktime": "8:00:00"
                }, 
                {
                    "start": "2014-03-09T08:00:00", 
                    "finish": "2014-03-09T18:00:00", 
                    "regular_worktime": "8:00:00"
                }, 
                {
                    "start": "2014-03-10T08:00:00", 
                    "finish": "2014-03-10T18:00:00", 
                    "regular_worktime": "8:00:00"
                }
            ], 
            "incompatible_activities": [
                "act_1_18", 
                "act_1_16", 
                "act_1_10", 
                "act_0_13"
            ], 
            "maximum_working_hours": "40:00:00", 
            "name": "Jason Buggs", 
            "minimum_working_hours": "36:00:00"
        }, 
        "op_0": {
            "time_windows": [
                {
                    "start": "2014-03-05T08:00:00", 
                    "finish": "2014-03-05T18:00:00", 
                    "regular_worktime": "8:00:00"
                }, 
                {
                    "start": "2014-03-06T08:00:00", 
                    "finish": "2014-03-06T18:00:00", 
                    "regular_worktime": "8:00:00"
                }, 
                {
                    "start": "2014-03-07T13:00:00", 
                    "finish": "2014-03-07T18:00:00", 
                    "regular_worktime": "4:00:00"
                }, 
                {
                    "start": "2014-03-08T08:00:00", 
                    "finish": "2014-03-08T18:00:00", 
                    "regular_worktime": "8:00:00"
                }, 
                {
                    "start": "2014-03-09T08:00:00", 
                    "finish": "2014-03-09T13:00:00", 
                    "regular_worktime": "4:00:00"
                }, 
                {
                    "start": "2014-03-10T08:00:00", 
                    "finish": "2014-03-10T18:00:00", 
                    "regular_worktime": "8:00:00"
                }
            ], 
            "incompatible_activities": [
                "act_2_15", 
                "act_3_19", 
                "act_5_2", 
                "act_1_12"
            ], 
            "maximum_working_hours": "36:00:00", 
            "name": "Olga Atchison", 
            "minimum_working_hours": "32:00:00"
        }, 
        "op_1": {
            "time_windows": [
                {
                    "start": "2014-03-05T08:00:00", 
                    "finish": "2014-03-05T18:00:00", 
                    "regular_worktime": "8:00:00"
                }, 
                {
                    "start": "2014-03-06T08:00:00", 
                    "finish": "2014-03-06T18:00:00", 
                    "regular_worktime": "8:00:00"
                }, 
                {
                    "start": "2014-03-07T13:00:00", 
                    "finish": "2014-03-07T18:00:00", 
                    "regular_worktime": "4:00:00"
                }, 
                {
                    "start": "2014-03-08T08:00:00", 
                    "finish": "2014-03-08T18:00:00", 
                    "regular_worktime": "8:00:00"
                }, 
                {
                    "start": "2014-03-09T08:00:00", 
                    "finish": "2014-03-09T18:00:00", 
                    "regular_worktime": "8:00:00"
                }, 
                {
                    "start": "2014-03-10T08:00:00", 
                    "finish": "2014-03-10T18:00:00", 
                    "regular_worktime": "8:00:00"
                }
            ], 
            "incompatible_activities": [
                "act_0_13", 
                "act_4_19", 
                "act_4_3", 
                "act_0_5"
            ], 
            "maximum_working_hours": "40:00:00", 
            "name": "Lisa Castillo", 
            "minimum_working_hours": "36:00:00"
        }, 
        "op_2": {
            "time_windows": [
                {
                    "start": "2014-03-05T08:00:00", 
                    "finish": "2014-03-05T18:00:00", 
                    "regular_worktime": "8:00:00"
                }, 
                {
                    "start": "2014-03-06T08:00:00", 
                    "finish": "2014-03-06T18:00:00", 
                    "regular_worktime": "8:00:00"
                }, 
                {
                    "start": "2014-03-07T08:00:00", 
                    "finish": "2014-03-07T18:00:00", 
                    "regular_worktime": "8:00:00"
                }, 
                {
                    "start": "2014-03-08T13:00:00", 
                    "finish": "2014-03-08T18:00:00", 
                    "regular_worktime": "4:00:00"
                }, 
                {
                    "start": "2014-03-09T08:00:00", 
                    "finish": "2014-03-09T13:00:00", 
                    "regular_worktime": "4:00:00"
                }, 
                {
                    "start": "2014-03-10T13:00:00", 
                    "finish": "2014-03-10T18:00:00", 
                    "regular_worktime": "4:00:00"
                }
            ], 
            "incompatible_activities": [
                "act_4_10", 
                "act_2_3", 
                "act_3_13", 
                "act_2_1"
            ], 
            "maximum_working_hours": "32:00:00", 
            "name": "William Schmidt", 
            "minimum_working_hours": "28:00:00"
        }, 
        "op_3": {
            "time_windows": [
                {
                    "start": "2014-03-05T08:00:00", 
                    "finish": "2014-03-05T13:00:00", 
                    "regular_worktime": "4:00:00"
                }, 
                {
                    "start": "2014-03-06T08:00:00", 
                    "finish": "2014-03-06T18:00:00", 
                    "regular_worktime": "8:00:00"
                }, 
                {
                    "start": "2014-03-07T08:00:00", 
                    "finish": "2014-03-07T13:00:00", 
                    "regular_worktime": "4:00:00"
                }, 
                {
                    "start": "2014-03-08T08:00:00", 
                    "finish": "2014-03-08T18:00:00", 
                    "regular_worktime": "8:00:00"
                }, 
                {
                    "start": "2014-03-09T13:00:00", 
                    "finish": "2014-03-09T18:00:00", 
                    "regular_worktime": "4:00:00"
                }, 
                {
                    "start": "2014-03-10T13:00:00", 
                    "finish": "2014-03-10T18:00:00", 
                    "regular_worktime": "4:00:00"
                }
            ], 
            "incompatible_activities": [
                "act_4_17", 
                "act_2_7", 
                "act_1_7", 
                "act_0_16"
            ], 
            "maximum_working_hours": "28:00:00", 
            "name": "Diane Patten", 
            "minimum_working_hours": "24:00:00"
        }
    }, 
    "meta": {
        "time_window": {
            "start": "08:00:00", 
            "finish": "18:00:00"
        }, 
        "horizon": 6, 
        "granularity": 10, 
        "geographic_area": {
            "upper_left": [
                46.259645, 
                12.860656
            ], 
            "lower_right": [
                45.936826, 
                13.485503
            ]
        }, 
        "max_consecutive_days": 5, 
        "finish_date": "2014-03-11T00:00:00", 
        "max_overtime_rate": 1.1, 
        "start_date": "2014-03-05T00:00:00"
    }
}