{
    "activities": [
        {
            "act_0_39": {
                "duration": 30, 
                "time_window": {
                    "start": "2014-03-05T08:00:00", 
                    "finish": "2014-03-05T18:00:00"
                }, 
                "required_operators": 2, 
                "location": {
                    "latitude": 46.244732876118036, 
                    "longitude": 13.208208204417515
                }, 
                "patient_name": "Joan Comacho"
            }, 
            "act_0_35": {
                "duration": 30, 
                "time_window": {
                    "start": "2014-03-05T08:00:00", 
                    "finish": "2014-03-05T13:00:00"
                }, 
                "required_operators": 1, 
                "location": {
                    "latitude": 46.17505049606712, 
                    "longitude": 13.041109763255443
                }, 
                "patient_name": "Michelle Richards"
            }, 
            "act_0_34": {
                "duration": 60, 
                "time_window": {
                    "start": "2014-03-05T14:40:00", 
                    "finish": "2014-03-05T18:00:00"
                }, 
                "required_operators": 1, 
                "location": {
                    "latitude": 46.24310544744327, 
                    "longitude": 13.227406395384223
                }, 
                "patient_name": "Jesse Sullivan"
            }, 
            "act_0_37": {
                "duration": 30, 
                "time_window": {
                    "start": "2014-03-05T11:20:00", 
                    "finish": "2014-03-05T14:40:00"
                }, 
                "required_operators": 1, 
                "location": {
                    "latitude": 46.109081525590966, 
                    "longitude": 13.163652920961148
                }, 
                "patient_name": "Avis Nelson"
            }, 
            "act_0_36": {
                "duration": 30, 
                "time_window": {
                    "start": "2014-03-05T13:00:00", 
                    "finish": "2014-03-05T18:00:00"
                }, 
                "required_operators": 2, 
                "location": {
                    "latitude": 46.15260378347285, 
                    "longitude": 13.276931877602108
                }, 
                "patient_name": "Donald Cahn"
            }, 
            "act_0_31": {
                "duration": 30, 
                "time_window": {
                    "start": "2014-03-05T08:00:00", 
                    "finish": "2014-03-05T11:20:00"
                }, 
                "required_operators": 1, 
                "location": {
                    "latitude": 46.17692166907051, 
                    "longitude": 13.21385403236008
                }, 
                "patient_name": "Anthony Escamilla"
            }, 
            "act_0_30": {
                "duration": 30, 
                "time_window": {
                    "start": "2014-03-05T11:20:00", 
                    "finish": "2014-03-05T14:40:00"
                }, 
                "required_operators": 1, 
                "location": {
                    "latitude": 45.98048556955383, 
                    "longitude": 12.969167952620769
                }, 
                "patient_name": "Judy Weissgerber"
            }, 
            "act_0_19": {
                "duration": 30, 
                "time_window": {
                    "start": "2014-03-05T13:00:00", 
                    "finish": "2014-03-05T18:00:00"
                }, 
                "required_operators": 2, 
                "location": {
                    "latitude": 46.249689870049906, 
                    "longitude": 13.426994839004719
                }, 
                "patient_name": "Edward Hall"
            }, 
            "act_0_18": {
                "duration": 60, 
                "time_window": {
                    "start": "2014-03-05T08:00:00", 
                    "finish": "2014-03-05T11:20:00"
                }, 
                "required_operators": 1, 
                "location": {
                    "latitude": 46.25554189263528, 
                    "longitude": 13.16501949964353
                }, 
                "patient_name": "Rosemary Whiteford"
            }, 
            "act_0_17": {
                "duration": 60, 
                "time_window": {
                    "start": "2014-03-05T08:00:00", 
                    "finish": "2014-03-05T18:00:00"
                }, 
                "required_operators": 1, 
                "location": {
                    "latitude": 46.017930980269234, 
                    "longitude": 13.186296364327244
                }, 
                "patient_name": "Jose Burchell"
            }, 
            "act_0_16": {
                "duration": 30, 
                "time_window": {
                    "start": "2014-03-05T08:00:00", 
                    "finish": "2014-03-05T18:00:00"
                }, 
                "required_operators": 1, 
                "location": {
                    "latitude": 46.11842683253693, 
                    "longitude": 13.427897596495614
                }, 
                "patient_name": "Tracy Smith"
            }, 
            "act_0_15": {
                "duration": 60, 
                "time_window": {
                    "start": "2014-03-05T08:00:00", 
                    "finish": "2014-03-05T13:00:00"
                }, 
                "required_operators": 1, 
                "location": {
                    "latitude": 46.07257710042421, 
                    "longitude": 12.955529758673864
                }, 
                "patient_name": "Oscar Dixon"
            }, 
            "act_0_14": {
                "duration": 30, 
                "time_window": {
                    "start": "2014-03-05T14:40:00", 
                    "finish": "2014-03-05T18:00:00"
                }, 
                "required_operators": 2, 
                "location": {
                    "latitude": 46.06448837533202, 
                    "longitude": 13.207605944283186
                }, 
                "patient_name": "Sharon Evans"
            }, 
            "act_0_13": {
                "duration": 30, 
                "time_window": {
                    "start": "2014-03-05T08:00:00", 
                    "finish": "2014-03-05T13:00:00"
                }, 
                "required_operators": 1, 
                "location": {
                    "latitude": 46.249837177416076, 
                    "longitude": 12.944774871052175
                }, 
                "patient_name": "Roy Attaway"
            }, 
            "act_0_12": {
                "duration": 30, 
                "time_window": {
                    "start": "2014-03-05T11:20:00", 
                    "finish": "2014-03-05T14:40:00"
                }, 
                "required_operators": 1, 
                "location": {
                    "latitude": 46.17705829204032, 
                    "longitude": 13.06827362838334
                }, 
                "patient_name": "Carey Davis"
            }, 
            "act_0_11": {
                "duration": 60, 
                "time_window": {
                    "start": "2014-03-05T08:00:00", 
                    "finish": "2014-03-05T13:00:00"
                }, 
                "required_operators": 1, 
                "location": {
                    "latitude": 46.03027540401843, 
                    "longitude": 13.089270703283525
                }, 
                "patient_name": "Cynthia Higginbotham"
            }, 
            "act_0_10": {
                "duration": 30, 
                "time_window": {
                    "start": "2014-03-05T08:00:00", 
                    "finish": "2014-03-05T11:20:00"
                }, 
                "required_operators": 1, 
                "location": {
                    "latitude": 45.96436492437498, 
                    "longitude": 12.962263568180116
                }, 
                "patient_name": "Alexander Dicus"
            }, 
            "act_0_33": {
                "duration": 30, 
                "time_window": {
                    "start": "2014-03-05T08:00:00", 
                    "finish": "2014-03-05T13:00:00"
                }, 
                "required_operators": 1, 
                "location": {
                    "latitude": 46.23446572917974, 
                    "longitude": 13.064993823845917
                }, 
                "patient_name": "Lettie Foster"
            }, 
            "act_0_38": {
                "duration": 30, 
                "time_window": {
                    "start": "2014-03-05T13:00:00", 
                    "finish": "2014-03-05T18:00:00"
                }, 
                "required_operators": 1, 
                "location": {
                    "latitude": 46.08298741495339, 
                    "longitude": 13.087986501102217
                }, 
                "patient_name": "Vernie Bostrom"
            }, 
            "act_0_32": {
                "duration": 30, 
                "time_window": {
                    "start": "2014-03-05T13:00:00", 
                    "finish": "2014-03-05T18:00:00"
                }, 
                "required_operators": 1, 
                "location": {
                    "latitude": 46.09534084890993, 
                    "longitude": 13.387855793794174
                }, 
                "patient_name": "Damon Hoyer"
            }, 
            "act_0_9": {
                "duration": 30, 
                "time_window": {
                    "start": "2014-03-05T08:00:00", 
                    "finish": "2014-03-05T11:20:00"
                }, 
                "required_operators": 2, 
                "location": {
                    "latitude": 45.960046250187325, 
                    "longitude": 13.193225348384093
                }, 
                "patient_name": "Jennifer Goddard"
            }, 
            "act_0_8": {
                "duration": 30, 
                "time_window": {
                    "start": "2014-03-05T11:20:00", 
                    "finish": "2014-03-05T14:40:00"
                }, 
                "required_operators": 1, 
                "location": {
                    "latitude": 46.221362932267, 
                    "longitude": 13.221793840176158
                }, 
                "patient_name": "Katherine Williams"
            }, 
            "act_0_3": {
                "duration": 30, 
                "time_window": {
                    "start": "2014-03-05T08:00:00", 
                    "finish": "2014-03-05T18:00:00"
                }, 
                "required_operators": 1, 
                "location": {
                    "latitude": 45.9868950288228, 
                    "longitude": 13.265715178683452
                }, 
                "patient_name": "Leslie Isip"
            }, 
            "act_0_2": {
                "duration": 60, 
                "time_window": {
                    "start": "2014-03-05T14:40:00", 
                    "finish": "2014-03-05T18:00:00"
                }, 
                "required_operators": 1, 
                "location": {
                    "latitude": 46.16112892105699, 
                    "longitude": 12.888792217496112
                }, 
                "patient_name": "Deanne Mangham"
            }, 
            "act_0_1": {
                "duration": 60, 
                "time_window": {
                    "start": "2014-03-05T13:00:00", 
                    "finish": "2014-03-05T18:00:00"
                }, 
                "required_operators": 1, 
                "location": {
                    "latitude": 46.150238547901345, 
                    "longitude": 13.27913672824255
                }, 
                "patient_name": "Ashley Laskey"
            }, 
            "act_0_0": {
                "duration": 60, 
                "time_window": {
                    "start": "2014-03-05T08:00:00", 
                    "finish": "2014-03-05T11:20:00"
                }, 
                "required_operators": 1, 
                "location": {
                    "latitude": 46.04016162858199, 
                    "longitude": 12.867263475149938
                }, 
                "patient_name": "Irvin Suddreth"
            }, 
            "act_0_7": {
                "duration": 30, 
                "time_window": {
                    "start": "2014-03-05T13:00:00", 
                    "finish": "2014-03-05T18:00:00"
                }, 
                "required_operators": 1, 
                "location": {
                    "latitude": 46.0899624813035, 
                    "longitude": 13.192034164578322
                }, 
                "patient_name": "Brenda Burks"
            }, 
            "act_0_6": {
                "duration": 60, 
                "time_window": {
                    "start": "2014-03-05T13:00:00", 
                    "finish": "2014-03-05T18:00:00"
                }, 
                "required_operators": 1, 
                "location": {
                    "latitude": 46.21228379719681, 
                    "longitude": 12.951683542743718
                }, 
                "patient_name": "Erica Garland"
            }, 
            "act_0_5": {
                "duration": 60, 
                "time_window": {
                    "start": "2014-03-05T08:00:00", 
                    "finish": "2014-03-05T18:00:00"
                }, 
                "required_operators": 1, 
                "location": {
                    "latitude": 46.24130198999416, 
                    "longitude": 13.259816617009214
                }, 
                "patient_name": "Tammera Huffman"
            }, 
            "act_0_4": {
                "duration": 60, 
                "time_window": {
                    "start": "2014-03-05T08:00:00", 
                    "finish": "2014-03-05T18:00:00"
                }, 
                "required_operators": 1, 
                "location": {
                    "latitude": 46.08648741334732, 
                    "longitude": 13.002031764930411
                }, 
                "patient_name": "Steven Adams"
            }, 
            "act_0_22": {
                "duration": 60, 
                "time_window": {
                    "start": "2014-03-05T08:00:00", 
                    "finish": "2014-03-05T13:00:00"
                }, 
                "required_operators": 2, 
                "location": {
                    "latitude": 46.242433469276875, 
                    "longitude": 12.967749273936239
                }, 
                "patient_name": "Horace Moran"
            }, 
            "act_0_23": {
                "duration": 60, 
                "time_window": {
                    "start": "2014-03-05T13:00:00", 
                    "finish": "2014-03-05T18:00:00"
                }, 
                "required_operators": 2, 
                "location": {
                    "latitude": 46.09566428675297, 
                    "longitude": 13.179317538365092
                }, 
                "patient_name": "Philip Thompson"
            }, 
            "act_0_20": {
                "duration": 30, 
                "time_window": {
                    "start": "2014-03-05T08:00:00", 
                    "finish": "2014-03-05T18:00:00"
                }, 
                "required_operators": 1, 
                "location": {
                    "latitude": 46.11270065124075, 
                    "longitude": 13.033389542807065
                }, 
                "patient_name": "Angela Arnette"
            }, 
            "act_0_21": {
                "duration": 60, 
                "time_window": {
                    "start": "2014-03-05T11:20:00", 
                    "finish": "2014-03-05T14:40:00"
                }, 
                "required_operators": 2, 
                "location": {
                    "latitude": 46.19743185330694, 
                    "longitude": 13.267022870131271
                }, 
                "patient_name": "Louis Mcintosh"
            }, 
            "act_0_26": {
                "duration": 60, 
                "time_window": {
                    "start": "2014-03-05T11:20:00", 
                    "finish": "2014-03-05T14:40:00"
                }, 
                "required_operators": 1, 
                "location": {
                    "latitude": 45.98500719163781, 
                    "longitude": 13.253157613048801
                }, 
                "patient_name": "Mary Johnson"
            }, 
            "act_0_27": {
                "duration": 60, 
                "time_window": {
                    "start": "2014-03-05T13:00:00", 
                    "finish": "2014-03-05T18:00:00"
                }, 
                "required_operators": 1, 
                "location": {
                    "latitude": 45.96986543070235, 
                    "longitude": 12.9626020275699
                }, 
                "patient_name": "Larry Strong"
            }, 
            "act_0_24": {
                "duration": 60, 
                "time_window": {
                    "start": "2014-03-05T11:20:00", 
                    "finish": "2014-03-05T14:40:00"
                }, 
                "required_operators": 1, 
                "location": {
                    "latitude": 46.02745189134394, 
                    "longitude": 13.072712072970393
                }, 
                "patient_name": "Eric Macias"
            }, 
            "act_0_25": {
                "duration": 60, 
                "time_window": {
                    "start": "2014-03-05T13:00:00", 
                    "finish": "2014-03-05T18:00:00"
                }, 
                "required_operators": 1, 
                "location": {
                    "latitude": 46.105707630388835, 
                    "longitude": 13.249503065159507
                }, 
                "patient_name": "Alberto Elder"
            }, 
            "act_0_28": {
                "duration": 30, 
                "time_window": {
                    "start": "2014-03-05T11:20:00", 
                    "finish": "2014-03-05T14:40:00"
                }, 
                "required_operators": 1, 
                "location": {
                    "latitude": 46.209844344489746, 
                    "longitude": 13.051642782346558
                }, 
                "patient_name": "Jeffrey Whitlow"
            }, 
            "act_0_29": {
                "duration": 60, 
                "time_window": {
                    "start": "2014-03-05T13:00:00", 
                    "finish": "2014-03-05T18:00:00"
                }, 
                "required_operators": 1, 
                "location": {
                    "latitude": 46.22959493792519, 
                    "longitude": 13.461278045195765
                }, 
                "patient_name": "Christina Chaney"
            }
        }, 
        {
            "act_1_38": {
                "duration": 60, 
                "time_window": {
                    "start": "2014-03-06T08:00:00", 
                    "finish": "2014-03-06T18:00:00"
                }, 
                "required_operators": 1, 
                "location": {
                    "latitude": 45.964324132556015, 
                    "longitude": 13.452061825833427
                }, 
                "patient_name": "William Chueng"
            }, 
            "act_1_39": {
                "duration": 30, 
                "time_window": {
                    "start": "2014-03-06T08:00:00", 
                    "finish": "2014-03-06T18:00:00"
                }, 
                "required_operators": 1, 
                "location": {
                    "latitude": 46.11131933836875, 
                    "longitude": 13.095950678573274
                }, 
                "patient_name": "Robert Harris"
            }, 
            "act_1_32": {
                "duration": 60, 
                "time_window": {
                    "start": "2014-03-06T08:00:00", 
                    "finish": "2014-03-06T13:00:00"
                }, 
                "required_operators": 1, 
                "location": {
                    "latitude": 46.07629928654809, 
                    "longitude": 12.974372267421012
                }, 
                "patient_name": "David Douglas"
            }, 
            "act_1_33": {
                "duration": 30, 
                "time_window": {
                    "start": "2014-03-06T08:00:00", 
                    "finish": "2014-03-06T18:00:00"
                }, 
                "required_operators": 1, 
                "location": {
                    "latitude": 46.04533278151939, 
                    "longitude": 12.871213367760955
                }, 
                "patient_name": "Lisa Horne"
            }, 
            "act_1_30": {
                "duration": 30, 
                "time_window": {
                    "start": "2014-03-06T08:00:00", 
                    "finish": "2014-03-06T18:00:00"
                }, 
                "required_operators": 1, 
                "location": {
                    "latitude": 45.94690722923136, 
                    "longitude": 13.199213091595528
                }, 
                "patient_name": "Anthony Post"
            }, 
            "act_1_31": {
                "duration": 30, 
                "time_window": {
                    "start": "2014-03-06T14:40:00", 
                    "finish": "2014-03-06T18:00:00"
                }, 
                "required_operators": 1, 
                "location": {
                    "latitude": 46.06845168607518, 
                    "longitude": 13.037458083336453
                }, 
                "patient_name": "Linda Payton"
            }, 
            "act_1_36": {
                "duration": 60, 
                "time_window": {
                    "start": "2014-03-06T08:00:00", 
                    "finish": "2014-03-06T18:00:00"
                }, 
                "required_operators": 1, 
                "location": {
                    "latitude": 46.04040939216964, 
                    "longitude": 13.260451270636871
                }, 
                "patient_name": "Mary Ballew"
            }, 
            "act_1_37": {
                "duration": 60, 
                "time_window": {
                    "start": "2014-03-06T08:00:00", 
                    "finish": "2014-03-06T18:00:00"
                }, 
                "required_operators": 1, 
                "location": {
                    "latitude": 46.25535876892184, 
                    "longitude": 13.042960265327519
                }, 
                "patient_name": "Brittany Williams"
            }, 
            "act_1_34": {
                "duration": 60, 
                "time_window": {
                    "start": "2014-03-06T14:40:00", 
                    "finish": "2014-03-06T18:00:00"
                }, 
                "required_operators": 2, 
                "location": {
                    "latitude": 46.01157269503822, 
                    "longitude": 13.186271676230032
                }, 
                "patient_name": "Rod Tijerina"
            }, 
            "act_1_35": {
                "duration": 60, 
                "time_window": {
                    "start": "2014-03-06T08:00:00", 
                    "finish": "2014-03-06T13:00:00"
                }, 
                "required_operators": 2, 
                "location": {
                    "latitude": 46.18579577182246, 
                    "longitude": 12.932995863489527
                }, 
                "patient_name": "Damian Mills"
            }, 
            "act_1_14": {
                "duration": 30, 
                "time_window": {
                    "start": "2014-03-06T08:00:00", 
                    "finish": "2014-03-06T13:00:00"
                }, 
                "required_operators": 1, 
                "location": {
                    "latitude": 46.209296169791756, 
                    "longitude": 12.91299468271217
                }, 
                "patient_name": "Keith Cobb"
            }, 
            "act_1_15": {
                "duration": 60, 
                "time_window": {
                    "start": "2014-03-06T08:00:00", 
                    "finish": "2014-03-06T18:00:00"
                }, 
                "required_operators": 1, 
                "location": {
                    "latitude": 45.96145488574569, 
                    "longitude": 13.377476024454532
                }, 
                "patient_name": "Chris Cummings"
            }, 
            "act_1_16": {
                "duration": 60, 
                "time_window": {
                    "start": "2014-03-06T11:20:00", 
                    "finish": "2014-03-06T14:40:00"
                }, 
                "required_operators": 1, 
                "location": {
                    "latitude": 46.17032775392097, 
                    "longitude": 12.987330928499974
                }, 
                "patient_name": "Omar Mixon"
            }, 
            "act_1_17": {
                "duration": 60, 
                "time_window": {
                    "start": "2014-03-06T08:00:00", 
                    "finish": "2014-03-06T13:00:00"
                }, 
                "required_operators": 1, 
                "location": {
                    "latitude": 46.00901682542555, 
                    "longitude": 13.269106484720135
                }, 
                "patient_name": "Clara Mendoza"
            }, 
            "act_1_10": {
                "duration": 60, 
                "time_window": {
                    "start": "2014-03-06T08:00:00", 
                    "finish": "2014-03-06T18:00:00"
                }, 
                "required_operators": 1, 
                "location": {
                    "latitude": 46.10312461992479, 
                    "longitude": 12.998688836743577
                }, 
                "patient_name": "Celeste Sandmann"
            }, 
            "act_1_11": {
                "duration": 30, 
                "time_window": {
                    "start": "2014-03-06T08:00:00", 
                    "finish": "2014-03-06T11:20:00"
                }, 
                "required_operators": 1, 
                "location": {
                    "latitude": 46.042762986353715, 
                    "longitude": 13.329349999817607
                }, 
                "patient_name": "Mary Mills"
            }, 
            "act_1_12": {
                "duration": 30, 
                "time_window": {
                    "start": "2014-03-06T08:00:00", 
                    "finish": "2014-03-06T18:00:00"
                }, 
                "required_operators": 1, 
                "location": {
                    "latitude": 46.120795557437674, 
                    "longitude": 13.256929452178563
                }, 
                "patient_name": "Ann Fyffe"
            }, 
            "act_1_13": {
                "duration": 30, 
                "time_window": {
                    "start": "2014-03-06T14:40:00", 
                    "finish": "2014-03-06T18:00:00"
                }, 
                "required_operators": 1, 
                "location": {
                    "latitude": 46.17404677720638, 
                    "longitude": 13.348400033596587
                }, 
                "patient_name": "Amber Bernier"
            }, 
            "act_1_18": {
                "duration": 60, 
                "time_window": {
                    "start": "2014-03-06T13:00:00", 
                    "finish": "2014-03-06T18:00:00"
                }, 
                "required_operators": 1, 
                "location": {
                    "latitude": 46.000251844631926, 
                    "longitude": 13.211110328214064
                }, 
                "patient_name": "Shawn Luechtefeld"
            }, 
            "act_1_19": {
                "duration": 30, 
                "time_window": {
                    "start": "2014-03-06T14:40:00", 
                    "finish": "2014-03-06T18:00:00"
                }, 
                "required_operators": 1, 
                "location": {
                    "latitude": 46.05488145993287, 
                    "longitude": 13.416899165900329
                }, 
                "patient_name": "Ronald Traughber"
            }, 
            "act_1_2": {
                "duration": 30, 
                "time_window": {
                    "start": "2014-03-06T13:00:00", 
                    "finish": "2014-03-06T18:00:00"
                }, 
                "required_operators": 1, 
                "location": {
                    "latitude": 46.01671112777297, 
                    "longitude": 13.111905946800352
                }, 
                "patient_name": "Dawn Negbenebor"
            }, 
            "act_1_3": {
                "duration": 60, 
                "time_window": {
                    "start": "2014-03-06T11:20:00", 
                    "finish": "2014-03-06T14:40:00"
                }, 
                "required_operators": 2, 
                "location": {
                    "latitude": 46.17166456712385, 
                    "longitude": 13.175495862216312
                }, 
                "patient_name": "Edmundo Sibbett"
            }, 
            "act_1_0": {
                "duration": 30, 
                "time_window": {
                    "start": "2014-03-06T08:00:00", 
                    "finish": "2014-03-06T18:00:00"
                }, 
                "required_operators": 2, 
                "location": {
                    "latitude": 46.09620017634268, 
                    "longitude": 13.445511140254496
                }, 
                "patient_name": "Mary Hoffarth"
            }, 
            "act_1_1": {
                "duration": 30, 
                "time_window": {
                    "start": "2014-03-06T08:00:00", 
                    "finish": "2014-03-06T18:00:00"
                }, 
                "required_operators": 2, 
                "location": {
                    "latitude": 46.236163530569854, 
                    "longitude": 13.17135071217266
                }, 
                "patient_name": "Christopher Walker"
            }, 
            "act_1_6": {
                "duration": 60, 
                "time_window": {
                    "start": "2014-03-06T14:40:00", 
                    "finish": "2014-03-06T18:00:00"
                }, 
                "required_operators": 1, 
                "location": {
                    "latitude": 45.978035378051686, 
                    "longitude": 13.001157781039936
                }, 
                "patient_name": "William Bryant"
            }, 
            "act_1_7": {
                "duration": 60, 
                "time_window": {
                    "start": "2014-03-06T11:20:00", 
                    "finish": "2014-03-06T14:40:00"
                }, 
                "required_operators": 1, 
                "location": {
                    "latitude": 46.0412007586959, 
                    "longitude": 12.952908845698184
                }, 
                "patient_name": "Kathryn Booker"
            }, 
            "act_1_4": {
                "duration": 30, 
                "time_window": {
                    "start": "2014-03-06T08:00:00", 
                    "finish": "2014-03-06T18:00:00"
                }, 
                "required_operators": 1, 
                "location": {
                    "latitude": 46.09679892283613, 
                    "longitude": 13.152787710388266
                }, 
                "patient_name": "Ada Richardson"
            }, 
            "act_1_5": {
                "duration": 60, 
                "time_window": {
                    "start": "2014-03-06T08:00:00", 
                    "finish": "2014-03-06T13:00:00"
                }, 
                "required_operators": 3, 
                "location": {
                    "latitude": 46.212943946701245, 
                    "longitude": 13.229137018808421
                }, 
                "patient_name": "Scott Howard"
            }, 
            "act_1_8": {
                "duration": 60, 
                "time_window": {
                    "start": "2014-03-06T11:20:00", 
                    "finish": "2014-03-06T14:40:00"
                }, 
                "required_operators": 1, 
                "location": {
                    "latitude": 45.96974303293897, 
                    "longitude": 13.179578049742995
                }, 
                "patient_name": "Michael Saucier"
            }, 
            "act_1_9": {
                "duration": 30, 
                "time_window": {
                    "start": "2014-03-06T08:00:00", 
                    "finish": "2014-03-06T13:00:00"
                }, 
                "required_operators": 2, 
                "location": {
                    "latitude": 46.16111696999504, 
                    "longitude": 13.078598010608362
                }, 
                "patient_name": "Chelsea Esparza"
            }, 
            "act_1_29": {
                "duration": 60, 
                "time_window": {
                    "start": "2014-03-06T08:00:00", 
                    "finish": "2014-03-06T11:20:00"
                }, 
                "required_operators": 1, 
                "location": {
                    "latitude": 46.00942256985682, 
                    "longitude": 13.394794800247583
                }, 
                "patient_name": "Jane Earley"
            }, 
            "act_1_28": {
                "duration": 60, 
                "time_window": {
                    "start": "2014-03-06T13:00:00", 
                    "finish": "2014-03-06T18:00:00"
                }, 
                "required_operators": 1, 
                "location": {
                    "latitude": 45.94815598986795, 
                    "longitude": 13.120237494501675
                }, 
                "patient_name": "Esther Longtin"
            }, 
            "act_1_25": {
                "duration": 30, 
                "time_window": {
                    "start": "2014-03-06T13:00:00", 
                    "finish": "2014-03-06T18:00:00"
                }, 
                "required_operators": 1, 
                "location": {
                    "latitude": 45.94465063081001, 
                    "longitude": 13.18707430413466
                }, 
                "patient_name": "Enrique Cruz"
            }, 
            "act_1_24": {
                "duration": 30, 
                "time_window": {
                    "start": "2014-03-06T08:00:00", 
                    "finish": "2014-03-06T18:00:00"
                }, 
                "required_operators": 1, 
                "location": {
                    "latitude": 46.01120698864268, 
                    "longitude": 13.127227515308888
                }, 
                "patient_name": "Dominick Tobias"
            }, 
            "act_1_27": {
                "duration": 60, 
                "time_window": {
                    "start": "2014-03-06T13:00:00", 
                    "finish": "2014-03-06T18:00:00"
                }, 
                "required_operators": 1, 
                "location": {
                    "latitude": 46.09437383281686, 
                    "longitude": 12.951422696525148
                }, 
                "patient_name": "Luther Courtney"
            }, 
            "act_1_26": {
                "duration": 30, 
                "time_window": {
                    "start": "2014-03-06T13:00:00", 
                    "finish": "2014-03-06T18:00:00"
                }, 
                "required_operators": 1, 
                "location": {
                    "latitude": 46.154588669226555, 
                    "longitude": 12.86752351401777
                }, 
                "patient_name": "Novella Stowe"
            }, 
            "act_1_21": {
                "duration": 30, 
                "time_window": {
                    "start": "2014-03-06T13:00:00", 
                    "finish": "2014-03-06T18:00:00"
                }, 
                "required_operators": 1, 
                "location": {
                    "latitude": 45.97195807134598, 
                    "longitude": 13.406135078356563
                }, 
                "patient_name": "Ronnie Harris"
            }, 
            "act_1_20": {
                "duration": 30, 
                "time_window": {
                    "start": "2014-03-06T08:00:00", 
                    "finish": "2014-03-06T13:00:00"
                }, 
                "required_operators": 1, 
                "location": {
                    "latitude": 46.013284381740455, 
                    "longitude": 12.964513582426443
                }, 
                "patient_name": "Sherry Wilson"
            }, 
            "act_1_23": {
                "duration": 30, 
                "time_window": {
                    "start": "2014-03-06T11:20:00", 
                    "finish": "2014-03-06T14:40:00"
                }, 
                "required_operators": 2, 
                "location": {
                    "latitude": 46.067092275155595, 
                    "longitude": 13.065573394021074
                }, 
                "patient_name": "James Thornton"
            }, 
            "act_1_22": {
                "duration": 30, 
                "time_window": {
                    "start": "2014-03-06T13:00:00", 
                    "finish": "2014-03-06T18:00:00"
                }, 
                "required_operators": 1, 
                "location": {
                    "latitude": 46.15882599438056, 
                    "longitude": 13.09698782087993
                }, 
                "patient_name": "John Mackay"
            }
        }, 
        {
            "act_2_19": {
                "duration": 60, 
                "time_window": {
                    "start": "2014-03-07T08:00:00", 
                    "finish": "2014-03-07T18:00:00"
                }, 
                "required_operators": 1, 
                "location": {
                    "latitude": 46.257183810206115, 
                    "longitude": 12.89975715876978
                }, 
                "patient_name": "Ola Suttles"
            }, 
            "act_2_18": {
                "duration": 30, 
                "time_window": {
                    "start": "2014-03-07T14:40:00", 
                    "finish": "2014-03-07T18:00:00"
                }, 
                "required_operators": 1, 
                "location": {
                    "latitude": 45.98845492007717, 
                    "longitude": 13.352967780542825
                }, 
                "patient_name": "Charles Griffith"
            }, 
            "act_2_11": {
                "duration": 30, 
                "time_window": {
                    "start": "2014-03-07T08:00:00", 
                    "finish": "2014-03-07T18:00:00"
                }, 
                "required_operators": 1, 
                "location": {
                    "latitude": 46.24112270324549, 
                    "longitude": 13.293417826173007
                }, 
                "patient_name": "Martin Silva"
            }, 
            "act_2_10": {
                "duration": 30, 
                "time_window": {
                    "start": "2014-03-07T08:00:00", 
                    "finish": "2014-03-07T13:00:00"
                }, 
                "required_operators": 1, 
                "location": {
                    "latitude": 46.21788235116789, 
                    "longitude": 12.919526390186585
                }, 
                "patient_name": "Shirley Dalton"
            }, 
            "act_2_13": {
                "duration": 60, 
                "time_window": {
                    "start": "2014-03-07T08:00:00", 
                    "finish": "2014-03-07T18:00:00"
                }, 
                "required_operators": 2, 
                "location": {
                    "latitude": 45.982187872739196, 
                    "longitude": 13.053419969382665
                }, 
                "patient_name": "David Branstetter"
            }, 
            "act_2_12": {
                "duration": 60, 
                "time_window": {
                    "start": "2014-03-07T08:00:00", 
                    "finish": "2014-03-07T13:00:00"
                }, 
                "required_operators": 1, 
                "location": {
                    "latitude": 45.977736820461516, 
                    "longitude": 12.863661096255628
                }, 
                "patient_name": "Vera Meyers"
            }, 
            "act_2_15": {
                "duration": 30, 
                "time_window": {
                    "start": "2014-03-07T13:00:00", 
                    "finish": "2014-03-07T18:00:00"
                }, 
                "required_operators": 1, 
                "location": {
                    "latitude": 46.18169399319246, 
                    "longitude": 13.17773597968167
                }, 
                "patient_name": "Jeffery Carpenter"
            }, 
            "act_2_14": {
                "duration": 30, 
                "time_window": {
                    "start": "2014-03-07T08:00:00", 
                    "finish": "2014-03-07T13:00:00"
                }, 
                "required_operators": 1, 
                "location": {
                    "latitude": 46.23899136778735, 
                    "longitude": 13.315305798166222
                }, 
                "patient_name": "Elizabeth Davis"
            }, 
            "act_2_17": {
                "duration": 60, 
                "time_window": {
                    "start": "2014-03-07T11:20:00", 
                    "finish": "2014-03-07T14:40:00"
                }, 
                "required_operators": 2, 
                "location": {
                    "latitude": 46.03650396542129, 
                    "longitude": 13.357870908364022
                }, 
                "patient_name": "Sheena Kalina"
            }, 
            "act_2_16": {
                "duration": 30, 
                "time_window": {
                    "start": "2014-03-07T08:00:00", 
                    "finish": "2014-03-07T13:00:00"
                }, 
                "required_operators": 1, 
                "location": {
                    "latitude": 46.1672643091018, 
                    "longitude": 13.478916335104755
                }, 
                "patient_name": "Harold Cardenas"
            }, 
            "act_2_33": {
                "duration": 30, 
                "time_window": {
                    "start": "2014-03-07T13:00:00", 
                    "finish": "2014-03-07T18:00:00"
                }, 
                "required_operators": 1, 
                "location": {
                    "latitude": 46.098793510490964, 
                    "longitude": 12.971435117691353
                }, 
                "patient_name": "Michael Lamarche"
            }, 
            "act_2_32": {
                "duration": 60, 
                "time_window": {
                    "start": "2014-03-07T08:00:00", 
                    "finish": "2014-03-07T13:00:00"
                }, 
                "required_operators": 1, 
                "location": {
                    "latitude": 46.10832331438773, 
                    "longitude": 13.193583513558456
                }, 
                "patient_name": "Luis Navarrette"
            }, 
            "act_2_31": {
                "duration": 30, 
                "time_window": {
                    "start": "2014-03-07T08:00:00", 
                    "finish": "2014-03-07T18:00:00"
                }, 
                "required_operators": 1, 
                "location": {
                    "latitude": 45.94227562442354, 
                    "longitude": 13.216546337183592
                }, 
                "patient_name": "Alan Tenda"
            }, 
            "act_2_30": {
                "duration": 60, 
                "time_window": {
                    "start": "2014-03-07T08:00:00", 
                    "finish": "2014-03-07T11:20:00"
                }, 
                "required_operators": 1, 
                "location": {
                    "latitude": 46.13679616486826, 
                    "longitude": 13.178213068478989
                }, 
                "patient_name": "Joshua Locke"
            }, 
            "act_2_37": {
                "duration": 30, 
                "time_window": {
                    "start": "2014-03-07T08:00:00", 
                    "finish": "2014-03-07T13:00:00"
                }, 
                "required_operators": 1, 
                "location": {
                    "latitude": 46.13120098944906, 
                    "longitude": 12.941138552447194
                }, 
                "patient_name": "Gabriel Graham"
            }, 
            "act_2_36": {
                "duration": 30, 
                "time_window": {
                    "start": "2014-03-07T08:00:00", 
                    "finish": "2014-03-07T18:00:00"
                }, 
                "required_operators": 1, 
                "location": {
                    "latitude": 46.07591009449069, 
                    "longitude": 13.357445432878233
                }, 
                "patient_name": "Michelle Coonrod"
            }, 
            "act_2_35": {
                "duration": 30, 
                "time_window": {
                    "start": "2014-03-07T11:20:00", 
                    "finish": "2014-03-07T14:40:00"
                }, 
                "required_operators": 1, 
                "location": {
                    "latitude": 46.00950048090229, 
                    "longitude": 12.916556219189067
                }, 
                "patient_name": "Jung Slone"
            }, 
            "act_2_34": {
                "duration": 60, 
                "time_window": {
                    "start": "2014-03-07T11:20:00", 
                    "finish": "2014-03-07T14:40:00"
                }, 
                "required_operators": 1, 
                "location": {
                    "latitude": 46.13432890444487, 
                    "longitude": 13.415029802429668
                }, 
                "patient_name": "Steve Harvey"
            }, 
            "act_2_39": {
                "duration": 30, 
                "time_window": {
                    "start": "2014-03-07T13:00:00", 
                    "finish": "2014-03-07T18:00:00"
                }, 
                "required_operators": 1, 
                "location": {
                    "latitude": 46.222910056386674, 
                    "longitude": 13.423867278843055
                }, 
                "patient_name": "Bryce Groover"
            }, 
            "act_2_38": {
                "duration": 30, 
                "time_window": {
                    "start": "2014-03-07T11:20:00", 
                    "finish": "2014-03-07T14:40:00"
                }, 
                "required_operators": 1, 
                "location": {
                    "latitude": 46.17025414331045, 
                    "longitude": 13.25797425099871
                }, 
                "patient_name": "Elizabeth Perez"
            }, 
            "act_2_20": {
                "duration": 30, 
                "time_window": {
                    "start": "2014-03-07T08:00:00", 
                    "finish": "2014-03-07T13:00:00"
                }, 
                "required_operators": 1, 
                "location": {
                    "latitude": 45.979373038531314, 
                    "longitude": 13.247993756617332
                }, 
                "patient_name": "James Huitink"
            }, 
            "act_2_21": {
                "duration": 60, 
                "time_window": {
                    "start": "2014-03-07T13:00:00", 
                    "finish": "2014-03-07T18:00:00"
                }, 
                "required_operators": 1, 
                "location": {
                    "latitude": 46.08288589774804, 
                    "longitude": 13.346631128505535
                }, 
                "patient_name": "Margie Boyd"
            }, 
            "act_2_22": {
                "duration": 60, 
                "time_window": {
                    "start": "2014-03-07T08:00:00", 
                    "finish": "2014-03-07T18:00:00"
                }, 
                "required_operators": 4, 
                "location": {
                    "latitude": 45.95945343533226, 
                    "longitude": 13.176136607361196
                }, 
                "patient_name": "Ken Bloomer"
            }, 
            "act_2_23": {
                "duration": 30, 
                "time_window": {
                    "start": "2014-03-07T08:00:00", 
                    "finish": "2014-03-07T13:00:00"
                }, 
                "required_operators": 1, 
                "location": {
                    "latitude": 45.987461309792266, 
                    "longitude": 13.31846625066558
                }, 
                "patient_name": "Maxine Piatt"
            }, 
            "act_2_24": {
                "duration": 30, 
                "time_window": {
                    "start": "2014-03-07T13:00:00", 
                    "finish": "2014-03-07T18:00:00"
                }, 
                "required_operators": 1, 
                "location": {
                    "latitude": 45.945100625167804, 
                    "longitude": 13.348795724400162
                }, 
                "patient_name": "Theresa Norton"
            }, 
            "act_2_25": {
                "duration": 30, 
                "time_window": {
                    "start": "2014-03-07T08:00:00", 
                    "finish": "2014-03-07T18:00:00"
                }, 
                "required_operators": 1, 
                "location": {
                    "latitude": 46.00690879225165, 
                    "longitude": 13.45186333338539
                }, 
                "patient_name": "Nancy Tucker"
            }, 
            "act_2_26": {
                "duration": 30, 
                "time_window": {
                    "start": "2014-03-07T13:00:00", 
                    "finish": "2014-03-07T18:00:00"
                }, 
                "required_operators": 2, 
                "location": {
                    "latitude": 46.10513652042387, 
                    "longitude": 12.978562204874676
                }, 
                "patient_name": "David Gilbert"
            }, 
            "act_2_27": {
                "duration": 60, 
                "time_window": {
                    "start": "2014-03-07T14:40:00", 
                    "finish": "2014-03-07T18:00:00"
                }, 
                "required_operators": 1, 
                "location": {
                    "latitude": 45.96669068514524, 
                    "longitude": 13.144300695358554
                }, 
                "patient_name": "Myrtle Brown"
            }, 
            "act_2_28": {
                "duration": 60, 
                "time_window": {
                    "start": "2014-03-07T08:00:00", 
                    "finish": "2014-03-07T18:00:00"
                }, 
                "required_operators": 1, 
                "location": {
                    "latitude": 46.06683870658788, 
                    "longitude": 13.254502092401442
                }, 
                "patient_name": "Ramona Summa"
            }, 
            "act_2_29": {
                "duration": 60, 
                "time_window": {
                    "start": "2014-03-07T13:00:00", 
                    "finish": "2014-03-07T18:00:00"
                }, 
                "required_operators": 2, 
                "location": {
                    "latitude": 46.167647836423505, 
                    "longitude": 13.251972169394893
                }, 
                "patient_name": "Heather Townsend"
            }, 
            "act_2_9": {
                "duration": 60, 
                "time_window": {
                    "start": "2014-03-07T08:00:00", 
                    "finish": "2014-03-07T13:00:00"
                }, 
                "required_operators": 1, 
                "location": {
                    "latitude": 46.021399780620165, 
                    "longitude": 13.288313180266902
                }, 
                "patient_name": "Doris Wilkinson"
            }, 
            "act_2_8": {
                "duration": 30, 
                "time_window": {
                    "start": "2014-03-07T08:00:00", 
                    "finish": "2014-03-07T13:00:00"
                }, 
                "required_operators": 1, 
                "location": {
                    "latitude": 46.06790386611207, 
                    "longitude": 13.428059061522923
                }, 
                "patient_name": "Molly Faught"
            }, 
            "act_2_5": {
                "duration": 60, 
                "time_window": {
                    "start": "2014-03-07T08:00:00", 
                    "finish": "2014-03-07T18:00:00"
                }, 
                "required_operators": 1, 
                "location": {
                    "latitude": 46.18690982071566, 
                    "longitude": 13.392933813464758
                }, 
                "patient_name": "Maureen Root"
            }, 
            "act_2_4": {
                "duration": 30, 
                "time_window": {
                    "start": "2014-03-07T14:40:00", 
                    "finish": "2014-03-07T18:00:00"
                }, 
                "required_operators": 1, 
                "location": {
                    "latitude": 46.104401481223405, 
                    "longitude": 13.044405920469705
                }, 
                "patient_name": "Tanya Rasmusson"
            }, 
            "act_2_7": {
                "duration": 60, 
                "time_window": {
                    "start": "2014-03-07T13:00:00", 
                    "finish": "2014-03-07T18:00:00"
                }, 
                "required_operators": 1, 
                "location": {
                    "latitude": 46.21124971206397, 
                    "longitude": 12.96412308955371
                }, 
                "patient_name": "Kenneth Luhman"
            }, 
            "act_2_6": {
                "duration": 30, 
                "time_window": {
                    "start": "2014-03-07T08:00:00", 
                    "finish": "2014-03-07T13:00:00"
                }, 
                "required_operators": 1, 
                "location": {
                    "latitude": 46.07696114692492, 
                    "longitude": 12.870557168283389
                }, 
                "patient_name": "Julie Giroux"
            }, 
            "act_2_1": {
                "duration": 60, 
                "time_window": {
                    "start": "2014-03-07T13:00:00", 
                    "finish": "2014-03-07T18:00:00"
                }, 
                "required_operators": 1, 
                "location": {
                    "latitude": 46.24698490115668, 
                    "longitude": 12.972352322129654
                }, 
                "patient_name": "Sheryl Starrett"
            }, 
            "act_2_0": {
                "duration": 60, 
                "time_window": {
                    "start": "2014-03-07T08:00:00", 
                    "finish": "2014-03-07T18:00:00"
                }, 
                "required_operators": 1, 
                "location": {
                    "latitude": 45.96153863943764, 
                    "longitude": 13.427944509975019
                }, 
                "patient_name": "Anette Sauceda"
            }, 
            "act_2_3": {
                "duration": 30, 
                "time_window": {
                    "start": "2014-03-07T08:00:00", 
                    "finish": "2014-03-07T11:20:00"
                }, 
                "required_operators": 2, 
                "location": {
                    "latitude": 46.08069578212807, 
                    "longitude": 13.17574999576889
                }, 
                "patient_name": "Teresa Paradise"
            }, 
            "act_2_2": {
                "duration": 30, 
                "time_window": {
                    "start": "2014-03-07T08:00:00", 
                    "finish": "2014-03-07T13:00:00"
                }, 
                "required_operators": 1, 
                "location": {
                    "latitude": 46.16286170686796, 
                    "longitude": 13.294782510798456
                }, 
                "patient_name": "James Hansen"
            }
        }
    ], 
    "operators": {
        "op_12": {
            "time_windows": [
                {
                    "start": "2014-03-05T08:00:00", 
                    "finish": "2014-03-05T18:00:00", 
                    "regular_worktime": "8:00:00"
                }, 
                {
                    "start": "2014-03-06T08:00:00", 
                    "finish": "2014-03-06T18:00:00", 
                    "regular_worktime": "8:00:00"
                }, 
                {
                    "start": "2014-03-07T08:00:00", 
                    "finish": "2014-03-07T13:00:00", 
                    "regular_worktime": "4:00:00"
                }
            ], 
            "incompatible_activities": [
                "act_1_25", 
                "act_1_37", 
                "act_1_6", 
                "act_0_33", 
                "act_2_18", 
                "act_0_19", 
                "act_1_19", 
                "act_2_37"
            ], 
            "maximum_working_hours": "16:00:00", 
            "name": "Nicholas Baker", 
            "minimum_working_hours": "12:00:00"
        }, 
        "op_15": {
            "time_windows": [
                {
                    "start": "2014-03-05T08:00:00", 
                    "finish": "2014-03-05T18:00:00", 
                    "regular_worktime": "8:00:00"
                }, 
                {
                    "start": "2014-03-06T08:00:00", 
                    "finish": "2014-03-06T18:00:00", 
                    "regular_worktime": "8:00:00"
                }, 
                {
                    "start": "2014-03-07T13:00:00", 
                    "finish": "2014-03-07T18:00:00", 
                    "regular_worktime": "4:00:00"
                }
            ], 
            "incompatible_activities": [
                "act_0_12", 
                "act_0_25", 
                "act_2_10", 
                "act_2_0", 
                "act_0_24", 
                "act_2_3", 
                "act_2_26", 
                "act_1_2"
            ], 
            "maximum_working_hours": "16:00:00", 
            "name": "Christine Alford", 
            "minimum_working_hours": "12:00:00"
        }, 
        "op_8": {
            "time_windows": [
                {
                    "start": "2014-03-05T08:00:00", 
                    "finish": "2014-03-05T18:00:00", 
                    "regular_worktime": "8:00:00"
                }, 
                {
                    "start": "2014-03-06T08:00:00", 
                    "finish": "2014-03-06T18:00:00", 
                    "regular_worktime": "8:00:00"
                }, 
                {
                    "start": "2014-03-07T08:00:00", 
                    "finish": "2014-03-07T18:00:00", 
                    "regular_worktime": "8:00:00"
                }
            ], 
            "incompatible_activities": [
                "act_0_20", 
                "act_0_22", 
                "act_1_10", 
                "act_1_9", 
                "act_1_12", 
                "act_1_24", 
                "act_2_38", 
                "act_1_37"
            ], 
            "maximum_working_hours": "16:00:00", 
            "name": "Ruth Barnes", 
            "minimum_working_hours": "16:00:00"
        }, 
        "op_9": {
            "time_windows": [
                {
                    "start": "2014-03-05T08:00:00", 
                    "finish": "2014-03-05T13:00:00", 
                    "regular_worktime": "4:00:00"
                }, 
                {
                    "start": "2014-03-06T08:00:00", 
                    "finish": "2014-03-06T18:00:00", 
                    "regular_worktime": "8:00:00"
                }, 
                {
                    "start": "2014-03-07T08:00:00", 
                    "finish": "2014-03-07T18:00:00", 
                    "regular_worktime": "8:00:00"
                }
            ], 
            "incompatible_activities": [
                "act_1_16", 
                "act_1_3", 
                "act_2_17", 
                "act_1_22", 
                "act_1_9", 
                "act_2_12", 
                "act_2_33", 
                "act_1_31"
            ], 
            "maximum_working_hours": "16:00:00", 
            "name": "Elnora Schmidt", 
            "minimum_working_hours": "12:00:00"
        }, 
        "op_18": {
            "time_windows": [
                {
                    "start": "2014-03-05T08:00:00", 
                    "finish": "2014-03-05T18:00:00", 
                    "regular_worktime": "8:00:00"
                }, 
                {
                    "start": "2014-03-06T08:00:00", 
                    "finish": "2014-03-06T18:00:00", 
                    "regular_worktime": "8:00:00"
                }, 
                {
                    "start": "2014-03-07T08:00:00", 
                    "finish": "2014-03-07T18:00:00", 
                    "regular_worktime": "8:00:00"
                }
            ], 
            "incompatible_activities": [
                "act_0_5", 
                "act_1_4", 
                "act_0_12", 
                "act_2_35", 
                "act_1_36", 
                "act_1_37", 
                "act_0_22", 
                "act_0_7"
            ], 
            "maximum_working_hours": "16:00:00", 
            "name": "Tyler Ellingham", 
            "minimum_working_hours": "16:00:00"
        }, 
        "op_13": {
            "time_windows": [
                {
                    "start": "2014-03-05T08:00:00", 
                    "finish": "2014-03-05T18:00:00", 
                    "regular_worktime": "8:00:00"
                }, 
                {
                    "start": "2014-03-06T08:00:00", 
                    "finish": "2014-03-06T13:00:00", 
                    "regular_worktime": "4:00:00"
                }, 
                {
                    "start": "2014-03-07T08:00:00", 
                    "finish": "2014-03-07T18:00:00", 
                    "regular_worktime": "8:00:00"
                }
            ], 
            "incompatible_activities": [
                "act_1_11", 
                "act_1_2", 
                "act_2_34", 
                "act_2_4", 
                "act_0_17", 
                "act_0_19", 
                "act_1_32", 
                "act_1_25"
            ], 
            "maximum_working_hours": "16:00:00", 
            "name": "Margaret Cohen", 
            "minimum_working_hours": "12:00:00"
        }, 
        "op_4": {
            "time_windows": [
                {
                    "start": "2014-03-05T08:00:00", 
                    "finish": "2014-03-05T18:00:00", 
                    "regular_worktime": "8:00:00"
                }, 
                {
                    "start": "2014-03-06T08:00:00", 
                    "finish": "2014-03-06T18:00:00", 
                    "regular_worktime": "8:00:00"
                }, 
                {
                    "start": "2014-03-07T08:00:00", 
                    "finish": "2014-03-07T18:00:00", 
                    "regular_worktime": "8:00:00"
                }
            ], 
            "incompatible_activities": [
                "act_1_10", 
                "act_0_28", 
                "act_0_25", 
                "act_1_18", 
                "act_2_6", 
                "act_2_36", 
                "act_2_5", 
                "act_0_14"
            ], 
            "maximum_working_hours": "16:00:00", 
            "name": "Gerald Yamasaki", 
            "minimum_working_hours": "16:00:00"
        }, 
        "op_5": {
            "time_windows": [
                {
                    "start": "2014-03-05T08:00:00", 
                    "finish": "2014-03-05T18:00:00", 
                    "regular_worktime": "8:00:00"
                }, 
                {
                    "start": "2014-03-06T13:00:00", 
                    "finish": "2014-03-06T18:00:00", 
                    "regular_worktime": "4:00:00"
                }, 
                {
                    "start": "2014-03-07T08:00:00", 
                    "finish": "2014-03-07T18:00:00", 
                    "regular_worktime": "8:00:00"
                }
            ], 
            "incompatible_activities": [
                "act_2_36", 
                "act_0_14", 
                "act_1_6", 
                "act_2_24", 
                "act_2_22", 
                "act_1_23", 
                "act_0_13", 
                "act_2_20"
            ], 
            "maximum_working_hours": "16:00:00", 
            "name": "Ivy Aguiar", 
            "minimum_working_hours": "12:00:00"
        }, 
        "op_6": {
            "time_windows": [
                {
                    "start": "2014-03-05T08:00:00", 
                    "finish": "2014-03-05T18:00:00", 
                    "regular_worktime": "8:00:00"
                }, 
                {
                    "start": "2014-03-06T08:00:00", 
                    "finish": "2014-03-06T18:00:00", 
                    "regular_worktime": "8:00:00"
                }, 
                {
                    "start": "2014-03-07T08:00:00", 
                    "finish": "2014-03-07T18:00:00", 
                    "regular_worktime": "8:00:00"
                }
            ], 
            "incompatible_activities": [
                "act_1_11", 
                "act_0_37", 
                "act_0_28", 
                "act_1_17", 
                "act_0_11", 
                "act_0_29", 
                "act_0_19", 
                "act_1_22"
            ], 
            "maximum_working_hours": "16:00:00", 
            "name": "Donna Goldman", 
            "minimum_working_hours": "16:00:00"
        }, 
        "op_7": {
            "time_windows": [
                {
                    "start": "2014-03-05T08:00:00", 
                    "finish": "2014-03-05T18:00:00", 
                    "regular_worktime": "8:00:00"
                }, 
                {
                    "start": "2014-03-06T08:00:00", 
                    "finish": "2014-03-06T18:00:00", 
                    "regular_worktime": "8:00:00"
                }, 
                {
                    "start": "2014-03-07T08:00:00", 
                    "finish": "2014-03-07T18:00:00", 
                    "regular_worktime": "8:00:00"
                }
            ], 
            "incompatible_activities": [
                "act_0_35", 
                "act_1_0", 
                "act_1_30", 
                "act_1_29", 
                "act_2_4", 
                "act_1_15", 
                "act_0_26", 
                "act_1_2"
            ], 
            "maximum_working_hours": "16:00:00", 
            "name": "Amy Flores", 
            "minimum_working_hours": "16:00:00"
        }, 
        "op_0": {
            "time_windows": [
                {
                    "start": "2014-03-05T08:00:00", 
                    "finish": "2014-03-05T18:00:00", 
                    "regular_worktime": "8:00:00"
                }, 
                {
                    "start": "2014-03-06T13:00:00", 
                    "finish": "2014-03-06T18:00:00", 
                    "regular_worktime": "4:00:00"
                }, 
                {
                    "start": "2014-03-07T08:00:00", 
                    "finish": "2014-03-07T13:00:00", 
                    "regular_worktime": "4:00:00"
                }
            ], 
            "incompatible_activities": [
                "act_2_18", 
                "act_0_7", 
                "act_0_8", 
                "act_1_32", 
                "act_0_32", 
                "act_2_35", 
                "act_1_37", 
                "act_0_25"
            ], 
            "maximum_working_hours": "12:00:00", 
            "name": "Stephanie Hooker", 
            "minimum_working_hours": "08:00:00"
        }, 
        "op_1": {
            "time_windows": [
                {}, 
                {
                    "start": "2014-03-06T08:00:00", 
                    "finish": "2014-03-06T18:00:00", 
                    "regular_worktime": "8:00:00"
                }, 
                {
                    "start": "2014-03-07T08:00:00", 
                    "finish": "2014-03-07T18:00:00", 
                    "regular_worktime": "8:00:00"
                }
            ], 
            "incompatible_activities": [
                "act_2_20", 
                "act_1_26", 
                "act_2_23", 
                "act_2_36", 
                "act_1_5", 
                "act_1_36", 
                "act_1_35", 
                "act_0_2"
            ], 
            "maximum_working_hours": "16:00:00", 
            "name": "Ginger Gwynn", 
            "minimum_working_hours": "16:00:00"
        }, 
        "op_2": {
            "time_windows": [
                {
                    "start": "2014-03-05T08:00:00", 
                    "finish": "2014-03-05T18:00:00", 
                    "regular_worktime": "8:00:00"
                }, 
                {
                    "start": "2014-03-06T13:00:00", 
                    "finish": "2014-03-06T18:00:00", 
                    "regular_worktime": "4:00:00"
                }, 
                {
                    "start": "2014-03-07T08:00:00", 
                    "finish": "2014-03-07T13:00:00", 
                    "regular_worktime": "4:00:00"
                }
            ], 
            "incompatible_activities": [
                "act_0_13", 
                "act_0_35", 
                "act_1_6", 
                "act_1_1", 
                "act_0_2", 
                "act_0_19", 
                "act_0_18", 
                "act_1_4"
            ], 
            "maximum_working_hours": "12:00:00", 
            "name": "David Sanchez", 
            "minimum_working_hours": "08:00:00"
        }, 
        "op_3": {
            "time_windows": [
                {
                    "start": "2014-03-05T08:00:00", 
                    "finish": "2014-03-05T18:00:00", 
                    "regular_worktime": "8:00:00"
                }, 
                {
                    "start": "2014-03-06T08:00:00", 
                    "finish": "2014-03-06T18:00:00", 
                    "regular_worktime": "8:00:00"
                }, 
                {
                    "start": "2014-03-07T08:00:00", 
                    "finish": "2014-03-07T18:00:00", 
                    "regular_worktime": "8:00:00"
                }
            ], 
            "incompatible_activities": [
                "act_1_1", 
                "act_0_33", 
                "act_2_33", 
                "act_1_22", 
                "act_1_25", 
                "act_2_29", 
                "act_0_18", 
                "act_0_24"
            ], 
            "maximum_working_hours": "16:00:00", 
            "name": "Josephine Youngblood", 
            "minimum_working_hours": "16:00:00"
        }, 
        "op_16": {
            "time_windows": [
                {
                    "start": "2014-03-05T13:00:00", 
                    "finish": "2014-03-05T18:00:00", 
                    "regular_worktime": "4:00:00"
                }, 
                {
                    "start": "2014-03-06T08:00:00", 
                    "finish": "2014-03-06T18:00:00", 
                    "regular_worktime": "8:00:00"
                }, 
                {
                    "start": "2014-03-07T08:00:00", 
                    "finish": "2014-03-07T18:00:00", 
                    "regular_worktime": "8:00:00"
                }
            ], 
            "incompatible_activities": [
                "act_0_29", 
                "act_1_24", 
                "act_1_1", 
                "act_0_9", 
                "act_0_4", 
                "act_2_2", 
                "act_1_23", 
                "act_2_18"
            ], 
            "maximum_working_hours": "16:00:00", 
            "name": "Heather Pham", 
            "minimum_working_hours": "12:00:00"
        }, 
        "op_19": {
            "time_windows": [
                {
                    "start": "2014-03-05T08:00:00", 
                    "finish": "2014-03-05T18:00:00", 
                    "regular_worktime": "8:00:00"
                }, 
                {
                    "start": "2014-03-06T13:00:00", 
                    "finish": "2014-03-06T18:00:00", 
                    "regular_worktime": "4:00:00"
                }, 
                {
                    "start": "2014-03-07T08:00:00", 
                    "finish": "2014-03-07T13:00:00", 
                    "regular_worktime": "4:00:00"
                }
            ], 
            "incompatible_activities": [
                "act_2_2", 
                "act_0_20", 
                "act_2_15", 
                "act_0_27", 
                "act_1_3", 
                "act_1_0", 
                "act_0_8", 
                "act_2_16"
            ], 
            "maximum_working_hours": "12:00:00", 
            "name": "Louise Smith", 
            "minimum_working_hours": "08:00:00"
        }, 
        "op_10": {
            "time_windows": [
                {
                    "start": "2014-03-05T08:00:00", 
                    "finish": "2014-03-05T18:00:00", 
                    "regular_worktime": "8:00:00"
                }, 
                {
                    "start": "2014-03-06T08:00:00", 
                    "finish": "2014-03-06T18:00:00", 
                    "regular_worktime": "8:00:00"
                }, 
                {
                    "start": "2014-03-07T08:00:00", 
                    "finish": "2014-03-07T18:00:00", 
                    "regular_worktime": "8:00:00"
                }
            ], 
            "incompatible_activities": [
                "act_0_36", 
                "act_0_27", 
                "act_2_39", 
                "act_0_5", 
                "act_2_35", 
                "act_2_36", 
                "act_2_28", 
                "act_2_9"
            ], 
            "maximum_working_hours": "16:00:00", 
            "name": "Reynaldo Respress", 
            "minimum_working_hours": "16:00:00"
        }, 
        "op_17": {
            "time_windows": [
                {
                    "start": "2014-03-05T13:00:00", 
                    "finish": "2014-03-05T18:00:00", 
                    "regular_worktime": "4:00:00"
                }, 
                {
                    "start": "2014-03-06T08:00:00", 
                    "finish": "2014-03-06T18:00:00", 
                    "regular_worktime": "8:00:00"
                }, 
                {
                    "start": "2014-03-07T08:00:00", 
                    "finish": "2014-03-07T18:00:00", 
                    "regular_worktime": "8:00:00"
                }
            ], 
            "incompatible_activities": [
                "act_0_8", 
                "act_2_26", 
                "act_0_5", 
                "act_0_0", 
                "act_2_33", 
                "act_0_4", 
                "act_2_22", 
                "act_2_27"
            ], 
            "maximum_working_hours": "16:00:00", 
            "name": "Elizabeth Smith", 
            "minimum_working_hours": "12:00:00"
        }, 
        "op_11": {
            "time_windows": [
                {
                    "start": "2014-03-05T08:00:00", 
                    "finish": "2014-03-05T18:00:00", 
                    "regular_worktime": "8:00:00"
                }, 
                {
                    "start": "2014-03-06T08:00:00", 
                    "finish": "2014-03-06T18:00:00", 
                    "regular_worktime": "8:00:00"
                }, 
                {
                    "start": "2014-03-07T08:00:00", 
                    "finish": "2014-03-07T13:00:00", 
                    "regular_worktime": "4:00:00"
                }
            ], 
            "incompatible_activities": [
                "act_2_9", 
                "act_1_21", 
                "act_1_25", 
                "act_2_35", 
                "act_1_6", 
                "act_2_19", 
                "act_1_38", 
                "act_1_31"
            ], 
            "maximum_working_hours": "16:00:00", 
            "name": "Roy Konty", 
            "minimum_working_hours": "12:00:00"
        }, 
        "op_14": {
            "time_windows": [
                {
                    "start": "2014-03-05T08:00:00", 
                    "finish": "2014-03-05T18:00:00", 
                    "regular_worktime": "8:00:00"
                }, 
                {
                    "start": "2014-03-06T08:00:00", 
                    "finish": "2014-03-06T18:00:00", 
                    "regular_worktime": "8:00:00"
                }, 
                {
                    "start": "2014-03-07T08:00:00", 
                    "finish": "2014-03-07T13:00:00", 
                    "regular_worktime": "4:00:00"
                }
            ], 
            "incompatible_activities": [
                "act_1_25", 
                "act_0_38", 
                "act_0_33", 
                "act_0_24", 
                "act_2_35", 
                "act_0_3", 
                "act_2_0", 
                "act_0_39"
            ], 
            "maximum_working_hours": "16:00:00", 
            "name": "Margaret Menchaca", 
            "minimum_working_hours": "12:00:00"
        }
    }, 
    "meta": {
        "time_window": {
            "start": "08:00:00", 
            "finish": "18:00:00"
        }, 
        "horizon": 3, 
        "granularity": 10, 
        "geographic_area": {
            "upper_left": [
                46.259645, 
                12.860656
            ], 
            "lower_right": [
                45.936826, 
                13.485503
            ]
        }, 
        "max_consecutive_days": 2, 
        "finish_date": "2014-03-08T00:00:00", 
        "max_overtime_rate": 1.1, 
        "start_date": "2014-03-05T00:00:00"
    }
}