{
    "activities": [
        {
            "act_0_19": {
                "duration": 30, 
                "time_window": {
                    "start": "2014-03-04T08:00:00", 
                    "finish": "2014-03-04T18:00:00"
                }, 
                "required_operators": 1, 
                "location": {
                    "latitude": 46.068782351347544, 
                    "longitude": 13.250663034621974
                }, 
                "patient_name": "Gabriella Schlindwein"
            }, 
            "act_0_18": {
                "duration": 30, 
                "time_window": {
                    "start": "2014-03-04T08:00:00", 
                    "finish": "2014-03-04T18:00:00"
                }, 
                "required_operators": 3, 
                "location": {
                    "latitude": 46.054630498396264, 
                    "longitude": 13.17824022636712
                }, 
                "patient_name": "Samuel Roberts"
            }, 
            "act_0_17": {
                "duration": 60, 
                "time_window": {
                    "start": "2014-03-04T08:00:00", 
                    "finish": "2014-03-04T18:00:00"
                }, 
                "required_operators": 1, 
                "location": {
                    "latitude": 46.06399152579269, 
                    "longitude": 13.122938993436357
                }, 
                "patient_name": "Nicole Gunn"
            }, 
            "act_0_16": {
                "duration": 30, 
                "time_window": {
                    "start": "2014-03-04T14:40:00", 
                    "finish": "2014-03-04T18:00:00"
                }, 
                "required_operators": 2, 
                "location": {
                    "latitude": 45.97725486975509, 
                    "longitude": 12.940346777307656
                }, 
                "patient_name": "Lillian Marshall"
            }, 
            "act_0_15": {
                "duration": 60, 
                "time_window": {
                    "start": "2014-03-04T13:00:00", 
                    "finish": "2014-03-04T18:00:00"
                }, 
                "required_operators": 1, 
                "location": {
                    "latitude": 46.01570289921277, 
                    "longitude": 13.399552655999614
                }, 
                "patient_name": "James Hebert"
            }, 
            "act_0_14": {
                "duration": 30, 
                "time_window": {
                    "start": "2014-03-04T08:00:00", 
                    "finish": "2014-03-04T18:00:00"
                }, 
                "required_operators": 1, 
                "location": {
                    "latitude": 46.019964926922164, 
                    "longitude": 12.931335507806137
                }, 
                "patient_name": "Kip Collins"
            }, 
            "act_0_13": {
                "duration": 60, 
                "time_window": {
                    "start": "2014-03-04T08:00:00", 
                    "finish": "2014-03-04T18:00:00"
                }, 
                "required_operators": 2, 
                "location": {
                    "latitude": 46.03641713806972, 
                    "longitude": 13.101575684265503
                }, 
                "patient_name": "Ricky Williams"
            }, 
            "act_0_12": {
                "duration": 30, 
                "time_window": {
                    "start": "2014-03-04T08:00:00", 
                    "finish": "2014-03-04T18:00:00"
                }, 
                "required_operators": 2, 
                "location": {
                    "latitude": 46.23288227917343, 
                    "longitude": 13.457111305329795
                }, 
                "patient_name": "Lori Langham"
            }, 
            "act_0_11": {
                "duration": 30, 
                "time_window": {
                    "start": "2014-03-04T08:00:00", 
                    "finish": "2014-03-04T18:00:00"
                }, 
                "required_operators": 1, 
                "location": {
                    "latitude": 46.18060858570402, 
                    "longitude": 12.992173133407158
                }, 
                "patient_name": "Charles Buchner"
            }, 
            "act_0_10": {
                "duration": 30, 
                "time_window": {
                    "start": "2014-03-04T11:20:00", 
                    "finish": "2014-03-04T14:40:00"
                }, 
                "required_operators": 1, 
                "location": {
                    "latitude": 46.24067651182348, 
                    "longitude": 13.268624809427696
                }, 
                "patient_name": "Andre Sylvia"
            }, 
            "act_0_9": {
                "duration": 30, 
                "time_window": {
                    "start": "2014-03-04T08:00:00", 
                    "finish": "2014-03-04T11:20:00"
                }, 
                "required_operators": 1, 
                "location": {
                    "latitude": 45.958082223938796, 
                    "longitude": 13.2501013196454
                }, 
                "patient_name": "Eileen Rooney"
            }, 
            "act_0_8": {
                "duration": 30, 
                "time_window": {
                    "start": "2014-03-04T11:20:00", 
                    "finish": "2014-03-04T14:40:00"
                }, 
                "required_operators": 1, 
                "location": {
                    "latitude": 46.031668347794216, 
                    "longitude": 13.175734360545576
                }, 
                "patient_name": "Benny Cunningham"
            }, 
            "act_0_3": {
                "duration": 30, 
                "time_window": {
                    "start": "2014-03-04T08:00:00", 
                    "finish": "2014-03-04T18:00:00"
                }, 
                "required_operators": 1, 
                "location": {
                    "latitude": 46.2155164842935, 
                    "longitude": 13.179467839399837
                }, 
                "patient_name": "Shannon Abel"
            }, 
            "act_0_2": {
                "duration": 30, 
                "time_window": {
                    "start": "2014-03-04T08:00:00", 
                    "finish": "2014-03-04T18:00:00"
                }, 
                "required_operators": 2, 
                "location": {
                    "latitude": 46.156838405891406, 
                    "longitude": 13.098107183904894
                }, 
                "patient_name": "Esther Mcmillan"
            }, 
            "act_0_1": {
                "duration": 30, 
                "time_window": {
                    "start": "2014-03-04T08:00:00", 
                    "finish": "2014-03-04T18:00:00"
                }, 
                "required_operators": 1, 
                "location": {
                    "latitude": 46.026242962947, 
                    "longitude": 13.482266019450458
                }, 
                "patient_name": "Beatrice Avalos"
            }, 
            "act_0_0": {
                "duration": 60, 
                "time_window": {
                    "start": "2014-03-04T08:00:00", 
                    "finish": "2014-03-04T18:00:00"
                }, 
                "required_operators": 1, 
                "location": {
                    "latitude": 46.04344330153747, 
                    "longitude": 13.053194141115204
                }, 
                "patient_name": "Felisha Moore"
            }, 
            "act_0_7": {
                "duration": 30, 
                "time_window": {
                    "start": "2014-03-04T13:00:00", 
                    "finish": "2014-03-04T18:00:00"
                }, 
                "required_operators": 1, 
                "location": {
                    "latitude": 46.15483624503377, 
                    "longitude": 13.297781239333277
                }, 
                "patient_name": "Lawrence Abild"
            }, 
            "act_0_6": {
                "duration": 60, 
                "time_window": {
                    "start": "2014-03-04T08:00:00", 
                    "finish": "2014-03-04T13:00:00"
                }, 
                "required_operators": 1, 
                "location": {
                    "latitude": 45.97464394931452, 
                    "longitude": 13.42283121378281
                }, 
                "patient_name": "Dawn Corporan"
            }, 
            "act_0_5": {
                "duration": 30, 
                "time_window": {
                    "start": "2014-03-04T11:20:00", 
                    "finish": "2014-03-04T14:40:00"
                }, 
                "required_operators": 1, 
                "location": {
                    "latitude": 46.028780702181884, 
                    "longitude": 13.148964590863981
                }, 
                "patient_name": "Gloria Teyler"
            }, 
            "act_0_4": {
                "duration": 60, 
                "time_window": {
                    "start": "2014-03-04T13:00:00", 
                    "finish": "2014-03-04T18:00:00"
                }, 
                "required_operators": 1, 
                "location": {
                    "latitude": 45.96697934453372, 
                    "longitude": 13.337342705916642
                }, 
                "patient_name": "Maureen Kelly"
            }, 
            "act_0_22": {
                "duration": 60, 
                "time_window": {
                    "start": "2014-03-04T11:20:00", 
                    "finish": "2014-03-04T14:40:00"
                }, 
                "required_operators": 1, 
                "location": {
                    "latitude": 46.11962746621119, 
                    "longitude": 13.180266079180296
                }, 
                "patient_name": "Alan Graham"
            }, 
            "act_0_23": {
                "duration": 30, 
                "time_window": {
                    "start": "2014-03-04T08:00:00", 
                    "finish": "2014-03-04T13:00:00"
                }, 
                "required_operators": 2, 
                "location": {
                    "latitude": 46.14143385810443, 
                    "longitude": 13.18508261722928
                }, 
                "patient_name": "Linda Salinas"
            }, 
            "act_0_20": {
                "duration": 30, 
                "time_window": {
                    "start": "2014-03-04T08:00:00", 
                    "finish": "2014-03-04T13:00:00"
                }, 
                "required_operators": 3, 
                "location": {
                    "latitude": 46.127700346557376, 
                    "longitude": 12.930123344748749
                }, 
                "patient_name": "Hilda Hudson"
            }, 
            "act_0_21": {
                "duration": 30, 
                "time_window": {
                    "start": "2014-03-04T08:00:00", 
                    "finish": "2014-03-04T18:00:00"
                }, 
                "required_operators": 1, 
                "location": {
                    "latitude": 46.09154140769442, 
                    "longitude": 13.150836890788895
                }, 
                "patient_name": "Melissa Lewis"
            }, 
            "act_0_26": {
                "duration": 30, 
                "time_window": {
                    "start": "2014-03-04T11:20:00", 
                    "finish": "2014-03-04T14:40:00"
                }, 
                "required_operators": 1, 
                "location": {
                    "latitude": 46.19754781866888, 
                    "longitude": 13.217789015761408
                }, 
                "patient_name": "Paul Houston"
            }, 
            "act_0_27": {
                "duration": 30, 
                "time_window": {
                    "start": "2014-03-04T08:00:00", 
                    "finish": "2014-03-04T11:20:00"
                }, 
                "required_operators": 3, 
                "location": {
                    "latitude": 45.98522597055691, 
                    "longitude": 13.26117767443056
                }, 
                "patient_name": "Raymond Dameron"
            }, 
            "act_0_24": {
                "duration": 30, 
                "time_window": {
                    "start": "2014-03-04T11:20:00", 
                    "finish": "2014-03-04T14:40:00"
                }, 
                "required_operators": 2, 
                "location": {
                    "latitude": 46.226988024476434, 
                    "longitude": 13.051810669320227
                }, 
                "patient_name": "Audrey Mccoy"
            }, 
            "act_0_25": {
                "duration": 30, 
                "time_window": {
                    "start": "2014-03-04T08:00:00", 
                    "finish": "2014-03-04T13:00:00"
                }, 
                "required_operators": 1, 
                "location": {
                    "latitude": 46.19241894613313, 
                    "longitude": 13.22853158585187
                }, 
                "patient_name": "Pearl Johnson"
            }, 
            "act_0_28": {
                "duration": 60, 
                "time_window": {
                    "start": "2014-03-04T14:40:00", 
                    "finish": "2014-03-04T18:00:00"
                }, 
                "required_operators": 1, 
                "location": {
                    "latitude": 46.098897433764435, 
                    "longitude": 13.084091675635344
                }, 
                "patient_name": "Viola Williams"
            }, 
            "act_0_29": {
                "duration": 30, 
                "time_window": {
                    "start": "2014-03-04T08:00:00", 
                    "finish": "2014-03-04T13:00:00"
                }, 
                "required_operators": 1, 
                "location": {
                    "latitude": 45.99998554480088, 
                    "longitude": 13.443047058395786
                }, 
                "patient_name": "Rick Lane"
            }
        }, 
        {
            "act_1_14": {
                "duration": 30, 
                "time_window": {
                    "start": "2014-03-05T08:00:00", 
                    "finish": "2014-03-05T18:00:00"
                }, 
                "required_operators": 1, 
                "location": {
                    "latitude": 46.109644990923286, 
                    "longitude": 13.044872687640355
                }, 
                "patient_name": "Johnnie Spatz"
            }, 
            "act_1_15": {
                "duration": 30, 
                "time_window": {
                    "start": "2014-03-05T08:00:00", 
                    "finish": "2014-03-05T11:20:00"
                }, 
                "required_operators": 1, 
                "location": {
                    "latitude": 46.116700592276196, 
                    "longitude": 13.404581381731589
                }, 
                "patient_name": "Samuel Fernberg"
            }, 
            "act_1_16": {
                "duration": 60, 
                "time_window": {
                    "start": "2014-03-05T08:00:00", 
                    "finish": "2014-03-05T13:00:00"
                }, 
                "required_operators": 2, 
                "location": {
                    "latitude": 46.16145336843346, 
                    "longitude": 13.264499785267137
                }, 
                "patient_name": "Philip Oconnell"
            }, 
            "act_1_17": {
                "duration": 30, 
                "time_window": {
                    "start": "2014-03-05T13:00:00", 
                    "finish": "2014-03-05T18:00:00"
                }, 
                "required_operators": 1, 
                "location": {
                    "latitude": 46.13338215710353, 
                    "longitude": 13.19211608193716
                }, 
                "patient_name": "Gertrude Davenport"
            }, 
            "act_1_10": {
                "duration": 30, 
                "time_window": {
                    "start": "2014-03-05T08:00:00", 
                    "finish": "2014-03-05T13:00:00"
                }, 
                "required_operators": 1, 
                "location": {
                    "latitude": 46.215136934653515, 
                    "longitude": 13.24326463099689
                }, 
                "patient_name": "Laura Shoffner"
            }, 
            "act_1_11": {
                "duration": 30, 
                "time_window": {
                    "start": "2014-03-05T08:00:00", 
                    "finish": "2014-03-05T13:00:00"
                }, 
                "required_operators": 1, 
                "location": {
                    "latitude": 46.236135587728405, 
                    "longitude": 12.862553840346312
                }, 
                "patient_name": "Thomas Matos"
            }, 
            "act_1_12": {
                "duration": 30, 
                "time_window": {
                    "start": "2014-03-05T13:00:00", 
                    "finish": "2014-03-05T18:00:00"
                }, 
                "required_operators": 1, 
                "location": {
                    "latitude": 46.15153593937566, 
                    "longitude": 13.027455947575174
                }, 
                "patient_name": "Fernando Tam"
            }, 
            "act_1_13": {
                "duration": 30, 
                "time_window": {
                    "start": "2014-03-05T13:00:00", 
                    "finish": "2014-03-05T18:00:00"
                }, 
                "required_operators": 1, 
                "location": {
                    "latitude": 46.0064335303576, 
                    "longitude": 13.113400956400625
                }, 
                "patient_name": "Mary Martin"
            }, 
            "act_1_18": {
                "duration": 30, 
                "time_window": {
                    "start": "2014-03-05T08:00:00", 
                    "finish": "2014-03-05T11:20:00"
                }, 
                "required_operators": 1, 
                "location": {
                    "latitude": 46.184715619783724, 
                    "longitude": 13.034042627924801
                }, 
                "patient_name": "Nadine Dockery"
            }, 
            "act_1_19": {
                "duration": 30, 
                "time_window": {
                    "start": "2014-03-05T08:00:00", 
                    "finish": "2014-03-05T11:20:00"
                }, 
                "required_operators": 1, 
                "location": {
                    "latitude": 46.234663470205234, 
                    "longitude": 13.146448646232168
                }, 
                "patient_name": "Dorothy Malpass"
            }, 
            "act_1_2": {
                "duration": 30, 
                "time_window": {
                    "start": "2014-03-05T08:00:00", 
                    "finish": "2014-03-05T18:00:00"
                }, 
                "required_operators": 1, 
                "location": {
                    "latitude": 46.04311986126917, 
                    "longitude": 13.286238671538001
                }, 
                "patient_name": "Genny Poore"
            }, 
            "act_1_3": {
                "duration": 60, 
                "time_window": {
                    "start": "2014-03-05T08:00:00", 
                    "finish": "2014-03-05T13:00:00"
                }, 
                "required_operators": 1, 
                "location": {
                    "latitude": 46.22860451296699, 
                    "longitude": 13.1833903262253
                }, 
                "patient_name": "Joe Young"
            }, 
            "act_1_0": {
                "duration": 30, 
                "time_window": {
                    "start": "2014-03-05T08:00:00", 
                    "finish": "2014-03-05T13:00:00"
                }, 
                "required_operators": 1, 
                "location": {
                    "latitude": 46.04040563481733, 
                    "longitude": 13.434628099242943
                }, 
                "patient_name": "Carolyn Stevens"
            }, 
            "act_1_1": {
                "duration": 60, 
                "time_window": {
                    "start": "2014-03-05T08:00:00", 
                    "finish": "2014-03-05T11:20:00"
                }, 
                "required_operators": 2, 
                "location": {
                    "latitude": 46.238067973199314, 
                    "longitude": 12.914486167022753
                }, 
                "patient_name": "May Rodriguez"
            }, 
            "act_1_6": {
                "duration": 60, 
                "time_window": {
                    "start": "2014-03-05T11:20:00", 
                    "finish": "2014-03-05T14:40:00"
                }, 
                "required_operators": 1, 
                "location": {
                    "latitude": 45.9491004140241, 
                    "longitude": 13.067310086546966
                }, 
                "patient_name": "Timothy Hammock"
            }, 
            "act_1_7": {
                "duration": 30, 
                "time_window": {
                    "start": "2014-03-05T13:00:00", 
                    "finish": "2014-03-05T18:00:00"
                }, 
                "required_operators": 1, 
                "location": {
                    "latitude": 46.129638078263774, 
                    "longitude": 13.27741137834457
                }, 
                "patient_name": "Stacey Dull"
            }, 
            "act_1_4": {
                "duration": 60, 
                "time_window": {
                    "start": "2014-03-05T08:00:00", 
                    "finish": "2014-03-05T13:00:00"
                }, 
                "required_operators": 1, 
                "location": {
                    "latitude": 45.9383971479491, 
                    "longitude": 13.349796065290013
                }, 
                "patient_name": "Anna Lipkin"
            }, 
            "act_1_5": {
                "duration": 30, 
                "time_window": {
                    "start": "2014-03-05T08:00:00", 
                    "finish": "2014-03-05T18:00:00"
                }, 
                "required_operators": 1, 
                "location": {
                    "latitude": 46.201400545914495, 
                    "longitude": 13.179435133277346
                }, 
                "patient_name": "Betty Koch"
            }, 
            "act_1_8": {
                "duration": 60, 
                "time_window": {
                    "start": "2014-03-05T08:00:00", 
                    "finish": "2014-03-05T13:00:00"
                }, 
                "required_operators": 1, 
                "location": {
                    "latitude": 46.04978519963263, 
                    "longitude": 13.370574829863221
                }, 
                "patient_name": "Jeanette Johnson"
            }, 
            "act_1_9": {
                "duration": 60, 
                "time_window": {
                    "start": "2014-03-05T14:40:00", 
                    "finish": "2014-03-05T18:00:00"
                }, 
                "required_operators": 1, 
                "location": {
                    "latitude": 46.22721544884001, 
                    "longitude": 13.370294470129025
                }, 
                "patient_name": "Rodger Wellington"
            }, 
            "act_1_29": {
                "duration": 30, 
                "time_window": {
                    "start": "2014-03-05T13:00:00", 
                    "finish": "2014-03-05T18:00:00"
                }, 
                "required_operators": 1, 
                "location": {
                    "latitude": 46.21677675326389, 
                    "longitude": 13.187444788442562
                }, 
                "patient_name": "Barbara Phillips"
            }, 
            "act_1_28": {
                "duration": 30, 
                "time_window": {
                    "start": "2014-03-05T08:00:00", 
                    "finish": "2014-03-05T18:00:00"
                }, 
                "required_operators": 1, 
                "location": {
                    "latitude": 46.151029936967326, 
                    "longitude": 13.093592107112444
                }, 
                "patient_name": "Thomas Valdez"
            }, 
            "act_1_25": {
                "duration": 60, 
                "time_window": {
                    "start": "2014-03-05T08:00:00", 
                    "finish": "2014-03-05T18:00:00"
                }, 
                "required_operators": 3, 
                "location": {
                    "latitude": 46.14640654988301, 
                    "longitude": 13.085085293770428
                }, 
                "patient_name": "Jerry Swainston"
            }, 
            "act_1_24": {
                "duration": 30, 
                "time_window": {
                    "start": "2014-03-05T14:40:00", 
                    "finish": "2014-03-05T18:00:00"
                }, 
                "required_operators": 1, 
                "location": {
                    "latitude": 46.203224559783315, 
                    "longitude": 13.45907965713486
                }, 
                "patient_name": "Stephanie Slone"
            }, 
            "act_1_27": {
                "duration": 60, 
                "time_window": {
                    "start": "2014-03-05T08:00:00", 
                    "finish": "2014-03-05T11:20:00"
                }, 
                "required_operators": 2, 
                "location": {
                    "latitude": 46.193678352528245, 
                    "longitude": 13.017480117601485
                }, 
                "patient_name": "Craig Edwards"
            }, 
            "act_1_26": {
                "duration": 30, 
                "time_window": {
                    "start": "2014-03-05T08:00:00", 
                    "finish": "2014-03-05T13:00:00"
                }, 
                "required_operators": 1, 
                "location": {
                    "latitude": 45.99056577808439, 
                    "longitude": 13.104290788444159
                }, 
                "patient_name": "Loraine Embree"
            }, 
            "act_1_21": {
                "duration": 60, 
                "time_window": {
                    "start": "2014-03-05T08:00:00", 
                    "finish": "2014-03-05T18:00:00"
                }, 
                "required_operators": 1, 
                "location": {
                    "latitude": 46.144689827073215, 
                    "longitude": 13.357470372064906
                }, 
                "patient_name": "Robert Mason"
            }, 
            "act_1_20": {
                "duration": 60, 
                "time_window": {
                    "start": "2014-03-05T13:00:00", 
                    "finish": "2014-03-05T18:00:00"
                }, 
                "required_operators": 1, 
                "location": {
                    "latitude": 46.05316343898606, 
                    "longitude": 13.441540145963636
                }, 
                "patient_name": "Eric Hansen"
            }, 
            "act_1_23": {
                "duration": 60, 
                "time_window": {
                    "start": "2014-03-05T13:00:00", 
                    "finish": "2014-03-05T18:00:00"
                }, 
                "required_operators": 1, 
                "location": {
                    "latitude": 45.95762493991488, 
                    "longitude": 13.331499657242995
                }, 
                "patient_name": "Heidi Kida"
            }, 
            "act_1_22": {
                "duration": 60, 
                "time_window": {
                    "start": "2014-03-05T08:00:00", 
                    "finish": "2014-03-05T13:00:00"
                }, 
                "required_operators": 1, 
                "location": {
                    "latitude": 45.976022259056236, 
                    "longitude": 13.439218034807174
                }, 
                "patient_name": "Ruben Spruill"
            }
        }, 
        {
            "act_2_19": {
                "duration": 30, 
                "time_window": {
                    "start": "2014-03-06T08:00:00", 
                    "finish": "2014-03-06T18:00:00"
                }, 
                "required_operators": 1, 
                "location": {
                    "latitude": 46.19575701146307, 
                    "longitude": 13.056284964563329
                }, 
                "patient_name": "Richard Roosevelt"
            }, 
            "act_2_18": {
                "duration": 60, 
                "time_window": {
                    "start": "2014-03-06T08:00:00", 
                    "finish": "2014-03-06T18:00:00"
                }, 
                "required_operators": 1, 
                "location": {
                    "latitude": 45.97400044419426, 
                    "longitude": 13.286897000125228
                }, 
                "patient_name": "Jeremy Figueredo"
            }, 
            "act_2_11": {
                "duration": 60, 
                "time_window": {
                    "start": "2014-03-06T13:00:00", 
                    "finish": "2014-03-06T18:00:00"
                }, 
                "required_operators": 1, 
                "location": {
                    "latitude": 46.24421698087625, 
                    "longitude": 13.34317698881086
                }, 
                "patient_name": "Jeanne Whitson"
            }, 
            "act_2_10": {
                "duration": 60, 
                "time_window": {
                    "start": "2014-03-06T14:40:00", 
                    "finish": "2014-03-06T18:00:00"
                }, 
                "required_operators": 2, 
                "location": {
                    "latitude": 46.1944312130423, 
                    "longitude": 12.982091126919082
                }, 
                "patient_name": "Cynthia Solorio"
            }, 
            "act_2_13": {
                "duration": 30, 
                "time_window": {
                    "start": "2014-03-06T08:00:00", 
                    "finish": "2014-03-06T13:00:00"
                }, 
                "required_operators": 1, 
                "location": {
                    "latitude": 45.99360442233334, 
                    "longitude": 13.298633409617535
                }, 
                "patient_name": "Annamae Howry"
            }, 
            "act_2_12": {
                "duration": 30, 
                "time_window": {
                    "start": "2014-03-06T08:00:00", 
                    "finish": "2014-03-06T18:00:00"
                }, 
                "required_operators": 2, 
                "location": {
                    "latitude": 46.08394061066822, 
                    "longitude": 12.977175289079115
                }, 
                "patient_name": "Reba Bowie"
            }, 
            "act_2_15": {
                "duration": 30, 
                "time_window": {
                    "start": "2014-03-06T11:20:00", 
                    "finish": "2014-03-06T14:40:00"
                }, 
                "required_operators": 1, 
                "location": {
                    "latitude": 46.08596454638028, 
                    "longitude": 13.10584739261833
                }, 
                "patient_name": "Chad Riley"
            }, 
            "act_2_14": {
                "duration": 30, 
                "time_window": {
                    "start": "2014-03-06T08:00:00", 
                    "finish": "2014-03-06T13:00:00"
                }, 
                "required_operators": 1, 
                "location": {
                    "latitude": 46.1126462660107, 
                    "longitude": 13.272589497762732
                }, 
                "patient_name": "Randolph Herrington"
            }, 
            "act_2_17": {
                "duration": 30, 
                "time_window": {
                    "start": "2014-03-06T08:00:00", 
                    "finish": "2014-03-06T18:00:00"
                }, 
                "required_operators": 2, 
                "location": {
                    "latitude": 46.07457026759051, 
                    "longitude": 13.054022172000447
                }, 
                "patient_name": "Joshua Hawkins"
            }, 
            "act_2_16": {
                "duration": 60, 
                "time_window": {
                    "start": "2014-03-06T13:00:00", 
                    "finish": "2014-03-06T18:00:00"
                }, 
                "required_operators": 1, 
                "location": {
                    "latitude": 46.1151284990263, 
                    "longitude": 13.144658140204793
                }, 
                "patient_name": "India Simmons"
            }, 
            "act_2_20": {
                "duration": 30, 
                "time_window": {
                    "start": "2014-03-06T08:00:00", 
                    "finish": "2014-03-06T11:20:00"
                }, 
                "required_operators": 1, 
                "location": {
                    "latitude": 45.9905781043964, 
                    "longitude": 12.872063250780867
                }, 
                "patient_name": "Thomas Whitener"
            }, 
            "act_2_21": {
                "duration": 30, 
                "time_window": {
                    "start": "2014-03-06T14:40:00", 
                    "finish": "2014-03-06T18:00:00"
                }, 
                "required_operators": 2, 
                "location": {
                    "latitude": 45.96446879055085, 
                    "longitude": 13.263749975419527
                }, 
                "patient_name": "Nancy Edwards"
            }, 
            "act_2_22": {
                "duration": 30, 
                "time_window": {
                    "start": "2014-03-06T08:00:00", 
                    "finish": "2014-03-06T18:00:00"
                }, 
                "required_operators": 1, 
                "location": {
                    "latitude": 45.96072678323335, 
                    "longitude": 12.98744578311191
                }, 
                "patient_name": "Brent Stallsworth"
            }, 
            "act_2_23": {
                "duration": 30, 
                "time_window": {
                    "start": "2014-03-06T13:00:00", 
                    "finish": "2014-03-06T18:00:00"
                }, 
                "required_operators": 1, 
                "location": {
                    "latitude": 46.19086558207876, 
                    "longitude": 12.899330704818752
                }, 
                "patient_name": "Randi Albrecht"
            }, 
            "act_2_24": {
                "duration": 30, 
                "time_window": {
                    "start": "2014-03-06T08:00:00", 
                    "finish": "2014-03-06T11:20:00"
                }, 
                "required_operators": 1, 
                "location": {
                    "latitude": 46.133161481498696, 
                    "longitude": 13.15731044930748
                }, 
                "patient_name": "Karen Windham"
            }, 
            "act_2_25": {
                "duration": 60, 
                "time_window": {
                    "start": "2014-03-06T08:00:00", 
                    "finish": "2014-03-06T13:00:00"
                }, 
                "required_operators": 2, 
                "location": {
                    "latitude": 46.04189669491414, 
                    "longitude": 12.894287776079581
                }, 
                "patient_name": "Charles Mcdonald"
            }, 
            "act_2_26": {
                "duration": 30, 
                "time_window": {
                    "start": "2014-03-06T08:00:00", 
                    "finish": "2014-03-06T18:00:00"
                }, 
                "required_operators": 1, 
                "location": {
                    "latitude": 46.00705405830244, 
                    "longitude": 13.22361801562446
                }, 
                "patient_name": "Kathy Courtney"
            }, 
            "act_2_27": {
                "duration": 30, 
                "time_window": {
                    "start": "2014-03-06T08:00:00", 
                    "finish": "2014-03-06T18:00:00"
                }, 
                "required_operators": 2, 
                "location": {
                    "latitude": 46.155800789727984, 
                    "longitude": 13.19663257597099
                }, 
                "patient_name": "Ramona Ellis"
            }, 
            "act_2_28": {
                "duration": 30, 
                "time_window": {
                    "start": "2014-03-06T08:00:00", 
                    "finish": "2014-03-06T18:00:00"
                }, 
                "required_operators": 2, 
                "location": {
                    "latitude": 46.1184471911986, 
                    "longitude": 12.948237108010648
                }, 
                "patient_name": "Vicki Fryson"
            }, 
            "act_2_29": {
                "duration": 30, 
                "time_window": {
                    "start": "2014-03-06T11:20:00", 
                    "finish": "2014-03-06T14:40:00"
                }, 
                "required_operators": 1, 
                "location": {
                    "latitude": 45.96181835210604, 
                    "longitude": 13.239296746651933
                }, 
                "patient_name": "Antonio Whitfield"
            }, 
            "act_2_9": {
                "duration": 30, 
                "time_window": {
                    "start": "2014-03-06T13:00:00", 
                    "finish": "2014-03-06T18:00:00"
                }, 
                "required_operators": 1, 
                "location": {
                    "latitude": 46.16781615109685, 
                    "longitude": 13.338885455739861
                }, 
                "patient_name": "Gary Beiler"
            }, 
            "act_2_8": {
                "duration": 30, 
                "time_window": {
                    "start": "2014-03-06T14:40:00", 
                    "finish": "2014-03-06T18:00:00"
                }, 
                "required_operators": 1, 
                "location": {
                    "latitude": 46.163640628031615, 
                    "longitude": 13.12987965409819
                }, 
                "patient_name": "Robert Zanders"
            }, 
            "act_2_5": {
                "duration": 30, 
                "time_window": {
                    "start": "2014-03-06T08:00:00", 
                    "finish": "2014-03-06T18:00:00"
                }, 
                "required_operators": 1, 
                "location": {
                    "latitude": 45.994272096804835, 
                    "longitude": 13.187379066017538
                }, 
                "patient_name": "Karen Hilton"
            }, 
            "act_2_4": {
                "duration": 60, 
                "time_window": {
                    "start": "2014-03-06T11:20:00", 
                    "finish": "2014-03-06T14:40:00"
                }, 
                "required_operators": 2, 
                "location": {
                    "latitude": 46.18167564721704, 
                    "longitude": 13.161497345066179
                }, 
                "patient_name": "Luis Robinson"
            }, 
            "act_2_7": {
                "duration": 60, 
                "time_window": {
                    "start": "2014-03-06T13:00:00", 
                    "finish": "2014-03-06T18:00:00"
                }, 
                "required_operators": 1, 
                "location": {
                    "latitude": 46.0959474586835, 
                    "longitude": 13.433632803780764
                }, 
                "patient_name": "Kevin Mena"
            }, 
            "act_2_6": {
                "duration": 30, 
                "time_window": {
                    "start": "2014-03-06T08:00:00", 
                    "finish": "2014-03-06T13:00:00"
                }, 
                "required_operators": 3, 
                "location": {
                    "latitude": 46.19127649361497, 
                    "longitude": 12.893870725912858
                }, 
                "patient_name": "Bridgette Roberts"
            }, 
            "act_2_1": {
                "duration": 30, 
                "time_window": {
                    "start": "2014-03-06T08:00:00", 
                    "finish": "2014-03-06T13:00:00"
                }, 
                "required_operators": 1, 
                "location": {
                    "latitude": 45.94168971904431, 
                    "longitude": 13.478586007258393
                }, 
                "patient_name": "Frances Karst"
            }, 
            "act_2_0": {
                "duration": 30, 
                "time_window": {
                    "start": "2014-03-06T14:40:00", 
                    "finish": "2014-03-06T18:00:00"
                }, 
                "required_operators": 1, 
                "location": {
                    "latitude": 46.13300220658573, 
                    "longitude": 13.156704369714362
                }, 
                "patient_name": "Julie Smtih"
            }, 
            "act_2_3": {
                "duration": 60, 
                "time_window": {
                    "start": "2014-03-06T08:00:00", 
                    "finish": "2014-03-06T11:20:00"
                }, 
                "required_operators": 3, 
                "location": {
                    "latitude": 46.14645135601979, 
                    "longitude": 12.968840904366164
                }, 
                "patient_name": "Aubrey Harris"
            }, 
            "act_2_2": {
                "duration": 30, 
                "time_window": {
                    "start": "2014-03-06T08:00:00", 
                    "finish": "2014-03-06T13:00:00"
                }, 
                "required_operators": 2, 
                "location": {
                    "latitude": 46.218256209543085, 
                    "longitude": 13.446377846437493
                }, 
                "patient_name": "Ruby Deleon"
            }
        }
    ], 
    "operators": {
        "op_8": {
            "time_windows": [
                {
                    "start": "2014-03-04T08:00:00", 
                    "finish": "2014-03-04T18:00:00", 
                    "regular_worktime": "8:00:00"
                }, 
                {
                    "start": "2014-03-05T08:00:00", 
                    "finish": "2014-03-05T13:00:00", 
                    "regular_worktime": "4:00:00"
                }, 
                {
                    "start": "2014-03-06T13:00:00", 
                    "finish": "2014-03-06T18:00:00", 
                    "regular_worktime": "4:00:00"
                }
            ], 
            "incompatible_activities": [
                "act_1_18", 
                "act_0_26", 
                "act_0_4", 
                "act_2_14", 
                "act_2_6", 
                "act_2_23"
            ], 
            "maximum_working_hours": "12:00:00", 
            "name": "Eric Michael", 
            "minimum_working_hours": "08:00:00"
        }, 
        "op_9": {
            "time_windows": [
                {
                    "start": "2014-03-04T08:00:00", 
                    "finish": "2014-03-04T18:00:00", 
                    "regular_worktime": "8:00:00"
                }, 
                {
                    "start": "2014-03-05T08:00:00", 
                    "finish": "2014-03-05T18:00:00", 
                    "regular_worktime": "8:00:00"
                }, 
                {
                    "start": "2014-03-06T13:00:00", 
                    "finish": "2014-03-06T18:00:00", 
                    "regular_worktime": "4:00:00"
                }
            ], 
            "incompatible_activities": [
                "act_2_25", 
                "act_2_0", 
                "act_1_9", 
                "act_1_28", 
                "act_2_18", 
                "act_0_20"
            ], 
            "maximum_working_hours": "16:00:00", 
            "name": "Mary Burke", 
            "minimum_working_hours": "12:00:00"
        }, 
        "op_4": {
            "time_windows": [
                {
                    "start": "2014-03-04T08:00:00", 
                    "finish": "2014-03-04T18:00:00", 
                    "regular_worktime": "8:00:00"
                }, 
                {
                    "start": "2014-03-05T08:00:00", 
                    "finish": "2014-03-05T18:00:00", 
                    "regular_worktime": "8:00:00"
                }, 
                {
                    "start": "2014-03-06T08:00:00", 
                    "finish": "2014-03-06T13:00:00", 
                    "regular_worktime": "4:00:00"
                }
            ], 
            "incompatible_activities": [
                "act_0_13", 
                "act_0_23", 
                "act_0_6", 
                "act_0_19", 
                "act_1_12", 
                "act_1_7"
            ], 
            "maximum_working_hours": "16:00:00", 
            "name": "Dorothy Hutson", 
            "minimum_working_hours": "12:00:00"
        }, 
        "op_5": {
            "time_windows": [
                {
                    "start": "2014-03-04T08:00:00", 
                    "finish": "2014-03-04T18:00:00", 
                    "regular_worktime": "8:00:00"
                }, 
                {
                    "start": "2014-03-05T08:00:00", 
                    "finish": "2014-03-05T18:00:00", 
                    "regular_worktime": "8:00:00"
                }, 
                {
                    "start": "2014-03-06T08:00:00", 
                    "finish": "2014-03-06T18:00:00", 
                    "regular_worktime": "8:00:00"
                }
            ], 
            "incompatible_activities": [
                "act_1_4", 
                "act_1_5", 
                "act_1_12", 
                "act_2_5", 
                "act_0_8", 
                "act_1_18"
            ], 
            "maximum_working_hours": "16:00:00", 
            "name": "Chris Wilson", 
            "minimum_working_hours": "16:00:00"
        }, 
        "op_6": {
            "time_windows": [
                {
                    "start": "2014-03-04T08:00:00", 
                    "finish": "2014-03-04T13:00:00", 
                    "regular_worktime": "4:00:00"
                }, 
                {
                    "start": "2014-03-05T13:00:00", 
                    "finish": "2014-03-05T18:00:00", 
                    "regular_worktime": "4:00:00"
                }, 
                {
                    "start": "2014-03-06T08:00:00", 
                    "finish": "2014-03-06T18:00:00", 
                    "regular_worktime": "8:00:00"
                }
            ], 
            "incompatible_activities": [
                "act_1_28", 
                "act_1_4", 
                "act_1_19", 
                "act_2_6", 
                "act_2_21", 
                "act_1_23"
            ], 
            "maximum_working_hours": "12:00:00", 
            "name": "Kevin Mehserle", 
            "minimum_working_hours": "08:00:00"
        }, 
        "op_7": {
            "time_windows": [
                {
                    "start": "2014-03-04T08:00:00", 
                    "finish": "2014-03-04T13:00:00", 
                    "regular_worktime": "4:00:00"
                }, 
                {
                    "start": "2014-03-05T08:00:00", 
                    "finish": "2014-03-05T18:00:00", 
                    "regular_worktime": "8:00:00"
                }, 
                {
                    "start": "2014-03-06T08:00:00", 
                    "finish": "2014-03-06T18:00:00", 
                    "regular_worktime": "8:00:00"
                }
            ], 
            "incompatible_activities": [
                "act_1_15", 
                "act_0_17", 
                "act_2_10", 
                "act_2_0", 
                "act_1_20", 
                "act_1_28"
            ], 
            "maximum_working_hours": "16:00:00", 
            "name": "Billy Adams", 
            "minimum_working_hours": "12:00:00"
        }, 
        "op_0": {
            "time_windows": [
                {
                    "start": "2014-03-04T08:00:00", 
                    "finish": "2014-03-04T18:00:00", 
                    "regular_worktime": "8:00:00"
                }, 
                {
                    "start": "2014-03-05T13:00:00", 
                    "finish": "2014-03-05T18:00:00", 
                    "regular_worktime": "4:00:00"
                }, 
                {
                    "start": "2014-03-06T08:00:00", 
                    "finish": "2014-03-06T18:00:00", 
                    "regular_worktime": "8:00:00"
                }
            ], 
            "incompatible_activities": [
                "act_2_6", 
                "act_1_20", 
                "act_2_22", 
                "act_2_9", 
                "act_1_7", 
                "act_2_0"
            ], 
            "maximum_working_hours": "16:00:00", 
            "name": "Dan Blake", 
            "minimum_working_hours": "12:00:00"
        }, 
        "op_1": {
            "time_windows": [
                {
                    "start": "2014-03-04T08:00:00", 
                    "finish": "2014-03-04T18:00:00", 
                    "regular_worktime": "8:00:00"
                }, 
                {
                    "start": "2014-03-05T08:00:00", 
                    "finish": "2014-03-05T18:00:00", 
                    "regular_worktime": "8:00:00"
                }, 
                {
                    "start": "2014-03-06T08:00:00", 
                    "finish": "2014-03-06T18:00:00", 
                    "regular_worktime": "8:00:00"
                }
            ], 
            "incompatible_activities": [
                "act_0_19", 
                "act_2_19", 
                "act_2_2", 
                "act_2_13", 
                "act_2_27", 
                "act_0_13"
            ], 
            "maximum_working_hours": "16:00:00", 
            "name": "Edward Grimmer", 
            "minimum_working_hours": "16:00:00"
        }, 
        "op_2": {
            "time_windows": [
                {
                    "start": "2014-03-04T13:00:00", 
                    "finish": "2014-03-04T18:00:00", 
                    "regular_worktime": "4:00:00"
                }, 
                {
                    "start": "2014-03-05T08:00:00", 
                    "finish": "2014-03-05T18:00:00", 
                    "regular_worktime": "8:00:00"
                }, 
                {
                    "start": "2014-03-06T08:00:00", 
                    "finish": "2014-03-06T18:00:00", 
                    "regular_worktime": "8:00:00"
                }
            ], 
            "incompatible_activities": [
                "act_1_13", 
                "act_2_21", 
                "act_0_1", 
                "act_0_15", 
                "act_1_24", 
                "act_2_1"
            ], 
            "maximum_working_hours": "16:00:00", 
            "name": "Bernice Velez", 
            "minimum_working_hours": "12:00:00"
        }, 
        "op_3": {
            "time_windows": [
                {
                    "start": "2014-03-04T08:00:00", 
                    "finish": "2014-03-04T13:00:00", 
                    "regular_worktime": "4:00:00"
                }, 
                {
                    "start": "2014-03-05T08:00:00", 
                    "finish": "2014-03-05T18:00:00", 
                    "regular_worktime": "8:00:00"
                }, 
                {
                    "start": "2014-03-06T13:00:00", 
                    "finish": "2014-03-06T18:00:00", 
                    "regular_worktime": "4:00:00"
                }
            ], 
            "incompatible_activities": [
                "act_2_8", 
                "act_0_16", 
                "act_0_20", 
                "act_2_20", 
                "act_2_9", 
                "act_1_12"
            ], 
            "maximum_working_hours": "12:00:00", 
            "name": "Arlene Stanley", 
            "minimum_working_hours": "08:00:00"
        }, 
        "op_10": {
            "time_windows": [
                {
                    "start": "2014-03-04T13:00:00", 
                    "finish": "2014-03-04T18:00:00", 
                    "regular_worktime": "4:00:00"
                }, 
                {
                    "start": "2014-03-05T08:00:00", 
                    "finish": "2014-03-05T18:00:00", 
                    "regular_worktime": "8:00:00"
                }, 
                {
                    "start": "2014-03-06T08:00:00", 
                    "finish": "2014-03-06T18:00:00", 
                    "regular_worktime": "8:00:00"
                }
            ], 
            "incompatible_activities": [
                "act_1_3", 
                "act_1_22", 
                "act_1_29", 
                "act_1_8", 
                "act_2_6", 
                "act_2_14"
            ], 
            "maximum_working_hours": "16:00:00", 
            "name": "Cheryl Fleishman", 
            "minimum_working_hours": "12:00:00"
        }
    }, 
    "meta": {
        "time_window": {
            "start": "08:00:00", 
            "finish": "18:00:00"
        }, 
        "horizon": 3, 
        "granularity": 10, 
        "geographic_area": {
            "upper_left": [
                46.259645, 
                12.860656
            ], 
            "lower_right": [
                45.936826, 
                13.485503
            ]
        }, 
        "max_consecutive_days": 2, 
        "finish_date": "2014-03-07T00:00:00", 
        "max_overtime_rate": 1.1, 
        "start_date": "2014-03-04T00:00:00"
    }
}