{
    "activities": [
        {
            "act_0_9": {
                "duration": 30, 
                "time_window": {
                    "start": "2014-03-04T13:00:00", 
                    "finish": "2014-03-04T18:00:00"
                }, 
                "required_operators": 1, 
                "location": {
                    "latitude": 46.177172678449075, 
                    "longitude": 12.97197047415254
                }, 
                "patient_name": "Norman Morguson"
            }, 
            "act_0_8": {
                "duration": 30, 
                "time_window": {
                    "start": "2014-03-04T08:00:00", 
                    "finish": "2014-03-04T18:00:00"
                }, 
                "required_operators": 4, 
                "location": {
                    "latitude": 46.05769555863069, 
                    "longitude": 13.43473647287496
                }, 
                "patient_name": "Lila Murray"
            }, 
            "act_0_3": {
                "duration": 30, 
                "time_window": {
                    "start": "2014-03-04T13:00:00", 
                    "finish": "2014-03-04T18:00:00"
                }, 
                "required_operators": 1, 
                "location": {
                    "latitude": 46.05206516726888, 
                    "longitude": 13.453250612384696
                }, 
                "patient_name": "Donald Gardner"
            }, 
            "act_0_2": {
                "duration": 30, 
                "time_window": {
                    "start": "2014-03-04T14:40:00", 
                    "finish": "2014-03-04T18:00:00"
                }, 
                "required_operators": 1, 
                "location": {
                    "latitude": 46.05731859418732, 
                    "longitude": 13.045751709969059
                }, 
                "patient_name": "Grant Troiano"
            }, 
            "act_0_1": {
                "duration": 60, 
                "time_window": {
                    "start": "2014-03-04T08:00:00", 
                    "finish": "2014-03-04T18:00:00"
                }, 
                "required_operators": 1, 
                "location": {
                    "latitude": 46.00486268887486, 
                    "longitude": 13.458137848914932
                }, 
                "patient_name": "Donald Munoz"
            }, 
            "act_0_0": {
                "duration": 30, 
                "time_window": {
                    "start": "2014-03-04T08:00:00", 
                    "finish": "2014-03-04T13:00:00"
                }, 
                "required_operators": 1, 
                "location": {
                    "latitude": 46.17608156447363, 
                    "longitude": 13.25743129818829
                }, 
                "patient_name": "Dennis Blackwell"
            }, 
            "act_0_7": {
                "duration": 30, 
                "time_window": {
                    "start": "2014-03-04T08:00:00", 
                    "finish": "2014-03-04T13:00:00"
                }, 
                "required_operators": 1, 
                "location": {
                    "latitude": 45.95207402788808, 
                    "longitude": 13.349800501566188
                }, 
                "patient_name": "Jonathan Williford"
            }, 
            "act_0_6": {
                "duration": 30, 
                "time_window": {
                    "start": "2014-03-04T14:40:00", 
                    "finish": "2014-03-04T18:00:00"
                }, 
                "required_operators": 2, 
                "location": {
                    "latitude": 46.18466655297397, 
                    "longitude": 13.114479222784235
                }, 
                "patient_name": "Shane Suarez"
            }, 
            "act_0_5": {
                "duration": 60, 
                "time_window": {
                    "start": "2014-03-04T14:40:00", 
                    "finish": "2014-03-04T18:00:00"
                }, 
                "required_operators": 2, 
                "location": {
                    "latitude": 46.10096915598201, 
                    "longitude": 13.434743805229337
                }, 
                "patient_name": "Raymond Anderson"
            }, 
            "act_0_4": {
                "duration": 60, 
                "time_window": {
                    "start": "2014-03-04T13:00:00", 
                    "finish": "2014-03-04T18:00:00"
                }, 
                "required_operators": 1, 
                "location": {
                    "latitude": 46.183846973837234, 
                    "longitude": 12.95720073825653
                }, 
                "patient_name": "John Mastoris"
            }, 
            "act_0_19": {
                "duration": 60, 
                "time_window": {
                    "start": "2014-03-04T13:00:00", 
                    "finish": "2014-03-04T18:00:00"
                }, 
                "required_operators": 1, 
                "location": {
                    "latitude": 46.05352884128717, 
                    "longitude": 13.324517844363285
                }, 
                "patient_name": "Shirley Worley"
            }, 
            "act_0_18": {
                "duration": 60, 
                "time_window": {
                    "start": "2014-03-04T08:00:00", 
                    "finish": "2014-03-04T18:00:00"
                }, 
                "required_operators": 2, 
                "location": {
                    "latitude": 46.21209146595185, 
                    "longitude": 13.458204896723016
                }, 
                "patient_name": "Gary Vest"
            }, 
            "act_0_17": {
                "duration": 30, 
                "time_window": {
                    "start": "2014-03-04T08:00:00", 
                    "finish": "2014-03-04T11:20:00"
                }, 
                "required_operators": 1, 
                "location": {
                    "latitude": 46.027741580512085, 
                    "longitude": 13.25496312834557
                }, 
                "patient_name": "Kyle Gallagher"
            }, 
            "act_0_16": {
                "duration": 60, 
                "time_window": {
                    "start": "2014-03-04T08:00:00", 
                    "finish": "2014-03-04T13:00:00"
                }, 
                "required_operators": 1, 
                "location": {
                    "latitude": 46.24271010887176, 
                    "longitude": 13.069877225208709
                }, 
                "patient_name": "Leona Wade"
            }, 
            "act_0_15": {
                "duration": 30, 
                "time_window": {
                    "start": "2014-03-04T08:00:00", 
                    "finish": "2014-03-04T13:00:00"
                }, 
                "required_operators": 1, 
                "location": {
                    "latitude": 46.233969824699194, 
                    "longitude": 13.255857910201586
                }, 
                "patient_name": "Jack Delaney"
            }, 
            "act_0_14": {
                "duration": 30, 
                "time_window": {
                    "start": "2014-03-04T08:00:00", 
                    "finish": "2014-03-04T11:20:00"
                }, 
                "required_operators": 3, 
                "location": {
                    "latitude": 45.93900699220547, 
                    "longitude": 13.051214161425877
                }, 
                "patient_name": "Jeffrey Williams"
            }, 
            "act_0_13": {
                "duration": 30, 
                "time_window": {
                    "start": "2014-03-04T08:00:00", 
                    "finish": "2014-03-04T18:00:00"
                }, 
                "required_operators": 1, 
                "location": {
                    "latitude": 45.99309503012615, 
                    "longitude": 13.398343935945496
                }, 
                "patient_name": "Nola Noble"
            }, 
            "act_0_12": {
                "duration": 30, 
                "time_window": {
                    "start": "2014-03-04T08:00:00", 
                    "finish": "2014-03-04T18:00:00"
                }, 
                "required_operators": 1, 
                "location": {
                    "latitude": 45.988308597689674, 
                    "longitude": 13.009081500036348
                }, 
                "patient_name": "Charles Beard"
            }, 
            "act_0_11": {
                "duration": 30, 
                "time_window": {
                    "start": "2014-03-04T08:00:00", 
                    "finish": "2014-03-04T18:00:00"
                }, 
                "required_operators": 1, 
                "location": {
                    "latitude": 45.961058384857736, 
                    "longitude": 13.174856835657256
                }, 
                "patient_name": "Phyllis Brown"
            }, 
            "act_0_10": {
                "duration": 30, 
                "time_window": {
                    "start": "2014-03-04T08:00:00", 
                    "finish": "2014-03-04T18:00:00"
                }, 
                "required_operators": 1, 
                "location": {
                    "latitude": 46.24718921078919, 
                    "longitude": 13.15087050530419
                }, 
                "patient_name": "Joe Ebbs"
            }
        }, 
        {
            "act_1_14": {
                "duration": 30, 
                "time_window": {
                    "start": "2014-03-05T08:00:00", 
                    "finish": "2014-03-05T18:00:00"
                }, 
                "required_operators": 2, 
                "location": {
                    "latitude": 45.95061386945858, 
                    "longitude": 13.467369631357531
                }, 
                "patient_name": "Nickolas Beach"
            }, 
            "act_1_15": {
                "duration": 60, 
                "time_window": {
                    "start": "2014-03-05T13:00:00", 
                    "finish": "2014-03-05T18:00:00"
                }, 
                "required_operators": 1, 
                "location": {
                    "latitude": 45.990782867551296, 
                    "longitude": 13.338341121652595
                }, 
                "patient_name": "Beverly Widmer"
            }, 
            "act_1_16": {
                "duration": 60, 
                "time_window": {
                    "start": "2014-03-05T08:00:00", 
                    "finish": "2014-03-05T18:00:00"
                }, 
                "required_operators": 2, 
                "location": {
                    "latitude": 46.02368538922107, 
                    "longitude": 12.885317239070034
                }, 
                "patient_name": "David Salinas"
            }, 
            "act_1_17": {
                "duration": 60, 
                "time_window": {
                    "start": "2014-03-05T08:00:00", 
                    "finish": "2014-03-05T18:00:00"
                }, 
                "required_operators": 1, 
                "location": {
                    "latitude": 46.22518449589231, 
                    "longitude": 13.171659112851508
                }, 
                "patient_name": "James Johnson"
            }, 
            "act_1_10": {
                "duration": 30, 
                "time_window": {
                    "start": "2014-03-05T08:00:00", 
                    "finish": "2014-03-05T18:00:00"
                }, 
                "required_operators": 1, 
                "location": {
                    "latitude": 46.062740592212464, 
                    "longitude": 13.115913423334304
                }, 
                "patient_name": "Darlene Burke"
            }, 
            "act_1_11": {
                "duration": 30, 
                "time_window": {
                    "start": "2014-03-05T14:40:00", 
                    "finish": "2014-03-05T18:00:00"
                }, 
                "required_operators": 1, 
                "location": {
                    "latitude": 45.95048132164759, 
                    "longitude": 13.138227586419386
                }, 
                "patient_name": "Allen Hargenrader"
            }, 
            "act_1_12": {
                "duration": 30, 
                "time_window": {
                    "start": "2014-03-05T13:00:00", 
                    "finish": "2014-03-05T18:00:00"
                }, 
                "required_operators": 1, 
                "location": {
                    "latitude": 46.04976029194161, 
                    "longitude": 13.456074226560421
                }, 
                "patient_name": "Jennifer Bodden"
            }, 
            "act_1_13": {
                "duration": 30, 
                "time_window": {
                    "start": "2014-03-05T13:00:00", 
                    "finish": "2014-03-05T18:00:00"
                }, 
                "required_operators": 1, 
                "location": {
                    "latitude": 46.114469858665544, 
                    "longitude": 13.382515292473427
                }, 
                "patient_name": "Mary King"
            }, 
            "act_1_18": {
                "duration": 30, 
                "time_window": {
                    "start": "2014-03-05T08:00:00", 
                    "finish": "2014-03-05T18:00:00"
                }, 
                "required_operators": 2, 
                "location": {
                    "latitude": 46.10344782742487, 
                    "longitude": 13.440677295788674
                }, 
                "patient_name": "James Anderson"
            }, 
            "act_1_19": {
                "duration": 30, 
                "time_window": {
                    "start": "2014-03-05T08:00:00", 
                    "finish": "2014-03-05T18:00:00"
                }, 
                "required_operators": 1, 
                "location": {
                    "latitude": 45.9470070565332, 
                    "longitude": 12.953267937732056
                }, 
                "patient_name": "Marie Gibson"
            }, 
            "act_1_2": {
                "duration": 60, 
                "time_window": {
                    "start": "2014-03-05T08:00:00", 
                    "finish": "2014-03-05T18:00:00"
                }, 
                "required_operators": 1, 
                "location": {
                    "latitude": 46.22170140319134, 
                    "longitude": 13.453107639079857
                }, 
                "patient_name": "Leatha Morris"
            }, 
            "act_1_3": {
                "duration": 30, 
                "time_window": {
                    "start": "2014-03-05T08:00:00", 
                    "finish": "2014-03-05T18:00:00"
                }, 
                "required_operators": 3, 
                "location": {
                    "latitude": 46.21103171206124, 
                    "longitude": 13.28515827777917
                }, 
                "patient_name": "Richard Morse"
            }, 
            "act_1_0": {
                "duration": 30, 
                "time_window": {
                    "start": "2014-03-05T13:00:00", 
                    "finish": "2014-03-05T18:00:00"
                }, 
                "required_operators": 1, 
                "location": {
                    "latitude": 46.07223995901631, 
                    "longitude": 13.078934715981168
                }, 
                "patient_name": "Edith Lance"
            }, 
            "act_1_1": {
                "duration": 30, 
                "time_window": {
                    "start": "2014-03-05T08:00:00", 
                    "finish": "2014-03-05T18:00:00"
                }, 
                "required_operators": 1, 
                "location": {
                    "latitude": 46.02384736724227, 
                    "longitude": 13.483897912361197
                }, 
                "patient_name": "Molly Schlitz"
            }, 
            "act_1_6": {
                "duration": 30, 
                "time_window": {
                    "start": "2014-03-05T13:00:00", 
                    "finish": "2014-03-05T18:00:00"
                }, 
                "required_operators": 2, 
                "location": {
                    "latitude": 46.147027466604676, 
                    "longitude": 13.267882345748475
                }, 
                "patient_name": "Lauren Patel"
            }, 
            "act_1_7": {
                "duration": 30, 
                "time_window": {
                    "start": "2014-03-05T08:00:00", 
                    "finish": "2014-03-05T18:00:00"
                }, 
                "required_operators": 1, 
                "location": {
                    "latitude": 45.98581390116719, 
                    "longitude": 13.14024229228904
                }, 
                "patient_name": "Wiley Rivera"
            }, 
            "act_1_4": {
                "duration": 30, 
                "time_window": {
                    "start": "2014-03-05T13:00:00", 
                    "finish": "2014-03-05T18:00:00"
                }, 
                "required_operators": 1, 
                "location": {
                    "latitude": 46.127293361887645, 
                    "longitude": 12.93738767999884
                }, 
                "patient_name": "Beulah Blankenship"
            }, 
            "act_1_5": {
                "duration": 30, 
                "time_window": {
                    "start": "2014-03-05T08:00:00", 
                    "finish": "2014-03-05T11:20:00"
                }, 
                "required_operators": 3, 
                "location": {
                    "latitude": 45.95247407197951, 
                    "longitude": 13.117555927030143
                }, 
                "patient_name": "Richard Dilley"
            }, 
            "act_1_8": {
                "duration": 60, 
                "time_window": {
                    "start": "2014-03-05T08:00:00", 
                    "finish": "2014-03-05T18:00:00"
                }, 
                "required_operators": 2, 
                "location": {
                    "latitude": 46.06140133040653, 
                    "longitude": 13.467498431375997
                }, 
                "patient_name": "Betty Haydock"
            }, 
            "act_1_9": {
                "duration": 30, 
                "time_window": {
                    "start": "2014-03-05T13:00:00", 
                    "finish": "2014-03-05T18:00:00"
                }, 
                "required_operators": 1, 
                "location": {
                    "latitude": 45.946812551180464, 
                    "longitude": 13.056768554364401
                }, 
                "patient_name": "Lance Miller"
            }
        }, 
        {
            "act_2_19": {
                "duration": 30, 
                "time_window": {
                    "start": "2014-03-06T13:00:00", 
                    "finish": "2014-03-06T18:00:00"
                }, 
                "required_operators": 1, 
                "location": {
                    "latitude": 46.08175556676362, 
                    "longitude": 13.433777079246088
                }, 
                "patient_name": "Antonio Economou"
            }, 
            "act_2_18": {
                "duration": 60, 
                "time_window": {
                    "start": "2014-03-06T08:00:00", 
                    "finish": "2014-03-06T18:00:00"
                }, 
                "required_operators": 1, 
                "location": {
                    "latitude": 46.226420818606485, 
                    "longitude": 13.183270570533837
                }, 
                "patient_name": "Laura Michaud"
            }, 
            "act_2_11": {
                "duration": 60, 
                "time_window": {
                    "start": "2014-03-06T08:00:00", 
                    "finish": "2014-03-06T18:00:00"
                }, 
                "required_operators": 1, 
                "location": {
                    "latitude": 46.02152680335882, 
                    "longitude": 13.210137998560773
                }, 
                "patient_name": "Beth Robinson"
            }, 
            "act_2_10": {
                "duration": 60, 
                "time_window": {
                    "start": "2014-03-06T08:00:00", 
                    "finish": "2014-03-06T11:20:00"
                }, 
                "required_operators": 1, 
                "location": {
                    "latitude": 45.97279445342637, 
                    "longitude": 13.243998743415954
                }, 
                "patient_name": "Julie Boyer"
            }, 
            "act_2_13": {
                "duration": 60, 
                "time_window": {
                    "start": "2014-03-06T11:20:00", 
                    "finish": "2014-03-06T14:40:00"
                }, 
                "required_operators": 1, 
                "location": {
                    "latitude": 46.13882277096387, 
                    "longitude": 13.384276661677951
                }, 
                "patient_name": "Paul Rodriguez"
            }, 
            "act_2_12": {
                "duration": 60, 
                "time_window": {
                    "start": "2014-03-06T08:00:00", 
                    "finish": "2014-03-06T18:00:00"
                }, 
                "required_operators": 1, 
                "location": {
                    "latitude": 46.08842216482095, 
                    "longitude": 12.988222723459913
                }, 
                "patient_name": "Sarah Cook"
            }, 
            "act_2_15": {
                "duration": 30, 
                "time_window": {
                    "start": "2014-03-06T08:00:00", 
                    "finish": "2014-03-06T11:20:00"
                }, 
                "required_operators": 2, 
                "location": {
                    "latitude": 46.057660306803655, 
                    "longitude": 13.107739047078368
                }, 
                "patient_name": "James Barron"
            }, 
            "act_2_14": {
                "duration": 30, 
                "time_window": {
                    "start": "2014-03-06T13:00:00", 
                    "finish": "2014-03-06T18:00:00"
                }, 
                "required_operators": 3, 
                "location": {
                    "latitude": 46.04315076262054, 
                    "longitude": 12.958545562839486
                }, 
                "patient_name": "Angela Millonzi"
            }, 
            "act_2_17": {
                "duration": 60, 
                "time_window": {
                    "start": "2014-03-06T08:00:00", 
                    "finish": "2014-03-06T18:00:00"
                }, 
                "required_operators": 1, 
                "location": {
                    "latitude": 46.11854044310961, 
                    "longitude": 13.334533926067394
                }, 
                "patient_name": "Patrick Turner"
            }, 
            "act_2_16": {
                "duration": 30, 
                "time_window": {
                    "start": "2014-03-06T08:00:00", 
                    "finish": "2014-03-06T18:00:00"
                }, 
                "required_operators": 1, 
                "location": {
                    "latitude": 46.147619730701145, 
                    "longitude": 12.928179873045199
                }, 
                "patient_name": "Geraldine Grubbs"
            }, 
            "act_2_9": {
                "duration": 60, 
                "time_window": {
                    "start": "2014-03-06T13:00:00", 
                    "finish": "2014-03-06T18:00:00"
                }, 
                "required_operators": 2, 
                "location": {
                    "latitude": 46.25469906987846, 
                    "longitude": 13.08116702895224
                }, 
                "patient_name": "Christopher Coker"
            }, 
            "act_2_8": {
                "duration": 60, 
                "time_window": {
                    "start": "2014-03-06T08:00:00", 
                    "finish": "2014-03-06T18:00:00"
                }, 
                "required_operators": 3, 
                "location": {
                    "latitude": 46.24297076212013, 
                    "longitude": 13.255552688105942
                }, 
                "patient_name": "Roger Parker"
            }, 
            "act_2_5": {
                "duration": 60, 
                "time_window": {
                    "start": "2014-03-06T08:00:00", 
                    "finish": "2014-03-06T18:00:00"
                }, 
                "required_operators": 1, 
                "location": {
                    "latitude": 46.210733038447906, 
                    "longitude": 12.993789168815605
                }, 
                "patient_name": "Adela Funes"
            }, 
            "act_2_4": {
                "duration": 60, 
                "time_window": {
                    "start": "2014-03-06T14:40:00", 
                    "finish": "2014-03-06T18:00:00"
                }, 
                "required_operators": 1, 
                "location": {
                    "latitude": 46.126001490671136, 
                    "longitude": 12.866821447527103
                }, 
                "patient_name": "Catherine Wilkinson"
            }, 
            "act_2_7": {
                "duration": 60, 
                "time_window": {
                    "start": "2014-03-06T11:20:00", 
                    "finish": "2014-03-06T14:40:00"
                }, 
                "required_operators": 1, 
                "location": {
                    "latitude": 46.151875113541955, 
                    "longitude": 13.01491043665399
                }, 
                "patient_name": "Pamela Coffey"
            }, 
            "act_2_6": {
                "duration": 30, 
                "time_window": {
                    "start": "2014-03-06T08:00:00", 
                    "finish": "2014-03-06T18:00:00"
                }, 
                "required_operators": 1, 
                "location": {
                    "latitude": 46.194645649102014, 
                    "longitude": 13.007432148942197
                }, 
                "patient_name": "Dolores Hutson"
            }, 
            "act_2_1": {
                "duration": 30, 
                "time_window": {
                    "start": "2014-03-06T13:00:00", 
                    "finish": "2014-03-06T18:00:00"
                }, 
                "required_operators": 1, 
                "location": {
                    "latitude": 46.11124088588484, 
                    "longitude": 13.196899464596665
                }, 
                "patient_name": "Julie Cookson"
            }, 
            "act_2_0": {
                "duration": 60, 
                "time_window": {
                    "start": "2014-03-06T13:00:00", 
                    "finish": "2014-03-06T18:00:00"
                }, 
                "required_operators": 2, 
                "location": {
                    "latitude": 45.95630093824055, 
                    "longitude": 13.429583965104303
                }, 
                "patient_name": "Fannie Barlage"
            }, 
            "act_2_3": {
                "duration": 30, 
                "time_window": {
                    "start": "2014-03-06T08:00:00", 
                    "finish": "2014-03-06T18:00:00"
                }, 
                "required_operators": 1, 
                "location": {
                    "latitude": 46.09917444493392, 
                    "longitude": 12.942374428127156
                }, 
                "patient_name": "Mary Davis"
            }, 
            "act_2_2": {
                "duration": 30, 
                "time_window": {
                    "start": "2014-03-06T08:00:00", 
                    "finish": "2014-03-06T13:00:00"
                }, 
                "required_operators": 1, 
                "location": {
                    "latitude": 46.08898894304974, 
                    "longitude": 13.296662638146291
                }, 
                "patient_name": "James Kevan"
            }
        }, 
        {
            "act_3_4": {
                "duration": 30, 
                "time_window": {
                    "start": "2014-03-07T14:40:00", 
                    "finish": "2014-03-07T18:00:00"
                }, 
                "required_operators": 1, 
                "location": {
                    "latitude": 46.13944926775952, 
                    "longitude": 13.19023978925696
                }, 
                "patient_name": "Lee Salazar"
            }, 
            "act_3_5": {
                "duration": 30, 
                "time_window": {
                    "start": "2014-03-07T13:00:00", 
                    "finish": "2014-03-07T18:00:00"
                }, 
                "required_operators": 1, 
                "location": {
                    "latitude": 45.95886578744099, 
                    "longitude": 12.959811588168257
                }, 
                "patient_name": "Carolyn Ross"
            }, 
            "act_3_6": {
                "duration": 30, 
                "time_window": {
                    "start": "2014-03-07T14:40:00", 
                    "finish": "2014-03-07T18:00:00"
                }, 
                "required_operators": 1, 
                "location": {
                    "latitude": 45.99889736168164, 
                    "longitude": 12.861209509045745
                }, 
                "patient_name": "Dorinda Custer"
            }, 
            "act_3_7": {
                "duration": 30, 
                "time_window": {
                    "start": "2014-03-07T13:00:00", 
                    "finish": "2014-03-07T18:00:00"
                }, 
                "required_operators": 1, 
                "location": {
                    "latitude": 45.937694160355115, 
                    "longitude": 13.04978670413391
                }, 
                "patient_name": "Janet Wheeler"
            }, 
            "act_3_0": {
                "duration": 60, 
                "time_window": {
                    "start": "2014-03-07T08:00:00", 
                    "finish": "2014-03-07T11:20:00"
                }, 
                "required_operators": 1, 
                "location": {
                    "latitude": 46.066625892985144, 
                    "longitude": 13.335979005436549
                }, 
                "patient_name": "Robert Colon"
            }, 
            "act_3_1": {
                "duration": 30, 
                "time_window": {
                    "start": "2014-03-07T14:40:00", 
                    "finish": "2014-03-07T18:00:00"
                }, 
                "required_operators": 1, 
                "location": {
                    "latitude": 46.112564204262334, 
                    "longitude": 13.012096453155294
                }, 
                "patient_name": "Daniel Rivers"
            }, 
            "act_3_2": {
                "duration": 30, 
                "time_window": {
                    "start": "2014-03-07T08:00:00", 
                    "finish": "2014-03-07T11:20:00"
                }, 
                "required_operators": 1, 
                "location": {
                    "latitude": 46.00282124836894, 
                    "longitude": 13.31049952199233
                }, 
                "patient_name": "Margret Norman"
            }, 
            "act_3_3": {
                "duration": 30, 
                "time_window": {
                    "start": "2014-03-07T08:00:00", 
                    "finish": "2014-03-07T18:00:00"
                }, 
                "required_operators": 2, 
                "location": {
                    "latitude": 46.043689179766595, 
                    "longitude": 13.266127449520166
                }, 
                "patient_name": "Howard Pitre"
            }, 
            "act_3_8": {
                "duration": 60, 
                "time_window": {
                    "start": "2014-03-07T08:00:00", 
                    "finish": "2014-03-07T18:00:00"
                }, 
                "required_operators": 1, 
                "location": {
                    "latitude": 46.0996652536873, 
                    "longitude": 13.46187577819108
                }, 
                "patient_name": "Catherine Stoner"
            }, 
            "act_3_9": {
                "duration": 30, 
                "time_window": {
                    "start": "2014-03-07T08:00:00", 
                    "finish": "2014-03-07T18:00:00"
                }, 
                "required_operators": 1, 
                "location": {
                    "latitude": 46.00617015288458, 
                    "longitude": 13.310634775029055
                }, 
                "patient_name": "James Lyons"
            }, 
            "act_3_18": {
                "duration": 30, 
                "time_window": {
                    "start": "2014-03-07T08:00:00", 
                    "finish": "2014-03-07T18:00:00"
                }, 
                "required_operators": 1, 
                "location": {
                    "latitude": 46.044579517144946, 
                    "longitude": 12.866342899781097
                }, 
                "patient_name": "Keith Sanchez"
            }, 
            "act_3_19": {
                "duration": 30, 
                "time_window": {
                    "start": "2014-03-07T13:00:00", 
                    "finish": "2014-03-07T18:00:00"
                }, 
                "required_operators": 1, 
                "location": {
                    "latitude": 46.21977107693751, 
                    "longitude": 13.204460762064086
                }, 
                "patient_name": "Jayne Smith"
            }, 
            "act_3_16": {
                "duration": 60, 
                "time_window": {
                    "start": "2014-03-07T08:00:00", 
                    "finish": "2014-03-07T18:00:00"
                }, 
                "required_operators": 1, 
                "location": {
                    "latitude": 46.18939296821719, 
                    "longitude": 12.957667832054506
                }, 
                "patient_name": "Lupe King"
            }, 
            "act_3_17": {
                "duration": 30, 
                "time_window": {
                    "start": "2014-03-07T08:00:00", 
                    "finish": "2014-03-07T13:00:00"
                }, 
                "required_operators": 3, 
                "location": {
                    "latitude": 46.13467749857353, 
                    "longitude": 12.944815579027692
                }, 
                "patient_name": "Paul Ruck"
            }, 
            "act_3_14": {
                "duration": 30, 
                "time_window": {
                    "start": "2014-03-07T08:00:00", 
                    "finish": "2014-03-07T11:20:00"
                }, 
                "required_operators": 1, 
                "location": {
                    "latitude": 46.06409175609012, 
                    "longitude": 13.342659549682798
                }, 
                "patient_name": "Barbara Wright"
            }, 
            "act_3_15": {
                "duration": 60, 
                "time_window": {
                    "start": "2014-03-07T13:00:00", 
                    "finish": "2014-03-07T18:00:00"
                }, 
                "required_operators": 1, 
                "location": {
                    "latitude": 46.146967051647984, 
                    "longitude": 13.078635430243184
                }, 
                "patient_name": "Tony Green"
            }, 
            "act_3_12": {
                "duration": 60, 
                "time_window": {
                    "start": "2014-03-07T13:00:00", 
                    "finish": "2014-03-07T18:00:00"
                }, 
                "required_operators": 1, 
                "location": {
                    "latitude": 46.03224781254299, 
                    "longitude": 13.054462185974556
                }, 
                "patient_name": "Joan Flores"
            }, 
            "act_3_13": {
                "duration": 60, 
                "time_window": {
                    "start": "2014-03-07T08:00:00", 
                    "finish": "2014-03-07T11:20:00"
                }, 
                "required_operators": 1, 
                "location": {
                    "latitude": 45.94609086235738, 
                    "longitude": 13.211431329717168
                }, 
                "patient_name": "Tonya Marcus"
            }, 
            "act_3_10": {
                "duration": 60, 
                "time_window": {
                    "start": "2014-03-07T08:00:00", 
                    "finish": "2014-03-07T11:20:00"
                }, 
                "required_operators": 1, 
                "location": {
                    "latitude": 46.13674676797551, 
                    "longitude": 13.028510495200157
                }, 
                "patient_name": "Judith Hawk"
            }, 
            "act_3_11": {
                "duration": 30, 
                "time_window": {
                    "start": "2014-03-07T13:00:00", 
                    "finish": "2014-03-07T18:00:00"
                }, 
                "required_operators": 2, 
                "location": {
                    "latitude": 46.01570389011401, 
                    "longitude": 13.041758583907065
                }, 
                "patient_name": "Charles Schleppenbach"
            }
        }, 
        {
            "act_4_13": {
                "duration": 30, 
                "time_window": {
                    "start": "2014-03-08T08:00:00", 
                    "finish": "2014-03-08T18:00:00"
                }, 
                "required_operators": 1, 
                "location": {
                    "latitude": 46.11781651591124, 
                    "longitude": 13.427531778279864
                }, 
                "patient_name": "Mayra Perry"
            }, 
            "act_4_12": {
                "duration": 30, 
                "time_window": {
                    "start": "2014-03-08T08:00:00", 
                    "finish": "2014-03-08T18:00:00"
                }, 
                "required_operators": 1, 
                "location": {
                    "latitude": 46.0930520281087, 
                    "longitude": 13.280365233503069
                }, 
                "patient_name": "Lorenzo Johnson"
            }, 
            "act_4_11": {
                "duration": 30, 
                "time_window": {
                    "start": "2014-03-08T08:00:00", 
                    "finish": "2014-03-08T18:00:00"
                }, 
                "required_operators": 1, 
                "location": {
                    "latitude": 46.19248168952546, 
                    "longitude": 13.301738458745053
                }, 
                "patient_name": "Gregory Carlson"
            }, 
            "act_4_10": {
                "duration": 30, 
                "time_window": {
                    "start": "2014-03-08T08:00:00", 
                    "finish": "2014-03-08T18:00:00"
                }, 
                "required_operators": 1, 
                "location": {
                    "latitude": 46.21642723730684, 
                    "longitude": 13.32137443702397
                }, 
                "patient_name": "Garry Bambeck"
            }, 
            "act_4_17": {
                "duration": 60, 
                "time_window": {
                    "start": "2014-03-08T08:00:00", 
                    "finish": "2014-03-08T18:00:00"
                }, 
                "required_operators": 1, 
                "location": {
                    "latitude": 46.04738722161522, 
                    "longitude": 13.04098055689105
                }, 
                "patient_name": "Lora Whitney"
            }, 
            "act_4_15": {
                "duration": 30, 
                "time_window": {
                    "start": "2014-03-08T08:00:00", 
                    "finish": "2014-03-08T13:00:00"
                }, 
                "required_operators": 1, 
                "location": {
                    "latitude": 45.99856709832295, 
                    "longitude": 13.449697805762325
                }, 
                "patient_name": "Don Baugh"
            }, 
            "act_4_9": {
                "duration": 60, 
                "time_window": {
                    "start": "2014-03-08T08:00:00", 
                    "finish": "2014-03-08T18:00:00"
                }, 
                "required_operators": 1, 
                "location": {
                    "latitude": 46.01234321899983, 
                    "longitude": 13.189616045235407
                }, 
                "patient_name": "Teresa Mcclelland"
            }, 
            "act_4_8": {
                "duration": 60, 
                "time_window": {
                    "start": "2014-03-08T08:00:00", 
                    "finish": "2014-03-08T13:00:00"
                }, 
                "required_operators": 1, 
                "location": {
                    "latitude": 46.05083855769685, 
                    "longitude": 13.419800538758102
                }, 
                "patient_name": "Connie Lee"
            }, 
            "act_4_7": {
                "duration": 60, 
                "time_window": {
                    "start": "2014-03-08T11:20:00", 
                    "finish": "2014-03-08T14:40:00"
                }, 
                "required_operators": 1, 
                "location": {
                    "latitude": 46.1775960508022, 
                    "longitude": 13.401284653543591
                }, 
                "patient_name": "Angelo Harrison"
            }, 
            "act_4_6": {
                "duration": 30, 
                "time_window": {
                    "start": "2014-03-08T08:00:00", 
                    "finish": "2014-03-08T13:00:00"
                }, 
                "required_operators": 1, 
                "location": {
                    "latitude": 45.97472702240172, 
                    "longitude": 13.136014595886254
                }, 
                "patient_name": "Retta Baier"
            }, 
            "act_4_5": {
                "duration": 30, 
                "time_window": {
                    "start": "2014-03-08T08:00:00", 
                    "finish": "2014-03-08T18:00:00"
                }, 
                "required_operators": 1, 
                "location": {
                    "latitude": 46.205391102363606, 
                    "longitude": 13.16065802525042
                }, 
                "patient_name": "Ronald Black"
            }, 
            "act_4_4": {
                "duration": 30, 
                "time_window": {
                    "start": "2014-03-08T13:00:00", 
                    "finish": "2014-03-08T18:00:00"
                }, 
                "required_operators": 2, 
                "location": {
                    "latitude": 46.22451701175816, 
                    "longitude": 13.151127914845379
                }, 
                "patient_name": "Mike Hales"
            }, 
            "act_4_3": {
                "duration": 60, 
                "time_window": {
                    "start": "2014-03-08T08:00:00", 
                    "finish": "2014-03-08T11:20:00"
                }, 
                "required_operators": 1, 
                "location": {
                    "latitude": 46.202796712791375, 
                    "longitude": 13.19244878985778
                }, 
                "patient_name": "Fannie Carr"
            }, 
            "act_4_2": {
                "duration": 30, 
                "time_window": {
                    "start": "2014-03-08T14:40:00", 
                    "finish": "2014-03-08T18:00:00"
                }, 
                "required_operators": 1, 
                "location": {
                    "latitude": 45.94380918739912, 
                    "longitude": 13.17927816863261
                }, 
                "patient_name": "Edgar Blais"
            }, 
            "act_4_1": {
                "duration": 60, 
                "time_window": {
                    "start": "2014-03-08T08:00:00", 
                    "finish": "2014-03-08T18:00:00"
                }, 
                "required_operators": 1, 
                "location": {
                    "latitude": 46.24241772098095, 
                    "longitude": 13.244444497858696
                }, 
                "patient_name": "Fred Johnson"
            }, 
            "act_4_0": {
                "duration": 30, 
                "time_window": {
                    "start": "2014-03-08T13:00:00", 
                    "finish": "2014-03-08T18:00:00"
                }, 
                "required_operators": 2, 
                "location": {
                    "latitude": 46.25809181885708, 
                    "longitude": 13.046405979666465
                }, 
                "patient_name": "Jessica Stoner"
            }, 
            "act_4_18": {
                "duration": 60, 
                "time_window": {
                    "start": "2014-03-08T11:20:00", 
                    "finish": "2014-03-08T14:40:00"
                }, 
                "required_operators": 2, 
                "location": {
                    "latitude": 45.947603483165025, 
                    "longitude": 13.44751980051673
                }, 
                "patient_name": "Helen Murillo"
            }, 
            "act_4_16": {
                "duration": 30, 
                "time_window": {
                    "start": "2014-03-08T11:20:00", 
                    "finish": "2014-03-08T14:40:00"
                }, 
                "required_operators": 1, 
                "location": {
                    "latitude": 46.048346777674055, 
                    "longitude": 13.483961681450255
                }, 
                "patient_name": "Edward Ulrich"
            }, 
            "act_4_19": {
                "duration": 30, 
                "time_window": {
                    "start": "2014-03-08T14:40:00", 
                    "finish": "2014-03-08T18:00:00"
                }, 
                "required_operators": 1, 
                "location": {
                    "latitude": 46.24250500132102, 
                    "longitude": 12.92166286901198
                }, 
                "patient_name": "James Cody"
            }, 
            "act_4_14": {
                "duration": 60, 
                "time_window": {
                    "start": "2014-03-08T13:00:00", 
                    "finish": "2014-03-08T18:00:00"
                }, 
                "required_operators": 1, 
                "location": {
                    "latitude": 46.00261031949, 
                    "longitude": 13.288354790957573
                }, 
                "patient_name": "Otis Hinkle"
            }
        }, 
        {
            "act_5_18": {
                "duration": 30, 
                "time_window": {
                    "start": "2014-03-09T14:40:00", 
                    "finish": "2014-03-09T18:00:00"
                }, 
                "required_operators": 1, 
                "location": {
                    "latitude": 46.1911752140954, 
                    "longitude": 13.408038492384378
                }, 
                "patient_name": "Maria Dick"
            }, 
            "act_5_19": {
                "duration": 60, 
                "time_window": {
                    "start": "2014-03-09T08:00:00", 
                    "finish": "2014-03-09T18:00:00"
                }, 
                "required_operators": 1, 
                "location": {
                    "latitude": 46.182551448706334, 
                    "longitude": 13.358728801521098
                }, 
                "patient_name": "James Jordan"
            }, 
            "act_5_10": {
                "duration": 30, 
                "time_window": {
                    "start": "2014-03-09T08:00:00", 
                    "finish": "2014-03-09T13:00:00"
                }, 
                "required_operators": 1, 
                "location": {
                    "latitude": 45.976417713771404, 
                    "longitude": 12.973711812027029
                }, 
                "patient_name": "Mark Bullock"
            }, 
            "act_5_11": {
                "duration": 60, 
                "time_window": {
                    "start": "2014-03-09T08:00:00", 
                    "finish": "2014-03-09T11:20:00"
                }, 
                "required_operators": 1, 
                "location": {
                    "latitude": 46.23252275898822, 
                    "longitude": 13.349779469822291
                }, 
                "patient_name": "Irma Jones"
            }, 
            "act_5_12": {
                "duration": 60, 
                "time_window": {
                    "start": "2014-03-09T08:00:00", 
                    "finish": "2014-03-09T18:00:00"
                }, 
                "required_operators": 4, 
                "location": {
                    "latitude": 46.173594846832025, 
                    "longitude": 12.876629089570663
                }, 
                "patient_name": "Juan Son"
            }, 
            "act_5_13": {
                "duration": 30, 
                "time_window": {
                    "start": "2014-03-09T08:00:00", 
                    "finish": "2014-03-09T13:00:00"
                }, 
                "required_operators": 1, 
                "location": {
                    "latitude": 45.95302028435752, 
                    "longitude": 13.413190427428447
                }, 
                "patient_name": "Andrea Amos"
            }, 
            "act_5_14": {
                "duration": 30, 
                "time_window": {
                    "start": "2014-03-09T11:20:00", 
                    "finish": "2014-03-09T14:40:00"
                }, 
                "required_operators": 1, 
                "location": {
                    "latitude": 45.937119684937834, 
                    "longitude": 13.331455094433007
                }, 
                "patient_name": "Tracy Bostrom"
            }, 
            "act_5_15": {
                "duration": 30, 
                "time_window": {
                    "start": "2014-03-09T13:00:00", 
                    "finish": "2014-03-09T18:00:00"
                }, 
                "required_operators": 3, 
                "location": {
                    "latitude": 46.193195294317654, 
                    "longitude": 13.082478984443082
                }, 
                "patient_name": "Marcia Moore"
            }, 
            "act_5_16": {
                "duration": 30, 
                "time_window": {
                    "start": "2014-03-09T13:00:00", 
                    "finish": "2014-03-09T18:00:00"
                }, 
                "required_operators": 1, 
                "location": {
                    "latitude": 46.09705414369141, 
                    "longitude": 13.294250085613603
                }, 
                "patient_name": "Philip Bode"
            }, 
            "act_5_17": {
                "duration": 60, 
                "time_window": {
                    "start": "2014-03-09T11:20:00", 
                    "finish": "2014-03-09T14:40:00"
                }, 
                "required_operators": 1, 
                "location": {
                    "latitude": 46.187470277870574, 
                    "longitude": 13.448763803602038
                }, 
                "patient_name": "Jennifer Neilsen"
            }, 
            "act_5_6": {
                "duration": 60, 
                "time_window": {
                    "start": "2014-03-09T08:00:00", 
                    "finish": "2014-03-09T13:00:00"
                }, 
                "required_operators": 2, 
                "location": {
                    "latitude": 46.24207890243497, 
                    "longitude": 13.080193919333555
                }, 
                "patient_name": "Elisa Jefferson"
            }, 
            "act_5_7": {
                "duration": 30, 
                "time_window": {
                    "start": "2014-03-09T08:00:00", 
                    "finish": "2014-03-09T13:00:00"
                }, 
                "required_operators": 2, 
                "location": {
                    "latitude": 46.04467209015035, 
                    "longitude": 12.938901737044295
                }, 
                "patient_name": "Sylvie Black"
            }, 
            "act_5_4": {
                "duration": 60, 
                "time_window": {
                    "start": "2014-03-09T13:00:00", 
                    "finish": "2014-03-09T18:00:00"
                }, 
                "required_operators": 1, 
                "location": {
                    "latitude": 46.16109471875915, 
                    "longitude": 13.320742614180237
                }, 
                "patient_name": "Pamela Rosenblum"
            }, 
            "act_5_5": {
                "duration": 30, 
                "time_window": {
                    "start": "2014-03-09T08:00:00", 
                    "finish": "2014-03-09T18:00:00"
                }, 
                "required_operators": 1, 
                "location": {
                    "latitude": 46.01824369258136, 
                    "longitude": 13.473579705582942
                }, 
                "patient_name": "Yvonne Sutherland"
            }, 
            "act_5_2": {
                "duration": 30, 
                "time_window": {
                    "start": "2014-03-09T14:40:00", 
                    "finish": "2014-03-09T18:00:00"
                }, 
                "required_operators": 1, 
                "location": {
                    "latitude": 46.0432070507175, 
                    "longitude": 13.288411730359272
                }, 
                "patient_name": "Kenneth Weeks"
            }, 
            "act_5_3": {
                "duration": 30, 
                "time_window": {
                    "start": "2014-03-09T14:40:00", 
                    "finish": "2014-03-09T18:00:00"
                }, 
                "required_operators": 1, 
                "location": {
                    "latitude": 46.19885112036929, 
                    "longitude": 13.192174010555524
                }, 
                "patient_name": "Mark Huynh"
            }, 
            "act_5_0": {
                "duration": 30, 
                "time_window": {
                    "start": "2014-03-09T08:00:00", 
                    "finish": "2014-03-09T13:00:00"
                }, 
                "required_operators": 1, 
                "location": {
                    "latitude": 46.03359107036127, 
                    "longitude": 13.053100452467996
                }, 
                "patient_name": "June Peters"
            }, 
            "act_5_1": {
                "duration": 30, 
                "time_window": {
                    "start": "2014-03-09T14:40:00", 
                    "finish": "2014-03-09T18:00:00"
                }, 
                "required_operators": 1, 
                "location": {
                    "latitude": 46.02162351327075, 
                    "longitude": 13.02568912240423
                }, 
                "patient_name": "Reuben Rodriguez"
            }, 
            "act_5_8": {
                "duration": 30, 
                "time_window": {
                    "start": "2014-03-09T08:00:00", 
                    "finish": "2014-03-09T18:00:00"
                }, 
                "required_operators": 2, 
                "location": {
                    "latitude": 46.05549218742857, 
                    "longitude": 13.475056040337916
                }, 
                "patient_name": "Maurine Riley"
            }, 
            "act_5_9": {
                "duration": 60, 
                "time_window": {
                    "start": "2014-03-09T14:40:00", 
                    "finish": "2014-03-09T18:00:00"
                }, 
                "required_operators": 3, 
                "location": {
                    "latitude": 46.24894285050892, 
                    "longitude": 13.097614168627185
                }, 
                "patient_name": "Latoya Hatfield"
            }
        }
    ], 
    "operators": {
        "op_8": {
            "time_windows": [
                {
                    "start": "2014-03-04T08:00:00", 
                    "finish": "2014-03-04T18:00:00", 
                    "regular_worktime": "8:00:00"
                }, 
                {
                    "start": "2014-03-05T13:00:00", 
                    "finish": "2014-03-05T18:00:00", 
                    "regular_worktime": "4:00:00"
                }, 
                {
                    "start": "2014-03-06T08:00:00", 
                    "finish": "2014-03-06T18:00:00", 
                    "regular_worktime": "8:00:00"
                }, 
                {
                    "start": "2014-03-07T08:00:00", 
                    "finish": "2014-03-07T18:00:00", 
                    "regular_worktime": "8:00:00"
                }, 
                {
                    "start": "2014-03-08T08:00:00", 
                    "finish": "2014-03-08T13:00:00", 
                    "regular_worktime": "4:00:00"
                }, 
                {
                    "start": "2014-03-09T08:00:00", 
                    "finish": "2014-03-09T18:00:00", 
                    "regular_worktime": "8:00:00"
                }
            ], 
            "incompatible_activities": [
                "act_0_18", 
                "act_4_6", 
                "act_3_8", 
                "act_2_14"
            ], 
            "maximum_working_hours": "36:00:00", 
            "name": "John Montano", 
            "minimum_working_hours": "32:00:00"
        }, 
        "op_9": {
            "time_windows": [
                {
                    "start": "2014-03-04T13:00:00", 
                    "finish": "2014-03-04T18:00:00", 
                    "regular_worktime": "4:00:00"
                }, 
                {
                    "start": "2014-03-05T08:00:00", 
                    "finish": "2014-03-05T13:00:00", 
                    "regular_worktime": "4:00:00"
                }, 
                {
                    "start": "2014-03-06T08:00:00", 
                    "finish": "2014-03-06T18:00:00", 
                    "regular_worktime": "8:00:00"
                }, 
                {
                    "start": "2014-03-07T08:00:00", 
                    "finish": "2014-03-07T18:00:00", 
                    "regular_worktime": "8:00:00"
                }, 
                {
                    "start": "2014-03-08T13:00:00", 
                    "finish": "2014-03-08T18:00:00", 
                    "regular_worktime": "4:00:00"
                }, 
                {
                    "start": "2014-03-09T08:00:00", 
                    "finish": "2014-03-09T18:00:00", 
                    "regular_worktime": "8:00:00"
                }
            ], 
            "incompatible_activities": [
                "act_3_6", 
                "act_5_3", 
                "act_5_0", 
                "act_5_16"
            ], 
            "maximum_working_hours": "32:00:00", 
            "name": "Barbara Becerra", 
            "minimum_working_hours": "28:00:00"
        }, 
        "op_4": {
            "time_windows": [
                {
                    "start": "2014-03-04T13:00:00", 
                    "finish": "2014-03-04T18:00:00", 
                    "regular_worktime": "4:00:00"
                }, 
                {
                    "start": "2014-03-05T08:00:00", 
                    "finish": "2014-03-05T18:00:00", 
                    "regular_worktime": "8:00:00"
                }, 
                {
                    "start": "2014-03-06T13:00:00", 
                    "finish": "2014-03-06T18:00:00", 
                    "regular_worktime": "4:00:00"
                }, 
                {
                    "start": "2014-03-07T08:00:00", 
                    "finish": "2014-03-07T18:00:00", 
                    "regular_worktime": "8:00:00"
                }, 
                {
                    "start": "2014-03-08T08:00:00", 
                    "finish": "2014-03-08T18:00:00", 
                    "regular_worktime": "8:00:00"
                }, 
                {
                    "start": "2014-03-09T08:00:00", 
                    "finish": "2014-03-09T18:00:00", 
                    "regular_worktime": "8:00:00"
                }
            ], 
            "incompatible_activities": [
                "act_2_5", 
                "act_0_1", 
                "act_5_19", 
                "act_5_14"
            ], 
            "maximum_working_hours": "36:00:00", 
            "name": "Tony Reed", 
            "minimum_working_hours": "32:00:00"
        }, 
        "op_5": {
            "time_windows": [
                {
                    "start": "2014-03-04T13:00:00", 
                    "finish": "2014-03-04T18:00:00", 
                    "regular_worktime": "4:00:00"
                }, 
                {
                    "start": "2014-03-05T13:00:00", 
                    "finish": "2014-03-05T18:00:00", 
                    "regular_worktime": "4:00:00"
                }, 
                {
                    "start": "2014-03-06T08:00:00", 
                    "finish": "2014-03-06T18:00:00", 
                    "regular_worktime": "8:00:00"
                }, 
                {
                    "start": "2014-03-07T08:00:00", 
                    "finish": "2014-03-07T18:00:00", 
                    "regular_worktime": "8:00:00"
                }, 
                {
                    "start": "2014-03-08T08:00:00", 
                    "finish": "2014-03-08T18:00:00", 
                    "regular_worktime": "8:00:00"
                }, 
                {
                    "start": "2014-03-09T08:00:00", 
                    "finish": "2014-03-09T18:00:00", 
                    "regular_worktime": "8:00:00"
                }
            ], 
            "incompatible_activities": [
                "act_2_4", 
                "act_1_1", 
                "act_2_10", 
                "act_3_3"
            ], 
            "maximum_working_hours": "36:00:00", 
            "name": "Shawn Rodriguez", 
            "minimum_working_hours": "32:00:00"
        }, 
        "op_6": {
            "time_windows": [
                {
                    "start": "2014-03-04T08:00:00", 
                    "finish": "2014-03-04T18:00:00", 
                    "regular_worktime": "8:00:00"
                }, 
                {
                    "start": "2014-03-05T08:00:00", 
                    "finish": "2014-03-05T18:00:00", 
                    "regular_worktime": "8:00:00"
                }, 
                {
                    "start": "2014-03-06T08:00:00", 
                    "finish": "2014-03-06T13:00:00", 
                    "regular_worktime": "4:00:00"
                }, 
                {
                    "start": "2014-03-07T08:00:00", 
                    "finish": "2014-03-07T18:00:00", 
                    "regular_worktime": "8:00:00"
                }, 
                {
                    "start": "2014-03-08T13:00:00", 
                    "finish": "2014-03-08T18:00:00", 
                    "regular_worktime": "4:00:00"
                }, 
                {
                    "start": "2014-03-09T08:00:00", 
                    "finish": "2014-03-09T18:00:00", 
                    "regular_worktime": "8:00:00"
                }
            ], 
            "incompatible_activities": [
                "act_3_11", 
                "act_5_6", 
                "act_3_18", 
                "act_1_18"
            ], 
            "maximum_working_hours": "36:00:00", 
            "name": "Tami Carter", 
            "minimum_working_hours": "32:00:00"
        }, 
        "op_7": {
            "time_windows": [
                {
                    "start": "2014-03-04T13:00:00", 
                    "finish": "2014-03-04T18:00:00", 
                    "regular_worktime": "4:00:00"
                }, 
                {
                    "start": "2014-03-05T08:00:00", 
                    "finish": "2014-03-05T13:00:00", 
                    "regular_worktime": "4:00:00"
                }, 
                {
                    "start": "2014-03-06T08:00:00", 
                    "finish": "2014-03-06T18:00:00", 
                    "regular_worktime": "8:00:00"
                }, 
                {
                    "start": "2014-03-07T13:00:00", 
                    "finish": "2014-03-07T18:00:00", 
                    "regular_worktime": "4:00:00"
                }, 
                {
                    "start": "2014-03-08T08:00:00", 
                    "finish": "2014-03-08T18:00:00", 
                    "regular_worktime": "8:00:00"
                }, 
                {
                    "start": "2014-03-09T08:00:00", 
                    "finish": "2014-03-09T18:00:00", 
                    "regular_worktime": "8:00:00"
                }
            ], 
            "incompatible_activities": [
                "act_0_8", 
                "act_2_18", 
                "act_2_4", 
                "act_4_15"
            ], 
            "maximum_working_hours": "32:00:00", 
            "name": "Elizabeth Jenkins", 
            "minimum_working_hours": "28:00:00"
        }, 
        "op_0": {
            "time_windows": [
                {
                    "start": "2014-03-04T08:00:00", 
                    "finish": "2014-03-04T13:00:00", 
                    "regular_worktime": "4:00:00"
                }, 
                {
                    "start": "2014-03-05T08:00:00", 
                    "finish": "2014-03-05T18:00:00", 
                    "regular_worktime": "8:00:00"
                }, 
                {
                    "start": "2014-03-06T13:00:00", 
                    "finish": "2014-03-06T18:00:00", 
                    "regular_worktime": "4:00:00"
                }, 
                {
                    "start": "2014-03-07T08:00:00", 
                    "finish": "2014-03-07T18:00:00", 
                    "regular_worktime": "8:00:00"
                }, 
                {
                    "start": "2014-03-08T08:00:00", 
                    "finish": "2014-03-08T18:00:00", 
                    "regular_worktime": "8:00:00"
                }, 
                {
                    "start": "2014-03-09T08:00:00", 
                    "finish": "2014-03-09T18:00:00", 
                    "regular_worktime": "8:00:00"
                }
            ], 
            "incompatible_activities": [
                "act_3_1", 
                "act_5_7", 
                "act_4_0", 
                "act_5_18"
            ], 
            "maximum_working_hours": "36:00:00", 
            "name": "Kevin Holmes", 
            "minimum_working_hours": "32:00:00"
        }, 
        "op_1": {
            "time_windows": [
                {
                    "start": "2014-03-04T08:00:00", 
                    "finish": "2014-03-04T18:00:00", 
                    "regular_worktime": "8:00:00"
                }, 
                {
                    "start": "2014-03-05T08:00:00", 
                    "finish": "2014-03-05T18:00:00", 
                    "regular_worktime": "8:00:00"
                }, 
                {
                    "start": "2014-03-06T08:00:00", 
                    "finish": "2014-03-06T18:00:00", 
                    "regular_worktime": "8:00:00"
                }, 
                {
                    "start": "2014-03-07T08:00:00", 
                    "finish": "2014-03-07T13:00:00", 
                    "regular_worktime": "4:00:00"
                }, 
                {
                    "start": "2014-03-08T13:00:00", 
                    "finish": "2014-03-08T18:00:00", 
                    "regular_worktime": "4:00:00"
                }, 
                {
                    "start": "2014-03-09T08:00:00", 
                    "finish": "2014-03-09T18:00:00", 
                    "regular_worktime": "8:00:00"
                }
            ], 
            "incompatible_activities": [
                "act_3_0", 
                "act_2_8", 
                "act_2_10", 
                "act_1_15"
            ], 
            "maximum_working_hours": "36:00:00", 
            "name": "Lillie Nichols", 
            "minimum_working_hours": "32:00:00"
        }, 
        "op_2": {
            "time_windows": [
                {}, 
                {
                    "start": "2014-03-05T08:00:00", 
                    "finish": "2014-03-05T18:00:00", 
                    "regular_worktime": "8:00:00"
                }, 
                {
                    "start": "2014-03-06T13:00:00", 
                    "finish": "2014-03-06T18:00:00", 
                    "regular_worktime": "4:00:00"
                }, 
                {
                    "start": "2014-03-07T08:00:00", 
                    "finish": "2014-03-07T18:00:00", 
                    "regular_worktime": "8:00:00"
                }, 
                {
                    "start": "2014-03-08T08:00:00", 
                    "finish": "2014-03-08T18:00:00", 
                    "regular_worktime": "8:00:00"
                }, 
                {
                    "start": "2014-03-09T08:00:00", 
                    "finish": "2014-03-09T18:00:00", 
                    "regular_worktime": "8:00:00"
                }
            ], 
            "incompatible_activities": [
                "act_2_2", 
                "act_0_14", 
                "act_2_3", 
                "act_0_1"
            ], 
            "maximum_working_hours": "36:00:00", 
            "name": "Charlene Guillory", 
            "minimum_working_hours": "36:00:00"
        }, 
        "op_3": {
            "time_windows": [
                {
                    "start": "2014-03-04T08:00:00", 
                    "finish": "2014-03-04T18:00:00", 
                    "regular_worktime": "8:00:00"
                }, 
                {
                    "start": "2014-03-05T08:00:00", 
                    "finish": "2014-03-05T18:00:00", 
                    "regular_worktime": "8:00:00"
                }, 
                {
                    "start": "2014-03-06T08:00:00", 
                    "finish": "2014-03-06T18:00:00", 
                    "regular_worktime": "8:00:00"
                }, 
                {
                    "start": "2014-03-07T08:00:00", 
                    "finish": "2014-03-07T18:00:00", 
                    "regular_worktime": "8:00:00"
                }, 
                {
                    "start": "2014-03-08T08:00:00", 
                    "finish": "2014-03-08T18:00:00", 
                    "regular_worktime": "8:00:00"
                }, 
                {
                    "start": "2014-03-09T13:00:00", 
                    "finish": "2014-03-09T18:00:00", 
                    "regular_worktime": "4:00:00"
                }
            ], 
            "incompatible_activities": [
                "act_3_12", 
                "act_0_11", 
                "act_0_16", 
                "act_0_13"
            ], 
            "maximum_working_hours": "40:00:00", 
            "name": "Ronald Eldridge", 
            "minimum_working_hours": "36:00:00"
        }
    }, 
    "meta": {
        "time_window": {
            "start": "08:00:00", 
            "finish": "18:00:00"
        }, 
        "horizon": 6, 
        "granularity": 10, 
        "geographic_area": {
            "upper_left": [
                46.259645, 
                12.860656
            ], 
            "lower_right": [
                45.936826, 
                13.485503
            ]
        }, 
        "max_consecutive_days": 5, 
        "finish_date": "2014-03-10T00:00:00", 
        "max_overtime_rate": 1.1, 
        "start_date": "2014-03-04T00:00:00"
    }
}