{
    "activities": [
        {
            "act_0_39": {
                "duration": 60, 
                "time_window": {
                    "start": "2014-03-05T14:40:00", 
                    "finish": "2014-03-05T18:00:00"
                }, 
                "required_operators": 1, 
                "location": {
                    "latitude": 46.03861641810826, 
                    "longitude": 13.439522252253534
                }, 
                "patient_name": "Frank Perry"
            }, 
            "act_0_35": {
                "duration": 30, 
                "time_window": {
                    "start": "2014-03-05T14:40:00", 
                    "finish": "2014-03-05T18:00:00"
                }, 
                "required_operators": 1, 
                "location": {
                    "latitude": 46.14670817373587, 
                    "longitude": 13.455575317265303
                }, 
                "patient_name": "Darryl Lehmann"
            }, 
            "act_0_34": {
                "duration": 60, 
                "time_window": {
                    "start": "2014-03-05T08:00:00", 
                    "finish": "2014-03-05T18:00:00"
                }, 
                "required_operators": 2, 
                "location": {
                    "latitude": 45.993323560972925, 
                    "longitude": 13.147112808221253
                }, 
                "patient_name": "Carmen Yanez"
            }, 
            "act_0_37": {
                "duration": 60, 
                "time_window": {
                    "start": "2014-03-05T08:00:00", 
                    "finish": "2014-03-05T18:00:00"
                }, 
                "required_operators": 1, 
                "location": {
                    "latitude": 46.1456835123217, 
                    "longitude": 13.031838578274474
                }, 
                "patient_name": "Lino Dabney"
            }, 
            "act_0_36": {
                "duration": 30, 
                "time_window": {
                    "start": "2014-03-05T08:00:00", 
                    "finish": "2014-03-05T18:00:00"
                }, 
                "required_operators": 1, 
                "location": {
                    "latitude": 46.01774357043239, 
                    "longitude": 13.408233620387206
                }, 
                "patient_name": "Gary Coleman"
            }, 
            "act_0_31": {
                "duration": 60, 
                "time_window": {
                    "start": "2014-03-05T08:00:00", 
                    "finish": "2014-03-05T13:00:00"
                }, 
                "required_operators": 1, 
                "location": {
                    "latitude": 46.21327245744572, 
                    "longitude": 12.919916498583998
                }, 
                "patient_name": "Eric Bostic"
            }, 
            "act_0_30": {
                "duration": 60, 
                "time_window": {
                    "start": "2014-03-05T08:00:00", 
                    "finish": "2014-03-05T13:00:00"
                }, 
                "required_operators": 1, 
                "location": {
                    "latitude": 46.01350455711041, 
                    "longitude": 13.44705057485988
                }, 
                "patient_name": "Debra Lee"
            }, 
            "act_0_19": {
                "duration": 60, 
                "time_window": {
                    "start": "2014-03-05T08:00:00", 
                    "finish": "2014-03-05T13:00:00"
                }, 
                "required_operators": 1, 
                "location": {
                    "latitude": 45.94500644665791, 
                    "longitude": 13.269500276987909
                }, 
                "patient_name": "Willie Dewey"
            }, 
            "act_0_18": {
                "duration": 60, 
                "time_window": {
                    "start": "2014-03-05T13:00:00", 
                    "finish": "2014-03-05T18:00:00"
                }, 
                "required_operators": 1, 
                "location": {
                    "latitude": 46.072275420359944, 
                    "longitude": 12.922757163729063
                }, 
                "patient_name": "Marcus Spradlin"
            }, 
            "act_0_17": {
                "duration": 30, 
                "time_window": {
                    "start": "2014-03-05T13:00:00", 
                    "finish": "2014-03-05T18:00:00"
                }, 
                "required_operators": 1, 
                "location": {
                    "latitude": 46.1341622206642, 
                    "longitude": 12.998243367625065
                }, 
                "patient_name": "Barbara Cobb"
            }, 
            "act_0_16": {
                "duration": 30, 
                "time_window": {
                    "start": "2014-03-05T11:20:00", 
                    "finish": "2014-03-05T14:40:00"
                }, 
                "required_operators": 1, 
                "location": {
                    "latitude": 46.07701609053853, 
                    "longitude": 13.101386097842646
                }, 
                "patient_name": "John Tupper"
            }, 
            "act_0_15": {
                "duration": 60, 
                "time_window": {
                    "start": "2014-03-05T13:00:00", 
                    "finish": "2014-03-05T18:00:00"
                }, 
                "required_operators": 1, 
                "location": {
                    "latitude": 46.000388579654526, 
                    "longitude": 13.38459159573661
                }, 
                "patient_name": "Bobby Greer"
            }, 
            "act_0_14": {
                "duration": 30, 
                "time_window": {
                    "start": "2014-03-05T13:00:00", 
                    "finish": "2014-03-05T18:00:00"
                }, 
                "required_operators": 2, 
                "location": {
                    "latitude": 46.18565468884585, 
                    "longitude": 13.001600429405876
                }, 
                "patient_name": "Alma Schaedler"
            }, 
            "act_0_13": {
                "duration": 30, 
                "time_window": {
                    "start": "2014-03-05T08:00:00", 
                    "finish": "2014-03-05T18:00:00"
                }, 
                "required_operators": 1, 
                "location": {
                    "latitude": 46.03975266518198, 
                    "longitude": 13.229606578406033
                }, 
                "patient_name": "Deborah Scheumann"
            }, 
            "act_0_12": {
                "duration": 60, 
                "time_window": {
                    "start": "2014-03-05T13:00:00", 
                    "finish": "2014-03-05T18:00:00"
                }, 
                "required_operators": 1, 
                "location": {
                    "latitude": 46.18408814494656, 
                    "longitude": 13.088345392793062
                }, 
                "patient_name": "Nannie Jackson"
            }, 
            "act_0_11": {
                "duration": 60, 
                "time_window": {
                    "start": "2014-03-05T08:00:00", 
                    "finish": "2014-03-05T18:00:00"
                }, 
                "required_operators": 1, 
                "location": {
                    "latitude": 46.12979589457423, 
                    "longitude": 13.096333061098768
                }, 
                "patient_name": "Wanda Macek"
            }, 
            "act_0_10": {
                "duration": 30, 
                "time_window": {
                    "start": "2014-03-05T14:40:00", 
                    "finish": "2014-03-05T18:00:00"
                }, 
                "required_operators": 1, 
                "location": {
                    "latitude": 46.23294575319346, 
                    "longitude": 13.29539522949935
                }, 
                "patient_name": "Nadia Anderson"
            }, 
            "act_0_33": {
                "duration": 30, 
                "time_window": {
                    "start": "2014-03-05T08:00:00", 
                    "finish": "2014-03-05T11:20:00"
                }, 
                "required_operators": 1, 
                "location": {
                    "latitude": 46.126892806698585, 
                    "longitude": 13.442816619384685
                }, 
                "patient_name": "John Reinhart"
            }, 
            "act_0_38": {
                "duration": 60, 
                "time_window": {
                    "start": "2014-03-05T08:00:00", 
                    "finish": "2014-03-05T18:00:00"
                }, 
                "required_operators": 1, 
                "location": {
                    "latitude": 46.183763740595154, 
                    "longitude": 13.130058496041604
                }, 
                "patient_name": "Charles Charlesworth"
            }, 
            "act_0_32": {
                "duration": 30, 
                "time_window": {
                    "start": "2014-03-05T08:00:00", 
                    "finish": "2014-03-05T11:20:00"
                }, 
                "required_operators": 2, 
                "location": {
                    "latitude": 46.05455520242165, 
                    "longitude": 13.038120281636091
                }, 
                "patient_name": "Jess Kim"
            }, 
            "act_0_9": {
                "duration": 60, 
                "time_window": {
                    "start": "2014-03-05T08:00:00", 
                    "finish": "2014-03-05T11:20:00"
                }, 
                "required_operators": 1, 
                "location": {
                    "latitude": 46.228949893664186, 
                    "longitude": 13.24223434474222
                }, 
                "patient_name": "Florence Evans"
            }, 
            "act_0_8": {
                "duration": 30, 
                "time_window": {
                    "start": "2014-03-05T08:00:00", 
                    "finish": "2014-03-05T18:00:00"
                }, 
                "required_operators": 1, 
                "location": {
                    "latitude": 46.05143659168118, 
                    "longitude": 13.184706538780414
                }, 
                "patient_name": "Cheryl Kelley"
            }, 
            "act_0_3": {
                "duration": 30, 
                "time_window": {
                    "start": "2014-03-05T08:00:00", 
                    "finish": "2014-03-05T18:00:00"
                }, 
                "required_operators": 1, 
                "location": {
                    "latitude": 46.01888674616557, 
                    "longitude": 13.273502401902798
                }, 
                "patient_name": "Robert Frawley"
            }, 
            "act_0_2": {
                "duration": 60, 
                "time_window": {
                    "start": "2014-03-05T08:00:00", 
                    "finish": "2014-03-05T13:00:00"
                }, 
                "required_operators": 2, 
                "location": {
                    "latitude": 46.00943025457318, 
                    "longitude": 13.462178900525815
                }, 
                "patient_name": "Jennifer Beasley"
            }, 
            "act_0_1": {
                "duration": 60, 
                "time_window": {
                    "start": "2014-03-05T14:40:00", 
                    "finish": "2014-03-05T18:00:00"
                }, 
                "required_operators": 1, 
                "location": {
                    "latitude": 46.19152686610384, 
                    "longitude": 13.390574106890899
                }, 
                "patient_name": "Patricia Giordano"
            }, 
            "act_0_0": {
                "duration": 30, 
                "time_window": {
                    "start": "2014-03-05T08:00:00", 
                    "finish": "2014-03-05T18:00:00"
                }, 
                "required_operators": 2, 
                "location": {
                    "latitude": 46.221647148776924, 
                    "longitude": 13.055007301659105
                }, 
                "patient_name": "Walter Martin"
            }, 
            "act_0_7": {
                "duration": 30, 
                "time_window": {
                    "start": "2014-03-05T13:00:00", 
                    "finish": "2014-03-05T18:00:00"
                }, 
                "required_operators": 1, 
                "location": {
                    "latitude": 46.22647700624578, 
                    "longitude": 13.250608803591666
                }, 
                "patient_name": "Mark Sanders"
            }, 
            "act_0_6": {
                "duration": 60, 
                "time_window": {
                    "start": "2014-03-05T08:00:00", 
                    "finish": "2014-03-05T13:00:00"
                }, 
                "required_operators": 2, 
                "location": {
                    "latitude": 46.047131454931424, 
                    "longitude": 13.185920112652646
                }, 
                "patient_name": "Robert Tran"
            }, 
            "act_0_5": {
                "duration": 30, 
                "time_window": {
                    "start": "2014-03-05T13:00:00", 
                    "finish": "2014-03-05T18:00:00"
                }, 
                "required_operators": 1, 
                "location": {
                    "latitude": 45.98994833772773, 
                    "longitude": 12.950279918130462
                }, 
                "patient_name": "Mary Kimball"
            }, 
            "act_0_4": {
                "duration": 30, 
                "time_window": {
                    "start": "2014-03-05T13:00:00", 
                    "finish": "2014-03-05T18:00:00"
                }, 
                "required_operators": 2, 
                "location": {
                    "latitude": 45.965310137848384, 
                    "longitude": 13.080191940503056
                }, 
                "patient_name": "Misty Ensminger"
            }, 
            "act_0_22": {
                "duration": 30, 
                "time_window": {
                    "start": "2014-03-05T13:00:00", 
                    "finish": "2014-03-05T18:00:00"
                }, 
                "required_operators": 1, 
                "location": {
                    "latitude": 45.998235142076936, 
                    "longitude": 13.421398368421999
                }, 
                "patient_name": "Eric Greenfield"
            }, 
            "act_0_23": {
                "duration": 60, 
                "time_window": {
                    "start": "2014-03-05T08:00:00", 
                    "finish": "2014-03-05T11:20:00"
                }, 
                "required_operators": 1, 
                "location": {
                    "latitude": 46.1123257307265, 
                    "longitude": 13.339326572867455
                }, 
                "patient_name": "Albert Henry"
            }, 
            "act_0_20": {
                "duration": 30, 
                "time_window": {
                    "start": "2014-03-05T13:00:00", 
                    "finish": "2014-03-05T18:00:00"
                }, 
                "required_operators": 1, 
                "location": {
                    "latitude": 46.149914428456206, 
                    "longitude": 13.220791532312873
                }, 
                "patient_name": "Andy Folse"
            }, 
            "act_0_21": {
                "duration": 30, 
                "time_window": {
                    "start": "2014-03-05T14:40:00", 
                    "finish": "2014-03-05T18:00:00"
                }, 
                "required_operators": 1, 
                "location": {
                    "latitude": 46.24388379755752, 
                    "longitude": 13.117967115472798
                }, 
                "patient_name": "Judith Johnson"
            }, 
            "act_0_26": {
                "duration": 30, 
                "time_window": {
                    "start": "2014-03-05T13:00:00", 
                    "finish": "2014-03-05T18:00:00"
                }, 
                "required_operators": 2, 
                "location": {
                    "latitude": 46.068023666527544, 
                    "longitude": 13.326581437220113
                }, 
                "patient_name": "Gary Kimrey"
            }, 
            "act_0_27": {
                "duration": 30, 
                "time_window": {
                    "start": "2014-03-05T08:00:00", 
                    "finish": "2014-03-05T18:00:00"
                }, 
                "required_operators": 1, 
                "location": {
                    "latitude": 45.953437836482706, 
                    "longitude": 13.408104008093122
                }, 
                "patient_name": "Kyle Moss"
            }, 
            "act_0_24": {
                "duration": 30, 
                "time_window": {
                    "start": "2014-03-05T11:20:00", 
                    "finish": "2014-03-05T14:40:00"
                }, 
                "required_operators": 1, 
                "location": {
                    "latitude": 46.19707574302714, 
                    "longitude": 13.185668635946707
                }, 
                "patient_name": "Paula Hall"
            }, 
            "act_0_25": {
                "duration": 60, 
                "time_window": {
                    "start": "2014-03-05T14:40:00", 
                    "finish": "2014-03-05T18:00:00"
                }, 
                "required_operators": 1, 
                "location": {
                    "latitude": 46.054971352345355, 
                    "longitude": 13.294799399166864
                }, 
                "patient_name": "Nikita Roberts"
            }, 
            "act_0_28": {
                "duration": 60, 
                "time_window": {
                    "start": "2014-03-05T08:00:00", 
                    "finish": "2014-03-05T13:00:00"
                }, 
                "required_operators": 1, 
                "location": {
                    "latitude": 46.01590082611043, 
                    "longitude": 13.239964722353585
                }, 
                "patient_name": "Linda Udo"
            }, 
            "act_0_29": {
                "duration": 30, 
                "time_window": {
                    "start": "2014-03-05T14:40:00", 
                    "finish": "2014-03-05T18:00:00"
                }, 
                "required_operators": 2, 
                "location": {
                    "latitude": 46.138521153285254, 
                    "longitude": 13.478020039084477
                }, 
                "patient_name": "Bobby Orr"
            }
        }, 
        {
            "act_1_38": {
                "duration": 30, 
                "time_window": {
                    "start": "2014-03-06T08:00:00", 
                    "finish": "2014-03-06T13:00:00"
                }, 
                "required_operators": 1, 
                "location": {
                    "latitude": 46.21824596904262, 
                    "longitude": 13.448221052998214
                }, 
                "patient_name": "Joan Black"
            }, 
            "act_1_39": {
                "duration": 60, 
                "time_window": {
                    "start": "2014-03-06T08:00:00", 
                    "finish": "2014-03-06T11:20:00"
                }, 
                "required_operators": 1, 
                "location": {
                    "latitude": 46.144983428082085, 
                    "longitude": 12.947929036625842
                }, 
                "patient_name": "Alfonso Cannon"
            }, 
            "act_1_32": {
                "duration": 60, 
                "time_window": {
                    "start": "2014-03-06T13:00:00", 
                    "finish": "2014-03-06T18:00:00"
                }, 
                "required_operators": 2, 
                "location": {
                    "latitude": 46.19653982997846, 
                    "longitude": 13.031536306356044
                }, 
                "patient_name": "Jennifer Burgess"
            }, 
            "act_1_33": {
                "duration": 30, 
                "time_window": {
                    "start": "2014-03-06T13:00:00", 
                    "finish": "2014-03-06T18:00:00"
                }, 
                "required_operators": 1, 
                "location": {
                    "latitude": 46.14569065022781, 
                    "longitude": 12.924859744394054
                }, 
                "patient_name": "Dana Raheja"
            }, 
            "act_1_30": {
                "duration": 60, 
                "time_window": {
                    "start": "2014-03-06T08:00:00", 
                    "finish": "2014-03-06T18:00:00"
                }, 
                "required_operators": 1, 
                "location": {
                    "latitude": 46.15297605319298, 
                    "longitude": 13.116213012310807
                }, 
                "patient_name": "Charles Degasparre"
            }, 
            "act_1_31": {
                "duration": 60, 
                "time_window": {
                    "start": "2014-03-06T08:00:00", 
                    "finish": "2014-03-06T11:20:00"
                }, 
                "required_operators": 1, 
                "location": {
                    "latitude": 45.98930214900964, 
                    "longitude": 13.352522144884638
                }, 
                "patient_name": "Jose Noboa"
            }, 
            "act_1_36": {
                "duration": 30, 
                "time_window": {
                    "start": "2014-03-06T11:20:00", 
                    "finish": "2014-03-06T14:40:00"
                }, 
                "required_operators": 1, 
                "location": {
                    "latitude": 45.99832298347879, 
                    "longitude": 13.451100198017986
                }, 
                "patient_name": "Carl Arocha"
            }, 
            "act_1_37": {
                "duration": 60, 
                "time_window": {
                    "start": "2014-03-06T08:00:00", 
                    "finish": "2014-03-06T18:00:00"
                }, 
                "required_operators": 2, 
                "location": {
                    "latitude": 46.16895352529822, 
                    "longitude": 13.348202932819088
                }, 
                "patient_name": "Michael Lyons"
            }, 
            "act_1_34": {
                "duration": 60, 
                "time_window": {
                    "start": "2014-03-06T08:00:00", 
                    "finish": "2014-03-06T11:20:00"
                }, 
                "required_operators": 1, 
                "location": {
                    "latitude": 46.18840104831576, 
                    "longitude": 13.011039894359751
                }, 
                "patient_name": "Gennie Routson"
            }, 
            "act_1_35": {
                "duration": 30, 
                "time_window": {
                    "start": "2014-03-06T08:00:00", 
                    "finish": "2014-03-06T13:00:00"
                }, 
                "required_operators": 2, 
                "location": {
                    "latitude": 45.97902156832006, 
                    "longitude": 13.355142542611315
                }, 
                "patient_name": "Jose Vannostrand"
            }, 
            "act_1_14": {
                "duration": 30, 
                "time_window": {
                    "start": "2014-03-06T14:40:00", 
                    "finish": "2014-03-06T18:00:00"
                }, 
                "required_operators": 2, 
                "location": {
                    "latitude": 46.069877745112024, 
                    "longitude": 13.176598153057123
                }, 
                "patient_name": "Matthew Cooper"
            }, 
            "act_1_15": {
                "duration": 30, 
                "time_window": {
                    "start": "2014-03-06T11:20:00", 
                    "finish": "2014-03-06T14:40:00"
                }, 
                "required_operators": 1, 
                "location": {
                    "latitude": 46.16202730930585, 
                    "longitude": 13.364075923774456
                }, 
                "patient_name": "Justin Shearer"
            }, 
            "act_1_16": {
                "duration": 60, 
                "time_window": {
                    "start": "2014-03-06T14:40:00", 
                    "finish": "2014-03-06T18:00:00"
                }, 
                "required_operators": 1, 
                "location": {
                    "latitude": 45.970987820469325, 
                    "longitude": 12.890280484941155
                }, 
                "patient_name": "Lizzie Geffrard"
            }, 
            "act_1_17": {
                "duration": 30, 
                "time_window": {
                    "start": "2014-03-06T08:00:00", 
                    "finish": "2014-03-06T18:00:00"
                }, 
                "required_operators": 1, 
                "location": {
                    "latitude": 46.14555032322723, 
                    "longitude": 13.201983912776868
                }, 
                "patient_name": "Isabel Godby"
            }, 
            "act_1_10": {
                "duration": 30, 
                "time_window": {
                    "start": "2014-03-06T14:40:00", 
                    "finish": "2014-03-06T18:00:00"
                }, 
                "required_operators": 2, 
                "location": {
                    "latitude": 46.1014430389799, 
                    "longitude": 12.923112033780068
                }, 
                "patient_name": "Kenneth Mull"
            }, 
            "act_1_11": {
                "duration": 60, 
                "time_window": {
                    "start": "2014-03-06T08:00:00", 
                    "finish": "2014-03-06T18:00:00"
                }, 
                "required_operators": 1, 
                "location": {
                    "latitude": 45.94313991152078, 
                    "longitude": 12.902622598548742
                }, 
                "patient_name": "Monica Raney"
            }, 
            "act_1_12": {
                "duration": 60, 
                "time_window": {
                    "start": "2014-03-06T14:40:00", 
                    "finish": "2014-03-06T18:00:00"
                }, 
                "required_operators": 1, 
                "location": {
                    "latitude": 46.03520166481593, 
                    "longitude": 12.969676266512087
                }, 
                "patient_name": "Matthew Nelson"
            }, 
            "act_1_13": {
                "duration": 30, 
                "time_window": {
                    "start": "2014-03-06T14:40:00", 
                    "finish": "2014-03-06T18:00:00"
                }, 
                "required_operators": 1, 
                "location": {
                    "latitude": 45.98653717988536, 
                    "longitude": 13.209888105569949
                }, 
                "patient_name": "Mamie Garcia"
            }, 
            "act_1_18": {
                "duration": 60, 
                "time_window": {
                    "start": "2014-03-06T08:00:00", 
                    "finish": "2014-03-06T13:00:00"
                }, 
                "required_operators": 1, 
                "location": {
                    "latitude": 46.25400803339415, 
                    "longitude": 13.249710027316805
                }, 
                "patient_name": "Ashley Rothhaupt"
            }, 
            "act_1_19": {
                "duration": 60, 
                "time_window": {
                    "start": "2014-03-06T08:00:00", 
                    "finish": "2014-03-06T11:20:00"
                }, 
                "required_operators": 1, 
                "location": {
                    "latitude": 45.942777174847706, 
                    "longitude": 13.241771481438226
                }, 
                "patient_name": "Heather Quarles"
            }, 
            "act_1_2": {
                "duration": 30, 
                "time_window": {
                    "start": "2014-03-06T08:00:00", 
                    "finish": "2014-03-06T13:00:00"
                }, 
                "required_operators": 2, 
                "location": {
                    "latitude": 45.9824645602991, 
                    "longitude": 12.96058331299384
                }, 
                "patient_name": "Clara Gomez"
            }, 
            "act_1_3": {
                "duration": 60, 
                "time_window": {
                    "start": "2014-03-06T08:00:00", 
                    "finish": "2014-03-06T13:00:00"
                }, 
                "required_operators": 1, 
                "location": {
                    "latitude": 46.11347151866805, 
                    "longitude": 13.469182072863001
                }, 
                "patient_name": "Todd Mitchell"
            }, 
            "act_1_0": {
                "duration": 30, 
                "time_window": {
                    "start": "2014-03-06T13:00:00", 
                    "finish": "2014-03-06T18:00:00"
                }, 
                "required_operators": 1, 
                "location": {
                    "latitude": 46.09699784981325, 
                    "longitude": 13.07404434216413
                }, 
                "patient_name": "Effie Mcgrath"
            }, 
            "act_1_1": {
                "duration": 30, 
                "time_window": {
                    "start": "2014-03-06T08:00:00", 
                    "finish": "2014-03-06T18:00:00"
                }, 
                "required_operators": 1, 
                "location": {
                    "latitude": 45.966723345074115, 
                    "longitude": 13.165054229150957
                }, 
                "patient_name": "Joanna Delancey"
            }, 
            "act_1_6": {
                "duration": 60, 
                "time_window": {
                    "start": "2014-03-06T08:00:00", 
                    "finish": "2014-03-06T18:00:00"
                }, 
                "required_operators": 1, 
                "location": {
                    "latitude": 45.94648991958741, 
                    "longitude": 13.453889153227996
                }, 
                "patient_name": "Ervin Durkee"
            }, 
            "act_1_7": {
                "duration": 30, 
                "time_window": {
                    "start": "2014-03-06T11:20:00", 
                    "finish": "2014-03-06T14:40:00"
                }, 
                "required_operators": 1, 
                "location": {
                    "latitude": 45.993243936728824, 
                    "longitude": 12.979299509161876
                }, 
                "patient_name": "Irene Gallagher"
            }, 
            "act_1_4": {
                "duration": 30, 
                "time_window": {
                    "start": "2014-03-06T11:20:00", 
                    "finish": "2014-03-06T14:40:00"
                }, 
                "required_operators": 2, 
                "location": {
                    "latitude": 46.08401218280237, 
                    "longitude": 13.327831132962622
                }, 
                "patient_name": "Lawrence Chang"
            }, 
            "act_1_5": {
                "duration": 60, 
                "time_window": {
                    "start": "2014-03-06T13:00:00", 
                    "finish": "2014-03-06T18:00:00"
                }, 
                "required_operators": 1, 
                "location": {
                    "latitude": 45.999760757990444, 
                    "longitude": 13.273042040601988
                }, 
                "patient_name": "Michael Burns"
            }, 
            "act_1_8": {
                "duration": 60, 
                "time_window": {
                    "start": "2014-03-06T11:20:00", 
                    "finish": "2014-03-06T14:40:00"
                }, 
                "required_operators": 1, 
                "location": {
                    "latitude": 46.16802335084397, 
                    "longitude": 13.173313119430514
                }, 
                "patient_name": "Judith Bartel"
            }, 
            "act_1_9": {
                "duration": 60, 
                "time_window": {
                    "start": "2014-03-06T08:00:00", 
                    "finish": "2014-03-06T13:00:00"
                }, 
                "required_operators": 1, 
                "location": {
                    "latitude": 45.95792437008712, 
                    "longitude": 13.4234321106333
                }, 
                "patient_name": "Emil Wallace"
            }, 
            "act_1_29": {
                "duration": 30, 
                "time_window": {
                    "start": "2014-03-06T08:00:00", 
                    "finish": "2014-03-06T18:00:00"
                }, 
                "required_operators": 2, 
                "location": {
                    "latitude": 46.175406205868526, 
                    "longitude": 12.996633532132197
                }, 
                "patient_name": "Peggy Thomas"
            }, 
            "act_1_28": {
                "duration": 30, 
                "time_window": {
                    "start": "2014-03-06T08:00:00", 
                    "finish": "2014-03-06T18:00:00"
                }, 
                "required_operators": 1, 
                "location": {
                    "latitude": 45.96082736679098, 
                    "longitude": 13.370854138966541
                }, 
                "patient_name": "Chase Sanchez"
            }, 
            "act_1_25": {
                "duration": 60, 
                "time_window": {
                    "start": "2014-03-06T08:00:00", 
                    "finish": "2014-03-06T13:00:00"
                }, 
                "required_operators": 1, 
                "location": {
                    "latitude": 46.2393358727448, 
                    "longitude": 13.32174194088415
                }, 
                "patient_name": "Jermaine Brown"
            }, 
            "act_1_24": {
                "duration": 60, 
                "time_window": {
                    "start": "2014-03-06T08:00:00", 
                    "finish": "2014-03-06T18:00:00"
                }, 
                "required_operators": 1, 
                "location": {
                    "latitude": 45.97272641556566, 
                    "longitude": 12.924833289882415
                }, 
                "patient_name": "Ellamae Meredith"
            }, 
            "act_1_27": {
                "duration": 30, 
                "time_window": {
                    "start": "2014-03-06T08:00:00", 
                    "finish": "2014-03-06T18:00:00"
                }, 
                "required_operators": 2, 
                "location": {
                    "latitude": 46.00565768246713, 
                    "longitude": 13.139728778381297
                }, 
                "patient_name": "Rick Harvey"
            }, 
            "act_1_26": {
                "duration": 60, 
                "time_window": {
                    "start": "2014-03-06T08:00:00", 
                    "finish": "2014-03-06T13:00:00"
                }, 
                "required_operators": 1, 
                "location": {
                    "latitude": 45.95669309765913, 
                    "longitude": 13.21814839417578
                }, 
                "patient_name": "Mary Porter"
            }, 
            "act_1_21": {
                "duration": 60, 
                "time_window": {
                    "start": "2014-03-06T13:00:00", 
                    "finish": "2014-03-06T18:00:00"
                }, 
                "required_operators": 1, 
                "location": {
                    "latitude": 46.01862936773901, 
                    "longitude": 13.149925779487214
                }, 
                "patient_name": "Michael Funk"
            }, 
            "act_1_20": {
                "duration": 60, 
                "time_window": {
                    "start": "2014-03-06T08:00:00", 
                    "finish": "2014-03-06T18:00:00"
                }, 
                "required_operators": 2, 
                "location": {
                    "latitude": 46.037312098682065, 
                    "longitude": 13.281955562111923
                }, 
                "patient_name": "Jack Green"
            }, 
            "act_1_23": {
                "duration": 60, 
                "time_window": {
                    "start": "2014-03-06T13:00:00", 
                    "finish": "2014-03-06T18:00:00"
                }, 
                "required_operators": 1, 
                "location": {
                    "latitude": 46.11574604825555, 
                    "longitude": 13.136986394496237
                }, 
                "patient_name": "Sandra Holcombe"
            }, 
            "act_1_22": {
                "duration": 30, 
                "time_window": {
                    "start": "2014-03-06T13:00:00", 
                    "finish": "2014-03-06T18:00:00"
                }, 
                "required_operators": 1, 
                "location": {
                    "latitude": 45.983354449595474, 
                    "longitude": 13.16466829778236
                }, 
                "patient_name": "Jonathan Ruthstrom"
            }
        }, 
        {
            "act_2_19": {
                "duration": 30, 
                "time_window": {
                    "start": "2014-03-07T14:40:00", 
                    "finish": "2014-03-07T18:00:00"
                }, 
                "required_operators": 2, 
                "location": {
                    "latitude": 46.02063381642176, 
                    "longitude": 13.394100903503876
                }, 
                "patient_name": "Cameron Wiley"
            }, 
            "act_2_18": {
                "duration": 30, 
                "time_window": {
                    "start": "2014-03-07T08:00:00", 
                    "finish": "2014-03-07T13:00:00"
                }, 
                "required_operators": 1, 
                "location": {
                    "latitude": 46.135034173801586, 
                    "longitude": 13.078745019577426
                }, 
                "patient_name": "Shirley Voorhies"
            }, 
            "act_2_11": {
                "duration": 30, 
                "time_window": {
                    "start": "2014-03-07T08:00:00", 
                    "finish": "2014-03-07T18:00:00"
                }, 
                "required_operators": 2, 
                "location": {
                    "latitude": 46.20384941806462, 
                    "longitude": 13.397591404176415
                }, 
                "patient_name": "Carolyn Bratcher"
            }, 
            "act_2_10": {
                "duration": 60, 
                "time_window": {
                    "start": "2014-03-07T08:00:00", 
                    "finish": "2014-03-07T13:00:00"
                }, 
                "required_operators": 1, 
                "location": {
                    "latitude": 46.10872920546834, 
                    "longitude": 13.279067836614196
                }, 
                "patient_name": "Nancy Eversoll"
            }, 
            "act_2_13": {
                "duration": 60, 
                "time_window": {
                    "start": "2014-03-07T13:00:00", 
                    "finish": "2014-03-07T18:00:00"
                }, 
                "required_operators": 1, 
                "location": {
                    "latitude": 46.06759740745515, 
                    "longitude": 13.006482186786275
                }, 
                "patient_name": "William Mcelwaine"
            }, 
            "act_2_12": {
                "duration": 30, 
                "time_window": {
                    "start": "2014-03-07T08:00:00", 
                    "finish": "2014-03-07T13:00:00"
                }, 
                "required_operators": 1, 
                "location": {
                    "latitude": 45.95270404972468, 
                    "longitude": 13.340906647776515
                }, 
                "patient_name": "Stacy Brown"
            }, 
            "act_2_15": {
                "duration": 30, 
                "time_window": {
                    "start": "2014-03-07T11:20:00", 
                    "finish": "2014-03-07T14:40:00"
                }, 
                "required_operators": 1, 
                "location": {
                    "latitude": 46.07464439047435, 
                    "longitude": 13.26069491013616
                }, 
                "patient_name": "Marissa Knowles"
            }, 
            "act_2_14": {
                "duration": 30, 
                "time_window": {
                    "start": "2014-03-07T08:00:00", 
                    "finish": "2014-03-07T18:00:00"
                }, 
                "required_operators": 1, 
                "location": {
                    "latitude": 46.06147040512034, 
                    "longitude": 13.17179838962062
                }, 
                "patient_name": "Rachel Licata"
            }, 
            "act_2_17": {
                "duration": 30, 
                "time_window": {
                    "start": "2014-03-07T11:20:00", 
                    "finish": "2014-03-07T14:40:00"
                }, 
                "required_operators": 1, 
                "location": {
                    "latitude": 46.02402454230903, 
                    "longitude": 13.421694253758202
                }, 
                "patient_name": "Jewel Bishop"
            }, 
            "act_2_16": {
                "duration": 30, 
                "time_window": {
                    "start": "2014-03-07T08:00:00", 
                    "finish": "2014-03-07T11:20:00"
                }, 
                "required_operators": 2, 
                "location": {
                    "latitude": 46.20338154672001, 
                    "longitude": 12.866888482584464
                }, 
                "patient_name": "Lauren Torres"
            }, 
            "act_2_33": {
                "duration": 30, 
                "time_window": {
                    "start": "2014-03-07T08:00:00", 
                    "finish": "2014-03-07T18:00:00"
                }, 
                "required_operators": 1, 
                "location": {
                    "latitude": 45.9771904398775, 
                    "longitude": 12.986543906474274
                }, 
                "patient_name": "Jack Duryea"
            }, 
            "act_2_32": {
                "duration": 30, 
                "time_window": {
                    "start": "2014-03-07T08:00:00", 
                    "finish": "2014-03-07T18:00:00"
                }, 
                "required_operators": 2, 
                "location": {
                    "latitude": 46.05277155749983, 
                    "longitude": 13.175071330239605
                }, 
                "patient_name": "Marie Carney"
            }, 
            "act_2_31": {
                "duration": 60, 
                "time_window": {
                    "start": "2014-03-07T13:00:00", 
                    "finish": "2014-03-07T18:00:00"
                }, 
                "required_operators": 2, 
                "location": {
                    "latitude": 46.10423129608022, 
                    "longitude": 13.399758834417089
                }, 
                "patient_name": "Harold Kim"
            }, 
            "act_2_30": {
                "duration": 30, 
                "time_window": {
                    "start": "2014-03-07T08:00:00", 
                    "finish": "2014-03-07T18:00:00"
                }, 
                "required_operators": 1, 
                "location": {
                    "latitude": 45.99515592837267, 
                    "longitude": 13.397059215210069
                }, 
                "patient_name": "Jill Williams"
            }, 
            "act_2_37": {
                "duration": 60, 
                "time_window": {
                    "start": "2014-03-07T08:00:00", 
                    "finish": "2014-03-07T18:00:00"
                }, 
                "required_operators": 1, 
                "location": {
                    "latitude": 45.98437744617471, 
                    "longitude": 13.344496676650357
                }, 
                "patient_name": "Lisa Seling"
            }, 
            "act_2_36": {
                "duration": 30, 
                "time_window": {
                    "start": "2014-03-07T08:00:00", 
                    "finish": "2014-03-07T11:20:00"
                }, 
                "required_operators": 1, 
                "location": {
                    "latitude": 46.05318371423431, 
                    "longitude": 12.861722671925042
                }, 
                "patient_name": "Seymour Doney"
            }, 
            "act_2_35": {
                "duration": 60, 
                "time_window": {
                    "start": "2014-03-07T13:00:00", 
                    "finish": "2014-03-07T18:00:00"
                }, 
                "required_operators": 1, 
                "location": {
                    "latitude": 45.96825938531526, 
                    "longitude": 13.320146836588735
                }, 
                "patient_name": "Dot Barrett"
            }, 
            "act_2_34": {
                "duration": 30, 
                "time_window": {
                    "start": "2014-03-07T08:00:00", 
                    "finish": "2014-03-07T13:00:00"
                }, 
                "required_operators": 2, 
                "location": {
                    "latitude": 46.189713489854256, 
                    "longitude": 13.475560020552708
                }, 
                "patient_name": "Kent Sanchez"
            }, 
            "act_2_39": {
                "duration": 60, 
                "time_window": {
                    "start": "2014-03-07T13:00:00", 
                    "finish": "2014-03-07T18:00:00"
                }, 
                "required_operators": 1, 
                "location": {
                    "latitude": 46.225641323420554, 
                    "longitude": 13.383276677562755
                }, 
                "patient_name": "Wilbur Gill"
            }, 
            "act_2_38": {
                "duration": 30, 
                "time_window": {
                    "start": "2014-03-07T08:00:00", 
                    "finish": "2014-03-07T18:00:00"
                }, 
                "required_operators": 2, 
                "location": {
                    "latitude": 46.1181855897587, 
                    "longitude": 13.361420699495552
                }, 
                "patient_name": "Michelle Castellanos"
            }, 
            "act_2_20": {
                "duration": 30, 
                "time_window": {
                    "start": "2014-03-07T08:00:00", 
                    "finish": "2014-03-07T18:00:00"
                }, 
                "required_operators": 1, 
                "location": {
                    "latitude": 46.180674356714384, 
                    "longitude": 13.176144756189927
                }, 
                "patient_name": "Jeniffer Wing"
            }, 
            "act_2_21": {
                "duration": 30, 
                "time_window": {
                    "start": "2014-03-07T08:00:00", 
                    "finish": "2014-03-07T11:20:00"
                }, 
                "required_operators": 2, 
                "location": {
                    "latitude": 46.08170321134111, 
                    "longitude": 13.286869370128198
                }, 
                "patient_name": "Mary Gazaway"
            }, 
            "act_2_22": {
                "duration": 30, 
                "time_window": {
                    "start": "2014-03-07T08:00:00", 
                    "finish": "2014-03-07T18:00:00"
                }, 
                "required_operators": 1, 
                "location": {
                    "latitude": 46.170328232449066, 
                    "longitude": 12.938505506580883
                }, 
                "patient_name": "Particia Salais"
            }, 
            "act_2_23": {
                "duration": 60, 
                "time_window": {
                    "start": "2014-03-07T13:00:00", 
                    "finish": "2014-03-07T18:00:00"
                }, 
                "required_operators": 1, 
                "location": {
                    "latitude": 45.99355495573635, 
                    "longitude": 13.095221647197889
                }, 
                "patient_name": "Joseph Bernardi"
            }, 
            "act_2_24": {
                "duration": 60, 
                "time_window": {
                    "start": "2014-03-07T08:00:00", 
                    "finish": "2014-03-07T18:00:00"
                }, 
                "required_operators": 1, 
                "location": {
                    "latitude": 46.05771509853379, 
                    "longitude": 13.022239321556198
                }, 
                "patient_name": "Carol Velez"
            }, 
            "act_2_25": {
                "duration": 30, 
                "time_window": {
                    "start": "2014-03-07T13:00:00", 
                    "finish": "2014-03-07T18:00:00"
                }, 
                "required_operators": 1, 
                "location": {
                    "latitude": 46.154294218507154, 
                    "longitude": 13.323598372608153
                }, 
                "patient_name": "Victor Ruegg"
            }, 
            "act_2_26": {
                "duration": 60, 
                "time_window": {
                    "start": "2014-03-07T13:00:00", 
                    "finish": "2014-03-07T18:00:00"
                }, 
                "required_operators": 1, 
                "location": {
                    "latitude": 46.04472711746765, 
                    "longitude": 13.147055847154597
                }, 
                "patient_name": "Sarah Allen"
            }, 
            "act_2_27": {
                "duration": 30, 
                "time_window": {
                    "start": "2014-03-07T08:00:00", 
                    "finish": "2014-03-07T18:00:00"
                }, 
                "required_operators": 2, 
                "location": {
                    "latitude": 46.12625703468072, 
                    "longitude": 13.08558671593896
                }, 
                "patient_name": "Tina Winters"
            }, 
            "act_2_28": {
                "duration": 30, 
                "time_window": {
                    "start": "2014-03-07T11:20:00", 
                    "finish": "2014-03-07T14:40:00"
                }, 
                "required_operators": 1, 
                "location": {
                    "latitude": 45.99558614643693, 
                    "longitude": 13.062195117804638
                }, 
                "patient_name": "Ryan Brown"
            }, 
            "act_2_29": {
                "duration": 30, 
                "time_window": {
                    "start": "2014-03-07T11:20:00", 
                    "finish": "2014-03-07T14:40:00"
                }, 
                "required_operators": 1, 
                "location": {
                    "latitude": 46.24343821363057, 
                    "longitude": 13.16370506170958
                }, 
                "patient_name": "Jerry Gregg"
            }, 
            "act_2_9": {
                "duration": 30, 
                "time_window": {
                    "start": "2014-03-07T08:00:00", 
                    "finish": "2014-03-07T18:00:00"
                }, 
                "required_operators": 2, 
                "location": {
                    "latitude": 46.123184259468104, 
                    "longitude": 13.415515415418131
                }, 
                "patient_name": "Gloria Haven"
            }, 
            "act_2_8": {
                "duration": 30, 
                "time_window": {
                    "start": "2014-03-07T08:00:00", 
                    "finish": "2014-03-07T13:00:00"
                }, 
                "required_operators": 1, 
                "location": {
                    "latitude": 45.99948447268392, 
                    "longitude": 13.168181915335818
                }, 
                "patient_name": "Louise Whiteman"
            }, 
            "act_2_5": {
                "duration": 30, 
                "time_window": {
                    "start": "2014-03-07T08:00:00", 
                    "finish": "2014-03-07T18:00:00"
                }, 
                "required_operators": 2, 
                "location": {
                    "latitude": 46.17357724475725, 
                    "longitude": 13.242114429051357
                }, 
                "patient_name": "George Watson"
            }, 
            "act_2_4": {
                "duration": 60, 
                "time_window": {
                    "start": "2014-03-07T08:00:00", 
                    "finish": "2014-03-07T18:00:00"
                }, 
                "required_operators": 1, 
                "location": {
                    "latitude": 46.0253761117527, 
                    "longitude": 12.945414949241693
                }, 
                "patient_name": "Charles Padgett"
            }, 
            "act_2_7": {
                "duration": 30, 
                "time_window": {
                    "start": "2014-03-07T08:00:00", 
                    "finish": "2014-03-07T18:00:00"
                }, 
                "required_operators": 1, 
                "location": {
                    "latitude": 46.127541277430716, 
                    "longitude": 12.891088796337
                }, 
                "patient_name": "Elizabeth Patterson"
            }, 
            "act_2_6": {
                "duration": 30, 
                "time_window": {
                    "start": "2014-03-07T08:00:00", 
                    "finish": "2014-03-07T18:00:00"
                }, 
                "required_operators": 1, 
                "location": {
                    "latitude": 46.20490212382843, 
                    "longitude": 13.096063401014755
                }, 
                "patient_name": "Margaret Weaver"
            }, 
            "act_2_1": {
                "duration": 30, 
                "time_window": {
                    "start": "2014-03-07T08:00:00", 
                    "finish": "2014-03-07T13:00:00"
                }, 
                "required_operators": 1, 
                "location": {
                    "latitude": 46.11578369599254, 
                    "longitude": 12.934784581117329
                }, 
                "patient_name": "Robert Rosa"
            }, 
            "act_2_0": {
                "duration": 60, 
                "time_window": {
                    "start": "2014-03-07T08:00:00", 
                    "finish": "2014-03-07T18:00:00"
                }, 
                "required_operators": 1, 
                "location": {
                    "latitude": 46.10854847636445, 
                    "longitude": 13.399185491891455
                }, 
                "patient_name": "Florence Roberts"
            }, 
            "act_2_3": {
                "duration": 30, 
                "time_window": {
                    "start": "2014-03-07T08:00:00", 
                    "finish": "2014-03-07T11:20:00"
                }, 
                "required_operators": 1, 
                "location": {
                    "latitude": 45.998959582057395, 
                    "longitude": 12.910693006193345
                }, 
                "patient_name": "William Miller"
            }, 
            "act_2_2": {
                "duration": 60, 
                "time_window": {
                    "start": "2014-03-07T14:40:00", 
                    "finish": "2014-03-07T18:00:00"
                }, 
                "required_operators": 1, 
                "location": {
                    "latitude": 46.19560585531003, 
                    "longitude": 13.167734094370585
                }, 
                "patient_name": "Marlene Asher"
            }
        }
    ], 
    "operators": {
        "op_12": {
            "time_windows": [
                {
                    "start": "2014-03-05T08:00:00", 
                    "finish": "2014-03-05T18:00:00", 
                    "regular_worktime": "8:00:00"
                }, 
                {
                    "start": "2014-03-06T08:00:00", 
                    "finish": "2014-03-06T18:00:00", 
                    "regular_worktime": "8:00:00"
                }, 
                {
                    "start": "2014-03-07T13:00:00", 
                    "finish": "2014-03-07T18:00:00", 
                    "regular_worktime": "4:00:00"
                }
            ], 
            "incompatible_activities": [
                "act_2_28", 
                "act_0_3", 
                "act_2_6", 
                "act_0_12", 
                "act_0_29", 
                "act_2_26", 
                "act_0_38", 
                "act_0_26"
            ], 
            "maximum_working_hours": "16:00:00", 
            "name": "Dan Amerson", 
            "minimum_working_hours": "12:00:00"
        }, 
        "op_15": {
            "time_windows": [
                {
                    "start": "2014-03-05T13:00:00", 
                    "finish": "2014-03-05T18:00:00", 
                    "regular_worktime": "4:00:00"
                }, 
                {
                    "start": "2014-03-06T08:00:00", 
                    "finish": "2014-03-06T18:00:00", 
                    "regular_worktime": "8:00:00"
                }, 
                {
                    "start": "2014-03-07T13:00:00", 
                    "finish": "2014-03-07T18:00:00", 
                    "regular_worktime": "4:00:00"
                }
            ], 
            "incompatible_activities": [
                "act_0_25", 
                "act_0_26", 
                "act_1_11", 
                "act_1_34", 
                "act_0_6", 
                "act_0_2", 
                "act_1_12", 
                "act_0_15"
            ], 
            "maximum_working_hours": "12:00:00", 
            "name": "Robert Allred", 
            "minimum_working_hours": "08:00:00"
        }, 
        "op_8": {
            "time_windows": [
                {
                    "start": "2014-03-05T08:00:00", 
                    "finish": "2014-03-05T18:00:00", 
                    "regular_worktime": "8:00:00"
                }, 
                {
                    "start": "2014-03-06T08:00:00", 
                    "finish": "2014-03-06T13:00:00", 
                    "regular_worktime": "4:00:00"
                }, 
                {
                    "start": "2014-03-07T08:00:00", 
                    "finish": "2014-03-07T18:00:00", 
                    "regular_worktime": "8:00:00"
                }
            ], 
            "incompatible_activities": [
                "act_1_20", 
                "act_0_23", 
                "act_1_36", 
                "act_1_25", 
                "act_2_21", 
                "act_0_0", 
                "act_1_3", 
                "act_1_1"
            ], 
            "maximum_working_hours": "16:00:00", 
            "name": "John Rodriguez", 
            "minimum_working_hours": "12:00:00"
        }, 
        "op_9": {
            "time_windows": [
                {
                    "start": "2014-03-05T08:00:00", 
                    "finish": "2014-03-05T18:00:00", 
                    "regular_worktime": "8:00:00"
                }, 
                {
                    "start": "2014-03-06T08:00:00", 
                    "finish": "2014-03-06T18:00:00", 
                    "regular_worktime": "8:00:00"
                }, 
                {
                    "start": "2014-03-07T08:00:00", 
                    "finish": "2014-03-07T18:00:00", 
                    "regular_worktime": "8:00:00"
                }
            ], 
            "incompatible_activities": [
                "act_0_15", 
                "act_1_37", 
                "act_0_14", 
                "act_0_0", 
                "act_1_2", 
                "act_1_18", 
                "act_1_10", 
                "act_1_20"
            ], 
            "maximum_working_hours": "16:00:00", 
            "name": "John Brown", 
            "minimum_working_hours": "16:00:00"
        }, 
        "op_13": {
            "time_windows": [
                {
                    "start": "2014-03-05T08:00:00", 
                    "finish": "2014-03-05T18:00:00", 
                    "regular_worktime": "8:00:00"
                }, 
                {}, 
                {
                    "start": "2014-03-07T08:00:00", 
                    "finish": "2014-03-07T13:00:00", 
                    "regular_worktime": "4:00:00"
                }
            ], 
            "incompatible_activities": [
                "act_0_25", 
                "act_1_6", 
                "act_1_11", 
                "act_2_0", 
                "act_0_33", 
                "act_2_13", 
                "act_1_30", 
                "act_1_10"
            ], 
            "maximum_working_hours": "12:00:00", 
            "name": "James Thornton", 
            "minimum_working_hours": "12:00:00"
        }, 
        "op_4": {
            "time_windows": [
                {
                    "start": "2014-03-05T13:00:00", 
                    "finish": "2014-03-05T18:00:00", 
                    "regular_worktime": "4:00:00"
                }, 
                {
                    "start": "2014-03-06T08:00:00", 
                    "finish": "2014-03-06T13:00:00", 
                    "regular_worktime": "4:00:00"
                }, 
                {
                    "start": "2014-03-07T08:00:00", 
                    "finish": "2014-03-07T18:00:00", 
                    "regular_worktime": "8:00:00"
                }
            ], 
            "incompatible_activities": [
                "act_1_16", 
                "act_2_3", 
                "act_0_16", 
                "act_1_26", 
                "act_1_6", 
                "act_0_29", 
                "act_2_10", 
                "act_2_14"
            ], 
            "maximum_working_hours": "12:00:00", 
            "name": "John Indermuehle", 
            "minimum_working_hours": "08:00:00"
        }, 
        "op_5": {
            "time_windows": [
                {
                    "start": "2014-03-05T08:00:00", 
                    "finish": "2014-03-05T18:00:00", 
                    "regular_worktime": "8:00:00"
                }, 
                {
                    "start": "2014-03-06T08:00:00", 
                    "finish": "2014-03-06T13:00:00", 
                    "regular_worktime": "4:00:00"
                }, 
                {
                    "start": "2014-03-07T08:00:00", 
                    "finish": "2014-03-07T13:00:00", 
                    "regular_worktime": "4:00:00"
                }
            ], 
            "incompatible_activities": [
                "act_2_39", 
                "act_1_2", 
                "act_0_16", 
                "act_2_15", 
                "act_0_20", 
                "act_2_13", 
                "act_0_33", 
                "act_1_7"
            ], 
            "maximum_working_hours": "12:00:00", 
            "name": "Antonio Brown", 
            "minimum_working_hours": "08:00:00"
        }, 
        "op_6": {
            "time_windows": [
                {
                    "start": "2014-03-05T08:00:00", 
                    "finish": "2014-03-05T18:00:00", 
                    "regular_worktime": "8:00:00"
                }, 
                {
                    "start": "2014-03-06T08:00:00", 
                    "finish": "2014-03-06T18:00:00", 
                    "regular_worktime": "8:00:00"
                }, 
                {
                    "start": "2014-03-07T08:00:00", 
                    "finish": "2014-03-07T18:00:00", 
                    "regular_worktime": "8:00:00"
                }
            ], 
            "incompatible_activities": [
                "act_2_21", 
                "act_1_16", 
                "act_1_38", 
                "act_0_25", 
                "act_0_11", 
                "act_1_24", 
                "act_2_19", 
                "act_0_35"
            ], 
            "maximum_working_hours": "16:00:00", 
            "name": "Jaime Holley", 
            "minimum_working_hours": "16:00:00"
        }, 
        "op_7": {
            "time_windows": [
                {
                    "start": "2014-03-05T13:00:00", 
                    "finish": "2014-03-05T18:00:00", 
                    "regular_worktime": "4:00:00"
                }, 
                {
                    "start": "2014-03-06T13:00:00", 
                    "finish": "2014-03-06T18:00:00", 
                    "regular_worktime": "4:00:00"
                }, 
                {
                    "start": "2014-03-07T08:00:00", 
                    "finish": "2014-03-07T18:00:00", 
                    "regular_worktime": "8:00:00"
                }
            ], 
            "incompatible_activities": [
                "act_0_10", 
                "act_0_9", 
                "act_0_3", 
                "act_0_33", 
                "act_1_21", 
                "act_0_31", 
                "act_2_8", 
                "act_0_4"
            ], 
            "maximum_working_hours": "12:00:00", 
            "name": "Gia Mortell", 
            "minimum_working_hours": "08:00:00"
        }, 
        "op_0": {
            "time_windows": [
                {
                    "start": "2014-03-05T13:00:00", 
                    "finish": "2014-03-05T18:00:00", 
                    "regular_worktime": "4:00:00"
                }, 
                {
                    "start": "2014-03-06T08:00:00", 
                    "finish": "2014-03-06T18:00:00", 
                    "regular_worktime": "8:00:00"
                }, 
                {
                    "start": "2014-03-07T08:00:00", 
                    "finish": "2014-03-07T13:00:00", 
                    "regular_worktime": "4:00:00"
                }
            ], 
            "incompatible_activities": [
                "act_0_1", 
                "act_1_21", 
                "act_2_29", 
                "act_0_18", 
                "act_1_2", 
                "act_0_31", 
                "act_1_38", 
                "act_0_14"
            ], 
            "maximum_working_hours": "12:00:00", 
            "name": "Richard Parker", 
            "minimum_working_hours": "08:00:00"
        }, 
        "op_1": {
            "time_windows": [
                {}, 
                {
                    "start": "2014-03-06T08:00:00", 
                    "finish": "2014-03-06T18:00:00", 
                    "regular_worktime": "8:00:00"
                }, 
                {
                    "start": "2014-03-07T08:00:00", 
                    "finish": "2014-03-07T18:00:00", 
                    "regular_worktime": "8:00:00"
                }
            ], 
            "incompatible_activities": [
                "act_2_26", 
                "act_2_16", 
                "act_1_2", 
                "act_2_31", 
                "act_0_5", 
                "act_0_1", 
                "act_1_0", 
                "act_0_13"
            ], 
            "maximum_working_hours": "16:00:00", 
            "name": "Alice George", 
            "minimum_working_hours": "16:00:00"
        }, 
        "op_2": {
            "time_windows": [
                {
                    "start": "2014-03-05T08:00:00", 
                    "finish": "2014-03-05T13:00:00", 
                    "regular_worktime": "4:00:00"
                }, 
                {
                    "start": "2014-03-06T08:00:00", 
                    "finish": "2014-03-06T18:00:00", 
                    "regular_worktime": "8:00:00"
                }, 
                {
                    "start": "2014-03-07T08:00:00", 
                    "finish": "2014-03-07T18:00:00", 
                    "regular_worktime": "8:00:00"
                }
            ], 
            "incompatible_activities": [
                "act_1_19", 
                "act_0_30", 
                "act_0_25", 
                "act_1_39", 
                "act_0_28", 
                "act_2_7", 
                "act_1_4", 
                "act_1_3"
            ], 
            "maximum_working_hours": "16:00:00", 
            "name": "William Seigel", 
            "minimum_working_hours": "12:00:00"
        }, 
        "op_3": {
            "time_windows": [
                {
                    "start": "2014-03-05T08:00:00", 
                    "finish": "2014-03-05T18:00:00", 
                    "regular_worktime": "8:00:00"
                }, 
                {
                    "start": "2014-03-06T08:00:00", 
                    "finish": "2014-03-06T18:00:00", 
                    "regular_worktime": "8:00:00"
                }, 
                {
                    "start": "2014-03-07T08:00:00", 
                    "finish": "2014-03-07T13:00:00", 
                    "regular_worktime": "4:00:00"
                }
            ], 
            "incompatible_activities": [
                "act_2_10", 
                "act_0_3", 
                "act_1_38", 
                "act_0_32", 
                "act_0_24", 
                "act_0_14", 
                "act_1_0", 
                "act_0_16"
            ], 
            "maximum_working_hours": "16:00:00", 
            "name": "Agnes Gastelum", 
            "minimum_working_hours": "12:00:00"
        }, 
        "op_16": {
            "time_windows": [
                {
                    "start": "2014-03-05T08:00:00", 
                    "finish": "2014-03-05T18:00:00", 
                    "regular_worktime": "8:00:00"
                }, 
                {
                    "start": "2014-03-06T08:00:00", 
                    "finish": "2014-03-06T13:00:00", 
                    "regular_worktime": "4:00:00"
                }, 
                {
                    "start": "2014-03-07T08:00:00", 
                    "finish": "2014-03-07T18:00:00", 
                    "regular_worktime": "8:00:00"
                }
            ], 
            "incompatible_activities": [
                "act_0_37", 
                "act_1_31", 
                "act_0_23", 
                "act_0_31", 
                "act_1_21", 
                "act_1_30", 
                "act_0_0", 
                "act_2_39"
            ], 
            "maximum_working_hours": "16:00:00", 
            "name": "Mercedes Bejar", 
            "minimum_working_hours": "12:00:00"
        }, 
        "op_10": {
            "time_windows": [
                {
                    "start": "2014-03-05T08:00:00", 
                    "finish": "2014-03-05T13:00:00", 
                    "regular_worktime": "4:00:00"
                }, 
                {
                    "start": "2014-03-06T08:00:00", 
                    "finish": "2014-03-06T18:00:00", 
                    "regular_worktime": "8:00:00"
                }, 
                {
                    "start": "2014-03-07T08:00:00", 
                    "finish": "2014-03-07T13:00:00", 
                    "regular_worktime": "4:00:00"
                }
            ], 
            "incompatible_activities": [
                "act_2_8", 
                "act_2_34", 
                "act_1_37", 
                "act_2_23", 
                "act_2_17", 
                "act_0_15", 
                "act_0_27", 
                "act_0_8"
            ], 
            "maximum_working_hours": "12:00:00", 
            "name": "Betty Adkins", 
            "minimum_working_hours": "08:00:00"
        }, 
        "op_11": {
            "time_windows": [
                {
                    "start": "2014-03-05T08:00:00", 
                    "finish": "2014-03-05T18:00:00", 
                    "regular_worktime": "8:00:00"
                }, 
                {
                    "start": "2014-03-06T08:00:00", 
                    "finish": "2014-03-06T18:00:00", 
                    "regular_worktime": "8:00:00"
                }, 
                {
                    "start": "2014-03-07T08:00:00", 
                    "finish": "2014-03-07T18:00:00", 
                    "regular_worktime": "8:00:00"
                }
            ], 
            "incompatible_activities": [
                "act_2_39", 
                "act_2_32", 
                "act_0_3", 
                "act_1_33", 
                "act_0_25", 
                "act_1_14", 
                "act_2_10", 
                "act_1_28"
            ], 
            "maximum_working_hours": "16:00:00", 
            "name": "Wilma Leavitt", 
            "minimum_working_hours": "16:00:00"
        }, 
        "op_14": {
            "time_windows": [
                {
                    "start": "2014-03-05T13:00:00", 
                    "finish": "2014-03-05T18:00:00", 
                    "regular_worktime": "4:00:00"
                }, 
                {
                    "start": "2014-03-06T08:00:00", 
                    "finish": "2014-03-06T18:00:00", 
                    "regular_worktime": "8:00:00"
                }, 
                {
                    "start": "2014-03-07T08:00:00", 
                    "finish": "2014-03-07T13:00:00", 
                    "regular_worktime": "4:00:00"
                }
            ], 
            "incompatible_activities": [
                "act_1_2", 
                "act_0_18", 
                "act_1_38", 
                "act_1_12", 
                "act_2_12", 
                "act_2_37", 
                "act_2_25", 
                "act_1_39"
            ], 
            "maximum_working_hours": "12:00:00", 
            "name": "Thomas Frierson", 
            "minimum_working_hours": "08:00:00"
        }
    }, 
    "meta": {
        "time_window": {
            "start": "08:00:00", 
            "finish": "18:00:00"
        }, 
        "horizon": 3, 
        "granularity": 10, 
        "geographic_area": {
            "upper_left": [
                46.259645, 
                12.860656
            ], 
            "lower_right": [
                45.936826, 
                13.485503
            ]
        }, 
        "max_consecutive_days": 2, 
        "finish_date": "2014-03-08T00:00:00", 
        "max_overtime_rate": 1.1, 
        "start_date": "2014-03-05T00:00:00"
    }
}