{
    "activities": [
        {
            "act_0_39": {
                "duration": 30, 
                "time_window": {
                    "start": "2014-03-05T08:00:00", 
                    "finish": "2014-03-05T13:00:00"
                }, 
                "required_operators": 1, 
                "location": {
                    "latitude": 46.076097702123775, 
                    "longitude": 12.950756524060115
                }, 
                "patient_name": "Darren Sipe"
            }, 
            "act_0_35": {
                "duration": 30, 
                "time_window": {
                    "start": "2014-03-05T08:00:00", 
                    "finish": "2014-03-05T11:20:00"
                }, 
                "required_operators": 1, 
                "location": {
                    "latitude": 46.086117315487975, 
                    "longitude": 13.228010991097703
                }, 
                "patient_name": "Larry Vaughn"
            }, 
            "act_0_34": {
                "duration": 30, 
                "time_window": {
                    "start": "2014-03-05T08:00:00", 
                    "finish": "2014-03-05T18:00:00"
                }, 
                "required_operators": 1, 
                "location": {
                    "latitude": 46.19750210650756, 
                    "longitude": 13.216051593009466
                }, 
                "patient_name": "James Tindall"
            }, 
            "act_0_37": {
                "duration": 60, 
                "time_window": {
                    "start": "2014-03-05T08:00:00", 
                    "finish": "2014-03-05T18:00:00"
                }, 
                "required_operators": 1, 
                "location": {
                    "latitude": 46.1014905256812, 
                    "longitude": 13.01004892315049
                }, 
                "patient_name": "Steve Rantz"
            }, 
            "act_0_36": {
                "duration": 60, 
                "time_window": {
                    "start": "2014-03-05T08:00:00", 
                    "finish": "2014-03-05T13:00:00"
                }, 
                "required_operators": 1, 
                "location": {
                    "latitude": 46.16071467258429, 
                    "longitude": 13.31794100571145
                }, 
                "patient_name": "John Halford"
            }, 
            "act_0_31": {
                "duration": 30, 
                "time_window": {
                    "start": "2014-03-05T13:00:00", 
                    "finish": "2014-03-05T18:00:00"
                }, 
                "required_operators": 1, 
                "location": {
                    "latitude": 46.13414383983684, 
                    "longitude": 13.439889950986426
                }, 
                "patient_name": "Kelli Himes"
            }, 
            "act_0_30": {
                "duration": 30, 
                "time_window": {
                    "start": "2014-03-05T08:00:00", 
                    "finish": "2014-03-05T11:20:00"
                }, 
                "required_operators": 2, 
                "location": {
                    "latitude": 46.05346995657249, 
                    "longitude": 12.93128096709369
                }, 
                "patient_name": "Oliver Aaron"
            }, 
            "act_0_19": {
                "duration": 60, 
                "time_window": {
                    "start": "2014-03-05T08:00:00", 
                    "finish": "2014-03-05T18:00:00"
                }, 
                "required_operators": 1, 
                "location": {
                    "latitude": 46.254380733939975, 
                    "longitude": 13.357834877300622
                }, 
                "patient_name": "Ann Stoddard"
            }, 
            "act_0_18": {
                "duration": 30, 
                "time_window": {
                    "start": "2014-03-05T08:00:00", 
                    "finish": "2014-03-05T18:00:00"
                }, 
                "required_operators": 1, 
                "location": {
                    "latitude": 46.055662399196855, 
                    "longitude": 13.284843590590226
                }, 
                "patient_name": "Douglas Rawls"
            }, 
            "act_0_17": {
                "duration": 30, 
                "time_window": {
                    "start": "2014-03-05T13:00:00", 
                    "finish": "2014-03-05T18:00:00"
                }, 
                "required_operators": 2, 
                "location": {
                    "latitude": 46.25459388649407, 
                    "longitude": 12.936029750629727
                }, 
                "patient_name": "Mary Davidson"
            }, 
            "act_0_16": {
                "duration": 60, 
                "time_window": {
                    "start": "2014-03-05T08:00:00", 
                    "finish": "2014-03-05T13:00:00"
                }, 
                "required_operators": 1, 
                "location": {
                    "latitude": 46.1884054379117, 
                    "longitude": 13.292737515377878
                }, 
                "patient_name": "Judith Roccio"
            }, 
            "act_0_15": {
                "duration": 60, 
                "time_window": {
                    "start": "2014-03-05T08:00:00", 
                    "finish": "2014-03-05T18:00:00"
                }, 
                "required_operators": 2, 
                "location": {
                    "latitude": 45.95684048030753, 
                    "longitude": 13.287621092626463
                }, 
                "patient_name": "Frances Bates"
            }, 
            "act_0_14": {
                "duration": 60, 
                "time_window": {
                    "start": "2014-03-05T14:40:00", 
                    "finish": "2014-03-05T18:00:00"
                }, 
                "required_operators": 1, 
                "location": {
                    "latitude": 46.18483210452214, 
                    "longitude": 13.233800295149313
                }, 
                "patient_name": "Daniel Patel"
            }, 
            "act_0_13": {
                "duration": 60, 
                "time_window": {
                    "start": "2014-03-05T13:00:00", 
                    "finish": "2014-03-05T18:00:00"
                }, 
                "required_operators": 1, 
                "location": {
                    "latitude": 46.033238521534486, 
                    "longitude": 13.210605533102134
                }, 
                "patient_name": "Mamie Kelley"
            }, 
            "act_0_12": {
                "duration": 30, 
                "time_window": {
                    "start": "2014-03-05T08:00:00", 
                    "finish": "2014-03-05T11:20:00"
                }, 
                "required_operators": 1, 
                "location": {
                    "latitude": 45.965245990896015, 
                    "longitude": 12.913285121870773
                }, 
                "patient_name": "Harley Sell"
            }, 
            "act_0_11": {
                "duration": 30, 
                "time_window": {
                    "start": "2014-03-05T08:00:00", 
                    "finish": "2014-03-05T18:00:00"
                }, 
                "required_operators": 1, 
                "location": {
                    "latitude": 45.95527337506403, 
                    "longitude": 12.90612815645491
                }, 
                "patient_name": "Rita Wheeler"
            }, 
            "act_0_10": {
                "duration": 30, 
                "time_window": {
                    "start": "2014-03-05T11:20:00", 
                    "finish": "2014-03-05T14:40:00"
                }, 
                "required_operators": 2, 
                "location": {
                    "latitude": 45.98042580634736, 
                    "longitude": 13.235373942599075
                }, 
                "patient_name": "Francine Lawson"
            }, 
            "act_0_33": {
                "duration": 30, 
                "time_window": {
                    "start": "2014-03-05T08:00:00", 
                    "finish": "2014-03-05T13:00:00"
                }, 
                "required_operators": 2, 
                "location": {
                    "latitude": 46.03494204157033, 
                    "longitude": 12.877246351970157
                }, 
                "patient_name": "Daniel Tucker"
            }, 
            "act_0_38": {
                "duration": 30, 
                "time_window": {
                    "start": "2014-03-05T08:00:00", 
                    "finish": "2014-03-05T18:00:00"
                }, 
                "required_operators": 2, 
                "location": {
                    "latitude": 46.07923512778865, 
                    "longitude": 13.346993344165611
                }, 
                "patient_name": "Maureen Hale"
            }, 
            "act_0_32": {
                "duration": 30, 
                "time_window": {
                    "start": "2014-03-05T11:20:00", 
                    "finish": "2014-03-05T14:40:00"
                }, 
                "required_operators": 2, 
                "location": {
                    "latitude": 45.96306865824132, 
                    "longitude": 12.990459198477135
                }, 
                "patient_name": "Pearl Arostegui"
            }, 
            "act_0_9": {
                "duration": 30, 
                "time_window": {
                    "start": "2014-03-05T08:00:00", 
                    "finish": "2014-03-05T11:20:00"
                }, 
                "required_operators": 1, 
                "location": {
                    "latitude": 46.05740686708887, 
                    "longitude": 12.98101951370933
                }, 
                "patient_name": "Clarence Riley"
            }, 
            "act_0_8": {
                "duration": 30, 
                "time_window": {
                    "start": "2014-03-05T13:00:00", 
                    "finish": "2014-03-05T18:00:00"
                }, 
                "required_operators": 2, 
                "location": {
                    "latitude": 45.9899120058441, 
                    "longitude": 13.247834368605332
                }, 
                "patient_name": "Frank Miller"
            }, 
            "act_0_3": {
                "duration": 60, 
                "time_window": {
                    "start": "2014-03-05T08:00:00", 
                    "finish": "2014-03-05T18:00:00"
                }, 
                "required_operators": 2, 
                "location": {
                    "latitude": 46.179597302467535, 
                    "longitude": 12.891401432470012
                }, 
                "patient_name": "Patricia Cortez"
            }, 
            "act_0_2": {
                "duration": 30, 
                "time_window": {
                    "start": "2014-03-05T08:00:00", 
                    "finish": "2014-03-05T11:20:00"
                }, 
                "required_operators": 1, 
                "location": {
                    "latitude": 46.22487194922399, 
                    "longitude": 13.251383431955562
                }, 
                "patient_name": "Marion Young"
            }, 
            "act_0_1": {
                "duration": 30, 
                "time_window": {
                    "start": "2014-03-05T08:00:00", 
                    "finish": "2014-03-05T18:00:00"
                }, 
                "required_operators": 1, 
                "location": {
                    "latitude": 46.1543673088417, 
                    "longitude": 12.90661564043654
                }, 
                "patient_name": "Hue Gilbreath"
            }, 
            "act_0_0": {
                "duration": 30, 
                "time_window": {
                    "start": "2014-03-05T14:40:00", 
                    "finish": "2014-03-05T18:00:00"
                }, 
                "required_operators": 3, 
                "location": {
                    "latitude": 46.256802376656765, 
                    "longitude": 12.958563485805835
                }, 
                "patient_name": "Justin Mcconnel"
            }, 
            "act_0_7": {
                "duration": 30, 
                "time_window": {
                    "start": "2014-03-05T08:00:00", 
                    "finish": "2014-03-05T18:00:00"
                }, 
                "required_operators": 2, 
                "location": {
                    "latitude": 45.98910443425727, 
                    "longitude": 13.239767556292453
                }, 
                "patient_name": "Esther Sauredo"
            }, 
            "act_0_6": {
                "duration": 30, 
                "time_window": {
                    "start": "2014-03-05T08:00:00", 
                    "finish": "2014-03-05T11:20:00"
                }, 
                "required_operators": 1, 
                "location": {
                    "latitude": 46.254935576051615, 
                    "longitude": 13.331450242350787
                }, 
                "patient_name": "Franklin Mccarville"
            }, 
            "act_0_5": {
                "duration": 30, 
                "time_window": {
                    "start": "2014-03-05T13:00:00", 
                    "finish": "2014-03-05T18:00:00"
                }, 
                "required_operators": 1, 
                "location": {
                    "latitude": 46.00330745155192, 
                    "longitude": 13.287898467124592
                }, 
                "patient_name": "Melanie Storey"
            }, 
            "act_0_4": {
                "duration": 60, 
                "time_window": {
                    "start": "2014-03-05T08:00:00", 
                    "finish": "2014-03-05T11:20:00"
                }, 
                "required_operators": 1, 
                "location": {
                    "latitude": 46.04870020052326, 
                    "longitude": 13.06601374057529
                }, 
                "patient_name": "Sonja Sheppard"
            }, 
            "act_0_22": {
                "duration": 60, 
                "time_window": {
                    "start": "2014-03-05T08:00:00", 
                    "finish": "2014-03-05T18:00:00"
                }, 
                "required_operators": 1, 
                "location": {
                    "latitude": 46.00494188915852, 
                    "longitude": 13.291013162793778
                }, 
                "patient_name": "Carol James"
            }, 
            "act_0_23": {
                "duration": 60, 
                "time_window": {
                    "start": "2014-03-05T08:00:00", 
                    "finish": "2014-03-05T18:00:00"
                }, 
                "required_operators": 1, 
                "location": {
                    "latitude": 46.19724556545851, 
                    "longitude": 13.383546039513789
                }, 
                "patient_name": "Tracy Poole"
            }, 
            "act_0_20": {
                "duration": 60, 
                "time_window": {
                    "start": "2014-03-05T13:00:00", 
                    "finish": "2014-03-05T18:00:00"
                }, 
                "required_operators": 1, 
                "location": {
                    "latitude": 46.20874072207285, 
                    "longitude": 13.128710779156174
                }, 
                "patient_name": "James White"
            }, 
            "act_0_21": {
                "duration": 30, 
                "time_window": {
                    "start": "2014-03-05T08:00:00", 
                    "finish": "2014-03-05T18:00:00"
                }, 
                "required_operators": 2, 
                "location": {
                    "latitude": 46.12903488825101, 
                    "longitude": 13.358582457603372
                }, 
                "patient_name": "Jerri Patenaude"
            }, 
            "act_0_26": {
                "duration": 30, 
                "time_window": {
                    "start": "2014-03-05T08:00:00", 
                    "finish": "2014-03-05T18:00:00"
                }, 
                "required_operators": 1, 
                "location": {
                    "latitude": 46.16528503450394, 
                    "longitude": 13.2683030844675
                }, 
                "patient_name": "Bridgette Sharp"
            }, 
            "act_0_27": {
                "duration": 30, 
                "time_window": {
                    "start": "2014-03-05T11:20:00", 
                    "finish": "2014-03-05T14:40:00"
                }, 
                "required_operators": 1, 
                "location": {
                    "latitude": 46.105578717411035, 
                    "longitude": 13.450265002331344
                }, 
                "patient_name": "Heather Garris"
            }, 
            "act_0_24": {
                "duration": 30, 
                "time_window": {
                    "start": "2014-03-05T08:00:00", 
                    "finish": "2014-03-05T11:20:00"
                }, 
                "required_operators": 1, 
                "location": {
                    "latitude": 46.24899115048945, 
                    "longitude": 13.031232265457744
                }, 
                "patient_name": "Alan Torres"
            }, 
            "act_0_25": {
                "duration": 30, 
                "time_window": {
                    "start": "2014-03-05T08:00:00", 
                    "finish": "2014-03-05T13:00:00"
                }, 
                "required_operators": 2, 
                "location": {
                    "latitude": 46.04510228346811, 
                    "longitude": 13.063259764317708
                }, 
                "patient_name": "Louise Smith"
            }, 
            "act_0_28": {
                "duration": 60, 
                "time_window": {
                    "start": "2014-03-05T08:00:00", 
                    "finish": "2014-03-05T18:00:00"
                }, 
                "required_operators": 1, 
                "location": {
                    "latitude": 46.144121387267035, 
                    "longitude": 13.462253287896841
                }, 
                "patient_name": "Jason Bell"
            }, 
            "act_0_29": {
                "duration": 60, 
                "time_window": {
                    "start": "2014-03-05T13:00:00", 
                    "finish": "2014-03-05T18:00:00"
                }, 
                "required_operators": 1, 
                "location": {
                    "latitude": 45.954899161115485, 
                    "longitude": 13.068045361401051
                }, 
                "patient_name": "James Blaney"
            }
        }, 
        {
            "act_1_38": {
                "duration": 60, 
                "time_window": {
                    "start": "2014-03-06T14:40:00", 
                    "finish": "2014-03-06T18:00:00"
                }, 
                "required_operators": 1, 
                "location": {
                    "latitude": 45.99883220206994, 
                    "longitude": 13.255594374923087
                }, 
                "patient_name": "Patricia Sosa"
            }, 
            "act_1_39": {
                "duration": 60, 
                "time_window": {
                    "start": "2014-03-06T08:00:00", 
                    "finish": "2014-03-06T18:00:00"
                }, 
                "required_operators": 1, 
                "location": {
                    "latitude": 45.96827914993054, 
                    "longitude": 13.046322634270403
                }, 
                "patient_name": "Cecile Williams"
            }, 
            "act_1_32": {
                "duration": 30, 
                "time_window": {
                    "start": "2014-03-06T14:40:00", 
                    "finish": "2014-03-06T18:00:00"
                }, 
                "required_operators": 1, 
                "location": {
                    "latitude": 46.23789088712786, 
                    "longitude": 12.874563635198657
                }, 
                "patient_name": "William Coan"
            }, 
            "act_1_33": {
                "duration": 60, 
                "time_window": {
                    "start": "2014-03-06T08:00:00", 
                    "finish": "2014-03-06T13:00:00"
                }, 
                "required_operators": 1, 
                "location": {
                    "latitude": 46.05739071392745, 
                    "longitude": 13.40221526333948
                }, 
                "patient_name": "John Siler"
            }, 
            "act_1_30": {
                "duration": 60, 
                "time_window": {
                    "start": "2014-03-06T08:00:00", 
                    "finish": "2014-03-06T18:00:00"
                }, 
                "required_operators": 1, 
                "location": {
                    "latitude": 46.026395927273, 
                    "longitude": 12.929622410502791
                }, 
                "patient_name": "Judith Fackrell"
            }, 
            "act_1_31": {
                "duration": 30, 
                "time_window": {
                    "start": "2014-03-06T08:00:00", 
                    "finish": "2014-03-06T13:00:00"
                }, 
                "required_operators": 1, 
                "location": {
                    "latitude": 45.98691707512727, 
                    "longitude": 13.473090336607465
                }, 
                "patient_name": "Gary Gau"
            }, 
            "act_1_36": {
                "duration": 30, 
                "time_window": {
                    "start": "2014-03-06T13:00:00", 
                    "finish": "2014-03-06T18:00:00"
                }, 
                "required_operators": 1, 
                "location": {
                    "latitude": 46.17141333319072, 
                    "longitude": 12.969736328954108
                }, 
                "patient_name": "Steven Coro"
            }, 
            "act_1_37": {
                "duration": 60, 
                "time_window": {
                    "start": "2014-03-06T13:00:00", 
                    "finish": "2014-03-06T18:00:00"
                }, 
                "required_operators": 1, 
                "location": {
                    "latitude": 46.25895649375107, 
                    "longitude": 13.26128804764701
                }, 
                "patient_name": "Kathleen Fitzsimmons"
            }, 
            "act_1_34": {
                "duration": 60, 
                "time_window": {
                    "start": "2014-03-06T13:00:00", 
                    "finish": "2014-03-06T18:00:00"
                }, 
                "required_operators": 1, 
                "location": {
                    "latitude": 46.03773102364485, 
                    "longitude": 12.957905395956658
                }, 
                "patient_name": "Louis Cooper"
            }, 
            "act_1_35": {
                "duration": 60, 
                "time_window": {
                    "start": "2014-03-06T08:00:00", 
                    "finish": "2014-03-06T18:00:00"
                }, 
                "required_operators": 1, 
                "location": {
                    "latitude": 46.23253541640691, 
                    "longitude": 13.261888883485389
                }, 
                "patient_name": "Barbara Mills"
            }, 
            "act_1_14": {
                "duration": 60, 
                "time_window": {
                    "start": "2014-03-06T13:00:00", 
                    "finish": "2014-03-06T18:00:00"
                }, 
                "required_operators": 1, 
                "location": {
                    "latitude": 46.12008761526114, 
                    "longitude": 13.229083654144763
                }, 
                "patient_name": "James Clark"
            }, 
            "act_1_15": {
                "duration": 60, 
                "time_window": {
                    "start": "2014-03-06T08:00:00", 
                    "finish": "2014-03-06T13:00:00"
                }, 
                "required_operators": 1, 
                "location": {
                    "latitude": 46.04341828565575, 
                    "longitude": 13.003806126614016
                }, 
                "patient_name": "Mariko Pitts"
            }, 
            "act_1_16": {
                "duration": 30, 
                "time_window": {
                    "start": "2014-03-06T08:00:00", 
                    "finish": "2014-03-06T13:00:00"
                }, 
                "required_operators": 2, 
                "location": {
                    "latitude": 46.04438966876575, 
                    "longitude": 12.871165419462788
                }, 
                "patient_name": "Debbie Prendergast"
            }, 
            "act_1_17": {
                "duration": 60, 
                "time_window": {
                    "start": "2014-03-06T14:40:00", 
                    "finish": "2014-03-06T18:00:00"
                }, 
                "required_operators": 1, 
                "location": {
                    "latitude": 46.0504030211954, 
                    "longitude": 13.030956076948222
                }, 
                "patient_name": "Jeffrey Jacoby"
            }, 
            "act_1_10": {
                "duration": 60, 
                "time_window": {
                    "start": "2014-03-06T08:00:00", 
                    "finish": "2014-03-06T11:20:00"
                }, 
                "required_operators": 1, 
                "location": {
                    "latitude": 45.97522216020233, 
                    "longitude": 12.882912406289071
                }, 
                "patient_name": "Merle Chappell"
            }, 
            "act_1_11": {
                "duration": 60, 
                "time_window": {
                    "start": "2014-03-06T11:20:00", 
                    "finish": "2014-03-06T14:40:00"
                }, 
                "required_operators": 1, 
                "location": {
                    "latitude": 46.13947093982011, 
                    "longitude": 13.39383643394298
                }, 
                "patient_name": "Anthony Shock"
            }, 
            "act_1_12": {
                "duration": 30, 
                "time_window": {
                    "start": "2014-03-06T08:00:00", 
                    "finish": "2014-03-06T11:20:00"
                }, 
                "required_operators": 1, 
                "location": {
                    "latitude": 46.037437514563585, 
                    "longitude": 13.120137454124082
                }, 
                "patient_name": "Lissette Martin"
            }, 
            "act_1_13": {
                "duration": 60, 
                "time_window": {
                    "start": "2014-03-06T08:00:00", 
                    "finish": "2014-03-06T18:00:00"
                }, 
                "required_operators": 2, 
                "location": {
                    "latitude": 46.15861573655384, 
                    "longitude": 13.071544980293439
                }, 
                "patient_name": "Jacqueline Weisser"
            }, 
            "act_1_18": {
                "duration": 30, 
                "time_window": {
                    "start": "2014-03-06T13:00:00", 
                    "finish": "2014-03-06T18:00:00"
                }, 
                "required_operators": 2, 
                "location": {
                    "latitude": 46.17550009302575, 
                    "longitude": 13.440746506351081
                }, 
                "patient_name": "William Durand"
            }, 
            "act_1_19": {
                "duration": 60, 
                "time_window": {
                    "start": "2014-03-06T14:40:00", 
                    "finish": "2014-03-06T18:00:00"
                }, 
                "required_operators": 1, 
                "location": {
                    "latitude": 46.24919068642311, 
                    "longitude": 12.925658551652235
                }, 
                "patient_name": "Jana Perez"
            }, 
            "act_1_2": {
                "duration": 30, 
                "time_window": {
                    "start": "2014-03-06T08:00:00", 
                    "finish": "2014-03-06T11:20:00"
                }, 
                "required_operators": 1, 
                "location": {
                    "latitude": 46.05099768246704, 
                    "longitude": 13.121583684619269
                }, 
                "patient_name": "Doris Scavotto"
            }, 
            "act_1_3": {
                "duration": 60, 
                "time_window": {
                    "start": "2014-03-06T08:00:00", 
                    "finish": "2014-03-06T18:00:00"
                }, 
                "required_operators": 1, 
                "location": {
                    "latitude": 46.199637504609285, 
                    "longitude": 13.262747059176112
                }, 
                "patient_name": "Pauline Smith"
            }, 
            "act_1_0": {
                "duration": 30, 
                "time_window": {
                    "start": "2014-03-06T13:00:00", 
                    "finish": "2014-03-06T18:00:00"
                }, 
                "required_operators": 1, 
                "location": {
                    "latitude": 46.1394088350916, 
                    "longitude": 12.909388573461849
                }, 
                "patient_name": "Christine Jersey"
            }, 
            "act_1_1": {
                "duration": 30, 
                "time_window": {
                    "start": "2014-03-06T08:00:00", 
                    "finish": "2014-03-06T18:00:00"
                }, 
                "required_operators": 1, 
                "location": {
                    "latitude": 46.05470319821701, 
                    "longitude": 13.25692635475668
                }, 
                "patient_name": "Robert Matty"
            }, 
            "act_1_6": {
                "duration": 60, 
                "time_window": {
                    "start": "2014-03-06T08:00:00", 
                    "finish": "2014-03-06T18:00:00"
                }, 
                "required_operators": 2, 
                "location": {
                    "latitude": 46.09259855604773, 
                    "longitude": 13.044231449160126
                }, 
                "patient_name": "Michelle Lucio"
            }, 
            "act_1_7": {
                "duration": 30, 
                "time_window": {
                    "start": "2014-03-06T08:00:00", 
                    "finish": "2014-03-06T13:00:00"
                }, 
                "required_operators": 1, 
                "location": {
                    "latitude": 45.949718033162725, 
                    "longitude": 12.92281760338568
                }, 
                "patient_name": "Benjamin Morales"
            }, 
            "act_1_4": {
                "duration": 30, 
                "time_window": {
                    "start": "2014-03-06T08:00:00", 
                    "finish": "2014-03-06T18:00:00"
                }, 
                "required_operators": 2, 
                "location": {
                    "latitude": 46.122809115469614, 
                    "longitude": 13.130737682818882
                }, 
                "patient_name": "Jed Bayas"
            }, 
            "act_1_5": {
                "duration": 30, 
                "time_window": {
                    "start": "2014-03-06T08:00:00", 
                    "finish": "2014-03-06T13:00:00"
                }, 
                "required_operators": 1, 
                "location": {
                    "latitude": 46.137159812208125, 
                    "longitude": 13.344826127938903
                }, 
                "patient_name": "Mark Horn"
            }, 
            "act_1_8": {
                "duration": 60, 
                "time_window": {
                    "start": "2014-03-06T14:40:00", 
                    "finish": "2014-03-06T18:00:00"
                }, 
                "required_operators": 1, 
                "location": {
                    "latitude": 46.09356857733185, 
                    "longitude": 13.467565337325206
                }, 
                "patient_name": "Carol Hurley"
            }, 
            "act_1_9": {
                "duration": 30, 
                "time_window": {
                    "start": "2014-03-06T08:00:00", 
                    "finish": "2014-03-06T11:20:00"
                }, 
                "required_operators": 1, 
                "location": {
                    "latitude": 46.25618050716291, 
                    "longitude": 13.075038596201402
                }, 
                "patient_name": "Robert Aguayo"
            }, 
            "act_1_29": {
                "duration": 30, 
                "time_window": {
                    "start": "2014-03-06T08:00:00", 
                    "finish": "2014-03-06T18:00:00"
                }, 
                "required_operators": 1, 
                "location": {
                    "latitude": 46.23409976886776, 
                    "longitude": 13.357250035812188
                }, 
                "patient_name": "Chester Wauch"
            }, 
            "act_1_28": {
                "duration": 30, 
                "time_window": {
                    "start": "2014-03-06T13:00:00", 
                    "finish": "2014-03-06T18:00:00"
                }, 
                "required_operators": 2, 
                "location": {
                    "latitude": 46.063565416744645, 
                    "longitude": 13.388935225070485
                }, 
                "patient_name": "Leigh Maulden"
            }, 
            "act_1_25": {
                "duration": 60, 
                "time_window": {
                    "start": "2014-03-06T08:00:00", 
                    "finish": "2014-03-06T18:00:00"
                }, 
                "required_operators": 1, 
                "location": {
                    "latitude": 46.04275055171546, 
                    "longitude": 12.960032771841984
                }, 
                "patient_name": "Lori Pugh"
            }, 
            "act_1_24": {
                "duration": 30, 
                "time_window": {
                    "start": "2014-03-06T11:20:00", 
                    "finish": "2014-03-06T14:40:00"
                }, 
                "required_operators": 1, 
                "location": {
                    "latitude": 46.11384059786761, 
                    "longitude": 13.165125902650471
                }, 
                "patient_name": "Kate Garrison"
            }, 
            "act_1_27": {
                "duration": 60, 
                "time_window": {
                    "start": "2014-03-06T08:00:00", 
                    "finish": "2014-03-06T13:00:00"
                }, 
                "required_operators": 1, 
                "location": {
                    "latitude": 45.98809914696079, 
                    "longitude": 13.212959894171314
                }, 
                "patient_name": "Camie Nettles"
            }, 
            "act_1_26": {
                "duration": 30, 
                "time_window": {
                    "start": "2014-03-06T08:00:00", 
                    "finish": "2014-03-06T18:00:00"
                }, 
                "required_operators": 2, 
                "location": {
                    "latitude": 46.01691452702601, 
                    "longitude": 13.296760048483035
                }, 
                "patient_name": "Connie Hernandez"
            }, 
            "act_1_21": {
                "duration": 60, 
                "time_window": {
                    "start": "2014-03-06T13:00:00", 
                    "finish": "2014-03-06T18:00:00"
                }, 
                "required_operators": 1, 
                "location": {
                    "latitude": 46.020498182721184, 
                    "longitude": 13.119609802200225
                }, 
                "patient_name": "Angela Cox"
            }, 
            "act_1_20": {
                "duration": 30, 
                "time_window": {
                    "start": "2014-03-06T08:00:00", 
                    "finish": "2014-03-06T13:00:00"
                }, 
                "required_operators": 1, 
                "location": {
                    "latitude": 46.03423379511392, 
                    "longitude": 13.329077160431055
                }, 
                "patient_name": "Thomas Brown"
            }, 
            "act_1_23": {
                "duration": 30, 
                "time_window": {
                    "start": "2014-03-06T13:00:00", 
                    "finish": "2014-03-06T18:00:00"
                }, 
                "required_operators": 1, 
                "location": {
                    "latitude": 46.06020143761464, 
                    "longitude": 13.087531095621468
                }, 
                "patient_name": "Erika Everett"
            }, 
            "act_1_22": {
                "duration": 60, 
                "time_window": {
                    "start": "2014-03-06T14:40:00", 
                    "finish": "2014-03-06T18:00:00"
                }, 
                "required_operators": 4, 
                "location": {
                    "latitude": 46.163376682010636, 
                    "longitude": 13.093874249050645
                }, 
                "patient_name": "Beverley Quigley"
            }
        }, 
        {
            "act_2_19": {
                "duration": 60, 
                "time_window": {
                    "start": "2014-03-07T13:00:00", 
                    "finish": "2014-03-07T18:00:00"
                }, 
                "required_operators": 1, 
                "location": {
                    "latitude": 46.11179026044998, 
                    "longitude": 12.914452721931164
                }, 
                "patient_name": "Gregory Chamberlain"
            }, 
            "act_2_18": {
                "duration": 30, 
                "time_window": {
                    "start": "2014-03-07T13:00:00", 
                    "finish": "2014-03-07T18:00:00"
                }, 
                "required_operators": 1, 
                "location": {
                    "latitude": 46.0568272939245, 
                    "longitude": 13.4251057816606
                }, 
                "patient_name": "Betsy Caro"
            }, 
            "act_2_11": {
                "duration": 60, 
                "time_window": {
                    "start": "2014-03-07T08:00:00", 
                    "finish": "2014-03-07T18:00:00"
                }, 
                "required_operators": 1, 
                "location": {
                    "latitude": 46.17151716800585, 
                    "longitude": 12.884710104240769
                }, 
                "patient_name": "Erin Andueza"
            }, 
            "act_2_10": {
                "duration": 60, 
                "time_window": {
                    "start": "2014-03-07T08:00:00", 
                    "finish": "2014-03-07T13:00:00"
                }, 
                "required_operators": 1, 
                "location": {
                    "latitude": 46.00325654597106, 
                    "longitude": 12.921696024881946
                }, 
                "patient_name": "Spencer Garner"
            }, 
            "act_2_13": {
                "duration": 60, 
                "time_window": {
                    "start": "2014-03-07T08:00:00", 
                    "finish": "2014-03-07T11:20:00"
                }, 
                "required_operators": 1, 
                "location": {
                    "latitude": 46.207760406212515, 
                    "longitude": 12.888086280780195
                }, 
                "patient_name": "Johnnie Freund"
            }, 
            "act_2_12": {
                "duration": 30, 
                "time_window": {
                    "start": "2014-03-07T08:00:00", 
                    "finish": "2014-03-07T11:20:00"
                }, 
                "required_operators": 1, 
                "location": {
                    "latitude": 46.02024839937435, 
                    "longitude": 13.048322283979891
                }, 
                "patient_name": "Chi York"
            }, 
            "act_2_15": {
                "duration": 60, 
                "time_window": {
                    "start": "2014-03-07T08:00:00", 
                    "finish": "2014-03-07T13:00:00"
                }, 
                "required_operators": 1, 
                "location": {
                    "latitude": 46.04150112624334, 
                    "longitude": 13.217533896191677
                }, 
                "patient_name": "Kevin Lillie"
            }, 
            "act_2_14": {
                "duration": 60, 
                "time_window": {
                    "start": "2014-03-07T08:00:00", 
                    "finish": "2014-03-07T18:00:00"
                }, 
                "required_operators": 1, 
                "location": {
                    "latitude": 46.042081579166606, 
                    "longitude": 13.428609852530409
                }, 
                "patient_name": "Kathleen Crockett"
            }, 
            "act_2_17": {
                "duration": 60, 
                "time_window": {
                    "start": "2014-03-07T08:00:00", 
                    "finish": "2014-03-07T11:20:00"
                }, 
                "required_operators": 1, 
                "location": {
                    "latitude": 46.062667192112244, 
                    "longitude": 13.084551879626247
                }, 
                "patient_name": "Gary Schulle"
            }, 
            "act_2_16": {
                "duration": 30, 
                "time_window": {
                    "start": "2014-03-07T14:40:00", 
                    "finish": "2014-03-07T18:00:00"
                }, 
                "required_operators": 1, 
                "location": {
                    "latitude": 46.06119100434968, 
                    "longitude": 13.037655514247218
                }, 
                "patient_name": "Donna White"
            }, 
            "act_2_33": {
                "duration": 60, 
                "time_window": {
                    "start": "2014-03-07T08:00:00", 
                    "finish": "2014-03-07T18:00:00"
                }, 
                "required_operators": 1, 
                "location": {
                    "latitude": 46.240232728751, 
                    "longitude": 13.35639969782058
                }, 
                "patient_name": "Tanya Davis"
            }, 
            "act_2_32": {
                "duration": 60, 
                "time_window": {
                    "start": "2014-03-07T08:00:00", 
                    "finish": "2014-03-07T18:00:00"
                }, 
                "required_operators": 1, 
                "location": {
                    "latitude": 45.98108827354466, 
                    "longitude": 12.899420944342998
                }, 
                "patient_name": "Michael Sorenson"
            }, 
            "act_2_31": {
                "duration": 60, 
                "time_window": {
                    "start": "2014-03-07T08:00:00", 
                    "finish": "2014-03-07T13:00:00"
                }, 
                "required_operators": 1, 
                "location": {
                    "latitude": 46.250959539821096, 
                    "longitude": 13.235786420120618
                }, 
                "patient_name": "Carrie Church"
            }, 
            "act_2_30": {
                "duration": 60, 
                "time_window": {
                    "start": "2014-03-07T13:00:00", 
                    "finish": "2014-03-07T18:00:00"
                }, 
                "required_operators": 1, 
                "location": {
                    "latitude": 46.189241431007375, 
                    "longitude": 13.396079321587518
                }, 
                "patient_name": "Bonnie Mueller"
            }, 
            "act_2_37": {
                "duration": 30, 
                "time_window": {
                    "start": "2014-03-07T08:00:00", 
                    "finish": "2014-03-07T11:20:00"
                }, 
                "required_operators": 1, 
                "location": {
                    "latitude": 46.14081195483735, 
                    "longitude": 13.304996071002861
                }, 
                "patient_name": "Betty Robinson"
            }, 
            "act_2_36": {
                "duration": 60, 
                "time_window": {
                    "start": "2014-03-07T11:20:00", 
                    "finish": "2014-03-07T14:40:00"
                }, 
                "required_operators": 1, 
                "location": {
                    "latitude": 45.95010307516356, 
                    "longitude": 13.228351225796464
                }, 
                "patient_name": "Etsuko Sipple"
            }, 
            "act_2_35": {
                "duration": 30, 
                "time_window": {
                    "start": "2014-03-07T08:00:00", 
                    "finish": "2014-03-07T18:00:00"
                }, 
                "required_operators": 1, 
                "location": {
                    "latitude": 46.08357663323418, 
                    "longitude": 13.331959161000652
                }, 
                "patient_name": "Sharon Jackson"
            }, 
            "act_2_34": {
                "duration": 60, 
                "time_window": {
                    "start": "2014-03-07T14:40:00", 
                    "finish": "2014-03-07T18:00:00"
                }, 
                "required_operators": 1, 
                "location": {
                    "latitude": 45.98310377847091, 
                    "longitude": 13.439816170099677
                }, 
                "patient_name": "Frank Krupp"
            }, 
            "act_2_39": {
                "duration": 60, 
                "time_window": {
                    "start": "2014-03-07T14:40:00", 
                    "finish": "2014-03-07T18:00:00"
                }, 
                "required_operators": 1, 
                "location": {
                    "latitude": 46.0203482729394, 
                    "longitude": 13.263589362551617
                }, 
                "patient_name": "Craig Higgins"
            }, 
            "act_2_38": {
                "duration": 60, 
                "time_window": {
                    "start": "2014-03-07T13:00:00", 
                    "finish": "2014-03-07T18:00:00"
                }, 
                "required_operators": 1, 
                "location": {
                    "latitude": 46.18642931842257, 
                    "longitude": 13.107543155406317
                }, 
                "patient_name": "Anthony Koch"
            }, 
            "act_2_20": {
                "duration": 60, 
                "time_window": {
                    "start": "2014-03-07T08:00:00", 
                    "finish": "2014-03-07T13:00:00"
                }, 
                "required_operators": 1, 
                "location": {
                    "latitude": 45.97221156998543, 
                    "longitude": 13.471300427161642
                }, 
                "patient_name": "Luther Gunderson"
            }, 
            "act_2_21": {
                "duration": 60, 
                "time_window": {
                    "start": "2014-03-07T08:00:00", 
                    "finish": "2014-03-07T11:20:00"
                }, 
                "required_operators": 1, 
                "location": {
                    "latitude": 46.16109836880423, 
                    "longitude": 13.086227660036958
                }, 
                "patient_name": "Lydia Trent"
            }, 
            "act_2_22": {
                "duration": 30, 
                "time_window": {
                    "start": "2014-03-07T14:40:00", 
                    "finish": "2014-03-07T18:00:00"
                }, 
                "required_operators": 2, 
                "location": {
                    "latitude": 45.983526221403125, 
                    "longitude": 13.11304586791879
                }, 
                "patient_name": "Kristy Fernandez"
            }, 
            "act_2_23": {
                "duration": 30, 
                "time_window": {
                    "start": "2014-03-07T14:40:00", 
                    "finish": "2014-03-07T18:00:00"
                }, 
                "required_operators": 1, 
                "location": {
                    "latitude": 46.14517804390734, 
                    "longitude": 12.93469900795084
                }, 
                "patient_name": "Stacy Gray"
            }, 
            "act_2_24": {
                "duration": 60, 
                "time_window": {
                    "start": "2014-03-07T08:00:00", 
                    "finish": "2014-03-07T18:00:00"
                }, 
                "required_operators": 1, 
                "location": {
                    "latitude": 45.992526460409714, 
                    "longitude": 12.86822534696567
                }, 
                "patient_name": "Arturo Kohnz"
            }, 
            "act_2_25": {
                "duration": 60, 
                "time_window": {
                    "start": "2014-03-07T08:00:00", 
                    "finish": "2014-03-07T18:00:00"
                }, 
                "required_operators": 1, 
                "location": {
                    "latitude": 46.114426499583416, 
                    "longitude": 12.945063541320932
                }, 
                "patient_name": "Robert Hammer"
            }, 
            "act_2_26": {
                "duration": 30, 
                "time_window": {
                    "start": "2014-03-07T08:00:00", 
                    "finish": "2014-03-07T18:00:00"
                }, 
                "required_operators": 2, 
                "location": {
                    "latitude": 46.23098002400678, 
                    "longitude": 13.048957607660427
                }, 
                "patient_name": "Shirley Riley"
            }, 
            "act_2_27": {
                "duration": 30, 
                "time_window": {
                    "start": "2014-03-07T11:20:00", 
                    "finish": "2014-03-07T14:40:00"
                }, 
                "required_operators": 1, 
                "location": {
                    "latitude": 46.21882308567578, 
                    "longitude": 13.084710557136118
                }, 
                "patient_name": "Gerald Woodruff"
            }, 
            "act_2_28": {
                "duration": 30, 
                "time_window": {
                    "start": "2014-03-07T14:40:00", 
                    "finish": "2014-03-07T18:00:00"
                }, 
                "required_operators": 1, 
                "location": {
                    "latitude": 46.15216645731079, 
                    "longitude": 13.23318756486966
                }, 
                "patient_name": "Autumn Santarelli"
            }, 
            "act_2_29": {
                "duration": 30, 
                "time_window": {
                    "start": "2014-03-07T08:00:00", 
                    "finish": "2014-03-07T18:00:00"
                }, 
                "required_operators": 1, 
                "location": {
                    "latitude": 46.027709833191714, 
                    "longitude": 13.330328352411025
                }, 
                "patient_name": "Bruce Smith"
            }, 
            "act_2_9": {
                "duration": 60, 
                "time_window": {
                    "start": "2014-03-07T08:00:00", 
                    "finish": "2014-03-07T11:20:00"
                }, 
                "required_operators": 1, 
                "location": {
                    "latitude": 45.960002520470425, 
                    "longitude": 13.48462186117729
                }, 
                "patient_name": "Mabel Floyd"
            }, 
            "act_2_8": {
                "duration": 60, 
                "time_window": {
                    "start": "2014-03-07T13:00:00", 
                    "finish": "2014-03-07T18:00:00"
                }, 
                "required_operators": 1, 
                "location": {
                    "latitude": 46.07721629291632, 
                    "longitude": 13.102187214421258
                }, 
                "patient_name": "Betty Macpartland"
            }, 
            "act_2_5": {
                "duration": 30, 
                "time_window": {
                    "start": "2014-03-07T08:00:00", 
                    "finish": "2014-03-07T11:20:00"
                }, 
                "required_operators": 1, 
                "location": {
                    "latitude": 46.139275593067346, 
                    "longitude": 13.302782631318143
                }, 
                "patient_name": "Philip Smith"
            }, 
            "act_2_4": {
                "duration": 30, 
                "time_window": {
                    "start": "2014-03-07T13:00:00", 
                    "finish": "2014-03-07T18:00:00"
                }, 
                "required_operators": 1, 
                "location": {
                    "latitude": 45.98757422640576, 
                    "longitude": 13.163780107830677
                }, 
                "patient_name": "Allen Reed"
            }, 
            "act_2_7": {
                "duration": 30, 
                "time_window": {
                    "start": "2014-03-07T08:00:00", 
                    "finish": "2014-03-07T18:00:00"
                }, 
                "required_operators": 1, 
                "location": {
                    "latitude": 46.257985974618926, 
                    "longitude": 13.150689515411088
                }, 
                "patient_name": "Maria Richardson"
            }, 
            "act_2_6": {
                "duration": 30, 
                "time_window": {
                    "start": "2014-03-07T11:20:00", 
                    "finish": "2014-03-07T14:40:00"
                }, 
                "required_operators": 2, 
                "location": {
                    "latitude": 45.97823488414332, 
                    "longitude": 13.153691449176076
                }, 
                "patient_name": "Lauren Smith"
            }, 
            "act_2_1": {
                "duration": 30, 
                "time_window": {
                    "start": "2014-03-07T08:00:00", 
                    "finish": "2014-03-07T18:00:00"
                }, 
                "required_operators": 1, 
                "location": {
                    "latitude": 46.19463658112533, 
                    "longitude": 13.145354671601039
                }, 
                "patient_name": "Dustin Holm"
            }, 
            "act_2_0": {
                "duration": 60, 
                "time_window": {
                    "start": "2014-03-07T08:00:00", 
                    "finish": "2014-03-07T13:00:00"
                }, 
                "required_operators": 1, 
                "location": {
                    "latitude": 46.15168995188171, 
                    "longitude": 13.195171801302827
                }, 
                "patient_name": "Elaine Swartz"
            }, 
            "act_2_3": {
                "duration": 30, 
                "time_window": {
                    "start": "2014-03-07T08:00:00", 
                    "finish": "2014-03-07T18:00:00"
                }, 
                "required_operators": 1, 
                "location": {
                    "latitude": 46.04995461655884, 
                    "longitude": 13.230212701737829
                }, 
                "patient_name": "Daniel Jones"
            }, 
            "act_2_2": {
                "duration": 60, 
                "time_window": {
                    "start": "2014-03-07T08:00:00", 
                    "finish": "2014-03-07T18:00:00"
                }, 
                "required_operators": 1, 
                "location": {
                    "latitude": 45.97574717596805, 
                    "longitude": 13.109119020100442
                }, 
                "patient_name": "Jennifer Black"
            }
        }
    ], 
    "operators": {
        "op_12": {
            "time_windows": [
                {
                    "start": "2014-03-05T08:00:00", 
                    "finish": "2014-03-05T18:00:00", 
                    "regular_worktime": "8:00:00"
                }, 
                {
                    "start": "2014-03-06T08:00:00", 
                    "finish": "2014-03-06T13:00:00", 
                    "regular_worktime": "4:00:00"
                }, 
                {
                    "start": "2014-03-07T08:00:00", 
                    "finish": "2014-03-07T18:00:00", 
                    "regular_worktime": "8:00:00"
                }
            ], 
            "incompatible_activities": [
                "act_0_38", 
                "act_1_31", 
                "act_2_17", 
                "act_0_35", 
                "act_1_13", 
                "act_0_17", 
                "act_0_23", 
                "act_2_26"
            ], 
            "maximum_working_hours": "16:00:00", 
            "name": "Justin Lopez", 
            "minimum_working_hours": "12:00:00"
        }, 
        "op_8": {
            "time_windows": [
                {
                    "start": "2014-03-05T08:00:00", 
                    "finish": "2014-03-05T18:00:00", 
                    "regular_worktime": "8:00:00"
                }, 
                {
                    "start": "2014-03-06T08:00:00", 
                    "finish": "2014-03-06T13:00:00", 
                    "regular_worktime": "4:00:00"
                }, 
                {
                    "start": "2014-03-07T08:00:00", 
                    "finish": "2014-03-07T18:00:00", 
                    "regular_worktime": "8:00:00"
                }
            ], 
            "incompatible_activities": [
                "act_0_28", 
                "act_1_18", 
                "act_2_18", 
                "act_2_23", 
                "act_0_7", 
                "act_2_20", 
                "act_2_26", 
                "act_1_19"
            ], 
            "maximum_working_hours": "16:00:00", 
            "name": "Kathryn Woodard", 
            "minimum_working_hours": "12:00:00"
        }, 
        "op_9": {
            "time_windows": [
                {
                    "start": "2014-03-05T13:00:00", 
                    "finish": "2014-03-05T18:00:00", 
                    "regular_worktime": "4:00:00"
                }, 
                {
                    "start": "2014-03-06T08:00:00", 
                    "finish": "2014-03-06T18:00:00", 
                    "regular_worktime": "8:00:00"
                }, 
                {
                    "start": "2014-03-07T08:00:00", 
                    "finish": "2014-03-07T18:00:00", 
                    "regular_worktime": "8:00:00"
                }
            ], 
            "incompatible_activities": [
                "act_0_32", 
                "act_2_22", 
                "act_1_37", 
                "act_0_8", 
                "act_2_16", 
                "act_1_39", 
                "act_2_8", 
                "act_0_27"
            ], 
            "maximum_working_hours": "16:00:00", 
            "name": "Lavern Lemon", 
            "minimum_working_hours": "12:00:00"
        }, 
        "op_13": {
            "time_windows": [
                {
                    "start": "2014-03-05T08:00:00", 
                    "finish": "2014-03-05T18:00:00", 
                    "regular_worktime": "8:00:00"
                }, 
                {
                    "start": "2014-03-06T08:00:00", 
                    "finish": "2014-03-06T18:00:00", 
                    "regular_worktime": "8:00:00"
                }, 
                {
                    "start": "2014-03-07T08:00:00", 
                    "finish": "2014-03-07T18:00:00", 
                    "regular_worktime": "8:00:00"
                }
            ], 
            "incompatible_activities": [
                "act_0_3", 
                "act_0_4", 
                "act_0_24", 
                "act_0_17", 
                "act_1_29", 
                "act_1_37", 
                "act_1_20", 
                "act_2_22"
            ], 
            "maximum_working_hours": "16:00:00", 
            "name": "Lisa Mason", 
            "minimum_working_hours": "16:00:00"
        }, 
        "op_4": {
            "time_windows": [
                {
                    "start": "2014-03-05T13:00:00", 
                    "finish": "2014-03-05T18:00:00", 
                    "regular_worktime": "4:00:00"
                }, 
                {
                    "start": "2014-03-06T08:00:00", 
                    "finish": "2014-03-06T18:00:00", 
                    "regular_worktime": "8:00:00"
                }, 
                {
                    "start": "2014-03-07T08:00:00", 
                    "finish": "2014-03-07T13:00:00", 
                    "regular_worktime": "4:00:00"
                }
            ], 
            "incompatible_activities": [
                "act_2_23", 
                "act_1_27", 
                "act_1_3", 
                "act_1_6", 
                "act_0_27", 
                "act_2_32", 
                "act_2_16", 
                "act_2_30"
            ], 
            "maximum_working_hours": "12:00:00", 
            "name": "Ann Crowder", 
            "minimum_working_hours": "08:00:00"
        }, 
        "op_5": {
            "time_windows": [
                {
                    "start": "2014-03-05T08:00:00", 
                    "finish": "2014-03-05T13:00:00", 
                    "regular_worktime": "4:00:00"
                }, 
                {
                    "start": "2014-03-06T08:00:00", 
                    "finish": "2014-03-06T18:00:00", 
                    "regular_worktime": "8:00:00"
                }, 
                {
                    "start": "2014-03-07T08:00:00", 
                    "finish": "2014-03-07T18:00:00", 
                    "regular_worktime": "8:00:00"
                }
            ], 
            "incompatible_activities": [
                "act_2_5", 
                "act_1_10", 
                "act_2_4", 
                "act_1_16", 
                "act_2_21", 
                "act_1_33", 
                "act_1_34", 
                "act_0_27"
            ], 
            "maximum_working_hours": "16:00:00", 
            "name": "Katie Mitchell", 
            "minimum_working_hours": "12:00:00"
        }, 
        "op_6": {
            "time_windows": [
                {
                    "start": "2014-03-05T08:00:00", 
                    "finish": "2014-03-05T18:00:00", 
                    "regular_worktime": "8:00:00"
                }, 
                {
                    "start": "2014-03-06T08:00:00", 
                    "finish": "2014-03-06T13:00:00", 
                    "regular_worktime": "4:00:00"
                }, 
                {
                    "start": "2014-03-07T08:00:00", 
                    "finish": "2014-03-07T13:00:00", 
                    "regular_worktime": "4:00:00"
                }
            ], 
            "incompatible_activities": [
                "act_0_39", 
                "act_2_23", 
                "act_1_32", 
                "act_0_23", 
                "act_2_13", 
                "act_0_1", 
                "act_2_35", 
                "act_2_20"
            ], 
            "maximum_working_hours": "12:00:00", 
            "name": "Emma Gilbert", 
            "minimum_working_hours": "08:00:00"
        }, 
        "op_7": {
            "time_windows": [
                {
                    "start": "2014-03-05T08:00:00", 
                    "finish": "2014-03-05T18:00:00", 
                    "regular_worktime": "8:00:00"
                }, 
                {
                    "start": "2014-03-06T08:00:00", 
                    "finish": "2014-03-06T18:00:00", 
                    "regular_worktime": "8:00:00"
                }, 
                {
                    "start": "2014-03-07T13:00:00", 
                    "finish": "2014-03-07T18:00:00", 
                    "regular_worktime": "4:00:00"
                }
            ], 
            "incompatible_activities": [
                "act_1_6", 
                "act_1_16", 
                "act_0_10", 
                "act_0_16", 
                "act_1_29", 
                "act_0_14", 
                "act_2_19", 
                "act_1_20"
            ], 
            "maximum_working_hours": "16:00:00", 
            "name": "Sally Murillo", 
            "minimum_working_hours": "12:00:00"
        }, 
        "op_0": {
            "time_windows": [
                {
                    "start": "2014-03-05T13:00:00", 
                    "finish": "2014-03-05T18:00:00", 
                    "regular_worktime": "4:00:00"
                }, 
                {
                    "start": "2014-03-06T13:00:00", 
                    "finish": "2014-03-06T18:00:00", 
                    "regular_worktime": "4:00:00"
                }, 
                {
                    "start": "2014-03-07T08:00:00", 
                    "finish": "2014-03-07T18:00:00", 
                    "regular_worktime": "8:00:00"
                }
            ], 
            "incompatible_activities": [
                "act_2_17", 
                "act_2_0", 
                "act_0_1", 
                "act_0_19", 
                "act_2_39", 
                "act_2_29", 
                "act_0_14", 
                "act_1_37"
            ], 
            "maximum_working_hours": "12:00:00", 
            "name": "Christopher Dodge", 
            "minimum_working_hours": "08:00:00"
        }, 
        "op_1": {
            "time_windows": [
                {
                    "start": "2014-03-05T08:00:00", 
                    "finish": "2014-03-05T13:00:00", 
                    "regular_worktime": "4:00:00"
                }, 
                {
                    "start": "2014-03-06T08:00:00", 
                    "finish": "2014-03-06T13:00:00", 
                    "regular_worktime": "4:00:00"
                }, 
                {
                    "start": "2014-03-07T08:00:00", 
                    "finish": "2014-03-07T13:00:00", 
                    "regular_worktime": "4:00:00"
                }
            ], 
            "incompatible_activities": [
                "act_1_14", 
                "act_1_35", 
                "act_0_4", 
                "act_0_20", 
                "act_1_9", 
                "act_1_12", 
                "act_1_19", 
                "act_0_32"
            ], 
            "maximum_working_hours": "08:00:00", 
            "name": "Paul Bowen", 
            "minimum_working_hours": "08:00:00"
        }, 
        "op_2": {
            "time_windows": [
                {
                    "start": "2014-03-05T08:00:00", 
                    "finish": "2014-03-05T18:00:00", 
                    "regular_worktime": "8:00:00"
                }, 
                {
                    "start": "2014-03-06T08:00:00", 
                    "finish": "2014-03-06T13:00:00", 
                    "regular_worktime": "4:00:00"
                }, 
                {
                    "start": "2014-03-07T08:00:00", 
                    "finish": "2014-03-07T18:00:00", 
                    "regular_worktime": "8:00:00"
                }
            ], 
            "incompatible_activities": [
                "act_0_38", 
                "act_1_16", 
                "act_0_9", 
                "act_0_6", 
                "act_0_23", 
                "act_2_4", 
                "act_1_22", 
                "act_1_28"
            ], 
            "maximum_working_hours": "16:00:00", 
            "name": "Jamie Ellis", 
            "minimum_working_hours": "12:00:00"
        }, 
        "op_3": {
            "time_windows": [
                {
                    "start": "2014-03-05T08:00:00", 
                    "finish": "2014-03-05T13:00:00", 
                    "regular_worktime": "4:00:00"
                }, 
                {
                    "start": "2014-03-06T08:00:00", 
                    "finish": "2014-03-06T18:00:00", 
                    "regular_worktime": "8:00:00"
                }, 
                {
                    "start": "2014-03-07T08:00:00", 
                    "finish": "2014-03-07T18:00:00", 
                    "regular_worktime": "8:00:00"
                }
            ], 
            "incompatible_activities": [
                "act_0_27", 
                "act_0_29", 
                "act_2_2", 
                "act_2_30", 
                "act_1_1", 
                "act_2_19", 
                "act_0_25", 
                "act_0_3"
            ], 
            "maximum_working_hours": "16:00:00", 
            "name": "Eugene Montague", 
            "minimum_working_hours": "12:00:00"
        }, 
        "op_10": {
            "time_windows": [
                {
                    "start": "2014-03-05T08:00:00", 
                    "finish": "2014-03-05T18:00:00", 
                    "regular_worktime": "8:00:00"
                }, 
                {
                    "start": "2014-03-06T08:00:00", 
                    "finish": "2014-03-06T13:00:00", 
                    "regular_worktime": "4:00:00"
                }, 
                {
                    "start": "2014-03-07T08:00:00", 
                    "finish": "2014-03-07T18:00:00", 
                    "regular_worktime": "8:00:00"
                }
            ], 
            "incompatible_activities": [
                "act_0_38", 
                "act_1_31", 
                "act_2_15", 
                "act_2_2", 
                "act_2_31", 
                "act_2_20", 
                "act_1_7", 
                "act_1_13"
            ], 
            "maximum_working_hours": "16:00:00", 
            "name": "Floyd Harrison", 
            "minimum_working_hours": "12:00:00"
        }, 
        "op_11": {
            "time_windows": [
                {
                    "start": "2014-03-05T13:00:00", 
                    "finish": "2014-03-05T18:00:00", 
                    "regular_worktime": "4:00:00"
                }, 
                {
                    "start": "2014-03-06T08:00:00", 
                    "finish": "2014-03-06T18:00:00", 
                    "regular_worktime": "8:00:00"
                }, 
                {
                    "start": "2014-03-07T08:00:00", 
                    "finish": "2014-03-07T18:00:00", 
                    "regular_worktime": "8:00:00"
                }
            ], 
            "incompatible_activities": [
                "act_0_35", 
                "act_0_38", 
                "act_2_8", 
                "act_2_28", 
                "act_2_2", 
                "act_0_26", 
                "act_1_13", 
                "act_2_34"
            ], 
            "maximum_working_hours": "16:00:00", 
            "name": "Elliot Howley", 
            "minimum_working_hours": "12:00:00"
        }, 
        "op_14": {
            "time_windows": [
                {
                    "start": "2014-03-05T08:00:00", 
                    "finish": "2014-03-05T18:00:00", 
                    "regular_worktime": "8:00:00"
                }, 
                {
                    "start": "2014-03-06T08:00:00", 
                    "finish": "2014-03-06T18:00:00", 
                    "regular_worktime": "8:00:00"
                }, 
                {
                    "start": "2014-03-07T13:00:00", 
                    "finish": "2014-03-07T18:00:00", 
                    "regular_worktime": "4:00:00"
                }
            ], 
            "incompatible_activities": [
                "act_2_24", 
                "act_0_15", 
                "act_1_25", 
                "act_2_14", 
                "act_1_31", 
                "act_2_37", 
                "act_1_28", 
                "act_2_5"
            ], 
            "maximum_working_hours": "16:00:00", 
            "name": "Chrystal Moore", 
            "minimum_working_hours": "12:00:00"
        }
    }, 
    "meta": {
        "time_window": {
            "start": "08:00:00", 
            "finish": "18:00:00"
        }, 
        "horizon": 3, 
        "granularity": 10, 
        "geographic_area": {
            "upper_left": [
                46.259645, 
                12.860656
            ], 
            "lower_right": [
                45.936826, 
                13.485503
            ]
        }, 
        "max_consecutive_days": 2, 
        "finish_date": "2014-03-08T00:00:00", 
        "max_overtime_rate": 1.1, 
        "start_date": "2014-03-05T00:00:00"
    }
}