{
    "activities": [
        {
            "act_0_19": {
                "duration": 60, 
                "time_window": {
                    "start": "2014-03-05T08:00:00", 
                    "finish": "2014-03-05T18:00:00"
                }, 
                "required_operators": 1, 
                "location": {
                    "latitude": 46.075420701934306, 
                    "longitude": 12.931609051445184
                }, 
                "patient_name": "Karen Novak"
            }, 
            "act_0_18": {
                "duration": 60, 
                "time_window": {
                    "start": "2014-03-05T08:00:00", 
                    "finish": "2014-03-05T18:00:00"
                }, 
                "required_operators": 1, 
                "location": {
                    "latitude": 45.948367008675476, 
                    "longitude": 13.065438563882074
                }, 
                "patient_name": "Sarah Gordy"
            }, 
            "act_0_17": {
                "duration": 30, 
                "time_window": {
                    "start": "2014-03-05T08:00:00", 
                    "finish": "2014-03-05T11:20:00"
                }, 
                "required_operators": 1, 
                "location": {
                    "latitude": 46.12303510705291, 
                    "longitude": 13.003957206032922
                }, 
                "patient_name": "Tanya Mcgann"
            }, 
            "act_0_16": {
                "duration": 60, 
                "time_window": {
                    "start": "2014-03-05T08:00:00", 
                    "finish": "2014-03-05T13:00:00"
                }, 
                "required_operators": 1, 
                "location": {
                    "latitude": 46.01377852323217, 
                    "longitude": 13.333053334719779
                }, 
                "patient_name": "Cathy Dome"
            }, 
            "act_0_15": {
                "duration": 60, 
                "time_window": {
                    "start": "2014-03-05T13:00:00", 
                    "finish": "2014-03-05T18:00:00"
                }, 
                "required_operators": 1, 
                "location": {
                    "latitude": 46.068601305057776, 
                    "longitude": 13.2042556544412
                }, 
                "patient_name": "Teresa Turner"
            }, 
            "act_0_14": {
                "duration": 60, 
                "time_window": {
                    "start": "2014-03-05T08:00:00", 
                    "finish": "2014-03-05T11:20:00"
                }, 
                "required_operators": 1, 
                "location": {
                    "latitude": 46.25053538663634, 
                    "longitude": 12.945322741867454
                }, 
                "patient_name": "Raymond Cartwright"
            }, 
            "act_0_13": {
                "duration": 60, 
                "time_window": {
                    "start": "2014-03-05T14:40:00", 
                    "finish": "2014-03-05T18:00:00"
                }, 
                "required_operators": 1, 
                "location": {
                    "latitude": 46.08825664930843, 
                    "longitude": 13.169001362273189
                }, 
                "patient_name": "Teresa Quintana"
            }, 
            "act_0_12": {
                "duration": 30, 
                "time_window": {
                    "start": "2014-03-05T14:40:00", 
                    "finish": "2014-03-05T18:00:00"
                }, 
                "required_operators": 1, 
                "location": {
                    "latitude": 46.09447681519084, 
                    "longitude": 13.019754579621921
                }, 
                "patient_name": "Tracey Barfield"
            }, 
            "act_0_11": {
                "duration": 30, 
                "time_window": {
                    "start": "2014-03-05T08:00:00", 
                    "finish": "2014-03-05T11:20:00"
                }, 
                "required_operators": 1, 
                "location": {
                    "latitude": 46.159909575221306, 
                    "longitude": 12.883646267111631
                }, 
                "patient_name": "James Perron"
            }, 
            "act_0_10": {
                "duration": 60, 
                "time_window": {
                    "start": "2014-03-05T14:40:00", 
                    "finish": "2014-03-05T18:00:00"
                }, 
                "required_operators": 2, 
                "location": {
                    "latitude": 46.007154566542326, 
                    "longitude": 13.164372794265077
                }, 
                "patient_name": "Joseph Byron"
            }, 
            "act_0_9": {
                "duration": 30, 
                "time_window": {
                    "start": "2014-03-05T08:00:00", 
                    "finish": "2014-03-05T13:00:00"
                }, 
                "required_operators": 2, 
                "location": {
                    "latitude": 45.96287535681048, 
                    "longitude": 13.02181200379462
                }, 
                "patient_name": "Laureen Grover"
            }, 
            "act_0_8": {
                "duration": 30, 
                "time_window": {
                    "start": "2014-03-05T13:00:00", 
                    "finish": "2014-03-05T18:00:00"
                }, 
                "required_operators": 1, 
                "location": {
                    "latitude": 45.93961402685722, 
                    "longitude": 13.465481681439533
                }, 
                "patient_name": "Nancy Whitehead"
            }, 
            "act_0_3": {
                "duration": 60, 
                "time_window": {
                    "start": "2014-03-05T08:00:00", 
                    "finish": "2014-03-05T18:00:00"
                }, 
                "required_operators": 1, 
                "location": {
                    "latitude": 46.16587931235018, 
                    "longitude": 13.127306448941043
                }, 
                "patient_name": "Marie Valdez"
            }, 
            "act_0_2": {
                "duration": 30, 
                "time_window": {
                    "start": "2014-03-05T08:00:00", 
                    "finish": "2014-03-05T18:00:00"
                }, 
                "required_operators": 1, 
                "location": {
                    "latitude": 46.07796917078094, 
                    "longitude": 13.246184467826287
                }, 
                "patient_name": "Fred Cook"
            }, 
            "act_0_1": {
                "duration": 30, 
                "time_window": {
                    "start": "2014-03-05T14:40:00", 
                    "finish": "2014-03-05T18:00:00"
                }, 
                "required_operators": 1, 
                "location": {
                    "latitude": 46.0921901272095, 
                    "longitude": 13.345099028778296
                }, 
                "patient_name": "Adolph Locorriere"
            }, 
            "act_0_0": {
                "duration": 30, 
                "time_window": {
                    "start": "2014-03-05T08:00:00", 
                    "finish": "2014-03-05T18:00:00"
                }, 
                "required_operators": 1, 
                "location": {
                    "latitude": 46.1447944863922, 
                    "longitude": 13.178110311999555
                }, 
                "patient_name": "Carol Terepka"
            }, 
            "act_0_7": {
                "duration": 60, 
                "time_window": {
                    "start": "2014-03-05T14:40:00", 
                    "finish": "2014-03-05T18:00:00"
                }, 
                "required_operators": 1, 
                "location": {
                    "latitude": 46.088192178042746, 
                    "longitude": 13.07512515433836
                }, 
                "patient_name": "James Cable"
            }, 
            "act_0_6": {
                "duration": 30, 
                "time_window": {
                    "start": "2014-03-05T08:00:00", 
                    "finish": "2014-03-05T18:00:00"
                }, 
                "required_operators": 1, 
                "location": {
                    "latitude": 45.993887206240615, 
                    "longitude": 13.184572890013502
                }, 
                "patient_name": "Gary Bristow"
            }, 
            "act_0_5": {
                "duration": 60, 
                "time_window": {
                    "start": "2014-03-05T11:20:00", 
                    "finish": "2014-03-05T14:40:00"
                }, 
                "required_operators": 1, 
                "location": {
                    "latitude": 46.077017101133755, 
                    "longitude": 13.420942987743661
                }, 
                "patient_name": "Anthony Wms"
            }, 
            "act_0_4": {
                "duration": 30, 
                "time_window": {
                    "start": "2014-03-05T08:00:00", 
                    "finish": "2014-03-05T13:00:00"
                }, 
                "required_operators": 1, 
                "location": {
                    "latitude": 46.25522652077572, 
                    "longitude": 13.016398818822415
                }, 
                "patient_name": "Martha Ward"
            }, 
            "act_0_22": {
                "duration": 60, 
                "time_window": {
                    "start": "2014-03-05T13:00:00", 
                    "finish": "2014-03-05T18:00:00"
                }, 
                "required_operators": 1, 
                "location": {
                    "latitude": 46.18176573016817, 
                    "longitude": 13.04145232233704
                }, 
                "patient_name": "Edward Scruggs"
            }, 
            "act_0_23": {
                "duration": 30, 
                "time_window": {
                    "start": "2014-03-05T08:00:00", 
                    "finish": "2014-03-05T11:20:00"
                }, 
                "required_operators": 2, 
                "location": {
                    "latitude": 45.95544928700383, 
                    "longitude": 13.240791980062378
                }, 
                "patient_name": "Kenneth Dennis"
            }, 
            "act_0_20": {
                "duration": 30, 
                "time_window": {
                    "start": "2014-03-05T08:00:00", 
                    "finish": "2014-03-05T13:00:00"
                }, 
                "required_operators": 1, 
                "location": {
                    "latitude": 45.9875757053949, 
                    "longitude": 12.887901034187033
                }, 
                "patient_name": "Melissa Lee"
            }, 
            "act_0_21": {
                "duration": 30, 
                "time_window": {
                    "start": "2014-03-05T08:00:00", 
                    "finish": "2014-03-05T18:00:00"
                }, 
                "required_operators": 1, 
                "location": {
                    "latitude": 46.17723381659153, 
                    "longitude": 13.11439626328131
                }, 
                "patient_name": "Ethel Alu"
            }, 
            "act_0_26": {
                "duration": 30, 
                "time_window": {
                    "start": "2014-03-05T08:00:00", 
                    "finish": "2014-03-05T11:20:00"
                }, 
                "required_operators": 2, 
                "location": {
                    "latitude": 46.064529079854665, 
                    "longitude": 13.247911862394968
                }, 
                "patient_name": "Lloyd Brucato"
            }, 
            "act_0_27": {
                "duration": 30, 
                "time_window": {
                    "start": "2014-03-05T08:00:00", 
                    "finish": "2014-03-05T18:00:00"
                }, 
                "required_operators": 1, 
                "location": {
                    "latitude": 46.00144429895538, 
                    "longitude": 13.008742920908794
                }, 
                "patient_name": "Larry Steinert"
            }, 
            "act_0_24": {
                "duration": 60, 
                "time_window": {
                    "start": "2014-03-05T14:40:00", 
                    "finish": "2014-03-05T18:00:00"
                }, 
                "required_operators": 1, 
                "location": {
                    "latitude": 45.98162786934723, 
                    "longitude": 13.08967568269517
                }, 
                "patient_name": "William Taylor"
            }, 
            "act_0_25": {
                "duration": 30, 
                "time_window": {
                    "start": "2014-03-05T13:00:00", 
                    "finish": "2014-03-05T18:00:00"
                }, 
                "required_operators": 1, 
                "location": {
                    "latitude": 46.07313657239681, 
                    "longitude": 13.036777579701777
                }, 
                "patient_name": "Cassandra Keegan"
            }, 
            "act_0_28": {
                "duration": 30, 
                "time_window": {
                    "start": "2014-03-05T08:00:00", 
                    "finish": "2014-03-05T11:20:00"
                }, 
                "required_operators": 1, 
                "location": {
                    "latitude": 46.09890973629926, 
                    "longitude": 12.914331426578315
                }, 
                "patient_name": "Annette Restivo"
            }, 
            "act_0_29": {
                "duration": 30, 
                "time_window": {
                    "start": "2014-03-05T08:00:00", 
                    "finish": "2014-03-05T18:00:00"
                }, 
                "required_operators": 1, 
                "location": {
                    "latitude": 46.00151621958996, 
                    "longitude": 13.310676501075003
                }, 
                "patient_name": "David Bankston"
            }
        }, 
        {
            "act_1_14": {
                "duration": 30, 
                "time_window": {
                    "start": "2014-03-06T08:00:00", 
                    "finish": "2014-03-06T11:20:00"
                }, 
                "required_operators": 1, 
                "location": {
                    "latitude": 46.18642145230955, 
                    "longitude": 13.038028239691572
                }, 
                "patient_name": "Stephanie Anderson"
            }, 
            "act_1_15": {
                "duration": 30, 
                "time_window": {
                    "start": "2014-03-06T08:00:00", 
                    "finish": "2014-03-06T13:00:00"
                }, 
                "required_operators": 1, 
                "location": {
                    "latitude": 45.99357737241684, 
                    "longitude": 12.865651356281578
                }, 
                "patient_name": "Mellisa White"
            }, 
            "act_1_16": {
                "duration": 30, 
                "time_window": {
                    "start": "2014-03-06T08:00:00", 
                    "finish": "2014-03-06T13:00:00"
                }, 
                "required_operators": 1, 
                "location": {
                    "latitude": 45.948729060507276, 
                    "longitude": 12.86241439357396
                }, 
                "patient_name": "Adela Hangartner"
            }, 
            "act_1_17": {
                "duration": 60, 
                "time_window": {
                    "start": "2014-03-06T08:00:00", 
                    "finish": "2014-03-06T18:00:00"
                }, 
                "required_operators": 2, 
                "location": {
                    "latitude": 46.1713605729024, 
                    "longitude": 12.865147622740572
                }, 
                "patient_name": "Paul Dininno"
            }, 
            "act_1_10": {
                "duration": 30, 
                "time_window": {
                    "start": "2014-03-06T13:00:00", 
                    "finish": "2014-03-06T18:00:00"
                }, 
                "required_operators": 1, 
                "location": {
                    "latitude": 46.02480397449187, 
                    "longitude": 13.412641052274425
                }, 
                "patient_name": "Patrick Deshotel"
            }, 
            "act_1_11": {
                "duration": 30, 
                "time_window": {
                    "start": "2014-03-06T08:00:00", 
                    "finish": "2014-03-06T18:00:00"
                }, 
                "required_operators": 1, 
                "location": {
                    "latitude": 45.94353104127119, 
                    "longitude": 12.95348043166671
                }, 
                "patient_name": "Paul Casiano"
            }, 
            "act_1_12": {
                "duration": 30, 
                "time_window": {
                    "start": "2014-03-06T08:00:00", 
                    "finish": "2014-03-06T13:00:00"
                }, 
                "required_operators": 1, 
                "location": {
                    "latitude": 46.09777730224295, 
                    "longitude": 13.422851750741838
                }, 
                "patient_name": "Manuel Edwards"
            }, 
            "act_1_13": {
                "duration": 30, 
                "time_window": {
                    "start": "2014-03-06T08:00:00", 
                    "finish": "2014-03-06T11:20:00"
                }, 
                "required_operators": 1, 
                "location": {
                    "latitude": 46.18011754302786, 
                    "longitude": 13.19119058591699
                }, 
                "patient_name": "Jessica Little"
            }, 
            "act_1_18": {
                "duration": 60, 
                "time_window": {
                    "start": "2014-03-06T08:00:00", 
                    "finish": "2014-03-06T18:00:00"
                }, 
                "required_operators": 1, 
                "location": {
                    "latitude": 46.164223862118675, 
                    "longitude": 13.140455766645264
                }, 
                "patient_name": "Krista Fortier"
            }, 
            "act_1_19": {
                "duration": 60, 
                "time_window": {
                    "start": "2014-03-06T14:40:00", 
                    "finish": "2014-03-06T18:00:00"
                }, 
                "required_operators": 2, 
                "location": {
                    "latitude": 46.12163846952056, 
                    "longitude": 13.484863036025406
                }, 
                "patient_name": "Wilbert Jones"
            }, 
            "act_1_2": {
                "duration": 60, 
                "time_window": {
                    "start": "2014-03-06T13:00:00", 
                    "finish": "2014-03-06T18:00:00"
                }, 
                "required_operators": 1, 
                "location": {
                    "latitude": 46.09494008089509, 
                    "longitude": 13.114870992752188
                }, 
                "patient_name": "Robert Reid"
            }, 
            "act_1_3": {
                "duration": 60, 
                "time_window": {
                    "start": "2014-03-06T08:00:00", 
                    "finish": "2014-03-06T18:00:00"
                }, 
                "required_operators": 1, 
                "location": {
                    "latitude": 46.14584126323775, 
                    "longitude": 12.864462226261649
                }, 
                "patient_name": "Vincent Malott"
            }, 
            "act_1_0": {
                "duration": 60, 
                "time_window": {
                    "start": "2014-03-06T14:40:00", 
                    "finish": "2014-03-06T18:00:00"
                }, 
                "required_operators": 1, 
                "location": {
                    "latitude": 46.25609039189045, 
                    "longitude": 13.348715792158352
                }, 
                "patient_name": "Christopher Rodriguez"
            }, 
            "act_1_1": {
                "duration": 30, 
                "time_window": {
                    "start": "2014-03-06T08:00:00", 
                    "finish": "2014-03-06T18:00:00"
                }, 
                "required_operators": 1, 
                "location": {
                    "latitude": 46.094287025043734, 
                    "longitude": 13.096939934406683
                }, 
                "patient_name": "Judy Gervasio"
            }, 
            "act_1_6": {
                "duration": 30, 
                "time_window": {
                    "start": "2014-03-06T08:00:00", 
                    "finish": "2014-03-06T18:00:00"
                }, 
                "required_operators": 1, 
                "location": {
                    "latitude": 46.01067333900837, 
                    "longitude": 12.934830591589499
                }, 
                "patient_name": "Kenneth Dann"
            }, 
            "act_1_7": {
                "duration": 60, 
                "time_window": {
                    "start": "2014-03-06T08:00:00", 
                    "finish": "2014-03-06T18:00:00"
                }, 
                "required_operators": 2, 
                "location": {
                    "latitude": 46.01943914626098, 
                    "longitude": 13.302203733858155
                }, 
                "patient_name": "John Jackson"
            }, 
            "act_1_4": {
                "duration": 60, 
                "time_window": {
                    "start": "2014-03-06T13:00:00", 
                    "finish": "2014-03-06T18:00:00"
                }, 
                "required_operators": 1, 
                "location": {
                    "latitude": 46.04978274831712, 
                    "longitude": 13.201352256934491
                }, 
                "patient_name": "Victoria White"
            }, 
            "act_1_5": {
                "duration": 30, 
                "time_window": {
                    "start": "2014-03-06T08:00:00", 
                    "finish": "2014-03-06T13:00:00"
                }, 
                "required_operators": 1, 
                "location": {
                    "latitude": 46.10686821180335, 
                    "longitude": 13.327895838968178
                }, 
                "patient_name": "Grant Dancy"
            }, 
            "act_1_8": {
                "duration": 60, 
                "time_window": {
                    "start": "2014-03-06T08:00:00", 
                    "finish": "2014-03-06T18:00:00"
                }, 
                "required_operators": 1, 
                "location": {
                    "latitude": 45.946142989745596, 
                    "longitude": 13.106515907644543
                }, 
                "patient_name": "James Pumphrey"
            }, 
            "act_1_9": {
                "duration": 30, 
                "time_window": {
                    "start": "2014-03-06T08:00:00", 
                    "finish": "2014-03-06T18:00:00"
                }, 
                "required_operators": 1, 
                "location": {
                    "latitude": 46.168882607543736, 
                    "longitude": 12.937259235013578
                }, 
                "patient_name": "Helen Snyder"
            }, 
            "act_1_29": {
                "duration": 60, 
                "time_window": {
                    "start": "2014-03-06T13:00:00", 
                    "finish": "2014-03-06T18:00:00"
                }, 
                "required_operators": 1, 
                "location": {
                    "latitude": 45.982305666246624, 
                    "longitude": 13.04465250488208
                }, 
                "patient_name": "Elizabeth Seely"
            }, 
            "act_1_28": {
                "duration": 30, 
                "time_window": {
                    "start": "2014-03-06T08:00:00", 
                    "finish": "2014-03-06T13:00:00"
                }, 
                "required_operators": 1, 
                "location": {
                    "latitude": 46.19492945142398, 
                    "longitude": 13.274008455534256
                }, 
                "patient_name": "Amy Whitford"
            }, 
            "act_1_25": {
                "duration": 60, 
                "time_window": {
                    "start": "2014-03-06T08:00:00", 
                    "finish": "2014-03-06T18:00:00"
                }, 
                "required_operators": 1, 
                "location": {
                    "latitude": 46.03173341373627, 
                    "longitude": 13.365272152782671
                }, 
                "patient_name": "Reynaldo Little"
            }, 
            "act_1_24": {
                "duration": 60, 
                "time_window": {
                    "start": "2014-03-06T13:00:00", 
                    "finish": "2014-03-06T18:00:00"
                }, 
                "required_operators": 2, 
                "location": {
                    "latitude": 46.05259495579916, 
                    "longitude": 13.28838014250551
                }, 
                "patient_name": "Derrick Mckoy"
            }, 
            "act_1_27": {
                "duration": 30, 
                "time_window": {
                    "start": "2014-03-06T08:00:00", 
                    "finish": "2014-03-06T18:00:00"
                }, 
                "required_operators": 2, 
                "location": {
                    "latitude": 46.24097142939691, 
                    "longitude": 12.99410707872107
                }, 
                "patient_name": "Don Peak"
            }, 
            "act_1_26": {
                "duration": 30, 
                "time_window": {
                    "start": "2014-03-06T13:00:00", 
                    "finish": "2014-03-06T18:00:00"
                }, 
                "required_operators": 1, 
                "location": {
                    "latitude": 46.218639984303536, 
                    "longitude": 13.479948541151437
                }, 
                "patient_name": "Carmen James"
            }, 
            "act_1_21": {
                "duration": 30, 
                "time_window": {
                    "start": "2014-03-06T13:00:00", 
                    "finish": "2014-03-06T18:00:00"
                }, 
                "required_operators": 1, 
                "location": {
                    "latitude": 46.18402393673782, 
                    "longitude": 13.290311058618856
                }, 
                "patient_name": "Deborah Garcia"
            }, 
            "act_1_20": {
                "duration": 30, 
                "time_window": {
                    "start": "2014-03-06T08:00:00", 
                    "finish": "2014-03-06T18:00:00"
                }, 
                "required_operators": 1, 
                "location": {
                    "latitude": 46.19369298621709, 
                    "longitude": 13.022198314525284
                }, 
                "patient_name": "Deborah Dang"
            }, 
            "act_1_23": {
                "duration": 60, 
                "time_window": {
                    "start": "2014-03-06T13:00:00", 
                    "finish": "2014-03-06T18:00:00"
                }, 
                "required_operators": 1, 
                "location": {
                    "latitude": 46.1496805125405, 
                    "longitude": 12.964633260924442
                }, 
                "patient_name": "Rosalia Rice"
            }, 
            "act_1_22": {
                "duration": 30, 
                "time_window": {
                    "start": "2014-03-06T08:00:00", 
                    "finish": "2014-03-06T11:20:00"
                }, 
                "required_operators": 2, 
                "location": {
                    "latitude": 46.00091133455379, 
                    "longitude": 13.417445406372801
                }, 
                "patient_name": "Ruth Peterson"
            }
        }, 
        {
            "act_2_19": {
                "duration": 30, 
                "time_window": {
                    "start": "2014-03-07T08:00:00", 
                    "finish": "2014-03-07T11:20:00"
                }, 
                "required_operators": 1, 
                "location": {
                    "latitude": 46.09668316845873, 
                    "longitude": 13.169783198297724
                }, 
                "patient_name": "William Mckinney"
            }, 
            "act_2_18": {
                "duration": 30, 
                "time_window": {
                    "start": "2014-03-07T08:00:00", 
                    "finish": "2014-03-07T11:20:00"
                }, 
                "required_operators": 1, 
                "location": {
                    "latitude": 45.987310254228426, 
                    "longitude": 13.373623448585889
                }, 
                "patient_name": "Debra Rodriguez"
            }, 
            "act_2_11": {
                "duration": 30, 
                "time_window": {
                    "start": "2014-03-07T14:40:00", 
                    "finish": "2014-03-07T18:00:00"
                }, 
                "required_operators": 1, 
                "location": {
                    "latitude": 46.14413547489357, 
                    "longitude": 13.405558392359472
                }, 
                "patient_name": "Gertrude Blume"
            }, 
            "act_2_10": {
                "duration": 30, 
                "time_window": {
                    "start": "2014-03-07T08:00:00", 
                    "finish": "2014-03-07T18:00:00"
                }, 
                "required_operators": 1, 
                "location": {
                    "latitude": 46.24047111333962, 
                    "longitude": 13.12969177167321
                }, 
                "patient_name": "David Vanarsdale"
            }, 
            "act_2_13": {
                "duration": 30, 
                "time_window": {
                    "start": "2014-03-07T13:00:00", 
                    "finish": "2014-03-07T18:00:00"
                }, 
                "required_operators": 2, 
                "location": {
                    "latitude": 46.23447402412676, 
                    "longitude": 13.254047721388241
                }, 
                "patient_name": "Cecelia Wilkinson"
            }, 
            "act_2_12": {
                "duration": 30, 
                "time_window": {
                    "start": "2014-03-07T13:00:00", 
                    "finish": "2014-03-07T18:00:00"
                }, 
                "required_operators": 1, 
                "location": {
                    "latitude": 46.16593923282755, 
                    "longitude": 13.389860360269468
                }, 
                "patient_name": "Arthur Rodriguez"
            }, 
            "act_2_15": {
                "duration": 60, 
                "time_window": {
                    "start": "2014-03-07T11:20:00", 
                    "finish": "2014-03-07T14:40:00"
                }, 
                "required_operators": 1, 
                "location": {
                    "latitude": 46.20090081790664, 
                    "longitude": 13.083706087303208
                }, 
                "patient_name": "Charlene Camacho"
            }, 
            "act_2_14": {
                "duration": 60, 
                "time_window": {
                    "start": "2014-03-07T08:00:00", 
                    "finish": "2014-03-07T13:00:00"
                }, 
                "required_operators": 1, 
                "location": {
                    "latitude": 46.12945902194435, 
                    "longitude": 13.465703314596096
                }, 
                "patient_name": "Ashton Williams"
            }, 
            "act_2_17": {
                "duration": 60, 
                "time_window": {
                    "start": "2014-03-07T13:00:00", 
                    "finish": "2014-03-07T18:00:00"
                }, 
                "required_operators": 1, 
                "location": {
                    "latitude": 46.01295974663699, 
                    "longitude": 13.344615513659376
                }, 
                "patient_name": "Charles Heinrich"
            }, 
            "act_2_16": {
                "duration": 30, 
                "time_window": {
                    "start": "2014-03-07T08:00:00", 
                    "finish": "2014-03-07T18:00:00"
                }, 
                "required_operators": 1, 
                "location": {
                    "latitude": 46.18538579738376, 
                    "longitude": 13.443289803772313
                }, 
                "patient_name": "Patrick Horst"
            }, 
            "act_2_20": {
                "duration": 60, 
                "time_window": {
                    "start": "2014-03-07T08:00:00", 
                    "finish": "2014-03-07T13:00:00"
                }, 
                "required_operators": 1, 
                "location": {
                    "latitude": 45.96115871154697, 
                    "longitude": 13.379766434293748
                }, 
                "patient_name": "John Nelson"
            }, 
            "act_2_21": {
                "duration": 30, 
                "time_window": {
                    "start": "2014-03-07T13:00:00", 
                    "finish": "2014-03-07T18:00:00"
                }, 
                "required_operators": 1, 
                "location": {
                    "latitude": 46.118546630309126, 
                    "longitude": 12.953501655339597
                }, 
                "patient_name": "Loyd Copeland"
            }, 
            "act_2_22": {
                "duration": 30, 
                "time_window": {
                    "start": "2014-03-07T08:00:00", 
                    "finish": "2014-03-07T18:00:00"
                }, 
                "required_operators": 3, 
                "location": {
                    "latitude": 46.2458572441189, 
                    "longitude": 12.87502797964506
                }, 
                "patient_name": "Zachary Hinshaw"
            }, 
            "act_2_23": {
                "duration": 30, 
                "time_window": {
                    "start": "2014-03-07T08:00:00", 
                    "finish": "2014-03-07T13:00:00"
                }, 
                "required_operators": 1, 
                "location": {
                    "latitude": 45.994733567250904, 
                    "longitude": 12.935347349751279
                }, 
                "patient_name": "Cynthia Hewins"
            }, 
            "act_2_24": {
                "duration": 60, 
                "time_window": {
                    "start": "2014-03-07T14:40:00", 
                    "finish": "2014-03-07T18:00:00"
                }, 
                "required_operators": 1, 
                "location": {
                    "latitude": 45.94614082804985, 
                    "longitude": 13.252228792496908
                }, 
                "patient_name": "Perry Vara"
            }, 
            "act_2_25": {
                "duration": 60, 
                "time_window": {
                    "start": "2014-03-07T11:20:00", 
                    "finish": "2014-03-07T14:40:00"
                }, 
                "required_operators": 1, 
                "location": {
                    "latitude": 46.16228026961164, 
                    "longitude": 13.429311197850112
                }, 
                "patient_name": "Elizabeth Skinner"
            }, 
            "act_2_26": {
                "duration": 60, 
                "time_window": {
                    "start": "2014-03-07T08:00:00", 
                    "finish": "2014-03-07T18:00:00"
                }, 
                "required_operators": 1, 
                "location": {
                    "latitude": 46.044693271283684, 
                    "longitude": 13.03154605948699
                }, 
                "patient_name": "Stephanie Galloway"
            }, 
            "act_2_27": {
                "duration": 30, 
                "time_window": {
                    "start": "2014-03-07T11:20:00", 
                    "finish": "2014-03-07T14:40:00"
                }, 
                "required_operators": 1, 
                "location": {
                    "latitude": 46.044400218964235, 
                    "longitude": 12.936336138194326
                }, 
                "patient_name": "Charles Payne"
            }, 
            "act_2_28": {
                "duration": 30, 
                "time_window": {
                    "start": "2014-03-07T13:00:00", 
                    "finish": "2014-03-07T18:00:00"
                }, 
                "required_operators": 1, 
                "location": {
                    "latitude": 46.20880710425211, 
                    "longitude": 13.069470558558416
                }, 
                "patient_name": "Daniel Spencer"
            }, 
            "act_2_29": {
                "duration": 60, 
                "time_window": {
                    "start": "2014-03-07T14:40:00", 
                    "finish": "2014-03-07T18:00:00"
                }, 
                "required_operators": 1, 
                "location": {
                    "latitude": 46.258202498907686, 
                    "longitude": 13.154980096984914
                }, 
                "patient_name": "Melisa Coleman"
            }, 
            "act_2_9": {
                "duration": 30, 
                "time_window": {
                    "start": "2014-03-07T08:00:00", 
                    "finish": "2014-03-07T13:00:00"
                }, 
                "required_operators": 1, 
                "location": {
                    "latitude": 46.180071945867674, 
                    "longitude": 13.001881548654628
                }, 
                "patient_name": "Clinton Allen"
            }, 
            "act_2_8": {
                "duration": 60, 
                "time_window": {
                    "start": "2014-03-07T13:00:00", 
                    "finish": "2014-03-07T18:00:00"
                }, 
                "required_operators": 1, 
                "location": {
                    "latitude": 46.22128921584903, 
                    "longitude": 13.096843945915136
                }, 
                "patient_name": "Sammy Chabez"
            }, 
            "act_2_5": {
                "duration": 30, 
                "time_window": {
                    "start": "2014-03-07T08:00:00", 
                    "finish": "2014-03-07T18:00:00"
                }, 
                "required_operators": 1, 
                "location": {
                    "latitude": 46.18032477589943, 
                    "longitude": 13.350799470545093
                }, 
                "patient_name": "Leon Bosserman"
            }, 
            "act_2_4": {
                "duration": 30, 
                "time_window": {
                    "start": "2014-03-07T13:00:00", 
                    "finish": "2014-03-07T18:00:00"
                }, 
                "required_operators": 1, 
                "location": {
                    "latitude": 45.96808449347087, 
                    "longitude": 13.421235465570092
                }, 
                "patient_name": "Chuck Guerrero"
            }, 
            "act_2_7": {
                "duration": 60, 
                "time_window": {
                    "start": "2014-03-07T08:00:00", 
                    "finish": "2014-03-07T18:00:00"
                }, 
                "required_operators": 1, 
                "location": {
                    "latitude": 46.18326347069288, 
                    "longitude": 13.301235146942444
                }, 
                "patient_name": "Jesse Howard"
            }, 
            "act_2_6": {
                "duration": 30, 
                "time_window": {
                    "start": "2014-03-07T08:00:00", 
                    "finish": "2014-03-07T18:00:00"
                }, 
                "required_operators": 1, 
                "location": {
                    "latitude": 46.06706958371139, 
                    "longitude": 13.393929121623618
                }, 
                "patient_name": "Demarcus Alvine"
            }, 
            "act_2_1": {
                "duration": 30, 
                "time_window": {
                    "start": "2014-03-07T08:00:00", 
                    "finish": "2014-03-07T11:20:00"
                }, 
                "required_operators": 1, 
                "location": {
                    "latitude": 46.09423304807918, 
                    "longitude": 13.345014314280519
                }, 
                "patient_name": "Luanne Parry"
            }, 
            "act_2_0": {
                "duration": 30, 
                "time_window": {
                    "start": "2014-03-07T08:00:00", 
                    "finish": "2014-03-07T13:00:00"
                }, 
                "required_operators": 1, 
                "location": {
                    "latitude": 46.22122627143834, 
                    "longitude": 13.259754035791568
                }, 
                "patient_name": "Mary Johnson"
            }, 
            "act_2_3": {
                "duration": 30, 
                "time_window": {
                    "start": "2014-03-07T11:20:00", 
                    "finish": "2014-03-07T14:40:00"
                }, 
                "required_operators": 2, 
                "location": {
                    "latitude": 46.243735926700786, 
                    "longitude": 12.947157086014409
                }, 
                "patient_name": "Manuel Morales"
            }, 
            "act_2_2": {
                "duration": 30, 
                "time_window": {
                    "start": "2014-03-07T13:00:00", 
                    "finish": "2014-03-07T18:00:00"
                }, 
                "required_operators": 1, 
                "location": {
                    "latitude": 46.08686385222314, 
                    "longitude": 12.946587919531849
                }, 
                "patient_name": "Clyde Sisneros"
            }
        }
    ], 
    "operators": {
        "op_8": {
            "time_windows": [
                {
                    "start": "2014-03-05T08:00:00", 
                    "finish": "2014-03-05T18:00:00", 
                    "regular_worktime": "8:00:00"
                }, 
                {
                    "start": "2014-03-06T08:00:00", 
                    "finish": "2014-03-06T13:00:00", 
                    "regular_worktime": "4:00:00"
                }, 
                {
                    "start": "2014-03-07T08:00:00", 
                    "finish": "2014-03-07T18:00:00", 
                    "regular_worktime": "8:00:00"
                }
            ], 
            "incompatible_activities": [
                "act_1_23", 
                "act_1_14", 
                "act_0_6", 
                "act_2_5", 
                "act_0_11", 
                "act_2_12"
            ], 
            "maximum_working_hours": "16:00:00", 
            "name": "Linda Waters", 
            "minimum_working_hours": "12:00:00"
        }, 
        "op_9": {
            "time_windows": [
                {
                    "start": "2014-03-05T08:00:00", 
                    "finish": "2014-03-05T18:00:00", 
                    "regular_worktime": "8:00:00"
                }, 
                {
                    "start": "2014-03-06T08:00:00", 
                    "finish": "2014-03-06T18:00:00", 
                    "regular_worktime": "8:00:00"
                }, 
                {
                    "start": "2014-03-07T08:00:00", 
                    "finish": "2014-03-07T18:00:00", 
                    "regular_worktime": "8:00:00"
                }
            ], 
            "incompatible_activities": [
                "act_2_2", 
                "act_0_15", 
                "act_2_19", 
                "act_2_5", 
                "act_0_3", 
                "act_1_8"
            ], 
            "maximum_working_hours": "16:00:00", 
            "name": "Erica Brower", 
            "minimum_working_hours": "16:00:00"
        }, 
        "op_4": {
            "time_windows": [
                {
                    "start": "2014-03-05T08:00:00", 
                    "finish": "2014-03-05T18:00:00", 
                    "regular_worktime": "8:00:00"
                }, 
                {
                    "start": "2014-03-06T08:00:00", 
                    "finish": "2014-03-06T13:00:00", 
                    "regular_worktime": "4:00:00"
                }, 
                {
                    "start": "2014-03-07T08:00:00", 
                    "finish": "2014-03-07T18:00:00", 
                    "regular_worktime": "8:00:00"
                }
            ], 
            "incompatible_activities": [
                "act_2_19", 
                "act_2_18", 
                "act_2_21", 
                "act_1_25", 
                "act_2_0", 
                "act_2_27"
            ], 
            "maximum_working_hours": "16:00:00", 
            "name": "Kelley Butts", 
            "minimum_working_hours": "12:00:00"
        }, 
        "op_5": {
            "time_windows": [
                {
                    "start": "2014-03-05T08:00:00", 
                    "finish": "2014-03-05T18:00:00", 
                    "regular_worktime": "8:00:00"
                }, 
                {
                    "start": "2014-03-06T08:00:00", 
                    "finish": "2014-03-06T18:00:00", 
                    "regular_worktime": "8:00:00"
                }, 
                {
                    "start": "2014-03-07T08:00:00", 
                    "finish": "2014-03-07T13:00:00", 
                    "regular_worktime": "4:00:00"
                }
            ], 
            "incompatible_activities": [
                "act_2_14", 
                "act_2_21", 
                "act_2_26", 
                "act_0_27", 
                "act_2_8", 
                "act_0_13"
            ], 
            "maximum_working_hours": "16:00:00", 
            "name": "William Johnson", 
            "minimum_working_hours": "12:00:00"
        }, 
        "op_6": {
            "time_windows": [
                {
                    "start": "2014-03-05T08:00:00", 
                    "finish": "2014-03-05T13:00:00", 
                    "regular_worktime": "4:00:00"
                }, 
                {
                    "start": "2014-03-06T08:00:00", 
                    "finish": "2014-03-06T18:00:00", 
                    "regular_worktime": "8:00:00"
                }, 
                {
                    "start": "2014-03-07T08:00:00", 
                    "finish": "2014-03-07T18:00:00", 
                    "regular_worktime": "8:00:00"
                }
            ], 
            "incompatible_activities": [
                "act_2_29", 
                "act_2_14", 
                "act_0_14", 
                "act_2_11", 
                "act_1_24", 
                "act_2_5"
            ], 
            "maximum_working_hours": "16:00:00", 
            "name": "Stephen Trafton", 
            "minimum_working_hours": "12:00:00"
        }, 
        "op_7": {
            "time_windows": [
                {
                    "start": "2014-03-05T08:00:00", 
                    "finish": "2014-03-05T13:00:00", 
                    "regular_worktime": "4:00:00"
                }, 
                {
                    "start": "2014-03-06T08:00:00", 
                    "finish": "2014-03-06T18:00:00", 
                    "regular_worktime": "8:00:00"
                }, 
                {
                    "start": "2014-03-07T08:00:00", 
                    "finish": "2014-03-07T18:00:00", 
                    "regular_worktime": "8:00:00"
                }
            ], 
            "incompatible_activities": [
                "act_2_20", 
                "act_2_9", 
                "act_1_21", 
                "act_1_4", 
                "act_1_19", 
                "act_2_19"
            ], 
            "maximum_working_hours": "16:00:00", 
            "name": "Jack Moser", 
            "minimum_working_hours": "12:00:00"
        }, 
        "op_0": {
            "time_windows": [
                {
                    "start": "2014-03-05T13:00:00", 
                    "finish": "2014-03-05T18:00:00", 
                    "regular_worktime": "4:00:00"
                }, 
                {
                    "start": "2014-03-06T08:00:00", 
                    "finish": "2014-03-06T18:00:00", 
                    "regular_worktime": "8:00:00"
                }, 
                {
                    "start": "2014-03-07T08:00:00", 
                    "finish": "2014-03-07T18:00:00", 
                    "regular_worktime": "8:00:00"
                }
            ], 
            "incompatible_activities": [
                "act_2_9", 
                "act_0_20", 
                "act_0_6", 
                "act_0_8", 
                "act_2_11", 
                "act_0_23"
            ], 
            "maximum_working_hours": "16:00:00", 
            "name": "Bret Oiler", 
            "minimum_working_hours": "12:00:00"
        }, 
        "op_1": {
            "time_windows": [
                {
                    "start": "2014-03-05T08:00:00", 
                    "finish": "2014-03-05T13:00:00", 
                    "regular_worktime": "4:00:00"
                }, 
                {
                    "start": "2014-03-06T08:00:00", 
                    "finish": "2014-03-06T18:00:00", 
                    "regular_worktime": "8:00:00"
                }, 
                {
                    "start": "2014-03-07T13:00:00", 
                    "finish": "2014-03-07T18:00:00", 
                    "regular_worktime": "4:00:00"
                }
            ], 
            "incompatible_activities": [
                "act_0_14", 
                "act_0_13", 
                "act_0_27", 
                "act_2_0", 
                "act_0_7", 
                "act_2_26"
            ], 
            "maximum_working_hours": "12:00:00", 
            "name": "William Steiner", 
            "minimum_working_hours": "08:00:00"
        }, 
        "op_2": {
            "time_windows": [
                {
                    "start": "2014-03-05T08:00:00", 
                    "finish": "2014-03-05T18:00:00", 
                    "regular_worktime": "8:00:00"
                }, 
                {
                    "start": "2014-03-06T08:00:00", 
                    "finish": "2014-03-06T13:00:00", 
                    "regular_worktime": "4:00:00"
                }, 
                {
                    "start": "2014-03-07T08:00:00", 
                    "finish": "2014-03-07T18:00:00", 
                    "regular_worktime": "8:00:00"
                }
            ], 
            "incompatible_activities": [
                "act_0_25", 
                "act_2_7", 
                "act_0_11", 
                "act_0_17", 
                "act_0_24", 
                "act_2_26"
            ], 
            "maximum_working_hours": "16:00:00", 
            "name": "Linda Mortell", 
            "minimum_working_hours": "12:00:00"
        }, 
        "op_3": {
            "time_windows": [
                {
                    "start": "2014-03-05T08:00:00", 
                    "finish": "2014-03-05T18:00:00", 
                    "regular_worktime": "8:00:00"
                }, 
                {
                    "start": "2014-03-06T13:00:00", 
                    "finish": "2014-03-06T18:00:00", 
                    "regular_worktime": "4:00:00"
                }, 
                {
                    "start": "2014-03-07T08:00:00", 
                    "finish": "2014-03-07T13:00:00", 
                    "regular_worktime": "4:00:00"
                }
            ], 
            "incompatible_activities": [
                "act_0_22", 
                "act_2_20", 
                "act_2_6", 
                "act_1_17", 
                "act_2_9", 
                "act_2_17"
            ], 
            "maximum_working_hours": "12:00:00", 
            "name": "Tony Baughman", 
            "minimum_working_hours": "08:00:00"
        }, 
        "op_10": {
            "time_windows": [
                {
                    "start": "2014-03-05T08:00:00", 
                    "finish": "2014-03-05T18:00:00", 
                    "regular_worktime": "8:00:00"
                }, 
                {
                    "start": "2014-03-06T08:00:00", 
                    "finish": "2014-03-06T18:00:00", 
                    "regular_worktime": "8:00:00"
                }, 
                {
                    "start": "2014-03-07T08:00:00", 
                    "finish": "2014-03-07T18:00:00", 
                    "regular_worktime": "8:00:00"
                }
            ], 
            "incompatible_activities": [
                "act_2_9", 
                "act_1_24", 
                "act_0_22", 
                "act_1_20", 
                "act_1_17", 
                "act_1_13"
            ], 
            "maximum_working_hours": "16:00:00", 
            "name": "Darnell Coleman", 
            "minimum_working_hours": "16:00:00"
        }
    }, 
    "meta": {
        "time_window": {
            "start": "08:00:00", 
            "finish": "18:00:00"
        }, 
        "horizon": 3, 
        "granularity": 10, 
        "geographic_area": {
            "upper_left": [
                46.259645, 
                12.860656
            ], 
            "lower_right": [
                45.936826, 
                13.485503
            ]
        }, 
        "max_consecutive_days": 2, 
        "finish_date": "2014-03-08T00:00:00", 
        "max_overtime_rate": 1.1, 
        "start_date": "2014-03-05T00:00:00"
    }
}