{
    "activities": [
        {
            "act_0_9": {
                "duration": 30, 
                "time_window": {
                    "start": "2014-03-05T13:00:00", 
                    "finish": "2014-03-05T18:00:00"
                }, 
                "required_operators": 1, 
                "location": {
                    "latitude": 46.25930377944943, 
                    "longitude": 12.877768424971547
                }, 
                "patient_name": "Erica Steffan"
            }, 
            "act_0_8": {
                "duration": 30, 
                "time_window": {
                    "start": "2014-03-05T08:00:00", 
                    "finish": "2014-03-05T18:00:00"
                }, 
                "required_operators": 1, 
                "location": {
                    "latitude": 46.19661779050735, 
                    "longitude": 13.391724870886714
                }, 
                "patient_name": "Thelma Ivey"
            }, 
            "act_0_3": {
                "duration": 30, 
                "time_window": {
                    "start": "2014-03-05T08:00:00", 
                    "finish": "2014-03-05T11:20:00"
                }, 
                "required_operators": 2, 
                "location": {
                    "latitude": 45.959807418350145, 
                    "longitude": 12.965306755671236
                }, 
                "patient_name": "James Miller"
            }, 
            "act_0_2": {
                "duration": 30, 
                "time_window": {
                    "start": "2014-03-05T11:20:00", 
                    "finish": "2014-03-05T14:40:00"
                }, 
                "required_operators": 3, 
                "location": {
                    "latitude": 45.94401011782343, 
                    "longitude": 12.930592249641853
                }, 
                "patient_name": "Aida Wadkins"
            }, 
            "act_0_1": {
                "duration": 30, 
                "time_window": {
                    "start": "2014-03-05T08:00:00", 
                    "finish": "2014-03-05T13:00:00"
                }, 
                "required_operators": 2, 
                "location": {
                    "latitude": 46.21883770629485, 
                    "longitude": 12.866536334778809
                }, 
                "patient_name": "Josephine Ander"
            }, 
            "act_0_0": {
                "duration": 30, 
                "time_window": {
                    "start": "2014-03-05T11:20:00", 
                    "finish": "2014-03-05T14:40:00"
                }, 
                "required_operators": 1, 
                "location": {
                    "latitude": 46.22728711881814, 
                    "longitude": 13.178657544888047
                }, 
                "patient_name": "Charles Day"
            }, 
            "act_0_7": {
                "duration": 60, 
                "time_window": {
                    "start": "2014-03-05T13:00:00", 
                    "finish": "2014-03-05T18:00:00"
                }, 
                "required_operators": 1, 
                "location": {
                    "latitude": 45.95154188193805, 
                    "longitude": 13.39961603853215
                }, 
                "patient_name": "James Berka"
            }, 
            "act_0_6": {
                "duration": 30, 
                "time_window": {
                    "start": "2014-03-05T13:00:00", 
                    "finish": "2014-03-05T18:00:00"
                }, 
                "required_operators": 1, 
                "location": {
                    "latitude": 46.1354814530413, 
                    "longitude": 12.981572433668285
                }, 
                "patient_name": "Maria Taylor"
            }, 
            "act_0_5": {
                "duration": 30, 
                "time_window": {
                    "start": "2014-03-05T08:00:00", 
                    "finish": "2014-03-05T18:00:00"
                }, 
                "required_operators": 1, 
                "location": {
                    "latitude": 45.997293975356385, 
                    "longitude": 13.139056978671825
                }, 
                "patient_name": "Gary Gutsche"
            }, 
            "act_0_4": {
                "duration": 60, 
                "time_window": {
                    "start": "2014-03-05T13:00:00", 
                    "finish": "2014-03-05T18:00:00"
                }, 
                "required_operators": 1, 
                "location": {
                    "latitude": 46.18562406503434, 
                    "longitude": 13.06652946785751
                }, 
                "patient_name": "Lindsay Bouchard"
            }, 
            "act_0_19": {
                "duration": 30, 
                "time_window": {
                    "start": "2014-03-05T13:00:00", 
                    "finish": "2014-03-05T18:00:00"
                }, 
                "required_operators": 1, 
                "location": {
                    "latitude": 46.19311438492841, 
                    "longitude": 12.983880923083083
                }, 
                "patient_name": "Joshua Hamblin"
            }, 
            "act_0_18": {
                "duration": 60, 
                "time_window": {
                    "start": "2014-03-05T13:00:00", 
                    "finish": "2014-03-05T18:00:00"
                }, 
                "required_operators": 3, 
                "location": {
                    "latitude": 46.02588865028086, 
                    "longitude": 13.435758620985055
                }, 
                "patient_name": "Mildred Williams"
            }, 
            "act_0_17": {
                "duration": 60, 
                "time_window": {
                    "start": "2014-03-05T08:00:00", 
                    "finish": "2014-03-05T18:00:00"
                }, 
                "required_operators": 1, 
                "location": {
                    "latitude": 46.19975881870142, 
                    "longitude": 13.475798787753417
                }, 
                "patient_name": "Mozella Robertson"
            }, 
            "act_0_16": {
                "duration": 60, 
                "time_window": {
                    "start": "2014-03-05T13:00:00", 
                    "finish": "2014-03-05T18:00:00"
                }, 
                "required_operators": 1, 
                "location": {
                    "latitude": 46.23837238281032, 
                    "longitude": 12.97607299502573
                }, 
                "patient_name": "Joanna White"
            }, 
            "act_0_15": {
                "duration": 30, 
                "time_window": {
                    "start": "2014-03-05T14:40:00", 
                    "finish": "2014-03-05T18:00:00"
                }, 
                "required_operators": 1, 
                "location": {
                    "latitude": 46.097290685915446, 
                    "longitude": 13.46789390024436
                }, 
                "patient_name": "Anna Oakes"
            }, 
            "act_0_14": {
                "duration": 30, 
                "time_window": {
                    "start": "2014-03-05T08:00:00", 
                    "finish": "2014-03-05T18:00:00"
                }, 
                "required_operators": 1, 
                "location": {
                    "latitude": 45.96774638306791, 
                    "longitude": 12.864109473884687
                }, 
                "patient_name": "Xavier Stammel"
            }, 
            "act_0_13": {
                "duration": 60, 
                "time_window": {
                    "start": "2014-03-05T08:00:00", 
                    "finish": "2014-03-05T13:00:00"
                }, 
                "required_operators": 1, 
                "location": {
                    "latitude": 46.13782538627, 
                    "longitude": 12.932148055962012
                }, 
                "patient_name": "James Harriott"
            }, 
            "act_0_12": {
                "duration": 30, 
                "time_window": {
                    "start": "2014-03-05T11:20:00", 
                    "finish": "2014-03-05T14:40:00"
                }, 
                "required_operators": 1, 
                "location": {
                    "latitude": 46.24842425800564, 
                    "longitude": 13.463854365903485
                }, 
                "patient_name": "Bertha Elder"
            }, 
            "act_0_11": {
                "duration": 30, 
                "time_window": {
                    "start": "2014-03-05T08:00:00", 
                    "finish": "2014-03-05T18:00:00"
                }, 
                "required_operators": 1, 
                "location": {
                    "latitude": 45.94342539412126, 
                    "longitude": 12.992349451000473
                }, 
                "patient_name": "George Rivera"
            }, 
            "act_0_10": {
                "duration": 30, 
                "time_window": {
                    "start": "2014-03-05T08:00:00", 
                    "finish": "2014-03-05T13:00:00"
                }, 
                "required_operators": 1, 
                "location": {
                    "latitude": 45.96182469427891, 
                    "longitude": 13.145788207051984
                }, 
                "patient_name": "Geraldine Bernes"
            }
        }, 
        {
            "act_1_14": {
                "duration": 30, 
                "time_window": {
                    "start": "2014-03-06T08:00:00", 
                    "finish": "2014-03-06T18:00:00"
                }, 
                "required_operators": 2, 
                "location": {
                    "latitude": 46.127735506479546, 
                    "longitude": 12.923673481474275
                }, 
                "patient_name": "Ryan Bard"
            }, 
            "act_1_15": {
                "duration": 60, 
                "time_window": {
                    "start": "2014-03-06T13:00:00", 
                    "finish": "2014-03-06T18:00:00"
                }, 
                "required_operators": 1, 
                "location": {
                    "latitude": 46.11451227386361, 
                    "longitude": 13.381028390701465
                }, 
                "patient_name": "Henry Anderson"
            }, 
            "act_1_16": {
                "duration": 60, 
                "time_window": {
                    "start": "2014-03-06T08:00:00", 
                    "finish": "2014-03-06T13:00:00"
                }, 
                "required_operators": 1, 
                "location": {
                    "latitude": 46.15474574825621, 
                    "longitude": 12.944678174916078
                }, 
                "patient_name": "Salina Bisard"
            }, 
            "act_1_17": {
                "duration": 30, 
                "time_window": {
                    "start": "2014-03-06T08:00:00", 
                    "finish": "2014-03-06T18:00:00"
                }, 
                "required_operators": 2, 
                "location": {
                    "latitude": 45.98573200710069, 
                    "longitude": 12.898365635700445
                }, 
                "patient_name": "Chad Lane"
            }, 
            "act_1_10": {
                "duration": 30, 
                "time_window": {
                    "start": "2014-03-06T11:20:00", 
                    "finish": "2014-03-06T14:40:00"
                }, 
                "required_operators": 1, 
                "location": {
                    "latitude": 46.11745463972836, 
                    "longitude": 13.208815994337833
                }, 
                "patient_name": "Eric Mcmullen"
            }, 
            "act_1_11": {
                "duration": 30, 
                "time_window": {
                    "start": "2014-03-06T08:00:00", 
                    "finish": "2014-03-06T13:00:00"
                }, 
                "required_operators": 2, 
                "location": {
                    "latitude": 45.984186294406335, 
                    "longitude": 13.076525887449762
                }, 
                "patient_name": "Dorothy Mangino"
            }, 
            "act_1_12": {
                "duration": 30, 
                "time_window": {
                    "start": "2014-03-06T08:00:00", 
                    "finish": "2014-03-06T18:00:00"
                }, 
                "required_operators": 2, 
                "location": {
                    "latitude": 46.187855615285834, 
                    "longitude": 13.334181137459405
                }, 
                "patient_name": "Keith Greiner"
            }, 
            "act_1_13": {
                "duration": 30, 
                "time_window": {
                    "start": "2014-03-06T08:00:00", 
                    "finish": "2014-03-06T18:00:00"
                }, 
                "required_operators": 1, 
                "location": {
                    "latitude": 46.18415089130974, 
                    "longitude": 13.211542571961337
                }, 
                "patient_name": "Richard Guy"
            }, 
            "act_1_18": {
                "duration": 30, 
                "time_window": {
                    "start": "2014-03-06T08:00:00", 
                    "finish": "2014-03-06T18:00:00"
                }, 
                "required_operators": 2, 
                "location": {
                    "latitude": 46.2578520276679, 
                    "longitude": 13.279673358886697
                }, 
                "patient_name": "Gary Carovski"
            }, 
            "act_1_19": {
                "duration": 30, 
                "time_window": {
                    "start": "2014-03-06T08:00:00", 
                    "finish": "2014-03-06T18:00:00"
                }, 
                "required_operators": 2, 
                "location": {
                    "latitude": 46.184327720564525, 
                    "longitude": 13.257108032517314
                }, 
                "patient_name": "David Harris"
            }, 
            "act_1_2": {
                "duration": 60, 
                "time_window": {
                    "start": "2014-03-06T11:20:00", 
                    "finish": "2014-03-06T14:40:00"
                }, 
                "required_operators": 2, 
                "location": {
                    "latitude": 46.21148897962374, 
                    "longitude": 13.352006146162054
                }, 
                "patient_name": "Orville George"
            }, 
            "act_1_3": {
                "duration": 60, 
                "time_window": {
                    "start": "2014-03-06T08:00:00", 
                    "finish": "2014-03-06T13:00:00"
                }, 
                "required_operators": 1, 
                "location": {
                    "latitude": 46.23566345651292, 
                    "longitude": 13.474574599131712
                }, 
                "patient_name": "Robert Adomaitis"
            }, 
            "act_1_0": {
                "duration": 30, 
                "time_window": {
                    "start": "2014-03-06T08:00:00", 
                    "finish": "2014-03-06T13:00:00"
                }, 
                "required_operators": 1, 
                "location": {
                    "latitude": 45.997820197765364, 
                    "longitude": 13.028887076138725
                }, 
                "patient_name": "Matthew Reynolds"
            }, 
            "act_1_1": {
                "duration": 30, 
                "time_window": {
                    "start": "2014-03-06T13:00:00", 
                    "finish": "2014-03-06T18:00:00"
                }, 
                "required_operators": 1, 
                "location": {
                    "latitude": 46.01453232409391, 
                    "longitude": 13.138805066260817
                }, 
                "patient_name": "Roy Mccray"
            }, 
            "act_1_6": {
                "duration": 30, 
                "time_window": {
                    "start": "2014-03-06T13:00:00", 
                    "finish": "2014-03-06T18:00:00"
                }, 
                "required_operators": 2, 
                "location": {
                    "latitude": 46.17070634462223, 
                    "longitude": 12.905820438598823
                }, 
                "patient_name": "Brittany Liles"
            }, 
            "act_1_7": {
                "duration": 60, 
                "time_window": {
                    "start": "2014-03-06T13:00:00", 
                    "finish": "2014-03-06T18:00:00"
                }, 
                "required_operators": 1, 
                "location": {
                    "latitude": 45.978163967641876, 
                    "longitude": 13.29534804349474
                }, 
                "patient_name": "Fern Carr"
            }, 
            "act_1_4": {
                "duration": 30, 
                "time_window": {
                    "start": "2014-03-06T08:00:00", 
                    "finish": "2014-03-06T18:00:00"
                }, 
                "required_operators": 1, 
                "location": {
                    "latitude": 46.100657299380416, 
                    "longitude": 13.10647829608284
                }, 
                "patient_name": "Joe Polk"
            }, 
            "act_1_5": {
                "duration": 30, 
                "time_window": {
                    "start": "2014-03-06T11:20:00", 
                    "finish": "2014-03-06T14:40:00"
                }, 
                "required_operators": 2, 
                "location": {
                    "latitude": 46.065427762198006, 
                    "longitude": 13.352331384269196
                }, 
                "patient_name": "Mayra Hubbell"
            }, 
            "act_1_8": {
                "duration": 60, 
                "time_window": {
                    "start": "2014-03-06T08:00:00", 
                    "finish": "2014-03-06T18:00:00"
                }, 
                "required_operators": 2, 
                "location": {
                    "latitude": 45.956761091624955, 
                    "longitude": 12.908434009907491
                }, 
                "patient_name": "Carlos Farmer"
            }, 
            "act_1_9": {
                "duration": 30, 
                "time_window": {
                    "start": "2014-03-06T08:00:00", 
                    "finish": "2014-03-06T13:00:00"
                }, 
                "required_operators": 2, 
                "location": {
                    "latitude": 46.05887964119825, 
                    "longitude": 12.96538804787643
                }, 
                "patient_name": "Deanna Wall"
            }
        }, 
        {
            "act_2_19": {
                "duration": 30, 
                "time_window": {
                    "start": "2014-03-07T14:40:00", 
                    "finish": "2014-03-07T18:00:00"
                }, 
                "required_operators": 1, 
                "location": {
                    "latitude": 46.20140360405192, 
                    "longitude": 13.049534910557087
                }, 
                "patient_name": "Trudy Hall"
            }, 
            "act_2_18": {
                "duration": 60, 
                "time_window": {
                    "start": "2014-03-07T08:00:00", 
                    "finish": "2014-03-07T18:00:00"
                }, 
                "required_operators": 1, 
                "location": {
                    "latitude": 46.15508417213508, 
                    "longitude": 13.122586466950674
                }, 
                "patient_name": "Joyce Garcia"
            }, 
            "act_2_11": {
                "duration": 30, 
                "time_window": {
                    "start": "2014-03-07T13:00:00", 
                    "finish": "2014-03-07T18:00:00"
                }, 
                "required_operators": 2, 
                "location": {
                    "latitude": 46.036755295164845, 
                    "longitude": 12.880662812947154
                }, 
                "patient_name": "David Rehkop"
            }, 
            "act_2_10": {
                "duration": 60, 
                "time_window": {
                    "start": "2014-03-07T08:00:00", 
                    "finish": "2014-03-07T13:00:00"
                }, 
                "required_operators": 1, 
                "location": {
                    "latitude": 45.964863570107205, 
                    "longitude": 12.95121806110316
                }, 
                "patient_name": "Lindsay Chapman"
            }, 
            "act_2_13": {
                "duration": 60, 
                "time_window": {
                    "start": "2014-03-07T13:00:00", 
                    "finish": "2014-03-07T18:00:00"
                }, 
                "required_operators": 2, 
                "location": {
                    "latitude": 46.049905336547575, 
                    "longitude": 13.173943740030538
                }, 
                "patient_name": "Pamela Meyer"
            }, 
            "act_2_12": {
                "duration": 30, 
                "time_window": {
                    "start": "2014-03-07T11:20:00", 
                    "finish": "2014-03-07T14:40:00"
                }, 
                "required_operators": 1, 
                "location": {
                    "latitude": 46.137068002914866, 
                    "longitude": 13.165412429453955
                }, 
                "patient_name": "Marsha Perrotti"
            }, 
            "act_2_15": {
                "duration": 60, 
                "time_window": {
                    "start": "2014-03-07T08:00:00", 
                    "finish": "2014-03-07T18:00:00"
                }, 
                "required_operators": 1, 
                "location": {
                    "latitude": 45.94398449331493, 
                    "longitude": 13.393234151734353
                }, 
                "patient_name": "Evelyn Sultemeier"
            }, 
            "act_2_14": {
                "duration": 30, 
                "time_window": {
                    "start": "2014-03-07T08:00:00", 
                    "finish": "2014-03-07T18:00:00"
                }, 
                "required_operators": 1, 
                "location": {
                    "latitude": 46.24004013036904, 
                    "longitude": 13.019926706700915
                }, 
                "patient_name": "Johanna Boyer"
            }, 
            "act_2_17": {
                "duration": 30, 
                "time_window": {
                    "start": "2014-03-07T13:00:00", 
                    "finish": "2014-03-07T18:00:00"
                }, 
                "required_operators": 1, 
                "location": {
                    "latitude": 46.08460921966376, 
                    "longitude": 13.001706119791747
                }, 
                "patient_name": "Kristy Gosa"
            }, 
            "act_2_16": {
                "duration": 60, 
                "time_window": {
                    "start": "2014-03-07T14:40:00", 
                    "finish": "2014-03-07T18:00:00"
                }, 
                "required_operators": 1, 
                "location": {
                    "latitude": 46.11205371205222, 
                    "longitude": 13.339019841494462
                }, 
                "patient_name": "Lynette Sorensen"
            }, 
            "act_2_9": {
                "duration": 30, 
                "time_window": {
                    "start": "2014-03-07T08:00:00", 
                    "finish": "2014-03-07T13:00:00"
                }, 
                "required_operators": 2, 
                "location": {
                    "latitude": 46.02267881164431, 
                    "longitude": 13.26691412154985
                }, 
                "patient_name": "Brenda Carpenter"
            }, 
            "act_2_8": {
                "duration": 30, 
                "time_window": {
                    "start": "2014-03-07T08:00:00", 
                    "finish": "2014-03-07T13:00:00"
                }, 
                "required_operators": 1, 
                "location": {
                    "latitude": 46.137022810181755, 
                    "longitude": 12.971141634856568
                }, 
                "patient_name": "Samuel Bligen"
            }, 
            "act_2_5": {
                "duration": 30, 
                "time_window": {
                    "start": "2014-03-07T08:00:00", 
                    "finish": "2014-03-07T18:00:00"
                }, 
                "required_operators": 1, 
                "location": {
                    "latitude": 46.104273217151054, 
                    "longitude": 13.203909262554415
                }, 
                "patient_name": "Carlos Dumas"
            }, 
            "act_2_4": {
                "duration": 30, 
                "time_window": {
                    "start": "2014-03-07T08:00:00", 
                    "finish": "2014-03-07T11:20:00"
                }, 
                "required_operators": 1, 
                "location": {
                    "latitude": 46.00916122354415, 
                    "longitude": 13.106383152104883
                }, 
                "patient_name": "Phillip Lavalley"
            }, 
            "act_2_7": {
                "duration": 30, 
                "time_window": {
                    "start": "2014-03-07T14:40:00", 
                    "finish": "2014-03-07T18:00:00"
                }, 
                "required_operators": 1, 
                "location": {
                    "latitude": 46.13501236192943, 
                    "longitude": 13.191829035295768
                }, 
                "patient_name": "Gary Yang"
            }, 
            "act_2_6": {
                "duration": 60, 
                "time_window": {
                    "start": "2014-03-07T08:00:00", 
                    "finish": "2014-03-07T11:20:00"
                }, 
                "required_operators": 1, 
                "location": {
                    "latitude": 46.12342062400644, 
                    "longitude": 12.996548063352812
                }, 
                "patient_name": "Lola Driskill"
            }, 
            "act_2_1": {
                "duration": 60, 
                "time_window": {
                    "start": "2014-03-07T08:00:00", 
                    "finish": "2014-03-07T18:00:00"
                }, 
                "required_operators": 1, 
                "location": {
                    "latitude": 46.033986358527784, 
                    "longitude": 13.317262999123834
                }, 
                "patient_name": "Richard William"
            }, 
            "act_2_0": {
                "duration": 60, 
                "time_window": {
                    "start": "2014-03-07T08:00:00", 
                    "finish": "2014-03-07T13:00:00"
                }, 
                "required_operators": 1, 
                "location": {
                    "latitude": 46.03058855218918, 
                    "longitude": 13.130985883649018
                }, 
                "patient_name": "Richard Johnson"
            }, 
            "act_2_3": {
                "duration": 60, 
                "time_window": {
                    "start": "2014-03-07T08:00:00", 
                    "finish": "2014-03-07T11:20:00"
                }, 
                "required_operators": 2, 
                "location": {
                    "latitude": 45.98663705681512, 
                    "longitude": 12.91320879009722
                }, 
                "patient_name": "William June"
            }, 
            "act_2_2": {
                "duration": 30, 
                "time_window": {
                    "start": "2014-03-07T14:40:00", 
                    "finish": "2014-03-07T18:00:00"
                }, 
                "required_operators": 1, 
                "location": {
                    "latitude": 45.94894124259903, 
                    "longitude": 13.351612581566906
                }, 
                "patient_name": "Annette Davis"
            }
        }, 
        {
            "act_3_4": {
                "duration": 30, 
                "time_window": {
                    "start": "2014-03-08T08:00:00", 
                    "finish": "2014-03-08T18:00:00"
                }, 
                "required_operators": 1, 
                "location": {
                    "latitude": 46.2345764996833, 
                    "longitude": 13.005755581310689
                }, 
                "patient_name": "Ryan Johnson"
            }, 
            "act_3_5": {
                "duration": 60, 
                "time_window": {
                    "start": "2014-03-08T08:00:00", 
                    "finish": "2014-03-08T11:20:00"
                }, 
                "required_operators": 1, 
                "location": {
                    "latitude": 46.24095191927222, 
                    "longitude": 13.188418630954763
                }, 
                "patient_name": "Christy Harrison"
            }, 
            "act_3_6": {
                "duration": 30, 
                "time_window": {
                    "start": "2014-03-08T13:00:00", 
                    "finish": "2014-03-08T18:00:00"
                }, 
                "required_operators": 1, 
                "location": {
                    "latitude": 46.00261987155164, 
                    "longitude": 12.990642031092435
                }, 
                "patient_name": "Lauren Bishop"
            }, 
            "act_3_7": {
                "duration": 30, 
                "time_window": {
                    "start": "2014-03-08T14:40:00", 
                    "finish": "2014-03-08T18:00:00"
                }, 
                "required_operators": 1, 
                "location": {
                    "latitude": 46.12294352444394, 
                    "longitude": 13.19855450346737
                }, 
                "patient_name": "Eula Bryant"
            }, 
            "act_3_0": {
                "duration": 60, 
                "time_window": {
                    "start": "2014-03-08T08:00:00", 
                    "finish": "2014-03-08T18:00:00"
                }, 
                "required_operators": 1, 
                "location": {
                    "latitude": 45.95620268609254, 
                    "longitude": 13.158455196266003
                }, 
                "patient_name": "John Hurst"
            }, 
            "act_3_1": {
                "duration": 60, 
                "time_window": {
                    "start": "2014-03-08T13:00:00", 
                    "finish": "2014-03-08T18:00:00"
                }, 
                "required_operators": 1, 
                "location": {
                    "latitude": 45.941174334509, 
                    "longitude": 13.367741260807424
                }, 
                "patient_name": "Carlos Haley"
            }, 
            "act_3_2": {
                "duration": 60, 
                "time_window": {
                    "start": "2014-03-08T08:00:00", 
                    "finish": "2014-03-08T13:00:00"
                }, 
                "required_operators": 1, 
                "location": {
                    "latitude": 46.08799603978604, 
                    "longitude": 13.104869369254612
                }, 
                "patient_name": "Dan Lawlor"
            }, 
            "act_3_3": {
                "duration": 30, 
                "time_window": {
                    "start": "2014-03-08T13:00:00", 
                    "finish": "2014-03-08T18:00:00"
                }, 
                "required_operators": 1, 
                "location": {
                    "latitude": 46.03054058582858, 
                    "longitude": 13.242875959772658
                }, 
                "patient_name": "Michelle Stalker"
            }, 
            "act_3_8": {
                "duration": 30, 
                "time_window": {
                    "start": "2014-03-08T08:00:00", 
                    "finish": "2014-03-08T18:00:00"
                }, 
                "required_operators": 1, 
                "location": {
                    "latitude": 45.96471069223275, 
                    "longitude": 13.249429616577363
                }, 
                "patient_name": "Dora Lewis"
            }, 
            "act_3_9": {
                "duration": 60, 
                "time_window": {
                    "start": "2014-03-08T08:00:00", 
                    "finish": "2014-03-08T11:20:00"
                }, 
                "required_operators": 1, 
                "location": {
                    "latitude": 46.02347864859411, 
                    "longitude": 12.99892900096304
                }, 
                "patient_name": "Kathy Woods"
            }, 
            "act_3_18": {
                "duration": 30, 
                "time_window": {
                    "start": "2014-03-08T14:40:00", 
                    "finish": "2014-03-08T18:00:00"
                }, 
                "required_operators": 1, 
                "location": {
                    "latitude": 46.08866973796228, 
                    "longitude": 12.96268691517
                }, 
                "patient_name": "Angela Wester"
            }, 
            "act_3_19": {
                "duration": 60, 
                "time_window": {
                    "start": "2014-03-08T14:40:00", 
                    "finish": "2014-03-08T18:00:00"
                }, 
                "required_operators": 2, 
                "location": {
                    "latitude": 46.06248170394025, 
                    "longitude": 13.010526369581363
                }, 
                "patient_name": "Jesus Robert"
            }, 
            "act_3_16": {
                "duration": 60, 
                "time_window": {
                    "start": "2014-03-08T08:00:00", 
                    "finish": "2014-03-08T11:20:00"
                }, 
                "required_operators": 2, 
                "location": {
                    "latitude": 46.17469094384464, 
                    "longitude": 13.195052000330108
                }, 
                "patient_name": "Rachel Allen"
            }, 
            "act_3_17": {
                "duration": 60, 
                "time_window": {
                    "start": "2014-03-08T08:00:00", 
                    "finish": "2014-03-08T18:00:00"
                }, 
                "required_operators": 1, 
                "location": {
                    "latitude": 46.006108706010465, 
                    "longitude": 13.442586915396914
                }, 
                "patient_name": "Kenneth Wheeler"
            }, 
            "act_3_14": {
                "duration": 30, 
                "time_window": {
                    "start": "2014-03-08T13:00:00", 
                    "finish": "2014-03-08T18:00:00"
                }, 
                "required_operators": 1, 
                "location": {
                    "latitude": 46.014850705925426, 
                    "longitude": 13.37978689087204
                }, 
                "patient_name": "John Dorsey"
            }, 
            "act_3_15": {
                "duration": 60, 
                "time_window": {
                    "start": "2014-03-08T08:00:00", 
                    "finish": "2014-03-08T11:20:00"
                }, 
                "required_operators": 1, 
                "location": {
                    "latitude": 46.22237244636124, 
                    "longitude": 13.026936747216437
                }, 
                "patient_name": "Carol Jimeson"
            }, 
            "act_3_12": {
                "duration": 30, 
                "time_window": {
                    "start": "2014-03-08T13:00:00", 
                    "finish": "2014-03-08T18:00:00"
                }, 
                "required_operators": 3, 
                "location": {
                    "latitude": 46.028652903018504, 
                    "longitude": 13.086554926154607
                }, 
                "patient_name": "Vivian Wiltse"
            }, 
            "act_3_13": {
                "duration": 30, 
                "time_window": {
                    "start": "2014-03-08T13:00:00", 
                    "finish": "2014-03-08T18:00:00"
                }, 
                "required_operators": 2, 
                "location": {
                    "latitude": 46.00206293317161, 
                    "longitude": 13.411205320222212
                }, 
                "patient_name": "Lavonne Dolce"
            }, 
            "act_3_10": {
                "duration": 60, 
                "time_window": {
                    "start": "2014-03-08T08:00:00", 
                    "finish": "2014-03-08T18:00:00"
                }, 
                "required_operators": 1, 
                "location": {
                    "latitude": 46.04902827108648, 
                    "longitude": 13.345971557219034
                }, 
                "patient_name": "Kathrine Silva"
            }, 
            "act_3_11": {
                "duration": 30, 
                "time_window": {
                    "start": "2014-03-08T14:40:00", 
                    "finish": "2014-03-08T18:00:00"
                }, 
                "required_operators": 1, 
                "location": {
                    "latitude": 46.095729769054515, 
                    "longitude": 13.095137508171476
                }, 
                "patient_name": "Destiny Herbert"
            }
        }, 
        {
            "act_4_13": {
                "duration": 30, 
                "time_window": {
                    "start": "2014-03-09T08:00:00", 
                    "finish": "2014-03-09T18:00:00"
                }, 
                "required_operators": 3, 
                "location": {
                    "latitude": 46.14217355544058, 
                    "longitude": 13.248968141196265
                }, 
                "patient_name": "James Mata"
            }, 
            "act_4_12": {
                "duration": 30, 
                "time_window": {
                    "start": "2014-03-09T08:00:00", 
                    "finish": "2014-03-09T18:00:00"
                }, 
                "required_operators": 1, 
                "location": {
                    "latitude": 46.097863715865444, 
                    "longitude": 13.081775630074551
                }, 
                "patient_name": "George Schiffer"
            }, 
            "act_4_11": {
                "duration": 30, 
                "time_window": {
                    "start": "2014-03-09T08:00:00", 
                    "finish": "2014-03-09T18:00:00"
                }, 
                "required_operators": 1, 
                "location": {
                    "latitude": 46.092836127906764, 
                    "longitude": 13.12718852601874
                }, 
                "patient_name": "Glenna Robert"
            }, 
            "act_4_10": {
                "duration": 60, 
                "time_window": {
                    "start": "2014-03-09T08:00:00", 
                    "finish": "2014-03-09T18:00:00"
                }, 
                "required_operators": 1, 
                "location": {
                    "latitude": 46.060112510940314, 
                    "longitude": 13.24415100098867
                }, 
                "patient_name": "Deborah Hu"
            }, 
            "act_4_17": {
                "duration": 30, 
                "time_window": {
                    "start": "2014-03-09T08:00:00", 
                    "finish": "2014-03-09T18:00:00"
                }, 
                "required_operators": 1, 
                "location": {
                    "latitude": 46.008627502358465, 
                    "longitude": 13.30610388017241
                }, 
                "patient_name": "Lois Martinez"
            }, 
            "act_4_15": {
                "duration": 60, 
                "time_window": {
                    "start": "2014-03-09T08:00:00", 
                    "finish": "2014-03-09T18:00:00"
                }, 
                "required_operators": 1, 
                "location": {
                    "latitude": 46.20874500586314, 
                    "longitude": 13.10760040170108
                }, 
                "patient_name": "Pam Lee"
            }, 
            "act_4_9": {
                "duration": 30, 
                "time_window": {
                    "start": "2014-03-09T11:20:00", 
                    "finish": "2014-03-09T14:40:00"
                }, 
                "required_operators": 1, 
                "location": {
                    "latitude": 46.193822968207634, 
                    "longitude": 13.415686652417001
                }, 
                "patient_name": "Sallie Epps"
            }, 
            "act_4_8": {
                "duration": 30, 
                "time_window": {
                    "start": "2014-03-09T08:00:00", 
                    "finish": "2014-03-09T11:20:00"
                }, 
                "required_operators": 1, 
                "location": {
                    "latitude": 46.064724805356846, 
                    "longitude": 12.940690694637034
                }, 
                "patient_name": "Veronica Butler"
            }, 
            "act_4_7": {
                "duration": 60, 
                "time_window": {
                    "start": "2014-03-09T08:00:00", 
                    "finish": "2014-03-09T11:20:00"
                }, 
                "required_operators": 1, 
                "location": {
                    "latitude": 46.2524527216082, 
                    "longitude": 12.988538804667375
                }, 
                "patient_name": "Joseph Blair"
            }, 
            "act_4_6": {
                "duration": 60, 
                "time_window": {
                    "start": "2014-03-09T13:00:00", 
                    "finish": "2014-03-09T18:00:00"
                }, 
                "required_operators": 1, 
                "location": {
                    "latitude": 46.07510548191472, 
                    "longitude": 13.069780993321961
                }, 
                "patient_name": "Rene Howley"
            }, 
            "act_4_5": {
                "duration": 30, 
                "time_window": {
                    "start": "2014-03-09T08:00:00", 
                    "finish": "2014-03-09T13:00:00"
                }, 
                "required_operators": 2, 
                "location": {
                    "latitude": 46.05168532497534, 
                    "longitude": 13.07388493854843
                }, 
                "patient_name": "James Smith"
            }, 
            "act_4_4": {
                "duration": 30, 
                "time_window": {
                    "start": "2014-03-09T13:00:00", 
                    "finish": "2014-03-09T18:00:00"
                }, 
                "required_operators": 1, 
                "location": {
                    "latitude": 46.18005331167427, 
                    "longitude": 13.08036208129778
                }, 
                "patient_name": "Matthew Lydick"
            }, 
            "act_4_3": {
                "duration": 30, 
                "time_window": {
                    "start": "2014-03-09T08:00:00", 
                    "finish": "2014-03-09T13:00:00"
                }, 
                "required_operators": 1, 
                "location": {
                    "latitude": 45.979038218869626, 
                    "longitude": 13.312918725665748
                }, 
                "patient_name": "Traci Culbertson"
            }, 
            "act_4_2": {
                "duration": 60, 
                "time_window": {
                    "start": "2014-03-09T08:00:00", 
                    "finish": "2014-03-09T18:00:00"
                }, 
                "required_operators": 1, 
                "location": {
                    "latitude": 46.176301719715184, 
                    "longitude": 12.981070897029374
                }, 
                "patient_name": "Holly King"
            }, 
            "act_4_1": {
                "duration": 60, 
                "time_window": {
                    "start": "2014-03-09T14:40:00", 
                    "finish": "2014-03-09T18:00:00"
                }, 
                "required_operators": 1, 
                "location": {
                    "latitude": 45.97085634667672, 
                    "longitude": 13.443241447914398
                }, 
                "patient_name": "Carla Menken"
            }, 
            "act_4_0": {
                "duration": 30, 
                "time_window": {
                    "start": "2014-03-09T14:40:00", 
                    "finish": "2014-03-09T18:00:00"
                }, 
                "required_operators": 1, 
                "location": {
                    "latitude": 45.948173745551394, 
                    "longitude": 12.888212559564487
                }, 
                "patient_name": "Roger Shippey"
            }, 
            "act_4_18": {
                "duration": 60, 
                "time_window": {
                    "start": "2014-03-09T08:00:00", 
                    "finish": "2014-03-09T18:00:00"
                }, 
                "required_operators": 2, 
                "location": {
                    "latitude": 46.015384916878666, 
                    "longitude": 13.367892318316951
                }, 
                "patient_name": "Edwin Poulsen"
            }, 
            "act_4_16": {
                "duration": 30, 
                "time_window": {
                    "start": "2014-03-09T08:00:00", 
                    "finish": "2014-03-09T18:00:00"
                }, 
                "required_operators": 1, 
                "location": {
                    "latitude": 46.043932800820336, 
                    "longitude": 13.094027227526176
                }, 
                "patient_name": "Leonard Nowlin"
            }, 
            "act_4_19": {
                "duration": 60, 
                "time_window": {
                    "start": "2014-03-09T08:00:00", 
                    "finish": "2014-03-09T18:00:00"
                }, 
                "required_operators": 1, 
                "location": {
                    "latitude": 45.94791355720299, 
                    "longitude": 13.292056858708072
                }, 
                "patient_name": "Ted Ellis"
            }, 
            "act_4_14": {
                "duration": 30, 
                "time_window": {
                    "start": "2014-03-09T08:00:00", 
                    "finish": "2014-03-09T18:00:00"
                }, 
                "required_operators": 1, 
                "location": {
                    "latitude": 45.982063333569094, 
                    "longitude": 13.463696494780034
                }, 
                "patient_name": "Woodrow Butler"
            }
        }, 
        {
            "act_5_18": {
                "duration": 30, 
                "time_window": {
                    "start": "2014-03-10T14:40:00", 
                    "finish": "2014-03-10T18:00:00"
                }, 
                "required_operators": 1, 
                "location": {
                    "latitude": 45.994725440556245, 
                    "longitude": 13.401225456178842
                }, 
                "patient_name": "Leo Luchesi"
            }, 
            "act_5_19": {
                "duration": 30, 
                "time_window": {
                    "start": "2014-03-10T13:00:00", 
                    "finish": "2014-03-10T18:00:00"
                }, 
                "required_operators": 1, 
                "location": {
                    "latitude": 46.10768581627362, 
                    "longitude": 13.430538973895455
                }, 
                "patient_name": "Elaine Ryan"
            }, 
            "act_5_10": {
                "duration": 30, 
                "time_window": {
                    "start": "2014-03-10T13:00:00", 
                    "finish": "2014-03-10T18:00:00"
                }, 
                "required_operators": 1, 
                "location": {
                    "latitude": 45.98389880448219, 
                    "longitude": 13.132218280921743
                }, 
                "patient_name": "Nanci Fleming"
            }, 
            "act_5_11": {
                "duration": 30, 
                "time_window": {
                    "start": "2014-03-10T08:00:00", 
                    "finish": "2014-03-10T11:20:00"
                }, 
                "required_operators": 1, 
                "location": {
                    "latitude": 46.17863939984764, 
                    "longitude": 13.006182122575089
                }, 
                "patient_name": "Deborah Smith"
            }, 
            "act_5_12": {
                "duration": 30, 
                "time_window": {
                    "start": "2014-03-10T08:00:00", 
                    "finish": "2014-03-10T18:00:00"
                }, 
                "required_operators": 1, 
                "location": {
                    "latitude": 46.05011287636874, 
                    "longitude": 12.892523797930366
                }, 
                "patient_name": "Cynthia Fuller"
            }, 
            "act_5_13": {
                "duration": 60, 
                "time_window": {
                    "start": "2014-03-10T08:00:00", 
                    "finish": "2014-03-10T18:00:00"
                }, 
                "required_operators": 1, 
                "location": {
                    "latitude": 46.01328503302644, 
                    "longitude": 12.873153687406345
                }, 
                "patient_name": "Joseph Perez"
            }, 
            "act_5_14": {
                "duration": 60, 
                "time_window": {
                    "start": "2014-03-10T14:40:00", 
                    "finish": "2014-03-10T18:00:00"
                }, 
                "required_operators": 2, 
                "location": {
                    "latitude": 45.99672339809889, 
                    "longitude": 13.323707149045525
                }, 
                "patient_name": "Lydia Quiroz"
            }, 
            "act_5_15": {
                "duration": 30, 
                "time_window": {
                    "start": "2014-03-10T08:00:00", 
                    "finish": "2014-03-10T18:00:00"
                }, 
                "required_operators": 1, 
                "location": {
                    "latitude": 46.17525135553792, 
                    "longitude": 12.93664373167102
                }, 
                "patient_name": "Karrie Welch"
            }, 
            "act_5_16": {
                "duration": 30, 
                "time_window": {
                    "start": "2014-03-10T13:00:00", 
                    "finish": "2014-03-10T18:00:00"
                }, 
                "required_operators": 1, 
                "location": {
                    "latitude": 46.03954908803251, 
                    "longitude": 13.37225497645154
                }, 
                "patient_name": "Johnnie Williams"
            }, 
            "act_5_17": {
                "duration": 30, 
                "time_window": {
                    "start": "2014-03-10T11:20:00", 
                    "finish": "2014-03-10T14:40:00"
                }, 
                "required_operators": 1, 
                "location": {
                    "latitude": 46.13903363945206, 
                    "longitude": 13.349700232068566
                }, 
                "patient_name": "David Owens"
            }, 
            "act_5_6": {
                "duration": 30, 
                "time_window": {
                    "start": "2014-03-10T08:00:00", 
                    "finish": "2014-03-10T11:20:00"
                }, 
                "required_operators": 1, 
                "location": {
                    "latitude": 46.213254042242454, 
                    "longitude": 12.86175668458051
                }, 
                "patient_name": "Steven Wilkes"
            }, 
            "act_5_7": {
                "duration": 60, 
                "time_window": {
                    "start": "2014-03-10T08:00:00", 
                    "finish": "2014-03-10T18:00:00"
                }, 
                "required_operators": 2, 
                "location": {
                    "latitude": 46.046874766588886, 
                    "longitude": 12.96655726538335
                }, 
                "patient_name": "Brenda Dunson"
            }, 
            "act_5_4": {
                "duration": 60, 
                "time_window": {
                    "start": "2014-03-10T11:20:00", 
                    "finish": "2014-03-10T14:40:00"
                }, 
                "required_operators": 1, 
                "location": {
                    "latitude": 46.25494913101964, 
                    "longitude": 13.324628519070275
                }, 
                "patient_name": "Billy Barnes"
            }, 
            "act_5_5": {
                "duration": 60, 
                "time_window": {
                    "start": "2014-03-10T08:00:00", 
                    "finish": "2014-03-10T13:00:00"
                }, 
                "required_operators": 1, 
                "location": {
                    "latitude": 46.12608368121718, 
                    "longitude": 13.042487621126929
                }, 
                "patient_name": "Tim Jordan"
            }, 
            "act_5_2": {
                "duration": 60, 
                "time_window": {
                    "start": "2014-03-10T08:00:00", 
                    "finish": "2014-03-10T11:20:00"
                }, 
                "required_operators": 1, 
                "location": {
                    "latitude": 45.956299494299735, 
                    "longitude": 13.312773569450767
                }, 
                "patient_name": "Joshua Scott"
            }, 
            "act_5_3": {
                "duration": 30, 
                "time_window": {
                    "start": "2014-03-10T08:00:00", 
                    "finish": "2014-03-10T18:00:00"
                }, 
                "required_operators": 2, 
                "location": {
                    "latitude": 46.06766988960875, 
                    "longitude": 13.416930364505403
                }, 
                "patient_name": "Amanda Mills"
            }, 
            "act_5_0": {
                "duration": 30, 
                "time_window": {
                    "start": "2014-03-10T13:00:00", 
                    "finish": "2014-03-10T18:00:00"
                }, 
                "required_operators": 1, 
                "location": {
                    "latitude": 46.08149301978036, 
                    "longitude": 13.013454308044032
                }, 
                "patient_name": "Marion Shulda"
            }, 
            "act_5_1": {
                "duration": 60, 
                "time_window": {
                    "start": "2014-03-10T08:00:00", 
                    "finish": "2014-03-10T13:00:00"
                }, 
                "required_operators": 1, 
                "location": {
                    "latitude": 45.939302925305356, 
                    "longitude": 12.934222374333732
                }, 
                "patient_name": "Kyla Bushaw"
            }, 
            "act_5_8": {
                "duration": 30, 
                "time_window": {
                    "start": "2014-03-10T13:00:00", 
                    "finish": "2014-03-10T18:00:00"
                }, 
                "required_operators": 1, 
                "location": {
                    "latitude": 46.23620222693271, 
                    "longitude": 13.473251880359642
                }, 
                "patient_name": "Jose Ciccone"
            }, 
            "act_5_9": {
                "duration": 30, 
                "time_window": {
                    "start": "2014-03-10T14:40:00", 
                    "finish": "2014-03-10T18:00:00"
                }, 
                "required_operators": 1, 
                "location": {
                    "latitude": 46.058427732359206, 
                    "longitude": 13.179709260527433
                }, 
                "patient_name": "Michael Tanner"
            }
        }
    ], 
    "operators": {
        "op_8": {
            "time_windows": [
                {
                    "start": "2014-03-05T08:00:00", 
                    "finish": "2014-03-05T13:00:00", 
                    "regular_worktime": "4:00:00"
                }, 
                {
                    "start": "2014-03-06T08:00:00", 
                    "finish": "2014-03-06T18:00:00", 
                    "regular_worktime": "8:00:00"
                }, 
                {
                    "start": "2014-03-07T08:00:00", 
                    "finish": "2014-03-07T18:00:00", 
                    "regular_worktime": "8:00:00"
                }, 
                {
                    "start": "2014-03-08T08:00:00", 
                    "finish": "2014-03-08T13:00:00", 
                    "regular_worktime": "4:00:00"
                }, 
                {
                    "start": "2014-03-09T08:00:00", 
                    "finish": "2014-03-09T18:00:00", 
                    "regular_worktime": "8:00:00"
                }, 
                {
                    "start": "2014-03-10T08:00:00", 
                    "finish": "2014-03-10T13:00:00", 
                    "regular_worktime": "4:00:00"
                }
            ], 
            "incompatible_activities": [
                "act_3_5", 
                "act_5_19", 
                "act_3_15", 
                "act_2_0"
            ], 
            "maximum_working_hours": "32:00:00", 
            "name": "David Crawford", 
            "minimum_working_hours": "28:00:00"
        }, 
        "op_9": {
            "time_windows": [
                {
                    "start": "2014-03-05T13:00:00", 
                    "finish": "2014-03-05T18:00:00", 
                    "regular_worktime": "4:00:00"
                }, 
                {
                    "start": "2014-03-06T08:00:00", 
                    "finish": "2014-03-06T13:00:00", 
                    "regular_worktime": "4:00:00"
                }, 
                {
                    "start": "2014-03-07T08:00:00", 
                    "finish": "2014-03-07T18:00:00", 
                    "regular_worktime": "8:00:00"
                }, 
                {
                    "start": "2014-03-08T08:00:00", 
                    "finish": "2014-03-08T18:00:00", 
                    "regular_worktime": "8:00:00"
                }, 
                {
                    "start": "2014-03-09T08:00:00", 
                    "finish": "2014-03-09T18:00:00", 
                    "regular_worktime": "8:00:00"
                }, 
                {
                    "start": "2014-03-10T08:00:00", 
                    "finish": "2014-03-10T18:00:00", 
                    "regular_worktime": "8:00:00"
                }
            ], 
            "incompatible_activities": [
                "act_3_15", 
                "act_3_7", 
                "act_0_16", 
                "act_5_7"
            ], 
            "maximum_working_hours": "36:00:00", 
            "name": "Diane Mendoza", 
            "minimum_working_hours": "32:00:00"
        }, 
        "op_4": {
            "time_windows": [
                {
                    "start": "2014-03-05T08:00:00", 
                    "finish": "2014-03-05T18:00:00", 
                    "regular_worktime": "8:00:00"
                }, 
                {
                    "start": "2014-03-06T08:00:00", 
                    "finish": "2014-03-06T18:00:00", 
                    "regular_worktime": "8:00:00"
                }, 
                {
                    "start": "2014-03-07T08:00:00", 
                    "finish": "2014-03-07T18:00:00", 
                    "regular_worktime": "8:00:00"
                }, 
                {
                    "start": "2014-03-08T13:00:00", 
                    "finish": "2014-03-08T18:00:00", 
                    "regular_worktime": "4:00:00"
                }, 
                {
                    "start": "2014-03-09T08:00:00", 
                    "finish": "2014-03-09T13:00:00", 
                    "regular_worktime": "4:00:00"
                }, 
                {
                    "start": "2014-03-10T08:00:00", 
                    "finish": "2014-03-10T18:00:00", 
                    "regular_worktime": "8:00:00"
                }
            ], 
            "incompatible_activities": [
                "act_0_19", 
                "act_5_1", 
                "act_0_14", 
                "act_0_7"
            ], 
            "maximum_working_hours": "36:00:00", 
            "name": "John Guzman", 
            "minimum_working_hours": "32:00:00"
        }, 
        "op_5": {
            "time_windows": [
                {
                    "start": "2014-03-05T08:00:00", 
                    "finish": "2014-03-05T18:00:00", 
                    "regular_worktime": "8:00:00"
                }, 
                {
                    "start": "2014-03-06T13:00:00", 
                    "finish": "2014-03-06T18:00:00", 
                    "regular_worktime": "4:00:00"
                }, 
                {
                    "start": "2014-03-07T08:00:00", 
                    "finish": "2014-03-07T18:00:00", 
                    "regular_worktime": "8:00:00"
                }, 
                {
                    "start": "2014-03-08T08:00:00", 
                    "finish": "2014-03-08T18:00:00", 
                    "regular_worktime": "8:00:00"
                }, 
                {
                    "start": "2014-03-09T08:00:00", 
                    "finish": "2014-03-09T18:00:00", 
                    "regular_worktime": "8:00:00"
                }, 
                {
                    "start": "2014-03-10T08:00:00", 
                    "finish": "2014-03-10T18:00:00", 
                    "regular_worktime": "8:00:00"
                }
            ], 
            "incompatible_activities": [
                "act_4_8", 
                "act_5_14", 
                "act_2_18", 
                "act_1_0"
            ], 
            "maximum_working_hours": "40:00:00", 
            "name": "Jonathan Lowe", 
            "minimum_working_hours": "36:00:00"
        }, 
        "op_6": {
            "time_windows": [
                {
                    "start": "2014-03-05T08:00:00", 
                    "finish": "2014-03-05T18:00:00", 
                    "regular_worktime": "8:00:00"
                }, 
                {
                    "start": "2014-03-06T13:00:00", 
                    "finish": "2014-03-06T18:00:00", 
                    "regular_worktime": "4:00:00"
                }, 
                {
                    "start": "2014-03-07T08:00:00", 
                    "finish": "2014-03-07T18:00:00", 
                    "regular_worktime": "8:00:00"
                }, 
                {
                    "start": "2014-03-08T13:00:00", 
                    "finish": "2014-03-08T18:00:00", 
                    "regular_worktime": "4:00:00"
                }, 
                {
                    "start": "2014-03-09T08:00:00", 
                    "finish": "2014-03-09T18:00:00", 
                    "regular_worktime": "8:00:00"
                }, 
                {
                    "start": "2014-03-10T08:00:00", 
                    "finish": "2014-03-10T13:00:00", 
                    "regular_worktime": "4:00:00"
                }
            ], 
            "incompatible_activities": [
                "act_0_19", 
                "act_3_17", 
                "act_5_5", 
                "act_4_7"
            ], 
            "maximum_working_hours": "32:00:00", 
            "name": "Andrew Miles", 
            "minimum_working_hours": "28:00:00"
        }, 
        "op_7": {
            "time_windows": [
                {
                    "start": "2014-03-05T08:00:00", 
                    "finish": "2014-03-05T18:00:00", 
                    "regular_worktime": "8:00:00"
                }, 
                {
                    "start": "2014-03-06T08:00:00", 
                    "finish": "2014-03-06T18:00:00", 
                    "regular_worktime": "8:00:00"
                }, 
                {
                    "start": "2014-03-07T08:00:00", 
                    "finish": "2014-03-07T18:00:00", 
                    "regular_worktime": "8:00:00"
                }, 
                {
                    "start": "2014-03-08T13:00:00", 
                    "finish": "2014-03-08T18:00:00", 
                    "regular_worktime": "4:00:00"
                }, 
                {
                    "start": "2014-03-09T08:00:00", 
                    "finish": "2014-03-09T18:00:00", 
                    "regular_worktime": "8:00:00"
                }, 
                {
                    "start": "2014-03-10T08:00:00", 
                    "finish": "2014-03-10T18:00:00", 
                    "regular_worktime": "8:00:00"
                }
            ], 
            "incompatible_activities": [
                "act_4_14", 
                "act_0_3", 
                "act_2_5", 
                "act_3_9"
            ], 
            "maximum_working_hours": "40:00:00", 
            "name": "Miguel Orourke", 
            "minimum_working_hours": "36:00:00"
        }, 
        "op_0": {
            "time_windows": [
                {
                    "start": "2014-03-05T08:00:00", 
                    "finish": "2014-03-05T18:00:00", 
                    "regular_worktime": "8:00:00"
                }, 
                {
                    "start": "2014-03-06T08:00:00", 
                    "finish": "2014-03-06T13:00:00", 
                    "regular_worktime": "4:00:00"
                }, 
                {
                    "start": "2014-03-07T08:00:00", 
                    "finish": "2014-03-07T18:00:00", 
                    "regular_worktime": "8:00:00"
                }, 
                {
                    "start": "2014-03-08T08:00:00", 
                    "finish": "2014-03-08T18:00:00", 
                    "regular_worktime": "8:00:00"
                }, 
                {
                    "start": "2014-03-09T08:00:00", 
                    "finish": "2014-03-09T18:00:00", 
                    "regular_worktime": "8:00:00"
                }, 
                {
                    "start": "2014-03-10T08:00:00", 
                    "finish": "2014-03-10T18:00:00", 
                    "regular_worktime": "8:00:00"
                }
            ], 
            "incompatible_activities": [
                "act_5_12", 
                "act_2_9", 
                "act_3_18", 
                "act_1_16"
            ], 
            "maximum_working_hours": "40:00:00", 
            "name": "Anne Poole", 
            "minimum_working_hours": "36:00:00"
        }, 
        "op_1": {
            "time_windows": [
                {
                    "start": "2014-03-05T08:00:00", 
                    "finish": "2014-03-05T18:00:00", 
                    "regular_worktime": "8:00:00"
                }, 
                {
                    "start": "2014-03-06T08:00:00", 
                    "finish": "2014-03-06T13:00:00", 
                    "regular_worktime": "4:00:00"
                }, 
                {
                    "start": "2014-03-07T08:00:00", 
                    "finish": "2014-03-07T13:00:00", 
                    "regular_worktime": "4:00:00"
                }, 
                {
                    "start": "2014-03-08T08:00:00", 
                    "finish": "2014-03-08T18:00:00", 
                    "regular_worktime": "8:00:00"
                }, 
                {
                    "start": "2014-03-09T08:00:00", 
                    "finish": "2014-03-09T18:00:00", 
                    "regular_worktime": "8:00:00"
                }, 
                {
                    "start": "2014-03-10T08:00:00", 
                    "finish": "2014-03-10T18:00:00", 
                    "regular_worktime": "8:00:00"
                }
            ], 
            "incompatible_activities": [
                "act_0_9", 
                "act_2_15", 
                "act_5_19", 
                "act_4_16"
            ], 
            "maximum_working_hours": "36:00:00", 
            "name": "Vanessa Wilder", 
            "minimum_working_hours": "32:00:00"
        }, 
        "op_2": {
            "time_windows": [
                {
                    "start": "2014-03-05T08:00:00", 
                    "finish": "2014-03-05T13:00:00", 
                    "regular_worktime": "4:00:00"
                }, 
                {
                    "start": "2014-03-06T08:00:00", 
                    "finish": "2014-03-06T18:00:00", 
                    "regular_worktime": "8:00:00"
                }, 
                {
                    "start": "2014-03-07T08:00:00", 
                    "finish": "2014-03-07T18:00:00", 
                    "regular_worktime": "8:00:00"
                }, 
                {
                    "start": "2014-03-08T08:00:00", 
                    "finish": "2014-03-08T18:00:00", 
                    "regular_worktime": "8:00:00"
                }, 
                {
                    "start": "2014-03-09T08:00:00", 
                    "finish": "2014-03-09T13:00:00", 
                    "regular_worktime": "4:00:00"
                }, 
                {
                    "start": "2014-03-10T08:00:00", 
                    "finish": "2014-03-10T18:00:00", 
                    "regular_worktime": "8:00:00"
                }
            ], 
            "incompatible_activities": [
                "act_1_10", 
                "act_4_6", 
                "act_2_17", 
                "act_0_0"
            ], 
            "maximum_working_hours": "36:00:00", 
            "name": "Martha Stuart", 
            "minimum_working_hours": "32:00:00"
        }, 
        "op_3": {
            "time_windows": [
                {
                    "start": "2014-03-05T13:00:00", 
                    "finish": "2014-03-05T18:00:00", 
                    "regular_worktime": "4:00:00"
                }, 
                {
                    "start": "2014-03-06T08:00:00", 
                    "finish": "2014-03-06T13:00:00", 
                    "regular_worktime": "4:00:00"
                }, 
                {
                    "start": "2014-03-07T13:00:00", 
                    "finish": "2014-03-07T18:00:00", 
                    "regular_worktime": "4:00:00"
                }, 
                {
                    "start": "2014-03-08T08:00:00", 
                    "finish": "2014-03-08T18:00:00", 
                    "regular_worktime": "8:00:00"
                }, 
                {
                    "start": "2014-03-09T13:00:00", 
                    "finish": "2014-03-09T18:00:00", 
                    "regular_worktime": "4:00:00"
                }, 
                {
                    "start": "2014-03-10T08:00:00", 
                    "finish": "2014-03-10T18:00:00", 
                    "regular_worktime": "8:00:00"
                }
            ], 
            "incompatible_activities": [
                "act_4_5", 
                "act_0_0", 
                "act_3_0", 
                "act_3_1"
            ], 
            "maximum_working_hours": "28:00:00", 
            "name": "David Schiavo", 
            "minimum_working_hours": "24:00:00"
        }
    }, 
    "meta": {
        "time_window": {
            "start": "08:00:00", 
            "finish": "18:00:00"
        }, 
        "horizon": 6, 
        "granularity": 10, 
        "geographic_area": {
            "upper_left": [
                46.259645, 
                12.860656
            ], 
            "lower_right": [
                45.936826, 
                13.485503
            ]
        }, 
        "max_consecutive_days": 5, 
        "finish_date": "2014-03-11T00:00:00", 
        "max_overtime_rate": 1.1, 
        "start_date": "2014-03-05T00:00:00"
    }
}