{
    "activities": [
        {
            "act_0_19": {
                "duration": 30, 
                "time_window": {
                    "start": "2014-03-05T08:00:00", 
                    "finish": "2014-03-05T18:00:00"
                }, 
                "required_operators": 1, 
                "location": {
                    "latitude": 46.21489751086192, 
                    "longitude": 13.15156800504702
                }, 
                "patient_name": "Elisabeth Ellison"
            }, 
            "act_0_18": {
                "duration": 30, 
                "time_window": {
                    "start": "2014-03-05T14:40:00", 
                    "finish": "2014-03-05T18:00:00"
                }, 
                "required_operators": 1, 
                "location": {
                    "latitude": 46.106502375157234, 
                    "longitude": 13.246729114651648
                }, 
                "patient_name": "Kenneth Wendte"
            }, 
            "act_0_17": {
                "duration": 60, 
                "time_window": {
                    "start": "2014-03-05T08:00:00", 
                    "finish": "2014-03-05T18:00:00"
                }, 
                "required_operators": 1, 
                "location": {
                    "latitude": 46.14164276313315, 
                    "longitude": 13.201475199481271
                }, 
                "patient_name": "Larry Skaggs"
            }, 
            "act_0_16": {
                "duration": 60, 
                "time_window": {
                    "start": "2014-03-05T13:00:00", 
                    "finish": "2014-03-05T18:00:00"
                }, 
                "required_operators": 1, 
                "location": {
                    "latitude": 46.259189757965466, 
                    "longitude": 13.23226712463637
                }, 
                "patient_name": "Scott Rivas"
            }, 
            "act_0_15": {
                "duration": 30, 
                "time_window": {
                    "start": "2014-03-05T08:00:00", 
                    "finish": "2014-03-05T18:00:00"
                }, 
                "required_operators": 1, 
                "location": {
                    "latitude": 46.13130952913993, 
                    "longitude": 13.335017529139215
                }, 
                "patient_name": "Gary Gardner"
            }, 
            "act_0_14": {
                "duration": 60, 
                "time_window": {
                    "start": "2014-03-05T08:00:00", 
                    "finish": "2014-03-05T13:00:00"
                }, 
                "required_operators": 1, 
                "location": {
                    "latitude": 46.01272858614067, 
                    "longitude": 13.012609658637068
                }, 
                "patient_name": "Gus Albright"
            }, 
            "act_0_13": {
                "duration": 60, 
                "time_window": {
                    "start": "2014-03-05T08:00:00", 
                    "finish": "2014-03-05T13:00:00"
                }, 
                "required_operators": 1, 
                "location": {
                    "latitude": 46.00183638256248, 
                    "longitude": 13.408550572022794
                }, 
                "patient_name": "Chad Watson"
            }, 
            "act_0_12": {
                "duration": 30, 
                "time_window": {
                    "start": "2014-03-05T08:00:00", 
                    "finish": "2014-03-05T13:00:00"
                }, 
                "required_operators": 1, 
                "location": {
                    "latitude": 45.93717941591921, 
                    "longitude": 13.118205390947505
                }, 
                "patient_name": "Andrew Burns"
            }, 
            "act_0_11": {
                "duration": 60, 
                "time_window": {
                    "start": "2014-03-05T14:40:00", 
                    "finish": "2014-03-05T18:00:00"
                }, 
                "required_operators": 1, 
                "location": {
                    "latitude": 46.13947930616778, 
                    "longitude": 13.4094605913925
                }, 
                "patient_name": "Luke Cromer"
            }, 
            "act_0_10": {
                "duration": 30, 
                "time_window": {
                    "start": "2014-03-05T13:00:00", 
                    "finish": "2014-03-05T18:00:00"
                }, 
                "required_operators": 1, 
                "location": {
                    "latitude": 46.03776992951105, 
                    "longitude": 13.359318023335577
                }, 
                "patient_name": "Dean Garcia"
            }, 
            "act_0_9": {
                "duration": 30, 
                "time_window": {
                    "start": "2014-03-05T13:00:00", 
                    "finish": "2014-03-05T18:00:00"
                }, 
                "required_operators": 2, 
                "location": {
                    "latitude": 46.16602377548325, 
                    "longitude": 13.423058753650674
                }, 
                "patient_name": "Matthew Muller"
            }, 
            "act_0_8": {
                "duration": 60, 
                "time_window": {
                    "start": "2014-03-05T14:40:00", 
                    "finish": "2014-03-05T18:00:00"
                }, 
                "required_operators": 1, 
                "location": {
                    "latitude": 46.11696893311251, 
                    "longitude": 13.107892757044752
                }, 
                "patient_name": "Gregory Kinnison"
            }, 
            "act_0_3": {
                "duration": 60, 
                "time_window": {
                    "start": "2014-03-05T08:00:00", 
                    "finish": "2014-03-05T11:20:00"
                }, 
                "required_operators": 2, 
                "location": {
                    "latitude": 46.23478852959479, 
                    "longitude": 13.428904968291532
                }, 
                "patient_name": "William Murphy"
            }, 
            "act_0_2": {
                "duration": 30, 
                "time_window": {
                    "start": "2014-03-05T08:00:00", 
                    "finish": "2014-03-05T18:00:00"
                }, 
                "required_operators": 1, 
                "location": {
                    "latitude": 46.24299475454502, 
                    "longitude": 13.007277340652623
                }, 
                "patient_name": "Mary Hartford"
            }, 
            "act_0_1": {
                "duration": 60, 
                "time_window": {
                    "start": "2014-03-05T08:00:00", 
                    "finish": "2014-03-05T18:00:00"
                }, 
                "required_operators": 1, 
                "location": {
                    "latitude": 46.017411993561616, 
                    "longitude": 13.088281918076543
                }, 
                "patient_name": "Pearline Weaver"
            }, 
            "act_0_0": {
                "duration": 30, 
                "time_window": {
                    "start": "2014-03-05T08:00:00", 
                    "finish": "2014-03-05T13:00:00"
                }, 
                "required_operators": 1, 
                "location": {
                    "latitude": 46.07669055057157, 
                    "longitude": 13.327659835067283
                }, 
                "patient_name": "Blanche Tesch"
            }, 
            "act_0_7": {
                "duration": 60, 
                "time_window": {
                    "start": "2014-03-05T08:00:00", 
                    "finish": "2014-03-05T11:20:00"
                }, 
                "required_operators": 3, 
                "location": {
                    "latitude": 45.97150074967176, 
                    "longitude": 13.24473570894593
                }, 
                "patient_name": "Mary Haugen"
            }, 
            "act_0_6": {
                "duration": 30, 
                "time_window": {
                    "start": "2014-03-05T13:00:00", 
                    "finish": "2014-03-05T18:00:00"
                }, 
                "required_operators": 1, 
                "location": {
                    "latitude": 46.188872217530054, 
                    "longitude": 13.35171369097495
                }, 
                "patient_name": "Jordan Blanchard"
            }, 
            "act_0_5": {
                "duration": 60, 
                "time_window": {
                    "start": "2014-03-05T08:00:00", 
                    "finish": "2014-03-05T13:00:00"
                }, 
                "required_operators": 1, 
                "location": {
                    "latitude": 46.08263412029586, 
                    "longitude": 12.921804203447417
                }, 
                "patient_name": "Rosa Ide"
            }, 
            "act_0_4": {
                "duration": 30, 
                "time_window": {
                    "start": "2014-03-05T08:00:00", 
                    "finish": "2014-03-05T18:00:00"
                }, 
                "required_operators": 1, 
                "location": {
                    "latitude": 46.174212630325414, 
                    "longitude": 13.232287845604569
                }, 
                "patient_name": "Johanna Printy"
            }, 
            "act_0_22": {
                "duration": 30, 
                "time_window": {
                    "start": "2014-03-05T08:00:00", 
                    "finish": "2014-03-05T11:20:00"
                }, 
                "required_operators": 1, 
                "location": {
                    "latitude": 46.23114828048642, 
                    "longitude": 13.095079072859926
                }, 
                "patient_name": "Dean Flowers"
            }, 
            "act_0_23": {
                "duration": 30, 
                "time_window": {
                    "start": "2014-03-05T08:00:00", 
                    "finish": "2014-03-05T18:00:00"
                }, 
                "required_operators": 1, 
                "location": {
                    "latitude": 46.170332179274766, 
                    "longitude": 12.982391991766368
                }, 
                "patient_name": "Jennifer Goodwin"
            }, 
            "act_0_20": {
                "duration": 30, 
                "time_window": {
                    "start": "2014-03-05T14:40:00", 
                    "finish": "2014-03-05T18:00:00"
                }, 
                "required_operators": 2, 
                "location": {
                    "latitude": 46.166925588913834, 
                    "longitude": 13.335571026245983
                }, 
                "patient_name": "Clifford Benjamin"
            }, 
            "act_0_21": {
                "duration": 60, 
                "time_window": {
                    "start": "2014-03-05T08:00:00", 
                    "finish": "2014-03-05T18:00:00"
                }, 
                "required_operators": 1, 
                "location": {
                    "latitude": 46.0161110645392, 
                    "longitude": 12.905344276040244
                }, 
                "patient_name": "Deborah Munoz"
            }, 
            "act_0_26": {
                "duration": 30, 
                "time_window": {
                    "start": "2014-03-05T13:00:00", 
                    "finish": "2014-03-05T18:00:00"
                }, 
                "required_operators": 2, 
                "location": {
                    "latitude": 46.15355855708086, 
                    "longitude": 13.39707968217696
                }, 
                "patient_name": "Debra Otero"
            }, 
            "act_0_27": {
                "duration": 30, 
                "time_window": {
                    "start": "2014-03-05T11:20:00", 
                    "finish": "2014-03-05T14:40:00"
                }, 
                "required_operators": 1, 
                "location": {
                    "latitude": 45.96643301432182, 
                    "longitude": 13.403498398707054
                }, 
                "patient_name": "Katherine Scoles"
            }, 
            "act_0_24": {
                "duration": 30, 
                "time_window": {
                    "start": "2014-03-05T14:40:00", 
                    "finish": "2014-03-05T18:00:00"
                }, 
                "required_operators": 2, 
                "location": {
                    "latitude": 46.09699009998876, 
                    "longitude": 13.26434120346209
                }, 
                "patient_name": "John Justice"
            }, 
            "act_0_25": {
                "duration": 30, 
                "time_window": {
                    "start": "2014-03-05T13:00:00", 
                    "finish": "2014-03-05T18:00:00"
                }, 
                "required_operators": 2, 
                "location": {
                    "latitude": 46.164587735830956, 
                    "longitude": 12.97618902682522
                }, 
                "patient_name": "John Reyes"
            }, 
            "act_0_28": {
                "duration": 30, 
                "time_window": {
                    "start": "2014-03-05T08:00:00", 
                    "finish": "2014-03-05T11:20:00"
                }, 
                "required_operators": 2, 
                "location": {
                    "latitude": 46.11365059463094, 
                    "longitude": 12.946715053786175
                }, 
                "patient_name": "Charles Cail"
            }, 
            "act_0_29": {
                "duration": 30, 
                "time_window": {
                    "start": "2014-03-05T08:00:00", 
                    "finish": "2014-03-05T18:00:00"
                }, 
                "required_operators": 1, 
                "location": {
                    "latitude": 46.06190277517578, 
                    "longitude": 13.162850329187522
                }, 
                "patient_name": "Deon Good"
            }
        }, 
        {
            "act_1_14": {
                "duration": 60, 
                "time_window": {
                    "start": "2014-03-06T08:00:00", 
                    "finish": "2014-03-06T18:00:00"
                }, 
                "required_operators": 1, 
                "location": {
                    "latitude": 46.25294974122367, 
                    "longitude": 13.468060747840077
                }, 
                "patient_name": "Donna Beasley"
            }, 
            "act_1_15": {
                "duration": 30, 
                "time_window": {
                    "start": "2014-03-06T08:00:00", 
                    "finish": "2014-03-06T11:20:00"
                }, 
                "required_operators": 2, 
                "location": {
                    "latitude": 46.189572212967946, 
                    "longitude": 12.93242599524611
                }, 
                "patient_name": "Jovita Bednorz"
            }, 
            "act_1_16": {
                "duration": 60, 
                "time_window": {
                    "start": "2014-03-06T08:00:00", 
                    "finish": "2014-03-06T18:00:00"
                }, 
                "required_operators": 1, 
                "location": {
                    "latitude": 46.08057006080604, 
                    "longitude": 12.918381074468591
                }, 
                "patient_name": "Ione Tanner"
            }, 
            "act_1_17": {
                "duration": 60, 
                "time_window": {
                    "start": "2014-03-06T08:00:00", 
                    "finish": "2014-03-06T13:00:00"
                }, 
                "required_operators": 1, 
                "location": {
                    "latitude": 46.254344394301874, 
                    "longitude": 13.325982864441622
                }, 
                "patient_name": "Mary Israel"
            }, 
            "act_1_10": {
                "duration": 30, 
                "time_window": {
                    "start": "2014-03-06T08:00:00", 
                    "finish": "2014-03-06T13:00:00"
                }, 
                "required_operators": 2, 
                "location": {
                    "latitude": 46.20826585393673, 
                    "longitude": 13.18768244159693
                }, 
                "patient_name": "Jennifer Johnson"
            }, 
            "act_1_11": {
                "duration": 60, 
                "time_window": {
                    "start": "2014-03-06T13:00:00", 
                    "finish": "2014-03-06T18:00:00"
                }, 
                "required_operators": 2, 
                "location": {
                    "latitude": 45.958870698237284, 
                    "longitude": 13.239756485463035
                }, 
                "patient_name": "Sidney Johnson"
            }, 
            "act_1_12": {
                "duration": 30, 
                "time_window": {
                    "start": "2014-03-06T08:00:00", 
                    "finish": "2014-03-06T18:00:00"
                }, 
                "required_operators": 2, 
                "location": {
                    "latitude": 46.02488499690277, 
                    "longitude": 13.463661732303644
                }, 
                "patient_name": "Daphne Kloeck"
            }, 
            "act_1_13": {
                "duration": 30, 
                "time_window": {
                    "start": "2014-03-06T08:00:00", 
                    "finish": "2014-03-06T11:20:00"
                }, 
                "required_operators": 2, 
                "location": {
                    "latitude": 45.98935718908179, 
                    "longitude": 12.980541460153784
                }, 
                "patient_name": "Annette Mintz"
            }, 
            "act_1_18": {
                "duration": 60, 
                "time_window": {
                    "start": "2014-03-06T13:00:00", 
                    "finish": "2014-03-06T18:00:00"
                }, 
                "required_operators": 1, 
                "location": {
                    "latitude": 46.25704649410668, 
                    "longitude": 13.213099342092283
                }, 
                "patient_name": "Robert Jasper"
            }, 
            "act_1_19": {
                "duration": 30, 
                "time_window": {
                    "start": "2014-03-06T08:00:00", 
                    "finish": "2014-03-06T18:00:00"
                }, 
                "required_operators": 1, 
                "location": {
                    "latitude": 45.94146257288238, 
                    "longitude": 12.957925402844667
                }, 
                "patient_name": "Ronald Jackson"
            }, 
            "act_1_2": {
                "duration": 60, 
                "time_window": {
                    "start": "2014-03-06T08:00:00", 
                    "finish": "2014-03-06T18:00:00"
                }, 
                "required_operators": 2, 
                "location": {
                    "latitude": 46.06969838281689, 
                    "longitude": 12.94254140743444
                }, 
                "patient_name": "Richard Patterson"
            }, 
            "act_1_3": {
                "duration": 30, 
                "time_window": {
                    "start": "2014-03-06T14:40:00", 
                    "finish": "2014-03-06T18:00:00"
                }, 
                "required_operators": 1, 
                "location": {
                    "latitude": 46.08716984235304, 
                    "longitude": 13.16543634658301
                }, 
                "patient_name": "Mary Lott"
            }, 
            "act_1_0": {
                "duration": 30, 
                "time_window": {
                    "start": "2014-03-06T11:20:00", 
                    "finish": "2014-03-06T14:40:00"
                }, 
                "required_operators": 1, 
                "location": {
                    "latitude": 46.01125802926646, 
                    "longitude": 13.246208624677415
                }, 
                "patient_name": "Troy Bowen"
            }, 
            "act_1_1": {
                "duration": 60, 
                "time_window": {
                    "start": "2014-03-06T08:00:00", 
                    "finish": "2014-03-06T11:20:00"
                }, 
                "required_operators": 1, 
                "location": {
                    "latitude": 46.14154214044571, 
                    "longitude": 13.053977709904991
                }, 
                "patient_name": "Sheryll Mcculley"
            }, 
            "act_1_6": {
                "duration": 60, 
                "time_window": {
                    "start": "2014-03-06T14:40:00", 
                    "finish": "2014-03-06T18:00:00"
                }, 
                "required_operators": 1, 
                "location": {
                    "latitude": 45.99455129088185, 
                    "longitude": 12.908910773153714
                }, 
                "patient_name": "Candice Dowell"
            }, 
            "act_1_7": {
                "duration": 60, 
                "time_window": {
                    "start": "2014-03-06T08:00:00", 
                    "finish": "2014-03-06T13:00:00"
                }, 
                "required_operators": 1, 
                "location": {
                    "latitude": 45.959028411437096, 
                    "longitude": 13.29850544866292
                }, 
                "patient_name": "Veronica Shuffler"
            }, 
            "act_1_4": {
                "duration": 30, 
                "time_window": {
                    "start": "2014-03-06T08:00:00", 
                    "finish": "2014-03-06T11:20:00"
                }, 
                "required_operators": 1, 
                "location": {
                    "latitude": 46.1767784596307, 
                    "longitude": 13.179012878697705
                }, 
                "patient_name": "Anthony Clark"
            }, 
            "act_1_5": {
                "duration": 30, 
                "time_window": {
                    "start": "2014-03-06T13:00:00", 
                    "finish": "2014-03-06T18:00:00"
                }, 
                "required_operators": 1, 
                "location": {
                    "latitude": 46.00518013459007, 
                    "longitude": 13.236403974164999
                }, 
                "patient_name": "Nicole Fisher"
            }, 
            "act_1_8": {
                "duration": 30, 
                "time_window": {
                    "start": "2014-03-06T08:00:00", 
                    "finish": "2014-03-06T18:00:00"
                }, 
                "required_operators": 1, 
                "location": {
                    "latitude": 46.06158937803846, 
                    "longitude": 13.206250686219597
                }, 
                "patient_name": "Winfred Chavez"
            }, 
            "act_1_9": {
                "duration": 30, 
                "time_window": {
                    "start": "2014-03-06T13:00:00", 
                    "finish": "2014-03-06T18:00:00"
                }, 
                "required_operators": 1, 
                "location": {
                    "latitude": 46.16866877691437, 
                    "longitude": 12.922859485912708
                }, 
                "patient_name": "Jack Mckissack"
            }, 
            "act_1_29": {
                "duration": 60, 
                "time_window": {
                    "start": "2014-03-06T08:00:00", 
                    "finish": "2014-03-06T18:00:00"
                }, 
                "required_operators": 1, 
                "location": {
                    "latitude": 45.96889217098463, 
                    "longitude": 13.131522590769345
                }, 
                "patient_name": "Charles Smith"
            }, 
            "act_1_28": {
                "duration": 30, 
                "time_window": {
                    "start": "2014-03-06T08:00:00", 
                    "finish": "2014-03-06T18:00:00"
                }, 
                "required_operators": 2, 
                "location": {
                    "latitude": 46.0935470111287, 
                    "longitude": 13.141125287795196
                }, 
                "patient_name": "Darrell Sanchez"
            }, 
            "act_1_25": {
                "duration": 60, 
                "time_window": {
                    "start": "2014-03-06T14:40:00", 
                    "finish": "2014-03-06T18:00:00"
                }, 
                "required_operators": 1, 
                "location": {
                    "latitude": 45.95831145127507, 
                    "longitude": 12.861768199569664
                }, 
                "patient_name": "Willie Madison"
            }, 
            "act_1_24": {
                "duration": 60, 
                "time_window": {
                    "start": "2014-03-06T08:00:00", 
                    "finish": "2014-03-06T11:20:00"
                }, 
                "required_operators": 1, 
                "location": {
                    "latitude": 46.25577017921229, 
                    "longitude": 13.354404464058254
                }, 
                "patient_name": "Cheryl Glancy"
            }, 
            "act_1_27": {
                "duration": 60, 
                "time_window": {
                    "start": "2014-03-06T11:20:00", 
                    "finish": "2014-03-06T14:40:00"
                }, 
                "required_operators": 1, 
                "location": {
                    "latitude": 46.166661149818665, 
                    "longitude": 13.314089739279996
                }, 
                "patient_name": "Henry Ekmark"
            }, 
            "act_1_26": {
                "duration": 60, 
                "time_window": {
                    "start": "2014-03-06T14:40:00", 
                    "finish": "2014-03-06T18:00:00"
                }, 
                "required_operators": 1, 
                "location": {
                    "latitude": 46.18046747822765, 
                    "longitude": 13.019648968570186
                }, 
                "patient_name": "Renee Speer"
            }, 
            "act_1_21": {
                "duration": 30, 
                "time_window": {
                    "start": "2014-03-06T13:00:00", 
                    "finish": "2014-03-06T18:00:00"
                }, 
                "required_operators": 2, 
                "location": {
                    "latitude": 46.200110479299326, 
                    "longitude": 13.10656644467696
                }, 
                "patient_name": "Ann Monroe"
            }, 
            "act_1_20": {
                "duration": 60, 
                "time_window": {
                    "start": "2014-03-06T13:00:00", 
                    "finish": "2014-03-06T18:00:00"
                }, 
                "required_operators": 1, 
                "location": {
                    "latitude": 46.07989363471541, 
                    "longitude": 13.273993951112029
                }, 
                "patient_name": "William Hazlett"
            }, 
            "act_1_23": {
                "duration": 30, 
                "time_window": {
                    "start": "2014-03-06T08:00:00", 
                    "finish": "2014-03-06T18:00:00"
                }, 
                "required_operators": 2, 
                "location": {
                    "latitude": 46.08187475459587, 
                    "longitude": 13.188857239023053
                }, 
                "patient_name": "Oren Tse"
            }, 
            "act_1_22": {
                "duration": 30, 
                "time_window": {
                    "start": "2014-03-06T11:20:00", 
                    "finish": "2014-03-06T14:40:00"
                }, 
                "required_operators": 1, 
                "location": {
                    "latitude": 46.017679122929245, 
                    "longitude": 12.903945977442056
                }, 
                "patient_name": "Dorothy Petty"
            }
        }, 
        {
            "act_2_19": {
                "duration": 60, 
                "time_window": {
                    "start": "2014-03-07T08:00:00", 
                    "finish": "2014-03-07T18:00:00"
                }, 
                "required_operators": 2, 
                "location": {
                    "latitude": 46.0548723483153, 
                    "longitude": 13.168090953038595
                }, 
                "patient_name": "William Jones"
            }, 
            "act_2_18": {
                "duration": 60, 
                "time_window": {
                    "start": "2014-03-07T14:40:00", 
                    "finish": "2014-03-07T18:00:00"
                }, 
                "required_operators": 1, 
                "location": {
                    "latitude": 46.20497450675427, 
                    "longitude": 13.158541147957527
                }, 
                "patient_name": "Donna Lemaster"
            }, 
            "act_2_11": {
                "duration": 60, 
                "time_window": {
                    "start": "2014-03-07T13:00:00", 
                    "finish": "2014-03-07T18:00:00"
                }, 
                "required_operators": 1, 
                "location": {
                    "latitude": 46.15318214850594, 
                    "longitude": 13.354551742773287
                }, 
                "patient_name": "Carolyn Funderburg"
            }, 
            "act_2_10": {
                "duration": 60, 
                "time_window": {
                    "start": "2014-03-07T13:00:00", 
                    "finish": "2014-03-07T18:00:00"
                }, 
                "required_operators": 1, 
                "location": {
                    "latitude": 46.060330812942105, 
                    "longitude": 13.470622909828382
                }, 
                "patient_name": "Vanessa Clemons"
            }, 
            "act_2_13": {
                "duration": 30, 
                "time_window": {
                    "start": "2014-03-07T08:00:00", 
                    "finish": "2014-03-07T18:00:00"
                }, 
                "required_operators": 1, 
                "location": {
                    "latitude": 46.13364574955605, 
                    "longitude": 13.006871588871293
                }, 
                "patient_name": "Juana Thomas"
            }, 
            "act_2_12": {
                "duration": 30, 
                "time_window": {
                    "start": "2014-03-07T08:00:00", 
                    "finish": "2014-03-07T18:00:00"
                }, 
                "required_operators": 1, 
                "location": {
                    "latitude": 46.22730217339853, 
                    "longitude": 13.416832460650973
                }, 
                "patient_name": "Kimberly Siefert"
            }, 
            "act_2_15": {
                "duration": 30, 
                "time_window": {
                    "start": "2014-03-07T14:40:00", 
                    "finish": "2014-03-07T18:00:00"
                }, 
                "required_operators": 1, 
                "location": {
                    "latitude": 46.04728148836354, 
                    "longitude": 13.288416704309439
                }, 
                "patient_name": "Frances Milligan"
            }, 
            "act_2_14": {
                "duration": 30, 
                "time_window": {
                    "start": "2014-03-07T13:00:00", 
                    "finish": "2014-03-07T18:00:00"
                }, 
                "required_operators": 1, 
                "location": {
                    "latitude": 46.20290842267774, 
                    "longitude": 13.428012333701698
                }, 
                "patient_name": "Rose Wilkey"
            }, 
            "act_2_17": {
                "duration": 30, 
                "time_window": {
                    "start": "2014-03-07T08:00:00", 
                    "finish": "2014-03-07T18:00:00"
                }, 
                "required_operators": 2, 
                "location": {
                    "latitude": 45.97497922251402, 
                    "longitude": 13.15127517977483
                }, 
                "patient_name": "Irene Williams"
            }, 
            "act_2_16": {
                "duration": 30, 
                "time_window": {
                    "start": "2014-03-07T13:00:00", 
                    "finish": "2014-03-07T18:00:00"
                }, 
                "required_operators": 2, 
                "location": {
                    "latitude": 46.25403418957253, 
                    "longitude": 13.019207884647015
                }, 
                "patient_name": "Carol Tuenge"
            }, 
            "act_2_20": {
                "duration": 60, 
                "time_window": {
                    "start": "2014-03-07T08:00:00", 
                    "finish": "2014-03-07T18:00:00"
                }, 
                "required_operators": 1, 
                "location": {
                    "latitude": 46.20960456737215, 
                    "longitude": 13.239380947544282
                }, 
                "patient_name": "Christin Bader"
            }, 
            "act_2_21": {
                "duration": 30, 
                "time_window": {
                    "start": "2014-03-07T13:00:00", 
                    "finish": "2014-03-07T18:00:00"
                }, 
                "required_operators": 1, 
                "location": {
                    "latitude": 46.23526151467476, 
                    "longitude": 12.966651772777386
                }, 
                "patient_name": "David Rodriguez"
            }, 
            "act_2_22": {
                "duration": 30, 
                "time_window": {
                    "start": "2014-03-07T08:00:00", 
                    "finish": "2014-03-07T13:00:00"
                }, 
                "required_operators": 2, 
                "location": {
                    "latitude": 45.96050958642781, 
                    "longitude": 13.006615329993638
                }, 
                "patient_name": "David Jarvis"
            }, 
            "act_2_23": {
                "duration": 30, 
                "time_window": {
                    "start": "2014-03-07T08:00:00", 
                    "finish": "2014-03-07T11:20:00"
                }, 
                "required_operators": 1, 
                "location": {
                    "latitude": 45.98237773953342, 
                    "longitude": 13.028415519517692
                }, 
                "patient_name": "Suk Jones"
            }, 
            "act_2_24": {
                "duration": 60, 
                "time_window": {
                    "start": "2014-03-07T08:00:00", 
                    "finish": "2014-03-07T18:00:00"
                }, 
                "required_operators": 1, 
                "location": {
                    "latitude": 46.01154609322293, 
                    "longitude": 13.382548861451763
                }, 
                "patient_name": "Robert Pucci"
            }, 
            "act_2_25": {
                "duration": 30, 
                "time_window": {
                    "start": "2014-03-07T11:20:00", 
                    "finish": "2014-03-07T14:40:00"
                }, 
                "required_operators": 1, 
                "location": {
                    "latitude": 46.01842253571671, 
                    "longitude": 13.160990404891324
                }, 
                "patient_name": "Larue Rosales"
            }, 
            "act_2_26": {
                "duration": 30, 
                "time_window": {
                    "start": "2014-03-07T08:00:00", 
                    "finish": "2014-03-07T18:00:00"
                }, 
                "required_operators": 1, 
                "location": {
                    "latitude": 46.13085914241326, 
                    "longitude": 13.039978494726563
                }, 
                "patient_name": "Troy Stevenson"
            }, 
            "act_2_27": {
                "duration": 30, 
                "time_window": {
                    "start": "2014-03-07T08:00:00", 
                    "finish": "2014-03-07T11:20:00"
                }, 
                "required_operators": 3, 
                "location": {
                    "latitude": 46.21834293630406, 
                    "longitude": 13.439561172180937
                }, 
                "patient_name": "Charlene Ross"
            }, 
            "act_2_28": {
                "duration": 30, 
                "time_window": {
                    "start": "2014-03-07T13:00:00", 
                    "finish": "2014-03-07T18:00:00"
                }, 
                "required_operators": 1, 
                "location": {
                    "latitude": 46.02705152862531, 
                    "longitude": 13.05062690046737
                }, 
                "patient_name": "Philip Robinson"
            }, 
            "act_2_29": {
                "duration": 30, 
                "time_window": {
                    "start": "2014-03-07T08:00:00", 
                    "finish": "2014-03-07T13:00:00"
                }, 
                "required_operators": 1, 
                "location": {
                    "latitude": 46.187226368694155, 
                    "longitude": 13.478216828434656
                }, 
                "patient_name": "Carmen Williams"
            }, 
            "act_2_9": {
                "duration": 30, 
                "time_window": {
                    "start": "2014-03-07T13:00:00", 
                    "finish": "2014-03-07T18:00:00"
                }, 
                "required_operators": 1, 
                "location": {
                    "latitude": 45.95555576240096, 
                    "longitude": 13.156337015530303
                }, 
                "patient_name": "Max Maldonado"
            }, 
            "act_2_8": {
                "duration": 30, 
                "time_window": {
                    "start": "2014-03-07T08:00:00", 
                    "finish": "2014-03-07T18:00:00"
                }, 
                "required_operators": 1, 
                "location": {
                    "latitude": 45.96508139140031, 
                    "longitude": 13.30714517657341
                }, 
                "patient_name": "Rodrick Hughes"
            }, 
            "act_2_5": {
                "duration": 30, 
                "time_window": {
                    "start": "2014-03-07T08:00:00", 
                    "finish": "2014-03-07T18:00:00"
                }, 
                "required_operators": 1, 
                "location": {
                    "latitude": 46.251915859166466, 
                    "longitude": 13.05390091929805
                }, 
                "patient_name": "Frank Larsen"
            }, 
            "act_2_4": {
                "duration": 60, 
                "time_window": {
                    "start": "2014-03-07T08:00:00", 
                    "finish": "2014-03-07T11:20:00"
                }, 
                "required_operators": 2, 
                "location": {
                    "latitude": 45.93970411718002, 
                    "longitude": 12.996357192282836
                }, 
                "patient_name": "Rosa Woolum"
            }, 
            "act_2_7": {
                "duration": 30, 
                "time_window": {
                    "start": "2014-03-07T13:00:00", 
                    "finish": "2014-03-07T18:00:00"
                }, 
                "required_operators": 1, 
                "location": {
                    "latitude": 46.04387947697256, 
                    "longitude": 13.180690269379104
                }, 
                "patient_name": "Robert Marsh"
            }, 
            "act_2_6": {
                "duration": 60, 
                "time_window": {
                    "start": "2014-03-07T08:00:00", 
                    "finish": "2014-03-07T18:00:00"
                }, 
                "required_operators": 1, 
                "location": {
                    "latitude": 46.00900609572414, 
                    "longitude": 13.427018359330722
                }, 
                "patient_name": "Kent Harris"
            }, 
            "act_2_1": {
                "duration": 60, 
                "time_window": {
                    "start": "2014-03-07T13:00:00", 
                    "finish": "2014-03-07T18:00:00"
                }, 
                "required_operators": 1, 
                "location": {
                    "latitude": 46.099216859116275, 
                    "longitude": 13.084206490024874
                }, 
                "patient_name": "Charlotte Shurtliff"
            }, 
            "act_2_0": {
                "duration": 30, 
                "time_window": {
                    "start": "2014-03-07T14:40:00", 
                    "finish": "2014-03-07T18:00:00"
                }, 
                "required_operators": 1, 
                "location": {
                    "latitude": 45.958753046121515, 
                    "longitude": 12.942728347186593
                }, 
                "patient_name": "David Martinez"
            }, 
            "act_2_3": {
                "duration": 30, 
                "time_window": {
                    "start": "2014-03-07T08:00:00", 
                    "finish": "2014-03-07T13:00:00"
                }, 
                "required_operators": 1, 
                "location": {
                    "latitude": 46.25662125244066, 
                    "longitude": 13.431570238519235
                }, 
                "patient_name": "Mary Peterson"
            }, 
            "act_2_2": {
                "duration": 60, 
                "time_window": {
                    "start": "2014-03-07T13:00:00", 
                    "finish": "2014-03-07T18:00:00"
                }, 
                "required_operators": 1, 
                "location": {
                    "latitude": 46.20798871430382, 
                    "longitude": 13.373749858207752
                }, 
                "patient_name": "Ruth Beech"
            }
        }
    ], 
    "operators": {
        "op_8": {
            "time_windows": [
                {
                    "start": "2014-03-05T08:00:00", 
                    "finish": "2014-03-05T18:00:00", 
                    "regular_worktime": "8:00:00"
                }, 
                {
                    "start": "2014-03-06T08:00:00", 
                    "finish": "2014-03-06T18:00:00", 
                    "regular_worktime": "8:00:00"
                }, 
                {
                    "start": "2014-03-07T08:00:00", 
                    "finish": "2014-03-07T18:00:00", 
                    "regular_worktime": "8:00:00"
                }
            ], 
            "incompatible_activities": [
                "act_0_6", 
                "act_1_3", 
                "act_0_25", 
                "act_1_19", 
                "act_0_13", 
                "act_0_15"
            ], 
            "maximum_working_hours": "16:00:00", 
            "name": "Ruth Brannon", 
            "minimum_working_hours": "16:00:00"
        }, 
        "op_9": {
            "time_windows": [
                {
                    "start": "2014-03-05T08:00:00", 
                    "finish": "2014-03-05T18:00:00", 
                    "regular_worktime": "8:00:00"
                }, 
                {
                    "start": "2014-03-06T13:00:00", 
                    "finish": "2014-03-06T18:00:00", 
                    "regular_worktime": "4:00:00"
                }, 
                {
                    "start": "2014-03-07T08:00:00", 
                    "finish": "2014-03-07T13:00:00", 
                    "regular_worktime": "4:00:00"
                }
            ], 
            "incompatible_activities": [
                "act_2_24", 
                "act_1_11", 
                "act_2_6", 
                "act_1_2", 
                "act_2_2", 
                "act_0_9"
            ], 
            "maximum_working_hours": "12:00:00", 
            "name": "Tracy Warden", 
            "minimum_working_hours": "08:00:00"
        }, 
        "op_4": {
            "time_windows": [
                {
                    "start": "2014-03-05T08:00:00", 
                    "finish": "2014-03-05T18:00:00", 
                    "regular_worktime": "8:00:00"
                }, 
                {
                    "start": "2014-03-06T13:00:00", 
                    "finish": "2014-03-06T18:00:00", 
                    "regular_worktime": "4:00:00"
                }, 
                {
                    "start": "2014-03-07T08:00:00", 
                    "finish": "2014-03-07T18:00:00", 
                    "regular_worktime": "8:00:00"
                }
            ], 
            "incompatible_activities": [
                "act_1_18", 
                "act_0_1", 
                "act_0_14", 
                "act_0_11", 
                "act_1_16", 
                "act_0_6"
            ], 
            "maximum_working_hours": "16:00:00", 
            "name": "Tony Ashbaugh", 
            "minimum_working_hours": "12:00:00"
        }, 
        "op_5": {
            "time_windows": [
                {
                    "start": "2014-03-05T08:00:00", 
                    "finish": "2014-03-05T18:00:00", 
                    "regular_worktime": "8:00:00"
                }, 
                {
                    "start": "2014-03-06T08:00:00", 
                    "finish": "2014-03-06T13:00:00", 
                    "regular_worktime": "4:00:00"
                }, 
                {
                    "start": "2014-03-07T08:00:00", 
                    "finish": "2014-03-07T18:00:00", 
                    "regular_worktime": "8:00:00"
                }
            ], 
            "incompatible_activities": [
                "act_1_9", 
                "act_0_20", 
                "act_1_13", 
                "act_1_0", 
                "act_2_21", 
                "act_2_22"
            ], 
            "maximum_working_hours": "16:00:00", 
            "name": "Alex Stone", 
            "minimum_working_hours": "12:00:00"
        }, 
        "op_6": {
            "time_windows": [
                {
                    "start": "2014-03-05T08:00:00", 
                    "finish": "2014-03-05T18:00:00", 
                    "regular_worktime": "8:00:00"
                }, 
                {
                    "start": "2014-03-06T13:00:00", 
                    "finish": "2014-03-06T18:00:00", 
                    "regular_worktime": "4:00:00"
                }, 
                {
                    "start": "2014-03-07T08:00:00", 
                    "finish": "2014-03-07T13:00:00", 
                    "regular_worktime": "4:00:00"
                }
            ], 
            "incompatible_activities": [
                "act_1_22", 
                "act_2_20", 
                "act_0_1", 
                "act_1_14", 
                "act_1_16", 
                "act_0_15"
            ], 
            "maximum_working_hours": "12:00:00", 
            "name": "Robert Sheppard", 
            "minimum_working_hours": "08:00:00"
        }, 
        "op_7": {
            "time_windows": [
                {
                    "start": "2014-03-05T08:00:00", 
                    "finish": "2014-03-05T13:00:00", 
                    "regular_worktime": "4:00:00"
                }, 
                {
                    "start": "2014-03-06T08:00:00", 
                    "finish": "2014-03-06T18:00:00", 
                    "regular_worktime": "8:00:00"
                }, 
                {
                    "start": "2014-03-07T08:00:00", 
                    "finish": "2014-03-07T18:00:00", 
                    "regular_worktime": "8:00:00"
                }
            ], 
            "incompatible_activities": [
                "act_2_5", 
                "act_2_8", 
                "act_1_15", 
                "act_2_19", 
                "act_1_28", 
                "act_1_27"
            ], 
            "maximum_working_hours": "16:00:00", 
            "name": "Dorothy Verrastro", 
            "minimum_working_hours": "12:00:00"
        }, 
        "op_0": {
            "time_windows": [
                {
                    "start": "2014-03-05T08:00:00", 
                    "finish": "2014-03-05T18:00:00", 
                    "regular_worktime": "8:00:00"
                }, 
                {
                    "start": "2014-03-06T13:00:00", 
                    "finish": "2014-03-06T18:00:00", 
                    "regular_worktime": "4:00:00"
                }, 
                {
                    "start": "2014-03-07T08:00:00", 
                    "finish": "2014-03-07T18:00:00", 
                    "regular_worktime": "8:00:00"
                }
            ], 
            "incompatible_activities": [
                "act_2_9", 
                "act_2_3", 
                "act_0_19", 
                "act_0_12", 
                "act_0_14", 
                "act_0_24"
            ], 
            "maximum_working_hours": "16:00:00", 
            "name": "David Plunkett", 
            "minimum_working_hours": "12:00:00"
        }, 
        "op_1": {
            "time_windows": [
                {
                    "start": "2014-03-05T08:00:00", 
                    "finish": "2014-03-05T18:00:00", 
                    "regular_worktime": "8:00:00"
                }, 
                {
                    "start": "2014-03-06T13:00:00", 
                    "finish": "2014-03-06T18:00:00", 
                    "regular_worktime": "4:00:00"
                }, 
                {
                    "start": "2014-03-07T08:00:00", 
                    "finish": "2014-03-07T18:00:00", 
                    "regular_worktime": "8:00:00"
                }
            ], 
            "incompatible_activities": [
                "act_0_21", 
                "act_2_13", 
                "act_1_17", 
                "act_2_9", 
                "act_0_2", 
                "act_2_15"
            ], 
            "maximum_working_hours": "16:00:00", 
            "name": "Margaret Pena", 
            "minimum_working_hours": "12:00:00"
        }, 
        "op_2": {
            "time_windows": [
                {
                    "start": "2014-03-05T08:00:00", 
                    "finish": "2014-03-05T18:00:00", 
                    "regular_worktime": "8:00:00"
                }, 
                {
                    "start": "2014-03-06T08:00:00", 
                    "finish": "2014-03-06T18:00:00", 
                    "regular_worktime": "8:00:00"
                }, 
                {
                    "start": "2014-03-07T08:00:00", 
                    "finish": "2014-03-07T18:00:00", 
                    "regular_worktime": "8:00:00"
                }
            ], 
            "incompatible_activities": [
                "act_2_15", 
                "act_0_18", 
                "act_0_29", 
                "act_0_9", 
                "act_0_25", 
                "act_0_11"
            ], 
            "maximum_working_hours": "16:00:00", 
            "name": "John Haley", 
            "minimum_working_hours": "16:00:00"
        }, 
        "op_3": {
            "time_windows": [
                {
                    "start": "2014-03-05T08:00:00", 
                    "finish": "2014-03-05T18:00:00", 
                    "regular_worktime": "8:00:00"
                }, 
                {
                    "start": "2014-03-06T08:00:00", 
                    "finish": "2014-03-06T18:00:00", 
                    "regular_worktime": "8:00:00"
                }, 
                {
                    "start": "2014-03-07T08:00:00", 
                    "finish": "2014-03-07T18:00:00", 
                    "regular_worktime": "8:00:00"
                }
            ], 
            "incompatible_activities": [
                "act_0_21", 
                "act_0_17", 
                "act_0_24", 
                "act_0_3", 
                "act_0_15", 
                "act_1_0"
            ], 
            "maximum_working_hours": "16:00:00", 
            "name": "Timmy Roy", 
            "minimum_working_hours": "16:00:00"
        }, 
        "op_10": {
            "time_windows": [
                {
                    "start": "2014-03-05T08:00:00", 
                    "finish": "2014-03-05T18:00:00", 
                    "regular_worktime": "8:00:00"
                }, 
                {
                    "start": "2014-03-06T13:00:00", 
                    "finish": "2014-03-06T18:00:00", 
                    "regular_worktime": "4:00:00"
                }, 
                {
                    "start": "2014-03-07T08:00:00", 
                    "finish": "2014-03-07T18:00:00", 
                    "regular_worktime": "8:00:00"
                }
            ], 
            "incompatible_activities": [
                "act_2_26", 
                "act_2_15", 
                "act_2_21", 
                "act_0_14", 
                "act_0_23", 
                "act_2_6"
            ], 
            "maximum_working_hours": "16:00:00", 
            "name": "Jerry Fletcher", 
            "minimum_working_hours": "12:00:00"
        }
    }, 
    "meta": {
        "time_window": {
            "start": "08:00:00", 
            "finish": "18:00:00"
        }, 
        "horizon": 3, 
        "granularity": 10, 
        "geographic_area": {
            "upper_left": [
                46.259645, 
                12.860656
            ], 
            "lower_right": [
                45.936826, 
                13.485503
            ]
        }, 
        "max_consecutive_days": 2, 
        "finish_date": "2014-03-08T00:00:00", 
        "max_overtime_rate": 1.1, 
        "start_date": "2014-03-05T00:00:00"
    }
}