{
    "activities": [
        {
            "act_0_9": {
                "duration": 30, 
                "time_window": {
                    "start": "2014-03-04T08:00:00", 
                    "finish": "2014-03-04T13:00:00"
                }, 
                "required_operators": 1, 
                "location": {
                    "latitude": 46.2457480141089, 
                    "longitude": 12.899213141152302
                }, 
                "patient_name": "Lakeshia Reed"
            }, 
            "act_0_8": {
                "duration": 60, 
                "time_window": {
                    "start": "2014-03-04T13:00:00", 
                    "finish": "2014-03-04T18:00:00"
                }, 
                "required_operators": 1, 
                "location": {
                    "latitude": 46.16692746134068, 
                    "longitude": 12.886511441982556
                }, 
                "patient_name": "Patrick Roy"
            }, 
            "act_0_3": {
                "duration": 60, 
                "time_window": {
                    "start": "2014-03-04T08:00:00", 
                    "finish": "2014-03-04T13:00:00"
                }, 
                "required_operators": 1, 
                "location": {
                    "latitude": 46.128870885609565, 
                    "longitude": 13.400257616519525
                }, 
                "patient_name": "Ralph Rios"
            }, 
            "act_0_2": {
                "duration": 30, 
                "time_window": {
                    "start": "2014-03-04T11:20:00", 
                    "finish": "2014-03-04T14:40:00"
                }, 
                "required_operators": 1, 
                "location": {
                    "latitude": 46.11258906209461, 
                    "longitude": 13.123013838712652
                }, 
                "patient_name": "Nadine Mcdonald"
            }, 
            "act_0_1": {
                "duration": 30, 
                "time_window": {
                    "start": "2014-03-04T13:00:00", 
                    "finish": "2014-03-04T18:00:00"
                }, 
                "required_operators": 1, 
                "location": {
                    "latitude": 46.18584543707259, 
                    "longitude": 13.396672936795486
                }, 
                "patient_name": "Melissa Ramsey"
            }, 
            "act_0_0": {
                "duration": 60, 
                "time_window": {
                    "start": "2014-03-04T08:00:00", 
                    "finish": "2014-03-04T18:00:00"
                }, 
                "required_operators": 2, 
                "location": {
                    "latitude": 46.0396920598686, 
                    "longitude": 13.396363815666433
                }, 
                "patient_name": "Mary Winchell"
            }, 
            "act_0_7": {
                "duration": 30, 
                "time_window": {
                    "start": "2014-03-04T08:00:00", 
                    "finish": "2014-03-04T13:00:00"
                }, 
                "required_operators": 1, 
                "location": {
                    "latitude": 46.00263218143172, 
                    "longitude": 13.157112662382973
                }, 
                "patient_name": "Ed Chandler"
            }, 
            "act_0_6": {
                "duration": 30, 
                "time_window": {
                    "start": "2014-03-04T11:20:00", 
                    "finish": "2014-03-04T14:40:00"
                }, 
                "required_operators": 1, 
                "location": {
                    "latitude": 46.15917308132622, 
                    "longitude": 13.376112731545694
                }, 
                "patient_name": "Douglas James"
            }, 
            "act_0_5": {
                "duration": 30, 
                "time_window": {
                    "start": "2014-03-04T08:00:00", 
                    "finish": "2014-03-04T18:00:00"
                }, 
                "required_operators": 2, 
                "location": {
                    "latitude": 45.98832137760886, 
                    "longitude": 13.20744013649656
                }, 
                "patient_name": "Peter Panetta"
            }, 
            "act_0_4": {
                "duration": 30, 
                "time_window": {
                    "start": "2014-03-04T08:00:00", 
                    "finish": "2014-03-04T18:00:00"
                }, 
                "required_operators": 2, 
                "location": {
                    "latitude": 46.036743337394086, 
                    "longitude": 13.309972443356623
                }, 
                "patient_name": "Connie Wilenkin"
            }, 
            "act_0_19": {
                "duration": 30, 
                "time_window": {
                    "start": "2014-03-04T08:00:00", 
                    "finish": "2014-03-04T13:00:00"
                }, 
                "required_operators": 2, 
                "location": {
                    "latitude": 45.93720759721335, 
                    "longitude": 12.89841101243729
                }, 
                "patient_name": "Yasmine Sorrell"
            }, 
            "act_0_18": {
                "duration": 30, 
                "time_window": {
                    "start": "2014-03-04T08:00:00", 
                    "finish": "2014-03-04T13:00:00"
                }, 
                "required_operators": 1, 
                "location": {
                    "latitude": 46.00832933657546, 
                    "longitude": 13.072328699155296
                }, 
                "patient_name": "Dorothy Jewell"
            }, 
            "act_0_17": {
                "duration": 60, 
                "time_window": {
                    "start": "2014-03-04T08:00:00", 
                    "finish": "2014-03-04T13:00:00"
                }, 
                "required_operators": 1, 
                "location": {
                    "latitude": 46.18425278095272, 
                    "longitude": 13.208754508491845
                }, 
                "patient_name": "Tonya Traylor"
            }, 
            "act_0_16": {
                "duration": 30, 
                "time_window": {
                    "start": "2014-03-04T13:00:00", 
                    "finish": "2014-03-04T18:00:00"
                }, 
                "required_operators": 1, 
                "location": {
                    "latitude": 46.209453449769185, 
                    "longitude": 13.270359948012349
                }, 
                "patient_name": "Colin Ayala"
            }, 
            "act_0_15": {
                "duration": 30, 
                "time_window": {
                    "start": "2014-03-04T13:00:00", 
                    "finish": "2014-03-04T18:00:00"
                }, 
                "required_operators": 2, 
                "location": {
                    "latitude": 46.02149034379267, 
                    "longitude": 13.202923733347228
                }, 
                "patient_name": "Danielle Munoz"
            }, 
            "act_0_14": {
                "duration": 30, 
                "time_window": {
                    "start": "2014-03-04T08:00:00", 
                    "finish": "2014-03-04T11:20:00"
                }, 
                "required_operators": 2, 
                "location": {
                    "latitude": 46.02435499281606, 
                    "longitude": 12.92830908588069
                }, 
                "patient_name": "Jeremy Towle"
            }, 
            "act_0_13": {
                "duration": 30, 
                "time_window": {
                    "start": "2014-03-04T11:20:00", 
                    "finish": "2014-03-04T14:40:00"
                }, 
                "required_operators": 1, 
                "location": {
                    "latitude": 46.038704413656056, 
                    "longitude": 13.057368015804277
                }, 
                "patient_name": "Betty Palmer"
            }, 
            "act_0_12": {
                "duration": 60, 
                "time_window": {
                    "start": "2014-03-04T13:00:00", 
                    "finish": "2014-03-04T18:00:00"
                }, 
                "required_operators": 2, 
                "location": {
                    "latitude": 46.14727639742193, 
                    "longitude": 13.103374737401674
                }, 
                "patient_name": "Elmer Burkhead"
            }, 
            "act_0_11": {
                "duration": 30, 
                "time_window": {
                    "start": "2014-03-04T08:00:00", 
                    "finish": "2014-03-04T11:20:00"
                }, 
                "required_operators": 1, 
                "location": {
                    "latitude": 46.03199275614487, 
                    "longitude": 13.232723894313072
                }, 
                "patient_name": "Steven Pond"
            }, 
            "act_0_10": {
                "duration": 30, 
                "time_window": {
                    "start": "2014-03-04T13:00:00", 
                    "finish": "2014-03-04T18:00:00"
                }, 
                "required_operators": 1, 
                "location": {
                    "latitude": 46.17712438119945, 
                    "longitude": 12.913724446452937
                }, 
                "patient_name": "Joanne Lott"
            }
        }, 
        {
            "act_1_14": {
                "duration": 60, 
                "time_window": {
                    "start": "2014-03-05T08:00:00", 
                    "finish": "2014-03-05T13:00:00"
                }, 
                "required_operators": 1, 
                "location": {
                    "latitude": 46.07899183829806, 
                    "longitude": 13.192627721933933
                }, 
                "patient_name": "Georgianna Morgan"
            }, 
            "act_1_15": {
                "duration": 60, 
                "time_window": {
                    "start": "2014-03-05T14:40:00", 
                    "finish": "2014-03-05T18:00:00"
                }, 
                "required_operators": 2, 
                "location": {
                    "latitude": 46.18787389624037, 
                    "longitude": 13.081511653912269
                }, 
                "patient_name": "Francis Anguiano"
            }, 
            "act_1_16": {
                "duration": 30, 
                "time_window": {
                    "start": "2014-03-05T08:00:00", 
                    "finish": "2014-03-05T13:00:00"
                }, 
                "required_operators": 1, 
                "location": {
                    "latitude": 46.04788087592221, 
                    "longitude": 13.442585813394073
                }, 
                "patient_name": "Ryan Medley"
            }, 
            "act_1_17": {
                "duration": 60, 
                "time_window": {
                    "start": "2014-03-05T13:00:00", 
                    "finish": "2014-03-05T18:00:00"
                }, 
                "required_operators": 1, 
                "location": {
                    "latitude": 46.124937807742235, 
                    "longitude": 12.901459985040033
                }, 
                "patient_name": "James Preusser"
            }, 
            "act_1_10": {
                "duration": 60, 
                "time_window": {
                    "start": "2014-03-05T14:40:00", 
                    "finish": "2014-03-05T18:00:00"
                }, 
                "required_operators": 1, 
                "location": {
                    "latitude": 46.108002528322324, 
                    "longitude": 13.25284355518714
                }, 
                "patient_name": "Judy Mclean"
            }, 
            "act_1_11": {
                "duration": 30, 
                "time_window": {
                    "start": "2014-03-05T13:00:00", 
                    "finish": "2014-03-05T18:00:00"
                }, 
                "required_operators": 1, 
                "location": {
                    "latitude": 45.94331269283098, 
                    "longitude": 13.096973105600565
                }, 
                "patient_name": "Angel Breitenbach"
            }, 
            "act_1_12": {
                "duration": 60, 
                "time_window": {
                    "start": "2014-03-05T08:00:00", 
                    "finish": "2014-03-05T18:00:00"
                }, 
                "required_operators": 1, 
                "location": {
                    "latitude": 46.04758661963542, 
                    "longitude": 12.906122159561015
                }, 
                "patient_name": "Susan Gonzalez"
            }, 
            "act_1_13": {
                "duration": 30, 
                "time_window": {
                    "start": "2014-03-05T08:00:00", 
                    "finish": "2014-03-05T18:00:00"
                }, 
                "required_operators": 1, 
                "location": {
                    "latitude": 46.19993069537578, 
                    "longitude": 13.007133732636506
                }, 
                "patient_name": "Maxine Hudson"
            }, 
            "act_1_18": {
                "duration": 30, 
                "time_window": {
                    "start": "2014-03-05T14:40:00", 
                    "finish": "2014-03-05T18:00:00"
                }, 
                "required_operators": 1, 
                "location": {
                    "latitude": 46.0649049695087, 
                    "longitude": 13.362261269443646
                }, 
                "patient_name": "Louise Hill"
            }, 
            "act_1_19": {
                "duration": 30, 
                "time_window": {
                    "start": "2014-03-05T13:00:00", 
                    "finish": "2014-03-05T18:00:00"
                }, 
                "required_operators": 2, 
                "location": {
                    "latitude": 45.9523055623296, 
                    "longitude": 13.412567933257009
                }, 
                "patient_name": "Richard Reeves"
            }, 
            "act_1_2": {
                "duration": 30, 
                "time_window": {
                    "start": "2014-03-05T08:00:00", 
                    "finish": "2014-03-05T13:00:00"
                }, 
                "required_operators": 1, 
                "location": {
                    "latitude": 46.106852428837854, 
                    "longitude": 13.15324584670146
                }, 
                "patient_name": "Alejandro Schwartz"
            }, 
            "act_1_3": {
                "duration": 60, 
                "time_window": {
                    "start": "2014-03-05T11:20:00", 
                    "finish": "2014-03-05T14:40:00"
                }, 
                "required_operators": 1, 
                "location": {
                    "latitude": 45.953852392957124, 
                    "longitude": 12.875535717620462
                }, 
                "patient_name": "Kathryn Knox"
            }, 
            "act_1_0": {
                "duration": 60, 
                "time_window": {
                    "start": "2014-03-05T08:00:00", 
                    "finish": "2014-03-05T18:00:00"
                }, 
                "required_operators": 1, 
                "location": {
                    "latitude": 46.04111271137934, 
                    "longitude": 13.356908338912783
                }, 
                "patient_name": "Dora Stelly"
            }, 
            "act_1_1": {
                "duration": 30, 
                "time_window": {
                    "start": "2014-03-05T08:00:00", 
                    "finish": "2014-03-05T18:00:00"
                }, 
                "required_operators": 1, 
                "location": {
                    "latitude": 46.241665114739526, 
                    "longitude": 13.121838367813545
                }, 
                "patient_name": "Marjorie Holdman"
            }, 
            "act_1_6": {
                "duration": 60, 
                "time_window": {
                    "start": "2014-03-05T08:00:00", 
                    "finish": "2014-03-05T13:00:00"
                }, 
                "required_operators": 1, 
                "location": {
                    "latitude": 46.09182045191057, 
                    "longitude": 12.99412179754535
                }, 
                "patient_name": "Buddy Terrell"
            }, 
            "act_1_7": {
                "duration": 60, 
                "time_window": {
                    "start": "2014-03-05T14:40:00", 
                    "finish": "2014-03-05T18:00:00"
                }, 
                "required_operators": 1, 
                "location": {
                    "latitude": 46.1552509475068, 
                    "longitude": 13.39985466698307
                }, 
                "patient_name": "Bill Nix"
            }, 
            "act_1_4": {
                "duration": 60, 
                "time_window": {
                    "start": "2014-03-05T14:40:00", 
                    "finish": "2014-03-05T18:00:00"
                }, 
                "required_operators": 1, 
                "location": {
                    "latitude": 46.11130230137433, 
                    "longitude": 12.879708910951704
                }, 
                "patient_name": "Damon Richardson"
            }, 
            "act_1_5": {
                "duration": 60, 
                "time_window": {
                    "start": "2014-03-05T08:00:00", 
                    "finish": "2014-03-05T11:20:00"
                }, 
                "required_operators": 1, 
                "location": {
                    "latitude": 46.05454643639116, 
                    "longitude": 13.334757790698427
                }, 
                "patient_name": "Raymond Streit"
            }, 
            "act_1_8": {
                "duration": 30, 
                "time_window": {
                    "start": "2014-03-05T11:20:00", 
                    "finish": "2014-03-05T14:40:00"
                }, 
                "required_operators": 1, 
                "location": {
                    "latitude": 46.03743742833159, 
                    "longitude": 13.029319814050597
                }, 
                "patient_name": "David Plumer"
            }, 
            "act_1_9": {
                "duration": 30, 
                "time_window": {
                    "start": "2014-03-05T14:40:00", 
                    "finish": "2014-03-05T18:00:00"
                }, 
                "required_operators": 2, 
                "location": {
                    "latitude": 45.938373563238756, 
                    "longitude": 13.2700075369993
                }, 
                "patient_name": "Devon Collins"
            }
        }, 
        {
            "act_2_19": {
                "duration": 30, 
                "time_window": {
                    "start": "2014-03-06T08:00:00", 
                    "finish": "2014-03-06T18:00:00"
                }, 
                "required_operators": 1, 
                "location": {
                    "latitude": 45.9478490599106, 
                    "longitude": 13.24280419002229
                }, 
                "patient_name": "Regina Gang"
            }, 
            "act_2_18": {
                "duration": 60, 
                "time_window": {
                    "start": "2014-03-06T13:00:00", 
                    "finish": "2014-03-06T18:00:00"
                }, 
                "required_operators": 1, 
                "location": {
                    "latitude": 45.98527303052572, 
                    "longitude": 12.911678706270893
                }, 
                "patient_name": "Luis Power"
            }, 
            "act_2_11": {
                "duration": 60, 
                "time_window": {
                    "start": "2014-03-06T08:00:00", 
                    "finish": "2014-03-06T18:00:00"
                }, 
                "required_operators": 1, 
                "location": {
                    "latitude": 46.016690595827455, 
                    "longitude": 12.949687167027967
                }, 
                "patient_name": "Lori Infante"
            }, 
            "act_2_10": {
                "duration": 30, 
                "time_window": {
                    "start": "2014-03-06T08:00:00", 
                    "finish": "2014-03-06T18:00:00"
                }, 
                "required_operators": 1, 
                "location": {
                    "latitude": 46.245654922889834, 
                    "longitude": 13.31692378773626
                }, 
                "patient_name": "John Hurtubise"
            }, 
            "act_2_13": {
                "duration": 60, 
                "time_window": {
                    "start": "2014-03-06T11:20:00", 
                    "finish": "2014-03-06T14:40:00"
                }, 
                "required_operators": 2, 
                "location": {
                    "latitude": 46.16236534822051, 
                    "longitude": 13.051283912437155
                }, 
                "patient_name": "Patsy Hogan"
            }, 
            "act_2_12": {
                "duration": 30, 
                "time_window": {
                    "start": "2014-03-06T08:00:00", 
                    "finish": "2014-03-06T11:20:00"
                }, 
                "required_operators": 1, 
                "location": {
                    "latitude": 46.11065983146462, 
                    "longitude": 13.200339128500184
                }, 
                "patient_name": "Glynis Gilliam"
            }, 
            "act_2_15": {
                "duration": 30, 
                "time_window": {
                    "start": "2014-03-06T11:20:00", 
                    "finish": "2014-03-06T14:40:00"
                }, 
                "required_operators": 1, 
                "location": {
                    "latitude": 46.047022131106374, 
                    "longitude": 13.38450497384948
                }, 
                "patient_name": "Juan Fleming"
            }, 
            "act_2_14": {
                "duration": 30, 
                "time_window": {
                    "start": "2014-03-06T08:00:00", 
                    "finish": "2014-03-06T18:00:00"
                }, 
                "required_operators": 2, 
                "location": {
                    "latitude": 46.084750019405384, 
                    "longitude": 13.171825011276251
                }, 
                "patient_name": "Javier Thrasher"
            }, 
            "act_2_17": {
                "duration": 30, 
                "time_window": {
                    "start": "2014-03-06T08:00:00", 
                    "finish": "2014-03-06T18:00:00"
                }, 
                "required_operators": 1, 
                "location": {
                    "latitude": 46.01888764495012, 
                    "longitude": 13.443693565392824
                }, 
                "patient_name": "Aurelia Fray"
            }, 
            "act_2_16": {
                "duration": 60, 
                "time_window": {
                    "start": "2014-03-06T08:00:00", 
                    "finish": "2014-03-06T18:00:00"
                }, 
                "required_operators": 2, 
                "location": {
                    "latitude": 46.2494246433261, 
                    "longitude": 13.047546333558309
                }, 
                "patient_name": "Todd Stone"
            }, 
            "act_2_9": {
                "duration": 30, 
                "time_window": {
                    "start": "2014-03-06T13:00:00", 
                    "finish": "2014-03-06T18:00:00"
                }, 
                "required_operators": 2, 
                "location": {
                    "latitude": 45.96745799947287, 
                    "longitude": 13.010662291427613
                }, 
                "patient_name": "Clarissa Krieger"
            }, 
            "act_2_8": {
                "duration": 30, 
                "time_window": {
                    "start": "2014-03-06T14:40:00", 
                    "finish": "2014-03-06T18:00:00"
                }, 
                "required_operators": 2, 
                "location": {
                    "latitude": 46.0373779572767, 
                    "longitude": 13.13531215717055
                }, 
                "patient_name": "Phyllis Longenberger"
            }, 
            "act_2_5": {
                "duration": 60, 
                "time_window": {
                    "start": "2014-03-06T11:20:00", 
                    "finish": "2014-03-06T14:40:00"
                }, 
                "required_operators": 2, 
                "location": {
                    "latitude": 46.199204868507344, 
                    "longitude": 12.94316379635654
                }, 
                "patient_name": "Stacy Richardson"
            }, 
            "act_2_4": {
                "duration": 30, 
                "time_window": {
                    "start": "2014-03-06T14:40:00", 
                    "finish": "2014-03-06T18:00:00"
                }, 
                "required_operators": 1, 
                "location": {
                    "latitude": 46.04379292707008, 
                    "longitude": 13.322960519343317
                }, 
                "patient_name": "Judy Lachance"
            }, 
            "act_2_7": {
                "duration": 30, 
                "time_window": {
                    "start": "2014-03-06T08:00:00", 
                    "finish": "2014-03-06T18:00:00"
                }, 
                "required_operators": 2, 
                "location": {
                    "latitude": 46.141479487502586, 
                    "longitude": 13.21093670746565
                }, 
                "patient_name": "Ericka Briggs"
            }, 
            "act_2_6": {
                "duration": 60, 
                "time_window": {
                    "start": "2014-03-06T08:00:00", 
                    "finish": "2014-03-06T13:00:00"
                }, 
                "required_operators": 2, 
                "location": {
                    "latitude": 46.04686573897141, 
                    "longitude": 13.380621084141813
                }, 
                "patient_name": "Kathryn Nelson"
            }, 
            "act_2_1": {
                "duration": 60, 
                "time_window": {
                    "start": "2014-03-06T08:00:00", 
                    "finish": "2014-03-06T18:00:00"
                }, 
                "required_operators": 1, 
                "location": {
                    "latitude": 45.947145530769895, 
                    "longitude": 13.438049268230749
                }, 
                "patient_name": "Cindy Wilkerson"
            }, 
            "act_2_0": {
                "duration": 30, 
                "time_window": {
                    "start": "2014-03-06T08:00:00", 
                    "finish": "2014-03-06T18:00:00"
                }, 
                "required_operators": 1, 
                "location": {
                    "latitude": 46.10405601109488, 
                    "longitude": 13.291878208168784
                }, 
                "patient_name": "Linda Moyer"
            }, 
            "act_2_3": {
                "duration": 30, 
                "time_window": {
                    "start": "2014-03-06T08:00:00", 
                    "finish": "2014-03-06T18:00:00"
                }, 
                "required_operators": 2, 
                "location": {
                    "latitude": 46.18090635187193, 
                    "longitude": 13.138055982065843
                }, 
                "patient_name": "Madeline Gunning"
            }, 
            "act_2_2": {
                "duration": 60, 
                "time_window": {
                    "start": "2014-03-06T08:00:00", 
                    "finish": "2014-03-06T18:00:00"
                }, 
                "required_operators": 2, 
                "location": {
                    "latitude": 45.982832260970575, 
                    "longitude": 13.037657131969503
                }, 
                "patient_name": "Tonya Downing"
            }
        }
    ], 
    "operators": {
        "op_8": {
            "time_windows": [
                {
                    "start": "2014-03-04T08:00:00", 
                    "finish": "2014-03-04T18:00:00", 
                    "regular_worktime": "8:00:00"
                }, 
                {
                    "start": "2014-03-05T08:00:00", 
                    "finish": "2014-03-05T18:00:00", 
                    "regular_worktime": "8:00:00"
                }, 
                {
                    "start": "2014-03-06T08:00:00", 
                    "finish": "2014-03-06T18:00:00", 
                    "regular_worktime": "8:00:00"
                }
            ], 
            "incompatible_activities": [
                "act_2_8", 
                "act_2_15", 
                "act_1_15", 
                "act_2_6"
            ], 
            "maximum_working_hours": "16:00:00", 
            "name": "Daniel Marin", 
            "minimum_working_hours": "16:00:00"
        }, 
        "op_9": {
            "time_windows": [
                {
                    "start": "2014-03-04T08:00:00", 
                    "finish": "2014-03-04T18:00:00", 
                    "regular_worktime": "8:00:00"
                }, 
                {
                    "start": "2014-03-05T08:00:00", 
                    "finish": "2014-03-05T18:00:00", 
                    "regular_worktime": "8:00:00"
                }, 
                {
                    "start": "2014-03-06T08:00:00", 
                    "finish": "2014-03-06T18:00:00", 
                    "regular_worktime": "8:00:00"
                }
            ], 
            "incompatible_activities": [
                "act_1_7", 
                "act_1_19", 
                "act_1_9", 
                "act_0_18"
            ], 
            "maximum_working_hours": "16:00:00", 
            "name": "Jeffrey Corley", 
            "minimum_working_hours": "16:00:00"
        }, 
        "op_4": {
            "time_windows": [
                {
                    "start": "2014-03-04T08:00:00", 
                    "finish": "2014-03-04T18:00:00", 
                    "regular_worktime": "8:00:00"
                }, 
                {
                    "start": "2014-03-05T08:00:00", 
                    "finish": "2014-03-05T13:00:00", 
                    "regular_worktime": "4:00:00"
                }, 
                {
                    "start": "2014-03-06T08:00:00", 
                    "finish": "2014-03-06T13:00:00", 
                    "regular_worktime": "4:00:00"
                }
            ], 
            "incompatible_activities": [
                "act_0_15", 
                "act_0_13", 
                "act_1_6", 
                "act_0_19"
            ], 
            "maximum_working_hours": "12:00:00", 
            "name": "Benjamin Matteo", 
            "minimum_working_hours": "08:00:00"
        }, 
        "op_5": {
            "time_windows": [
                {
                    "start": "2014-03-04T08:00:00", 
                    "finish": "2014-03-04T18:00:00", 
                    "regular_worktime": "8:00:00"
                }, 
                {
                    "start": "2014-03-05T08:00:00", 
                    "finish": "2014-03-05T18:00:00", 
                    "regular_worktime": "8:00:00"
                }, 
                {
                    "start": "2014-03-06T08:00:00", 
                    "finish": "2014-03-06T18:00:00", 
                    "regular_worktime": "8:00:00"
                }
            ], 
            "incompatible_activities": [
                "act_0_19", 
                "act_2_5", 
                "act_0_2", 
                "act_2_8"
            ], 
            "maximum_working_hours": "16:00:00", 
            "name": "Sandi Obrien", 
            "minimum_working_hours": "16:00:00"
        }, 
        "op_6": {
            "time_windows": [
                {
                    "start": "2014-03-04T08:00:00", 
                    "finish": "2014-03-04T18:00:00", 
                    "regular_worktime": "8:00:00"
                }, 
                {
                    "start": "2014-03-05T08:00:00", 
                    "finish": "2014-03-05T18:00:00", 
                    "regular_worktime": "8:00:00"
                }, 
                {
                    "start": "2014-03-06T08:00:00", 
                    "finish": "2014-03-06T13:00:00", 
                    "regular_worktime": "4:00:00"
                }
            ], 
            "incompatible_activities": [
                "act_2_0", 
                "act_1_9", 
                "act_1_7", 
                "act_0_1"
            ], 
            "maximum_working_hours": "16:00:00", 
            "name": "Rick Copeland", 
            "minimum_working_hours": "12:00:00"
        }, 
        "op_7": {
            "time_windows": [
                {
                    "start": "2014-03-04T08:00:00", 
                    "finish": "2014-03-04T18:00:00", 
                    "regular_worktime": "8:00:00"
                }, 
                {
                    "start": "2014-03-05T08:00:00", 
                    "finish": "2014-03-05T18:00:00", 
                    "regular_worktime": "8:00:00"
                }, 
                {
                    "start": "2014-03-06T08:00:00", 
                    "finish": "2014-03-06T18:00:00", 
                    "regular_worktime": "8:00:00"
                }
            ], 
            "incompatible_activities": [
                "act_0_10", 
                "act_0_16", 
                "act_0_5", 
                "act_0_14"
            ], 
            "maximum_working_hours": "16:00:00", 
            "name": "Angela Felker", 
            "minimum_working_hours": "16:00:00"
        }, 
        "op_0": {
            "time_windows": [
                {
                    "start": "2014-03-04T13:00:00", 
                    "finish": "2014-03-04T18:00:00", 
                    "regular_worktime": "4:00:00"
                }, 
                {
                    "start": "2014-03-05T08:00:00", 
                    "finish": "2014-03-05T13:00:00", 
                    "regular_worktime": "4:00:00"
                }, 
                {
                    "start": "2014-03-06T08:00:00", 
                    "finish": "2014-03-06T13:00:00", 
                    "regular_worktime": "4:00:00"
                }
            ], 
            "incompatible_activities": [
                "act_0_14", 
                "act_2_5", 
                "act_2_11", 
                "act_1_11"
            ], 
            "maximum_working_hours": "08:00:00", 
            "name": "Mary Walker", 
            "minimum_working_hours": "08:00:00"
        }, 
        "op_1": {
            "time_windows": [
                {
                    "start": "2014-03-04T08:00:00", 
                    "finish": "2014-03-04T13:00:00", 
                    "regular_worktime": "4:00:00"
                }, 
                {
                    "start": "2014-03-05T13:00:00", 
                    "finish": "2014-03-05T18:00:00", 
                    "regular_worktime": "4:00:00"
                }, 
                {
                    "start": "2014-03-06T08:00:00", 
                    "finish": "2014-03-06T18:00:00", 
                    "regular_worktime": "8:00:00"
                }
            ], 
            "incompatible_activities": [
                "act_2_1", 
                "act_2_13", 
                "act_2_2", 
                "act_2_15"
            ], 
            "maximum_working_hours": "12:00:00", 
            "name": "Edith Campbell", 
            "minimum_working_hours": "08:00:00"
        }, 
        "op_2": {
            "time_windows": [
                {
                    "start": "2014-03-04T08:00:00", 
                    "finish": "2014-03-04T13:00:00", 
                    "regular_worktime": "4:00:00"
                }, 
                {
                    "start": "2014-03-05T13:00:00", 
                    "finish": "2014-03-05T18:00:00", 
                    "regular_worktime": "4:00:00"
                }, 
                {
                    "start": "2014-03-06T08:00:00", 
                    "finish": "2014-03-06T18:00:00", 
                    "regular_worktime": "8:00:00"
                }
            ], 
            "incompatible_activities": [
                "act_0_9", 
                "act_0_14", 
                "act_2_0", 
                "act_0_0"
            ], 
            "maximum_working_hours": "12:00:00", 
            "name": "Valeria Nelson", 
            "minimum_working_hours": "08:00:00"
        }, 
        "op_3": {
            "time_windows": [
                {
                    "start": "2014-03-04T08:00:00", 
                    "finish": "2014-03-04T18:00:00", 
                    "regular_worktime": "8:00:00"
                }, 
                {
                    "start": "2014-03-05T08:00:00", 
                    "finish": "2014-03-05T18:00:00", 
                    "regular_worktime": "8:00:00"
                }, 
                {
                    "start": "2014-03-06T13:00:00", 
                    "finish": "2014-03-06T18:00:00", 
                    "regular_worktime": "4:00:00"
                }
            ], 
            "incompatible_activities": [
                "act_0_17", 
                "act_2_10", 
                "act_1_17", 
                "act_2_5"
            ], 
            "maximum_working_hours": "16:00:00", 
            "name": "Carrie Gonzalez", 
            "minimum_working_hours": "12:00:00"
        }
    }, 
    "meta": {
        "time_window": {
            "start": "08:00:00", 
            "finish": "18:00:00"
        }, 
        "horizon": 3, 
        "granularity": 10, 
        "geographic_area": {
            "upper_left": [
                46.259645, 
                12.860656
            ], 
            "lower_right": [
                45.936826, 
                13.485503
            ]
        }, 
        "max_consecutive_days": 2, 
        "finish_date": "2014-03-07T00:00:00", 
        "max_overtime_rate": 1.1, 
        "start_date": "2014-03-04T00:00:00"
    }
}