{
    "activities": [
        {
            "act_0_9": {
                "duration": 30, 
                "time_window": {
                    "start": "2014-03-04T08:00:00", 
                    "finish": "2014-03-04T18:00:00"
                }, 
                "required_operators": 1, 
                "location": {
                    "latitude": 46.06909816628083, 
                    "longitude": 13.34467810800681
                }, 
                "patient_name": "Angela Artis"
            }, 
            "act_0_8": {
                "duration": 60, 
                "time_window": {
                    "start": "2014-03-04T08:00:00", 
                    "finish": "2014-03-04T18:00:00"
                }, 
                "required_operators": 1, 
                "location": {
                    "latitude": 46.22047555497967, 
                    "longitude": 13.301465727574342
                }, 
                "patient_name": "Beatrice Evans"
            }, 
            "act_0_3": {
                "duration": 30, 
                "time_window": {
                    "start": "2014-03-04T13:00:00", 
                    "finish": "2014-03-04T18:00:00"
                }, 
                "required_operators": 2, 
                "location": {
                    "latitude": 46.19188847807947, 
                    "longitude": 13.036353238212348
                }, 
                "patient_name": "Mark Nunley"
            }, 
            "act_0_2": {
                "duration": 30, 
                "time_window": {
                    "start": "2014-03-04T11:20:00", 
                    "finish": "2014-03-04T14:40:00"
                }, 
                "required_operators": 1, 
                "location": {
                    "latitude": 46.13579069844951, 
                    "longitude": 13.326851358009579
                }, 
                "patient_name": "Michael Mata"
            }, 
            "act_0_1": {
                "duration": 60, 
                "time_window": {
                    "start": "2014-03-04T08:00:00", 
                    "finish": "2014-03-04T11:20:00"
                }, 
                "required_operators": 1, 
                "location": {
                    "latitude": 46.025580122779665, 
                    "longitude": 12.958855180952167
                }, 
                "patient_name": "Samantha Brown"
            }, 
            "act_0_0": {
                "duration": 30, 
                "time_window": {
                    "start": "2014-03-04T13:00:00", 
                    "finish": "2014-03-04T18:00:00"
                }, 
                "required_operators": 1, 
                "location": {
                    "latitude": 45.96965734761226, 
                    "longitude": 12.911152789848357
                }, 
                "patient_name": "Kevin Perez"
            }, 
            "act_0_7": {
                "duration": 30, 
                "time_window": {
                    "start": "2014-03-04T08:00:00", 
                    "finish": "2014-03-04T13:00:00"
                }, 
                "required_operators": 1, 
                "location": {
                    "latitude": 45.95027918873926, 
                    "longitude": 12.894505963583747
                }, 
                "patient_name": "Craig Clark"
            }, 
            "act_0_6": {
                "duration": 30, 
                "time_window": {
                    "start": "2014-03-04T08:00:00", 
                    "finish": "2014-03-04T18:00:00"
                }, 
                "required_operators": 1, 
                "location": {
                    "latitude": 45.96235248661089, 
                    "longitude": 13.12315886404647
                }, 
                "patient_name": "Robert Choi"
            }, 
            "act_0_5": {
                "duration": 30, 
                "time_window": {
                    "start": "2014-03-04T08:00:00", 
                    "finish": "2014-03-04T13:00:00"
                }, 
                "required_operators": 1, 
                "location": {
                    "latitude": 45.97062403576053, 
                    "longitude": 12.987533178964174
                }, 
                "patient_name": "Delbert Young"
            }, 
            "act_0_4": {
                "duration": 30, 
                "time_window": {
                    "start": "2014-03-04T13:00:00", 
                    "finish": "2014-03-04T18:00:00"
                }, 
                "required_operators": 1, 
                "location": {
                    "latitude": 46.1009111088502, 
                    "longitude": 12.875329381402747
                }, 
                "patient_name": "Laura Suchan"
            }, 
            "act_0_19": {
                "duration": 30, 
                "time_window": {
                    "start": "2014-03-04T08:00:00", 
                    "finish": "2014-03-04T13:00:00"
                }, 
                "required_operators": 1, 
                "location": {
                    "latitude": 46.20378124969378, 
                    "longitude": 13.161870781283078
                }, 
                "patient_name": "James Gray"
            }, 
            "act_0_18": {
                "duration": 30, 
                "time_window": {
                    "start": "2014-03-04T08:00:00", 
                    "finish": "2014-03-04T13:00:00"
                }, 
                "required_operators": 1, 
                "location": {
                    "latitude": 46.232440301533835, 
                    "longitude": 13.348129797157112
                }, 
                "patient_name": "Robert Miller"
            }, 
            "act_0_17": {
                "duration": 60, 
                "time_window": {
                    "start": "2014-03-04T08:00:00", 
                    "finish": "2014-03-04T11:20:00"
                }, 
                "required_operators": 2, 
                "location": {
                    "latitude": 46.01052405305146, 
                    "longitude": 13.410681149650783
                }, 
                "patient_name": "Jacob Bouffard"
            }, 
            "act_0_16": {
                "duration": 30, 
                "time_window": {
                    "start": "2014-03-04T08:00:00", 
                    "finish": "2014-03-04T18:00:00"
                }, 
                "required_operators": 1, 
                "location": {
                    "latitude": 46.03496679440603, 
                    "longitude": 12.90164401936839
                }, 
                "patient_name": "William Thayer"
            }, 
            "act_0_15": {
                "duration": 30, 
                "time_window": {
                    "start": "2014-03-04T08:00:00", 
                    "finish": "2014-03-04T18:00:00"
                }, 
                "required_operators": 1, 
                "location": {
                    "latitude": 46.06222546757593, 
                    "longitude": 13.464528943592194
                }, 
                "patient_name": "Beatrice Johnson"
            }, 
            "act_0_14": {
                "duration": 30, 
                "time_window": {
                    "start": "2014-03-04T13:00:00", 
                    "finish": "2014-03-04T18:00:00"
                }, 
                "required_operators": 2, 
                "location": {
                    "latitude": 46.203876031662894, 
                    "longitude": 13.4520856855039
                }, 
                "patient_name": "Tony Howard"
            }, 
            "act_0_13": {
                "duration": 60, 
                "time_window": {
                    "start": "2014-03-04T08:00:00", 
                    "finish": "2014-03-04T18:00:00"
                }, 
                "required_operators": 1, 
                "location": {
                    "latitude": 46.13924337809463, 
                    "longitude": 13.397962872229122
                }, 
                "patient_name": "Bernard Strong"
            }, 
            "act_0_12": {
                "duration": 60, 
                "time_window": {
                    "start": "2014-03-04T08:00:00", 
                    "finish": "2014-03-04T18:00:00"
                }, 
                "required_operators": 1, 
                "location": {
                    "latitude": 46.099097232679746, 
                    "longitude": 13.303952398979703
                }, 
                "patient_name": "Margaret Rainbolt"
            }, 
            "act_0_11": {
                "duration": 30, 
                "time_window": {
                    "start": "2014-03-04T08:00:00", 
                    "finish": "2014-03-04T13:00:00"
                }, 
                "required_operators": 1, 
                "location": {
                    "latitude": 46.15482258356034, 
                    "longitude": 12.91615276299917
                }, 
                "patient_name": "Lester Mendez"
            }, 
            "act_0_10": {
                "duration": 30, 
                "time_window": {
                    "start": "2014-03-04T08:00:00", 
                    "finish": "2014-03-04T13:00:00"
                }, 
                "required_operators": 1, 
                "location": {
                    "latitude": 45.94132233255833, 
                    "longitude": 13.21959056447792
                }, 
                "patient_name": "Edward Sorge"
            }
        }, 
        {
            "act_1_14": {
                "duration": 60, 
                "time_window": {
                    "start": "2014-03-05T14:40:00", 
                    "finish": "2014-03-05T18:00:00"
                }, 
                "required_operators": 1, 
                "location": {
                    "latitude": 46.02284099264463, 
                    "longitude": 12.992644517515727
                }, 
                "patient_name": "Julie Kline"
            }, 
            "act_1_15": {
                "duration": 30, 
                "time_window": {
                    "start": "2014-03-05T08:00:00", 
                    "finish": "2014-03-05T13:00:00"
                }, 
                "required_operators": 1, 
                "location": {
                    "latitude": 46.155152380789836, 
                    "longitude": 13.381509877989545
                }, 
                "patient_name": "Alice Johnson"
            }, 
            "act_1_16": {
                "duration": 30, 
                "time_window": {
                    "start": "2014-03-05T08:00:00", 
                    "finish": "2014-03-05T18:00:00"
                }, 
                "required_operators": 4, 
                "location": {
                    "latitude": 45.962332537693364, 
                    "longitude": 12.886912104277522
                }, 
                "patient_name": "Susan Malik"
            }, 
            "act_1_17": {
                "duration": 60, 
                "time_window": {
                    "start": "2014-03-05T13:00:00", 
                    "finish": "2014-03-05T18:00:00"
                }, 
                "required_operators": 1, 
                "location": {
                    "latitude": 46.13198327804472, 
                    "longitude": 13.415793142814339
                }, 
                "patient_name": "William Rodriguez"
            }, 
            "act_1_10": {
                "duration": 60, 
                "time_window": {
                    "start": "2014-03-05T11:20:00", 
                    "finish": "2014-03-05T14:40:00"
                }, 
                "required_operators": 1, 
                "location": {
                    "latitude": 45.95920353669442, 
                    "longitude": 13.408381547924176
                }, 
                "patient_name": "Mark Gravel"
            }, 
            "act_1_11": {
                "duration": 30, 
                "time_window": {
                    "start": "2014-03-05T08:00:00", 
                    "finish": "2014-03-05T11:20:00"
                }, 
                "required_operators": 1, 
                "location": {
                    "latitude": 46.10091325806875, 
                    "longitude": 13.077441462535294
                }, 
                "patient_name": "Britni Clark"
            }, 
            "act_1_12": {
                "duration": 30, 
                "time_window": {
                    "start": "2014-03-05T08:00:00", 
                    "finish": "2014-03-05T18:00:00"
                }, 
                "required_operators": 1, 
                "location": {
                    "latitude": 46.07614230122735, 
                    "longitude": 13.135546971920695
                }, 
                "patient_name": "Christina Hayes"
            }, 
            "act_1_13": {
                "duration": 30, 
                "time_window": {
                    "start": "2014-03-05T08:00:00", 
                    "finish": "2014-03-05T18:00:00"
                }, 
                "required_operators": 2, 
                "location": {
                    "latitude": 46.046983912783325, 
                    "longitude": 12.946693334143976
                }, 
                "patient_name": "Timothy Watts"
            }, 
            "act_1_18": {
                "duration": 30, 
                "time_window": {
                    "start": "2014-03-05T08:00:00", 
                    "finish": "2014-03-05T11:20:00"
                }, 
                "required_operators": 1, 
                "location": {
                    "latitude": 46.13534602524075, 
                    "longitude": 12.97464735813542
                }, 
                "patient_name": "Karen Lanning"
            }, 
            "act_1_19": {
                "duration": 60, 
                "time_window": {
                    "start": "2014-03-05T08:00:00", 
                    "finish": "2014-03-05T18:00:00"
                }, 
                "required_operators": 2, 
                "location": {
                    "latitude": 45.980169259351854, 
                    "longitude": 13.283770009704579
                }, 
                "patient_name": "Bobbi Jean"
            }, 
            "act_1_2": {
                "duration": 60, 
                "time_window": {
                    "start": "2014-03-05T08:00:00", 
                    "finish": "2014-03-05T13:00:00"
                }, 
                "required_operators": 2, 
                "location": {
                    "latitude": 46.1391874327068, 
                    "longitude": 13.409730319816596
                }, 
                "patient_name": "Jeff Spence"
            }, 
            "act_1_3": {
                "duration": 60, 
                "time_window": {
                    "start": "2014-03-05T14:40:00", 
                    "finish": "2014-03-05T18:00:00"
                }, 
                "required_operators": 2, 
                "location": {
                    "latitude": 46.06166851472343, 
                    "longitude": 13.284337227790578
                }, 
                "patient_name": "Gabriel Suh"
            }, 
            "act_1_0": {
                "duration": 60, 
                "time_window": {
                    "start": "2014-03-05T08:00:00", 
                    "finish": "2014-03-05T18:00:00"
                }, 
                "required_operators": 1, 
                "location": {
                    "latitude": 46.08391727698762, 
                    "longitude": 13.187760545662483
                }, 
                "patient_name": "Marjorie Liesmann"
            }, 
            "act_1_1": {
                "duration": 30, 
                "time_window": {
                    "start": "2014-03-05T14:40:00", 
                    "finish": "2014-03-05T18:00:00"
                }, 
                "required_operators": 1, 
                "location": {
                    "latitude": 46.025624725081, 
                    "longitude": 13.310968361307598
                }, 
                "patient_name": "Tori Anderson"
            }, 
            "act_1_6": {
                "duration": 30, 
                "time_window": {
                    "start": "2014-03-05T08:00:00", 
                    "finish": "2014-03-05T11:20:00"
                }, 
                "required_operators": 1, 
                "location": {
                    "latitude": 46.19761121018334, 
                    "longitude": 12.998843709948158
                }, 
                "patient_name": "Jewel Hall"
            }, 
            "act_1_7": {
                "duration": 30, 
                "time_window": {
                    "start": "2014-03-05T11:20:00", 
                    "finish": "2014-03-05T14:40:00"
                }, 
                "required_operators": 1, 
                "location": {
                    "latitude": 46.10872412114791, 
                    "longitude": 13.1868345752322
                }, 
                "patient_name": "Michael Wisman"
            }, 
            "act_1_4": {
                "duration": 30, 
                "time_window": {
                    "start": "2014-03-05T14:40:00", 
                    "finish": "2014-03-05T18:00:00"
                }, 
                "required_operators": 2, 
                "location": {
                    "latitude": 46.10784203752315, 
                    "longitude": 13.195304776552423
                }, 
                "patient_name": "John Ross"
            }, 
            "act_1_5": {
                "duration": 30, 
                "time_window": {
                    "start": "2014-03-05T13:00:00", 
                    "finish": "2014-03-05T18:00:00"
                }, 
                "required_operators": 1, 
                "location": {
                    "latitude": 46.069102624098136, 
                    "longitude": 13.470734766235754
                }, 
                "patient_name": "Gordon Barker"
            }, 
            "act_1_8": {
                "duration": 30, 
                "time_window": {
                    "start": "2014-03-05T08:00:00", 
                    "finish": "2014-03-05T18:00:00"
                }, 
                "required_operators": 2, 
                "location": {
                    "latitude": 45.954935520186346, 
                    "longitude": 12.874548820248169
                }, 
                "patient_name": "Todd Henry"
            }, 
            "act_1_9": {
                "duration": 60, 
                "time_window": {
                    "start": "2014-03-05T08:00:00", 
                    "finish": "2014-03-05T18:00:00"
                }, 
                "required_operators": 1, 
                "location": {
                    "latitude": 46.1883985242379, 
                    "longitude": 12.897277843394066
                }, 
                "patient_name": "Lester Moore"
            }
        }, 
        {
            "act_2_19": {
                "duration": 30, 
                "time_window": {
                    "start": "2014-03-06T14:40:00", 
                    "finish": "2014-03-06T18:00:00"
                }, 
                "required_operators": 2, 
                "location": {
                    "latitude": 46.13370897499334, 
                    "longitude": 13.451135242915544
                }, 
                "patient_name": "Sean Haden"
            }, 
            "act_2_18": {
                "duration": 30, 
                "time_window": {
                    "start": "2014-03-06T08:00:00", 
                    "finish": "2014-03-06T18:00:00"
                }, 
                "required_operators": 2, 
                "location": {
                    "latitude": 46.12799177525272, 
                    "longitude": 13.456364021209355
                }, 
                "patient_name": "Constance Gibson"
            }, 
            "act_2_11": {
                "duration": 30, 
                "time_window": {
                    "start": "2014-03-06T08:00:00", 
                    "finish": "2014-03-06T18:00:00"
                }, 
                "required_operators": 2, 
                "location": {
                    "latitude": 46.15909153635932, 
                    "longitude": 13.392750602603455
                }, 
                "patient_name": "Jamila Mack"
            }, 
            "act_2_10": {
                "duration": 30, 
                "time_window": {
                    "start": "2014-03-06T14:40:00", 
                    "finish": "2014-03-06T18:00:00"
                }, 
                "required_operators": 1, 
                "location": {
                    "latitude": 46.0916475063731, 
                    "longitude": 13.01918653107747
                }, 
                "patient_name": "David Saulter"
            }, 
            "act_2_13": {
                "duration": 60, 
                "time_window": {
                    "start": "2014-03-06T08:00:00", 
                    "finish": "2014-03-06T11:20:00"
                }, 
                "required_operators": 1, 
                "location": {
                    "latitude": 46.250193727815486, 
                    "longitude": 13.32417985716214
                }, 
                "patient_name": "Katherine Harlan"
            }, 
            "act_2_12": {
                "duration": 30, 
                "time_window": {
                    "start": "2014-03-06T08:00:00", 
                    "finish": "2014-03-06T18:00:00"
                }, 
                "required_operators": 1, 
                "location": {
                    "latitude": 46.20212411749263, 
                    "longitude": 13.258190057372925
                }, 
                "patient_name": "James Britt"
            }, 
            "act_2_15": {
                "duration": 30, 
                "time_window": {
                    "start": "2014-03-06T11:20:00", 
                    "finish": "2014-03-06T14:40:00"
                }, 
                "required_operators": 1, 
                "location": {
                    "latitude": 46.095579717814815, 
                    "longitude": 13.389357849042648
                }, 
                "patient_name": "Lee Bias"
            }, 
            "act_2_14": {
                "duration": 60, 
                "time_window": {
                    "start": "2014-03-06T13:00:00", 
                    "finish": "2014-03-06T18:00:00"
                }, 
                "required_operators": 1, 
                "location": {
                    "latitude": 46.07963605632822, 
                    "longitude": 13.301432946080032
                }, 
                "patient_name": "John Johnson"
            }, 
            "act_2_17": {
                "duration": 30, 
                "time_window": {
                    "start": "2014-03-06T13:00:00", 
                    "finish": "2014-03-06T18:00:00"
                }, 
                "required_operators": 1, 
                "location": {
                    "latitude": 46.22612175729867, 
                    "longitude": 13.410772395758432
                }, 
                "patient_name": "Andrew Johnston"
            }, 
            "act_2_16": {
                "duration": 30, 
                "time_window": {
                    "start": "2014-03-06T08:00:00", 
                    "finish": "2014-03-06T11:20:00"
                }, 
                "required_operators": 1, 
                "location": {
                    "latitude": 46.24863053289639, 
                    "longitude": 13.469280220325912
                }, 
                "patient_name": "Danny Weyrick"
            }, 
            "act_2_9": {
                "duration": 30, 
                "time_window": {
                    "start": "2014-03-06T08:00:00", 
                    "finish": "2014-03-06T18:00:00"
                }, 
                "required_operators": 1, 
                "location": {
                    "latitude": 46.131547205856634, 
                    "longitude": 13.039077123184457
                }, 
                "patient_name": "Alexandra Niss"
            }, 
            "act_2_8": {
                "duration": 30, 
                "time_window": {
                    "start": "2014-03-06T08:00:00", 
                    "finish": "2014-03-06T13:00:00"
                }, 
                "required_operators": 1, 
                "location": {
                    "latitude": 46.09074521737382, 
                    "longitude": 13.223589157796248
                }, 
                "patient_name": "David Phillips"
            }, 
            "act_2_5": {
                "duration": 30, 
                "time_window": {
                    "start": "2014-03-06T11:20:00", 
                    "finish": "2014-03-06T14:40:00"
                }, 
                "required_operators": 1, 
                "location": {
                    "latitude": 45.95849796812205, 
                    "longitude": 13.197961537921328
                }, 
                "patient_name": "Lynn Gupton"
            }, 
            "act_2_4": {
                "duration": 30, 
                "time_window": {
                    "start": "2014-03-06T11:20:00", 
                    "finish": "2014-03-06T14:40:00"
                }, 
                "required_operators": 1, 
                "location": {
                    "latitude": 45.94840506898441, 
                    "longitude": 12.9136972923835
                }, 
                "patient_name": "Raymond Blocker"
            }, 
            "act_2_7": {
                "duration": 30, 
                "time_window": {
                    "start": "2014-03-06T08:00:00", 
                    "finish": "2014-03-06T18:00:00"
                }, 
                "required_operators": 1, 
                "location": {
                    "latitude": 46.11307505788989, 
                    "longitude": 13.463384558028526
                }, 
                "patient_name": "Michael Kim"
            }, 
            "act_2_6": {
                "duration": 60, 
                "time_window": {
                    "start": "2014-03-06T08:00:00", 
                    "finish": "2014-03-06T18:00:00"
                }, 
                "required_operators": 1, 
                "location": {
                    "latitude": 46.19496660222831, 
                    "longitude": 13.380723482669168
                }, 
                "patient_name": "Audrea Ward"
            }, 
            "act_2_1": {
                "duration": 60, 
                "time_window": {
                    "start": "2014-03-06T08:00:00", 
                    "finish": "2014-03-06T13:00:00"
                }, 
                "required_operators": 2, 
                "location": {
                    "latitude": 46.00831663229277, 
                    "longitude": 13.278731118233974
                }, 
                "patient_name": "Doris Dorman"
            }, 
            "act_2_0": {
                "duration": 30, 
                "time_window": {
                    "start": "2014-03-06T08:00:00", 
                    "finish": "2014-03-06T18:00:00"
                }, 
                "required_operators": 1, 
                "location": {
                    "latitude": 46.18473280087488, 
                    "longitude": 13.06751108395316
                }, 
                "patient_name": "Inez Armstrong"
            }, 
            "act_2_3": {
                "duration": 60, 
                "time_window": {
                    "start": "2014-03-06T11:20:00", 
                    "finish": "2014-03-06T14:40:00"
                }, 
                "required_operators": 1, 
                "location": {
                    "latitude": 46.23998409207536, 
                    "longitude": 13.365616149255311
                }, 
                "patient_name": "Guy Kocieda"
            }, 
            "act_2_2": {
                "duration": 60, 
                "time_window": {
                    "start": "2014-03-06T08:00:00", 
                    "finish": "2014-03-06T13:00:00"
                }, 
                "required_operators": 1, 
                "location": {
                    "latitude": 46.19417132846045, 
                    "longitude": 13.289165773326125
                }, 
                "patient_name": "Michael Ford"
            }
        }
    ], 
    "operators": {
        "op_8": {
            "time_windows": [
                {
                    "start": "2014-03-04T08:00:00", 
                    "finish": "2014-03-04T18:00:00", 
                    "regular_worktime": "8:00:00"
                }, 
                {
                    "start": "2014-03-05T13:00:00", 
                    "finish": "2014-03-05T18:00:00", 
                    "regular_worktime": "4:00:00"
                }, 
                {
                    "start": "2014-03-06T08:00:00", 
                    "finish": "2014-03-06T13:00:00", 
                    "regular_worktime": "4:00:00"
                }
            ], 
            "incompatible_activities": [
                "act_1_12", 
                "act_1_3", 
                "act_2_15", 
                "act_1_16"
            ], 
            "maximum_working_hours": "12:00:00", 
            "name": "Terrence Payton", 
            "minimum_working_hours": "08:00:00"
        }, 
        "op_9": {
            "time_windows": [
                {
                    "start": "2014-03-04T08:00:00", 
                    "finish": "2014-03-04T13:00:00", 
                    "regular_worktime": "4:00:00"
                }, 
                {
                    "start": "2014-03-05T08:00:00", 
                    "finish": "2014-03-05T18:00:00", 
                    "regular_worktime": "8:00:00"
                }, 
                {
                    "start": "2014-03-06T08:00:00", 
                    "finish": "2014-03-06T13:00:00", 
                    "regular_worktime": "4:00:00"
                }
            ], 
            "incompatible_activities": [
                "act_2_18", 
                "act_0_10", 
                "act_1_18", 
                "act_2_5"
            ], 
            "maximum_working_hours": "12:00:00", 
            "name": "Sandra Wahba", 
            "minimum_working_hours": "08:00:00"
        }, 
        "op_4": {
            "time_windows": [
                {
                    "start": "2014-03-04T08:00:00", 
                    "finish": "2014-03-04T18:00:00", 
                    "regular_worktime": "8:00:00"
                }, 
                {
                    "start": "2014-03-05T08:00:00", 
                    "finish": "2014-03-05T13:00:00", 
                    "regular_worktime": "4:00:00"
                }, 
                {
                    "start": "2014-03-06T08:00:00", 
                    "finish": "2014-03-06T18:00:00", 
                    "regular_worktime": "8:00:00"
                }
            ], 
            "incompatible_activities": [
                "act_1_7", 
                "act_1_8", 
                "act_1_18", 
                "act_0_0"
            ], 
            "maximum_working_hours": "16:00:00", 
            "name": "Antoinette Fry", 
            "minimum_working_hours": "12:00:00"
        }, 
        "op_5": {
            "time_windows": [
                {
                    "start": "2014-03-04T08:00:00", 
                    "finish": "2014-03-04T13:00:00", 
                    "regular_worktime": "4:00:00"
                }, 
                {
                    "start": "2014-03-05T08:00:00", 
                    "finish": "2014-03-05T18:00:00", 
                    "regular_worktime": "8:00:00"
                }, 
                {
                    "start": "2014-03-06T08:00:00", 
                    "finish": "2014-03-06T18:00:00", 
                    "regular_worktime": "8:00:00"
                }
            ], 
            "incompatible_activities": [
                "act_0_1", 
                "act_1_18", 
                "act_1_7", 
                "act_1_3"
            ], 
            "maximum_working_hours": "16:00:00", 
            "name": "Greg Breton", 
            "minimum_working_hours": "12:00:00"
        }, 
        "op_6": {
            "time_windows": [
                {
                    "start": "2014-03-04T08:00:00", 
                    "finish": "2014-03-04T13:00:00", 
                    "regular_worktime": "4:00:00"
                }, 
                {
                    "start": "2014-03-05T08:00:00", 
                    "finish": "2014-03-05T18:00:00", 
                    "regular_worktime": "8:00:00"
                }, 
                {
                    "start": "2014-03-06T08:00:00", 
                    "finish": "2014-03-06T18:00:00", 
                    "regular_worktime": "8:00:00"
                }
            ], 
            "incompatible_activities": [
                "act_1_0", 
                "act_2_1", 
                "act_1_6", 
                "act_0_9"
            ], 
            "maximum_working_hours": "16:00:00", 
            "name": "Sean Donley", 
            "minimum_working_hours": "12:00:00"
        }, 
        "op_7": {
            "time_windows": [
                {
                    "start": "2014-03-04T08:00:00", 
                    "finish": "2014-03-04T13:00:00", 
                    "regular_worktime": "4:00:00"
                }, 
                {
                    "start": "2014-03-05T08:00:00", 
                    "finish": "2014-03-05T18:00:00", 
                    "regular_worktime": "8:00:00"
                }, 
                {
                    "start": "2014-03-06T08:00:00", 
                    "finish": "2014-03-06T13:00:00", 
                    "regular_worktime": "4:00:00"
                }
            ], 
            "incompatible_activities": [
                "act_2_0", 
                "act_2_18", 
                "act_2_12", 
                "act_0_19"
            ], 
            "maximum_working_hours": "12:00:00", 
            "name": "Chad Martin", 
            "minimum_working_hours": "08:00:00"
        }, 
        "op_0": {
            "time_windows": [
                {
                    "start": "2014-03-04T08:00:00", 
                    "finish": "2014-03-04T13:00:00", 
                    "regular_worktime": "4:00:00"
                }, 
                {
                    "start": "2014-03-05T08:00:00", 
                    "finish": "2014-03-05T18:00:00", 
                    "regular_worktime": "8:00:00"
                }, 
                {
                    "start": "2014-03-06T08:00:00", 
                    "finish": "2014-03-06T13:00:00", 
                    "regular_worktime": "4:00:00"
                }
            ], 
            "incompatible_activities": [
                "act_0_19", 
                "act_0_8", 
                "act_0_12", 
                "act_0_9"
            ], 
            "maximum_working_hours": "12:00:00", 
            "name": "Leslee Weltha", 
            "minimum_working_hours": "08:00:00"
        }, 
        "op_1": {
            "time_windows": [
                {
                    "start": "2014-03-04T08:00:00", 
                    "finish": "2014-03-04T18:00:00", 
                    "regular_worktime": "8:00:00"
                }, 
                {
                    "start": "2014-03-05T08:00:00", 
                    "finish": "2014-03-05T18:00:00", 
                    "regular_worktime": "8:00:00"
                }, 
                {
                    "start": "2014-03-06T08:00:00", 
                    "finish": "2014-03-06T13:00:00", 
                    "regular_worktime": "4:00:00"
                }
            ], 
            "incompatible_activities": [
                "act_1_4", 
                "act_1_16", 
                "act_0_13", 
                "act_2_3"
            ], 
            "maximum_working_hours": "16:00:00", 
            "name": "Benjamin Simmons", 
            "minimum_working_hours": "12:00:00"
        }, 
        "op_2": {
            "time_windows": [
                {
                    "start": "2014-03-04T08:00:00", 
                    "finish": "2014-03-04T18:00:00", 
                    "regular_worktime": "8:00:00"
                }, 
                {
                    "start": "2014-03-05T08:00:00", 
                    "finish": "2014-03-05T18:00:00", 
                    "regular_worktime": "8:00:00"
                }, 
                {
                    "start": "2014-03-06T08:00:00", 
                    "finish": "2014-03-06T18:00:00", 
                    "regular_worktime": "8:00:00"
                }
            ], 
            "incompatible_activities": [
                "act_1_9", 
                "act_0_5", 
                "act_2_13", 
                "act_2_4"
            ], 
            "maximum_working_hours": "16:00:00", 
            "name": "Otis Leal", 
            "minimum_working_hours": "16:00:00"
        }, 
        "op_3": {
            "time_windows": [
                {
                    "start": "2014-03-04T08:00:00", 
                    "finish": "2014-03-04T18:00:00", 
                    "regular_worktime": "8:00:00"
                }, 
                {
                    "start": "2014-03-05T08:00:00", 
                    "finish": "2014-03-05T13:00:00", 
                    "regular_worktime": "4:00:00"
                }, 
                {
                    "start": "2014-03-06T08:00:00", 
                    "finish": "2014-03-06T18:00:00", 
                    "regular_worktime": "8:00:00"
                }
            ], 
            "incompatible_activities": [
                "act_1_18", 
                "act_2_12", 
                "act_1_8", 
                "act_0_11"
            ], 
            "maximum_working_hours": "16:00:00", 
            "name": "Joshua Keeton", 
            "minimum_working_hours": "12:00:00"
        }
    }, 
    "meta": {
        "time_window": {
            "start": "08:00:00", 
            "finish": "18:00:00"
        }, 
        "horizon": 3, 
        "granularity": 10, 
        "geographic_area": {
            "upper_left": [
                46.259645, 
                12.860656
            ], 
            "lower_right": [
                45.936826, 
                13.485503
            ]
        }, 
        "max_consecutive_days": 2, 
        "finish_date": "2014-03-07T00:00:00", 
        "max_overtime_rate": 1.1, 
        "start_date": "2014-03-04T00:00:00"
    }
}