{
    "activities": [
        {
            "act_0_19": {
                "duration": 30, 
                "time_window": {
                    "start": "2014-03-05T08:00:00", 
                    "finish": "2014-03-05T18:00:00"
                }, 
                "required_operators": 1, 
                "location": {
                    "latitude": 46.19093285114137, 
                    "longitude": 13.008108081076472
                }, 
                "patient_name": "Roland Burlin"
            }, 
            "act_0_18": {
                "duration": 30, 
                "time_window": {
                    "start": "2014-03-05T08:00:00", 
                    "finish": "2014-03-05T18:00:00"
                }, 
                "required_operators": 1, 
                "location": {
                    "latitude": 46.05622067434514, 
                    "longitude": 13.417638959563376
                }, 
                "patient_name": "Billie Jacques"
            }, 
            "act_0_17": {
                "duration": 30, 
                "time_window": {
                    "start": "2014-03-05T08:00:00", 
                    "finish": "2014-03-05T18:00:00"
                }, 
                "required_operators": 1, 
                "location": {
                    "latitude": 46.21139069627588, 
                    "longitude": 12.956660653617284
                }, 
                "patient_name": "John Sykes"
            }, 
            "act_0_16": {
                "duration": 30, 
                "time_window": {
                    "start": "2014-03-05T08:00:00", 
                    "finish": "2014-03-05T13:00:00"
                }, 
                "required_operators": 1, 
                "location": {
                    "latitude": 46.20855401828607, 
                    "longitude": 13.332110110538828
                }, 
                "patient_name": "Edward Barker"
            }, 
            "act_0_15": {
                "duration": 60, 
                "time_window": {
                    "start": "2014-03-05T08:00:00", 
                    "finish": "2014-03-05T18:00:00"
                }, 
                "required_operators": 1, 
                "location": {
                    "latitude": 46.227507646414516, 
                    "longitude": 13.249467516101644
                }, 
                "patient_name": "Tabatha Zorns"
            }, 
            "act_0_14": {
                "duration": 30, 
                "time_window": {
                    "start": "2014-03-05T13:00:00", 
                    "finish": "2014-03-05T18:00:00"
                }, 
                "required_operators": 1, 
                "location": {
                    "latitude": 46.08987895668812, 
                    "longitude": 12.99893639939521
                }, 
                "patient_name": "Margaret Jones"
            }, 
            "act_0_13": {
                "duration": 30, 
                "time_window": {
                    "start": "2014-03-05T08:00:00", 
                    "finish": "2014-03-05T13:00:00"
                }, 
                "required_operators": 1, 
                "location": {
                    "latitude": 46.176943609761004, 
                    "longitude": 13.068977996159195
                }, 
                "patient_name": "Rosaline Gardner"
            }, 
            "act_0_12": {
                "duration": 30, 
                "time_window": {
                    "start": "2014-03-05T08:00:00", 
                    "finish": "2014-03-05T18:00:00"
                }, 
                "required_operators": 1, 
                "location": {
                    "latitude": 45.96129743412271, 
                    "longitude": 13.089640703603736
                }, 
                "patient_name": "Manuel Artis"
            }, 
            "act_0_11": {
                "duration": 30, 
                "time_window": {
                    "start": "2014-03-05T08:00:00", 
                    "finish": "2014-03-05T18:00:00"
                }, 
                "required_operators": 1, 
                "location": {
                    "latitude": 46.193340136386105, 
                    "longitude": 13.363224779963096
                }, 
                "patient_name": "Margaret Ferguson"
            }, 
            "act_0_10": {
                "duration": 30, 
                "time_window": {
                    "start": "2014-03-05T08:00:00", 
                    "finish": "2014-03-05T18:00:00"
                }, 
                "required_operators": 1, 
                "location": {
                    "latitude": 46.086094960170314, 
                    "longitude": 13.330202253098323
                }, 
                "patient_name": "Sabra Thornton"
            }, 
            "act_0_9": {
                "duration": 60, 
                "time_window": {
                    "start": "2014-03-05T08:00:00", 
                    "finish": "2014-03-05T13:00:00"
                }, 
                "required_operators": 1, 
                "location": {
                    "latitude": 46.23716575367783, 
                    "longitude": 13.034726691573383
                }, 
                "patient_name": "Deborah Vega"
            }, 
            "act_0_8": {
                "duration": 30, 
                "time_window": {
                    "start": "2014-03-05T08:00:00", 
                    "finish": "2014-03-05T11:20:00"
                }, 
                "required_operators": 2, 
                "location": {
                    "latitude": 46.0747879336056, 
                    "longitude": 13.017099637224696
                }, 
                "patient_name": "Jesse Brennen"
            }, 
            "act_0_3": {
                "duration": 60, 
                "time_window": {
                    "start": "2014-03-05T08:00:00", 
                    "finish": "2014-03-05T13:00:00"
                }, 
                "required_operators": 1, 
                "location": {
                    "latitude": 46.05759737616711, 
                    "longitude": 13.230576464876759
                }, 
                "patient_name": "Thelma Beaman"
            }, 
            "act_0_2": {
                "duration": 60, 
                "time_window": {
                    "start": "2014-03-05T08:00:00", 
                    "finish": "2014-03-05T11:20:00"
                }, 
                "required_operators": 2, 
                "location": {
                    "latitude": 46.089121880998356, 
                    "longitude": 13.125637956325587
                }, 
                "patient_name": "Margaret Griffith"
            }, 
            "act_0_1": {
                "duration": 30, 
                "time_window": {
                    "start": "2014-03-05T08:00:00", 
                    "finish": "2014-03-05T18:00:00"
                }, 
                "required_operators": 1, 
                "location": {
                    "latitude": 46.007281861853315, 
                    "longitude": 12.886765491583134
                }, 
                "patient_name": "Diane Men"
            }, 
            "act_0_0": {
                "duration": 30, 
                "time_window": {
                    "start": "2014-03-05T11:20:00", 
                    "finish": "2014-03-05T14:40:00"
                }, 
                "required_operators": 1, 
                "location": {
                    "latitude": 46.120230026074886, 
                    "longitude": 13.026548241351144
                }, 
                "patient_name": "Carlotta Sedillo"
            }, 
            "act_0_7": {
                "duration": 30, 
                "time_window": {
                    "start": "2014-03-05T08:00:00", 
                    "finish": "2014-03-05T18:00:00"
                }, 
                "required_operators": 1, 
                "location": {
                    "latitude": 46.08005391286283, 
                    "longitude": 13.33511425723601
                }, 
                "patient_name": "Fred Buddington"
            }, 
            "act_0_6": {
                "duration": 60, 
                "time_window": {
                    "start": "2014-03-05T08:00:00", 
                    "finish": "2014-03-05T11:20:00"
                }, 
                "required_operators": 1, 
                "location": {
                    "latitude": 46.00012918374391, 
                    "longitude": 13.348532933347498
                }, 
                "patient_name": "Jessie Widener"
            }, 
            "act_0_5": {
                "duration": 30, 
                "time_window": {
                    "start": "2014-03-05T08:00:00", 
                    "finish": "2014-03-05T13:00:00"
                }, 
                "required_operators": 1, 
                "location": {
                    "latitude": 46.24615111047547, 
                    "longitude": 13.446676202072107
                }, 
                "patient_name": "Jason Hill"
            }, 
            "act_0_4": {
                "duration": 30, 
                "time_window": {
                    "start": "2014-03-05T11:20:00", 
                    "finish": "2014-03-05T14:40:00"
                }, 
                "required_operators": 1, 
                "location": {
                    "latitude": 46.03588562429369, 
                    "longitude": 12.910694225140865
                }, 
                "patient_name": "Derrick Scott"
            }, 
            "act_0_22": {
                "duration": 30, 
                "time_window": {
                    "start": "2014-03-05T08:00:00", 
                    "finish": "2014-03-05T18:00:00"
                }, 
                "required_operators": 1, 
                "location": {
                    "latitude": 46.06503866973175, 
                    "longitude": 13.058694828310639
                }, 
                "patient_name": "Tracy Ashmore"
            }, 
            "act_0_23": {
                "duration": 60, 
                "time_window": {
                    "start": "2014-03-05T13:00:00", 
                    "finish": "2014-03-05T18:00:00"
                }, 
                "required_operators": 1, 
                "location": {
                    "latitude": 45.96889289550384, 
                    "longitude": 13.254795478824532
                }, 
                "patient_name": "Emily Curtis"
            }, 
            "act_0_20": {
                "duration": 60, 
                "time_window": {
                    "start": "2014-03-05T08:00:00", 
                    "finish": "2014-03-05T13:00:00"
                }, 
                "required_operators": 2, 
                "location": {
                    "latitude": 46.05249402442034, 
                    "longitude": 13.190508793483499
                }, 
                "patient_name": "Jessica Moore"
            }, 
            "act_0_21": {
                "duration": 30, 
                "time_window": {
                    "start": "2014-03-05T08:00:00", 
                    "finish": "2014-03-05T13:00:00"
                }, 
                "required_operators": 1, 
                "location": {
                    "latitude": 46.0924587596538, 
                    "longitude": 13.138450670153178
                }, 
                "patient_name": "Jacob Lopez"
            }, 
            "act_0_26": {
                "duration": 30, 
                "time_window": {
                    "start": "2014-03-05T13:00:00", 
                    "finish": "2014-03-05T18:00:00"
                }, 
                "required_operators": 1, 
                "location": {
                    "latitude": 45.99668558766088, 
                    "longitude": 12.908701363528733
                }, 
                "patient_name": "Eric Harris"
            }, 
            "act_0_27": {
                "duration": 30, 
                "time_window": {
                    "start": "2014-03-05T13:00:00", 
                    "finish": "2014-03-05T18:00:00"
                }, 
                "required_operators": 1, 
                "location": {
                    "latitude": 46.09928275484591, 
                    "longitude": 12.867570339456353
                }, 
                "patient_name": "Maria Mcjunkins"
            }, 
            "act_0_24": {
                "duration": 60, 
                "time_window": {
                    "start": "2014-03-05T08:00:00", 
                    "finish": "2014-03-05T11:20:00"
                }, 
                "required_operators": 1, 
                "location": {
                    "latitude": 45.95719040649112, 
                    "longitude": 13.417415124201014
                }, 
                "patient_name": "Jason Murray"
            }, 
            "act_0_25": {
                "duration": 30, 
                "time_window": {
                    "start": "2014-03-05T08:00:00", 
                    "finish": "2014-03-05T13:00:00"
                }, 
                "required_operators": 2, 
                "location": {
                    "latitude": 46.09359640209961, 
                    "longitude": 13.024122492375886
                }, 
                "patient_name": "Hector Terranova"
            }, 
            "act_0_28": {
                "duration": 30, 
                "time_window": {
                    "start": "2014-03-05T08:00:00", 
                    "finish": "2014-03-05T13:00:00"
                }, 
                "required_operators": 1, 
                "location": {
                    "latitude": 46.23893784166669, 
                    "longitude": 13.411630329532144
                }, 
                "patient_name": "Penelope Messenger"
            }, 
            "act_0_29": {
                "duration": 30, 
                "time_window": {
                    "start": "2014-03-05T08:00:00", 
                    "finish": "2014-03-05T18:00:00"
                }, 
                "required_operators": 1, 
                "location": {
                    "latitude": 46.08280311565218, 
                    "longitude": 13.472002660603286
                }, 
                "patient_name": "Everette Robinson"
            }
        }, 
        {
            "act_1_14": {
                "duration": 60, 
                "time_window": {
                    "start": "2014-03-06T08:00:00", 
                    "finish": "2014-03-06T13:00:00"
                }, 
                "required_operators": 1, 
                "location": {
                    "latitude": 46.225278457124254, 
                    "longitude": 12.98871576736373
                }, 
                "patient_name": "David Westfall"
            }, 
            "act_1_15": {
                "duration": 30, 
                "time_window": {
                    "start": "2014-03-06T11:20:00", 
                    "finish": "2014-03-06T14:40:00"
                }, 
                "required_operators": 2, 
                "location": {
                    "latitude": 46.091557180723086, 
                    "longitude": 13.42147611351582
                }, 
                "patient_name": "Alexander Weaver"
            }, 
            "act_1_16": {
                "duration": 30, 
                "time_window": {
                    "start": "2014-03-06T08:00:00", 
                    "finish": "2014-03-06T11:20:00"
                }, 
                "required_operators": 1, 
                "location": {
                    "latitude": 46.00552244818231, 
                    "longitude": 13.141494016078477
                }, 
                "patient_name": "Robert Nelke"
            }, 
            "act_1_17": {
                "duration": 60, 
                "time_window": {
                    "start": "2014-03-06T08:00:00", 
                    "finish": "2014-03-06T13:00:00"
                }, 
                "required_operators": 1, 
                "location": {
                    "latitude": 46.120121770043774, 
                    "longitude": 13.258655514678779
                }, 
                "patient_name": "George Banks"
            }, 
            "act_1_10": {
                "duration": 60, 
                "time_window": {
                    "start": "2014-03-06T08:00:00", 
                    "finish": "2014-03-06T13:00:00"
                }, 
                "required_operators": 1, 
                "location": {
                    "latitude": 46.11438986056365, 
                    "longitude": 13.177119358723136
                }, 
                "patient_name": "Christopher Duncan"
            }, 
            "act_1_11": {
                "duration": 30, 
                "time_window": {
                    "start": "2014-03-06T13:00:00", 
                    "finish": "2014-03-06T18:00:00"
                }, 
                "required_operators": 1, 
                "location": {
                    "latitude": 46.04849717010933, 
                    "longitude": 12.991761589813123
                }, 
                "patient_name": "John Jones"
            }, 
            "act_1_12": {
                "duration": 60, 
                "time_window": {
                    "start": "2014-03-06T08:00:00", 
                    "finish": "2014-03-06T18:00:00"
                }, 
                "required_operators": 1, 
                "location": {
                    "latitude": 45.943685237976545, 
                    "longitude": 13.270546370397021
                }, 
                "patient_name": "Lori Porter"
            }, 
            "act_1_13": {
                "duration": 30, 
                "time_window": {
                    "start": "2014-03-06T08:00:00", 
                    "finish": "2014-03-06T18:00:00"
                }, 
                "required_operators": 1, 
                "location": {
                    "latitude": 46.025161952816376, 
                    "longitude": 13.22978795055694
                }, 
                "patient_name": "Timothy Adams"
            }, 
            "act_1_18": {
                "duration": 60, 
                "time_window": {
                    "start": "2014-03-06T08:00:00", 
                    "finish": "2014-03-06T11:20:00"
                }, 
                "required_operators": 2, 
                "location": {
                    "latitude": 45.98091559709917, 
                    "longitude": 13.314793434429957
                }, 
                "patient_name": "Larry Howard"
            }, 
            "act_1_19": {
                "duration": 30, 
                "time_window": {
                    "start": "2014-03-06T11:20:00", 
                    "finish": "2014-03-06T14:40:00"
                }, 
                "required_operators": 1, 
                "location": {
                    "latitude": 46.126174288294166, 
                    "longitude": 12.865274960208756
                }, 
                "patient_name": "Marian Daniels"
            }, 
            "act_1_2": {
                "duration": 60, 
                "time_window": {
                    "start": "2014-03-06T08:00:00", 
                    "finish": "2014-03-06T11:20:00"
                }, 
                "required_operators": 1, 
                "location": {
                    "latitude": 46.1096380076777, 
                    "longitude": 13.374222927693927
                }, 
                "patient_name": "Tania Nielsen"
            }, 
            "act_1_3": {
                "duration": 60, 
                "time_window": {
                    "start": "2014-03-06T08:00:00", 
                    "finish": "2014-03-06T13:00:00"
                }, 
                "required_operators": 1, 
                "location": {
                    "latitude": 46.13586815317567, 
                    "longitude": 13.063072411277815
                }, 
                "patient_name": "Jennifer Craft"
            }, 
            "act_1_0": {
                "duration": 60, 
                "time_window": {
                    "start": "2014-03-06T08:00:00", 
                    "finish": "2014-03-06T13:00:00"
                }, 
                "required_operators": 1, 
                "location": {
                    "latitude": 46.200458127269144, 
                    "longitude": 12.996862905931298
                }, 
                "patient_name": "Leland Williams"
            }, 
            "act_1_1": {
                "duration": 60, 
                "time_window": {
                    "start": "2014-03-06T14:40:00", 
                    "finish": "2014-03-06T18:00:00"
                }, 
                "required_operators": 2, 
                "location": {
                    "latitude": 46.09586031116988, 
                    "longitude": 13.208178225603966
                }, 
                "patient_name": "Tristan Howe"
            }, 
            "act_1_6": {
                "duration": 60, 
                "time_window": {
                    "start": "2014-03-06T08:00:00", 
                    "finish": "2014-03-06T18:00:00"
                }, 
                "required_operators": 1, 
                "location": {
                    "latitude": 46.10912263561014, 
                    "longitude": 12.987480954680834
                }, 
                "patient_name": "Lucille Barnes"
            }, 
            "act_1_7": {
                "duration": 60, 
                "time_window": {
                    "start": "2014-03-06T08:00:00", 
                    "finish": "2014-03-06T13:00:00"
                }, 
                "required_operators": 1, 
                "location": {
                    "latitude": 46.13317819979461, 
                    "longitude": 13.428343153730042
                }, 
                "patient_name": "Charles Benson"
            }, 
            "act_1_4": {
                "duration": 30, 
                "time_window": {
                    "start": "2014-03-06T13:00:00", 
                    "finish": "2014-03-06T18:00:00"
                }, 
                "required_operators": 1, 
                "location": {
                    "latitude": 46.1787964581304, 
                    "longitude": 13.433787845192999
                }, 
                "patient_name": "James Drummond"
            }, 
            "act_1_5": {
                "duration": 30, 
                "time_window": {
                    "start": "2014-03-06T08:00:00", 
                    "finish": "2014-03-06T11:20:00"
                }, 
                "required_operators": 2, 
                "location": {
                    "latitude": 46.18862321045775, 
                    "longitude": 13.097459009839318
                }, 
                "patient_name": "Booker Pein"
            }, 
            "act_1_8": {
                "duration": 60, 
                "time_window": {
                    "start": "2014-03-06T08:00:00", 
                    "finish": "2014-03-06T18:00:00"
                }, 
                "required_operators": 1, 
                "location": {
                    "latitude": 46.08323806815594, 
                    "longitude": 12.96413845745762
                }, 
                "patient_name": "Johnie Salgado"
            }, 
            "act_1_9": {
                "duration": 30, 
                "time_window": {
                    "start": "2014-03-06T08:00:00", 
                    "finish": "2014-03-06T13:00:00"
                }, 
                "required_operators": 1, 
                "location": {
                    "latitude": 46.13569771073279, 
                    "longitude": 12.894084467747797
                }, 
                "patient_name": "Evan Mcwilliams"
            }, 
            "act_1_29": {
                "duration": 30, 
                "time_window": {
                    "start": "2014-03-06T11:20:00", 
                    "finish": "2014-03-06T14:40:00"
                }, 
                "required_operators": 1, 
                "location": {
                    "latitude": 45.99673854899373, 
                    "longitude": 13.160272716256317
                }, 
                "patient_name": "Marilyn Barry"
            }, 
            "act_1_28": {
                "duration": 60, 
                "time_window": {
                    "start": "2014-03-06T08:00:00", 
                    "finish": "2014-03-06T18:00:00"
                }, 
                "required_operators": 1, 
                "location": {
                    "latitude": 46.12268218155817, 
                    "longitude": 13.059002967411415
                }, 
                "patient_name": "Vince Mork"
            }, 
            "act_1_25": {
                "duration": 60, 
                "time_window": {
                    "start": "2014-03-06T08:00:00", 
                    "finish": "2014-03-06T13:00:00"
                }, 
                "required_operators": 1, 
                "location": {
                    "latitude": 46.25363081973099, 
                    "longitude": 13.476216489315478
                }, 
                "patient_name": "Mary Dejesus"
            }, 
            "act_1_24": {
                "duration": 60, 
                "time_window": {
                    "start": "2014-03-06T11:20:00", 
                    "finish": "2014-03-06T14:40:00"
                }, 
                "required_operators": 1, 
                "location": {
                    "latitude": 46.116300259089634, 
                    "longitude": 12.947344674424157
                }, 
                "patient_name": "Richard Stringer"
            }, 
            "act_1_27": {
                "duration": 30, 
                "time_window": {
                    "start": "2014-03-06T08:00:00", 
                    "finish": "2014-03-06T18:00:00"
                }, 
                "required_operators": 2, 
                "location": {
                    "latitude": 46.13701479162133, 
                    "longitude": 13.280192012572202
                }, 
                "patient_name": "Evelyn Price"
            }, 
            "act_1_26": {
                "duration": 30, 
                "time_window": {
                    "start": "2014-03-06T13:00:00", 
                    "finish": "2014-03-06T18:00:00"
                }, 
                "required_operators": 1, 
                "location": {
                    "latitude": 46.242633529486234, 
                    "longitude": 13.153588095139233
                }, 
                "patient_name": "Deborah Haymaker"
            }, 
            "act_1_21": {
                "duration": 60, 
                "time_window": {
                    "start": "2014-03-06T08:00:00", 
                    "finish": "2014-03-06T13:00:00"
                }, 
                "required_operators": 1, 
                "location": {
                    "latitude": 46.18839261370572, 
                    "longitude": 13.242295674666254
                }, 
                "patient_name": "David Baker"
            }, 
            "act_1_20": {
                "duration": 60, 
                "time_window": {
                    "start": "2014-03-06T08:00:00", 
                    "finish": "2014-03-06T11:20:00"
                }, 
                "required_operators": 1, 
                "location": {
                    "latitude": 46.07060206203374, 
                    "longitude": 13.293379785698647
                }, 
                "patient_name": "Anna Baldon"
            }, 
            "act_1_23": {
                "duration": 30, 
                "time_window": {
                    "start": "2014-03-06T08:00:00", 
                    "finish": "2014-03-06T18:00:00"
                }, 
                "required_operators": 2, 
                "location": {
                    "latitude": 46.23635599459509, 
                    "longitude": 13.045480998507506
                }, 
                "patient_name": "Lillian Dwyer"
            }, 
            "act_1_22": {
                "duration": 60, 
                "time_window": {
                    "start": "2014-03-06T08:00:00", 
                    "finish": "2014-03-06T13:00:00"
                }, 
                "required_operators": 1, 
                "location": {
                    "latitude": 46.11403899578696, 
                    "longitude": 12.913545496128643
                }, 
                "patient_name": "Mary Dyer"
            }
        }, 
        {
            "act_2_19": {
                "duration": 30, 
                "time_window": {
                    "start": "2014-03-07T08:00:00", 
                    "finish": "2014-03-07T18:00:00"
                }, 
                "required_operators": 1, 
                "location": {
                    "latitude": 46.25768380306602, 
                    "longitude": 13.064096994551363
                }, 
                "patient_name": "Nathan Smith"
            }, 
            "act_2_18": {
                "duration": 60, 
                "time_window": {
                    "start": "2014-03-07T08:00:00", 
                    "finish": "2014-03-07T11:20:00"
                }, 
                "required_operators": 2, 
                "location": {
                    "latitude": 46.07466924132441, 
                    "longitude": 13.33384996887187
                }, 
                "patient_name": "Vickey Johnson"
            }, 
            "act_2_11": {
                "duration": 30, 
                "time_window": {
                    "start": "2014-03-07T08:00:00", 
                    "finish": "2014-03-07T11:20:00"
                }, 
                "required_operators": 1, 
                "location": {
                    "latitude": 46.171104024947425, 
                    "longitude": 13.145192649901745
                }, 
                "patient_name": "Elaine Anderson"
            }, 
            "act_2_10": {
                "duration": 30, 
                "time_window": {
                    "start": "2014-03-07T13:00:00", 
                    "finish": "2014-03-07T18:00:00"
                }, 
                "required_operators": 1, 
                "location": {
                    "latitude": 46.087593784895425, 
                    "longitude": 13.041290009322719
                }, 
                "patient_name": "Lisa Briggs"
            }, 
            "act_2_13": {
                "duration": 30, 
                "time_window": {
                    "start": "2014-03-07T08:00:00", 
                    "finish": "2014-03-07T13:00:00"
                }, 
                "required_operators": 1, 
                "location": {
                    "latitude": 45.9973938886087, 
                    "longitude": 12.906073076779018
                }, 
                "patient_name": "Vesta Andrews"
            }, 
            "act_2_12": {
                "duration": 60, 
                "time_window": {
                    "start": "2014-03-07T08:00:00", 
                    "finish": "2014-03-07T13:00:00"
                }, 
                "required_operators": 2, 
                "location": {
                    "latitude": 46.00741284130558, 
                    "longitude": 13.2414434172641
                }, 
                "patient_name": "Douglas Bass"
            }, 
            "act_2_15": {
                "duration": 60, 
                "time_window": {
                    "start": "2014-03-07T08:00:00", 
                    "finish": "2014-03-07T11:20:00"
                }, 
                "required_operators": 3, 
                "location": {
                    "latitude": 46.237772482016446, 
                    "longitude": 13.165376577064523
                }, 
                "patient_name": "Paul Thigpen"
            }, 
            "act_2_14": {
                "duration": 60, 
                "time_window": {
                    "start": "2014-03-07T13:00:00", 
                    "finish": "2014-03-07T18:00:00"
                }, 
                "required_operators": 1, 
                "location": {
                    "latitude": 46.044521390483965, 
                    "longitude": 13.321042550113564
                }, 
                "patient_name": "Rosemary Wheeler"
            }, 
            "act_2_17": {
                "duration": 30, 
                "time_window": {
                    "start": "2014-03-07T08:00:00", 
                    "finish": "2014-03-07T18:00:00"
                }, 
                "required_operators": 2, 
                "location": {
                    "latitude": 46.163638858024186, 
                    "longitude": 12.949122739090473
                }, 
                "patient_name": "Anthony Turcotte"
            }, 
            "act_2_16": {
                "duration": 60, 
                "time_window": {
                    "start": "2014-03-07T08:00:00", 
                    "finish": "2014-03-07T11:20:00"
                }, 
                "required_operators": 1, 
                "location": {
                    "latitude": 46.073891163690845, 
                    "longitude": 12.896834796034623
                }, 
                "patient_name": "Stephanie Perry"
            }, 
            "act_2_20": {
                "duration": 30, 
                "time_window": {
                    "start": "2014-03-07T08:00:00", 
                    "finish": "2014-03-07T13:00:00"
                }, 
                "required_operators": 2, 
                "location": {
                    "latitude": 46.1593950627088, 
                    "longitude": 12.983765601991692
                }, 
                "patient_name": "Alice Green"
            }, 
            "act_2_21": {
                "duration": 60, 
                "time_window": {
                    "start": "2014-03-07T08:00:00", 
                    "finish": "2014-03-07T18:00:00"
                }, 
                "required_operators": 3, 
                "location": {
                    "latitude": 46.139418937475995, 
                    "longitude": 13.416955220319519
                }, 
                "patient_name": "Marion Milliken"
            }, 
            "act_2_22": {
                "duration": 60, 
                "time_window": {
                    "start": "2014-03-07T13:00:00", 
                    "finish": "2014-03-07T18:00:00"
                }, 
                "required_operators": 1, 
                "location": {
                    "latitude": 45.93725770568374, 
                    "longitude": 13.015455978598894
                }, 
                "patient_name": "Paul Denson"
            }, 
            "act_2_23": {
                "duration": 60, 
                "time_window": {
                    "start": "2014-03-07T08:00:00", 
                    "finish": "2014-03-07T11:20:00"
                }, 
                "required_operators": 1, 
                "location": {
                    "latitude": 46.1219123567096, 
                    "longitude": 13.44714208353683
                }, 
                "patient_name": "William Schofield"
            }, 
            "act_2_24": {
                "duration": 30, 
                "time_window": {
                    "start": "2014-03-07T08:00:00", 
                    "finish": "2014-03-07T18:00:00"
                }, 
                "required_operators": 1, 
                "location": {
                    "latitude": 46.049104715981144, 
                    "longitude": 13.156228686352373
                }, 
                "patient_name": "Linda Price"
            }, 
            "act_2_25": {
                "duration": 60, 
                "time_window": {
                    "start": "2014-03-07T08:00:00", 
                    "finish": "2014-03-07T13:00:00"
                }, 
                "required_operators": 2, 
                "location": {
                    "latitude": 46.079129989769456, 
                    "longitude": 13.311803852530021
                }, 
                "patient_name": "Guillermo Stubblefield"
            }, 
            "act_2_26": {
                "duration": 30, 
                "time_window": {
                    "start": "2014-03-07T11:20:00", 
                    "finish": "2014-03-07T14:40:00"
                }, 
                "required_operators": 1, 
                "location": {
                    "latitude": 46.17315637651208, 
                    "longitude": 13.42019119294001
                }, 
                "patient_name": "Jeannette Loose"
            }, 
            "act_2_27": {
                "duration": 60, 
                "time_window": {
                    "start": "2014-03-07T08:00:00", 
                    "finish": "2014-03-07T11:20:00"
                }, 
                "required_operators": 1, 
                "location": {
                    "latitude": 46.002594273777895, 
                    "longitude": 13.081861603942253
                }, 
                "patient_name": "Henry Lowers"
            }, 
            "act_2_28": {
                "duration": 30, 
                "time_window": {
                    "start": "2014-03-07T13:00:00", 
                    "finish": "2014-03-07T18:00:00"
                }, 
                "required_operators": 1, 
                "location": {
                    "latitude": 46.19123299110463, 
                    "longitude": 13.02135079247789
                }, 
                "patient_name": "Dewitt Benavides"
            }, 
            "act_2_29": {
                "duration": 60, 
                "time_window": {
                    "start": "2014-03-07T08:00:00", 
                    "finish": "2014-03-07T11:20:00"
                }, 
                "required_operators": 1, 
                "location": {
                    "latitude": 46.01430554214148, 
                    "longitude": 13.276479874227347
                }, 
                "patient_name": "Wanda Kendall"
            }, 
            "act_2_9": {
                "duration": 60, 
                "time_window": {
                    "start": "2014-03-07T11:20:00", 
                    "finish": "2014-03-07T14:40:00"
                }, 
                "required_operators": 1, 
                "location": {
                    "latitude": 46.06733455039305, 
                    "longitude": 13.362861438202318
                }, 
                "patient_name": "Linda Boston"
            }, 
            "act_2_8": {
                "duration": 60, 
                "time_window": {
                    "start": "2014-03-07T08:00:00", 
                    "finish": "2014-03-07T18:00:00"
                }, 
                "required_operators": 1, 
                "location": {
                    "latitude": 46.07342390270519, 
                    "longitude": 13.371978652404124
                }, 
                "patient_name": "Theodore Child"
            }, 
            "act_2_5": {
                "duration": 60, 
                "time_window": {
                    "start": "2014-03-07T08:00:00", 
                    "finish": "2014-03-07T18:00:00"
                }, 
                "required_operators": 2, 
                "location": {
                    "latitude": 46.039929135061925, 
                    "longitude": 13.107940103704737
                }, 
                "patient_name": "Amy Marlowe"
            }, 
            "act_2_4": {
                "duration": 60, 
                "time_window": {
                    "start": "2014-03-07T08:00:00", 
                    "finish": "2014-03-07T18:00:00"
                }, 
                "required_operators": 1, 
                "location": {
                    "latitude": 46.1419204038023, 
                    "longitude": 13.409756638593992
                }, 
                "patient_name": "Daniel Jackson"
            }, 
            "act_2_7": {
                "duration": 30, 
                "time_window": {
                    "start": "2014-03-07T08:00:00", 
                    "finish": "2014-03-07T13:00:00"
                }, 
                "required_operators": 1, 
                "location": {
                    "latitude": 46.228894365434016, 
                    "longitude": 12.982480248581513
                }, 
                "patient_name": "Raymond Wissmann"
            }, 
            "act_2_6": {
                "duration": 60, 
                "time_window": {
                    "start": "2014-03-07T13:00:00", 
                    "finish": "2014-03-07T18:00:00"
                }, 
                "required_operators": 2, 
                "location": {
                    "latitude": 46.20699448389436, 
                    "longitude": 13.142982163181701
                }, 
                "patient_name": "Emma Booker"
            }, 
            "act_2_1": {
                "duration": 30, 
                "time_window": {
                    "start": "2014-03-07T11:20:00", 
                    "finish": "2014-03-07T14:40:00"
                }, 
                "required_operators": 2, 
                "location": {
                    "latitude": 46.19496921845051, 
                    "longitude": 12.88074419895672
                }, 
                "patient_name": "Nicole Muniz"
            }, 
            "act_2_0": {
                "duration": 30, 
                "time_window": {
                    "start": "2014-03-07T11:20:00", 
                    "finish": "2014-03-07T14:40:00"
                }, 
                "required_operators": 1, 
                "location": {
                    "latitude": 45.969456475551674, 
                    "longitude": 13.117392571946647
                }, 
                "patient_name": "Carol Morris"
            }, 
            "act_2_3": {
                "duration": 30, 
                "time_window": {
                    "start": "2014-03-07T08:00:00", 
                    "finish": "2014-03-07T13:00:00"
                }, 
                "required_operators": 1, 
                "location": {
                    "latitude": 45.95651571487062, 
                    "longitude": 13.257669679132805
                }, 
                "patient_name": "Charles Simon"
            }, 
            "act_2_2": {
                "duration": 60, 
                "time_window": {
                    "start": "2014-03-07T14:40:00", 
                    "finish": "2014-03-07T18:00:00"
                }, 
                "required_operators": 1, 
                "location": {
                    "latitude": 46.15729557123616, 
                    "longitude": 13.185303306987125
                }, 
                "patient_name": "Earl Shummon"
            }
        }
    ], 
    "operators": {
        "op_8": {
            "time_windows": [
                {
                    "start": "2014-03-05T08:00:00", 
                    "finish": "2014-03-05T18:00:00", 
                    "regular_worktime": "8:00:00"
                }, 
                {
                    "start": "2014-03-06T08:00:00", 
                    "finish": "2014-03-06T18:00:00", 
                    "regular_worktime": "8:00:00"
                }, 
                {
                    "start": "2014-03-07T08:00:00", 
                    "finish": "2014-03-07T18:00:00", 
                    "regular_worktime": "8:00:00"
                }
            ], 
            "incompatible_activities": [
                "act_2_9", 
                "act_1_7", 
                "act_2_5", 
                "act_1_20", 
                "act_1_4", 
                "act_0_4"
            ], 
            "maximum_working_hours": "16:00:00", 
            "name": "Gracie Holtzclaw", 
            "minimum_working_hours": "16:00:00"
        }, 
        "op_9": {
            "time_windows": [
                {
                    "start": "2014-03-05T08:00:00", 
                    "finish": "2014-03-05T13:00:00", 
                    "regular_worktime": "4:00:00"
                }, 
                {
                    "start": "2014-03-06T08:00:00", 
                    "finish": "2014-03-06T13:00:00", 
                    "regular_worktime": "4:00:00"
                }, 
                {
                    "start": "2014-03-07T13:00:00", 
                    "finish": "2014-03-07T18:00:00", 
                    "regular_worktime": "4:00:00"
                }
            ], 
            "incompatible_activities": [
                "act_1_19", 
                "act_1_25", 
                "act_2_12", 
                "act_1_29", 
                "act_2_1", 
                "act_0_20"
            ], 
            "maximum_working_hours": "08:00:00", 
            "name": "Nancy Terry", 
            "minimum_working_hours": "08:00:00"
        }, 
        "op_4": {
            "time_windows": [
                {
                    "start": "2014-03-05T08:00:00", 
                    "finish": "2014-03-05T18:00:00", 
                    "regular_worktime": "8:00:00"
                }, 
                {
                    "start": "2014-03-06T08:00:00", 
                    "finish": "2014-03-06T13:00:00", 
                    "regular_worktime": "4:00:00"
                }, 
                {
                    "start": "2014-03-07T08:00:00", 
                    "finish": "2014-03-07T13:00:00", 
                    "regular_worktime": "4:00:00"
                }
            ], 
            "incompatible_activities": [
                "act_2_6", 
                "act_2_24", 
                "act_0_27", 
                "act_1_6", 
                "act_2_26", 
                "act_0_12"
            ], 
            "maximum_working_hours": "12:00:00", 
            "name": "Dan Spooner", 
            "minimum_working_hours": "08:00:00"
        }, 
        "op_5": {
            "time_windows": [
                {
                    "start": "2014-03-05T08:00:00", 
                    "finish": "2014-03-05T18:00:00", 
                    "regular_worktime": "8:00:00"
                }, 
                {
                    "start": "2014-03-06T08:00:00", 
                    "finish": "2014-03-06T18:00:00", 
                    "regular_worktime": "8:00:00"
                }, 
                {}
            ], 
            "incompatible_activities": [
                "act_0_25", 
                "act_2_26", 
                "act_2_8", 
                "act_0_28", 
                "act_1_9", 
                "act_2_28"
            ], 
            "maximum_working_hours": "16:00:00", 
            "name": "Belva Orts", 
            "minimum_working_hours": "16:00:00"
        }, 
        "op_6": {
            "time_windows": [
                {
                    "start": "2014-03-05T08:00:00", 
                    "finish": "2014-03-05T18:00:00", 
                    "regular_worktime": "8:00:00"
                }, 
                {
                    "start": "2014-03-06T08:00:00", 
                    "finish": "2014-03-06T18:00:00", 
                    "regular_worktime": "8:00:00"
                }, 
                {
                    "start": "2014-03-07T13:00:00", 
                    "finish": "2014-03-07T18:00:00", 
                    "regular_worktime": "4:00:00"
                }
            ], 
            "incompatible_activities": [
                "act_2_29", 
                "act_1_22", 
                "act_0_26", 
                "act_0_21", 
                "act_1_23", 
                "act_2_1"
            ], 
            "maximum_working_hours": "16:00:00", 
            "name": "David Gentry", 
            "minimum_working_hours": "12:00:00"
        }, 
        "op_7": {
            "time_windows": [
                {
                    "start": "2014-03-05T08:00:00", 
                    "finish": "2014-03-05T18:00:00", 
                    "regular_worktime": "8:00:00"
                }, 
                {
                    "start": "2014-03-06T08:00:00", 
                    "finish": "2014-03-06T18:00:00", 
                    "regular_worktime": "8:00:00"
                }, 
                {
                    "start": "2014-03-07T08:00:00", 
                    "finish": "2014-03-07T18:00:00", 
                    "regular_worktime": "8:00:00"
                }
            ], 
            "incompatible_activities": [
                "act_2_19", 
                "act_0_13", 
                "act_1_18", 
                "act_0_1", 
                "act_0_6", 
                "act_1_7"
            ], 
            "maximum_working_hours": "16:00:00", 
            "name": "Nicholas Hughes", 
            "minimum_working_hours": "16:00:00"
        }, 
        "op_0": {
            "time_windows": [
                {
                    "start": "2014-03-05T08:00:00", 
                    "finish": "2014-03-05T13:00:00", 
                    "regular_worktime": "4:00:00"
                }, 
                {
                    "start": "2014-03-06T08:00:00", 
                    "finish": "2014-03-06T18:00:00", 
                    "regular_worktime": "8:00:00"
                }, 
                {
                    "start": "2014-03-07T08:00:00", 
                    "finish": "2014-03-07T18:00:00", 
                    "regular_worktime": "8:00:00"
                }
            ], 
            "incompatible_activities": [
                "act_1_0", 
                "act_1_29", 
                "act_2_24", 
                "act_1_5", 
                "act_0_22", 
                "act_2_26"
            ], 
            "maximum_working_hours": "16:00:00", 
            "name": "Anita Richards", 
            "minimum_working_hours": "12:00:00"
        }, 
        "op_1": {
            "time_windows": [
                {
                    "start": "2014-03-05T08:00:00", 
                    "finish": "2014-03-05T18:00:00", 
                    "regular_worktime": "8:00:00"
                }, 
                {
                    "start": "2014-03-06T08:00:00", 
                    "finish": "2014-03-06T18:00:00", 
                    "regular_worktime": "8:00:00"
                }, 
                {
                    "start": "2014-03-07T08:00:00", 
                    "finish": "2014-03-07T18:00:00", 
                    "regular_worktime": "8:00:00"
                }
            ], 
            "incompatible_activities": [
                "act_0_23", 
                "act_2_20", 
                "act_1_1", 
                "act_1_21", 
                "act_1_28", 
                "act_0_26"
            ], 
            "maximum_working_hours": "16:00:00", 
            "name": "John Begley", 
            "minimum_working_hours": "16:00:00"
        }, 
        "op_2": {
            "time_windows": [
                {
                    "start": "2014-03-05T08:00:00", 
                    "finish": "2014-03-05T18:00:00", 
                    "regular_worktime": "8:00:00"
                }, 
                {
                    "start": "2014-03-06T08:00:00", 
                    "finish": "2014-03-06T18:00:00", 
                    "regular_worktime": "8:00:00"
                }, 
                {
                    "start": "2014-03-07T08:00:00", 
                    "finish": "2014-03-07T18:00:00", 
                    "regular_worktime": "8:00:00"
                }
            ], 
            "incompatible_activities": [
                "act_1_25", 
                "act_1_7", 
                "act_2_6", 
                "act_2_20", 
                "act_0_20", 
                "act_2_0"
            ], 
            "maximum_working_hours": "16:00:00", 
            "name": "Melissa Morris", 
            "minimum_working_hours": "16:00:00"
        }, 
        "op_3": {
            "time_windows": [
                {
                    "start": "2014-03-05T08:00:00", 
                    "finish": "2014-03-05T18:00:00", 
                    "regular_worktime": "8:00:00"
                }, 
                {
                    "start": "2014-03-06T08:00:00", 
                    "finish": "2014-03-06T18:00:00", 
                    "regular_worktime": "8:00:00"
                }, 
                {
                    "start": "2014-03-07T08:00:00", 
                    "finish": "2014-03-07T13:00:00", 
                    "regular_worktime": "4:00:00"
                }
            ], 
            "incompatible_activities": [
                "act_1_6", 
                "act_0_3", 
                "act_1_29", 
                "act_2_21", 
                "act_2_9", 
                "act_1_1"
            ], 
            "maximum_working_hours": "16:00:00", 
            "name": "Cinda Chisum", 
            "minimum_working_hours": "12:00:00"
        }, 
        "op_10": {
            "time_windows": [
                {
                    "start": "2014-03-05T08:00:00", 
                    "finish": "2014-03-05T18:00:00", 
                    "regular_worktime": "8:00:00"
                }, 
                {
                    "start": "2014-03-06T08:00:00", 
                    "finish": "2014-03-06T18:00:00", 
                    "regular_worktime": "8:00:00"
                }, 
                {
                    "start": "2014-03-07T08:00:00", 
                    "finish": "2014-03-07T18:00:00", 
                    "regular_worktime": "8:00:00"
                }
            ], 
            "incompatible_activities": [
                "act_2_29", 
                "act_1_29", 
                "act_2_15", 
                "act_2_5", 
                "act_2_4", 
                "act_1_13"
            ], 
            "maximum_working_hours": "16:00:00", 
            "name": "Rosa Neal", 
            "minimum_working_hours": "16:00:00"
        }
    }, 
    "meta": {
        "time_window": {
            "start": "08:00:00", 
            "finish": "18:00:00"
        }, 
        "horizon": 3, 
        "granularity": 10, 
        "geographic_area": {
            "upper_left": [
                46.259645, 
                12.860656
            ], 
            "lower_right": [
                45.936826, 
                13.485503
            ]
        }, 
        "max_consecutive_days": 2, 
        "finish_date": "2014-03-08T00:00:00", 
        "max_overtime_rate": 1.1, 
        "start_date": "2014-03-05T00:00:00"
    }
}