{
    "activities": [
        {
            "act_0_39": {
                "duration": 30, 
                "time_window": {
                    "start": "2014-03-04T08:00:00", 
                    "finish": "2014-03-04T13:00:00"
                }, 
                "required_operators": 1, 
                "location": {
                    "latitude": 46.24802303821135, 
                    "longitude": 12.938394545574265
                }, 
                "patient_name": "Sharon Jones"
            }, 
            "act_0_35": {
                "duration": 30, 
                "time_window": {
                    "start": "2014-03-04T11:20:00", 
                    "finish": "2014-03-04T14:40:00"
                }, 
                "required_operators": 1, 
                "location": {
                    "latitude": 46.13705880479809, 
                    "longitude": 13.145315170305128
                }, 
                "patient_name": "Ronald Acquaviva"
            }, 
            "act_0_34": {
                "duration": 60, 
                "time_window": {
                    "start": "2014-03-04T08:00:00", 
                    "finish": "2014-03-04T11:20:00"
                }, 
                "required_operators": 1, 
                "location": {
                    "latitude": 46.01689177447231, 
                    "longitude": 12.993734589484417
                }, 
                "patient_name": "Jeffrey Payne"
            }, 
            "act_0_37": {
                "duration": 30, 
                "time_window": {
                    "start": "2014-03-04T08:00:00", 
                    "finish": "2014-03-04T13:00:00"
                }, 
                "required_operators": 1, 
                "location": {
                    "latitude": 46.036013942309275, 
                    "longitude": 13.010095975078315
                }, 
                "patient_name": "Susie Murray"
            }, 
            "act_0_36": {
                "duration": 30, 
                "time_window": {
                    "start": "2014-03-04T11:20:00", 
                    "finish": "2014-03-04T14:40:00"
                }, 
                "required_operators": 1, 
                "location": {
                    "latitude": 46.05100941698569, 
                    "longitude": 12.94269403751258
                }, 
                "patient_name": "Ray Charest"
            }, 
            "act_0_31": {
                "duration": 60, 
                "time_window": {
                    "start": "2014-03-04T08:00:00", 
                    "finish": "2014-03-04T18:00:00"
                }, 
                "required_operators": 1, 
                "location": {
                    "latitude": 46.04856258086754, 
                    "longitude": 13.344202552425962
                }, 
                "patient_name": "Edith Phillips"
            }, 
            "act_0_30": {
                "duration": 60, 
                "time_window": {
                    "start": "2014-03-04T08:00:00", 
                    "finish": "2014-03-04T11:20:00"
                }, 
                "required_operators": 1, 
                "location": {
                    "latitude": 46.16011777409014, 
                    "longitude": 13.400167344645643
                }, 
                "patient_name": "Edward Lindell"
            }, 
            "act_0_19": {
                "duration": 60, 
                "time_window": {
                    "start": "2014-03-04T08:00:00", 
                    "finish": "2014-03-04T13:00:00"
                }, 
                "required_operators": 2, 
                "location": {
                    "latitude": 45.96714375749678, 
                    "longitude": 13.243223269565663
                }, 
                "patient_name": "Deborah Hart"
            }, 
            "act_0_18": {
                "duration": 30, 
                "time_window": {
                    "start": "2014-03-04T08:00:00", 
                    "finish": "2014-03-04T18:00:00"
                }, 
                "required_operators": 1, 
                "location": {
                    "latitude": 45.99289311997774, 
                    "longitude": 13.152692626934682
                }, 
                "patient_name": "Marjorie Bolton"
            }, 
            "act_0_17": {
                "duration": 60, 
                "time_window": {
                    "start": "2014-03-04T08:00:00", 
                    "finish": "2014-03-04T13:00:00"
                }, 
                "required_operators": 1, 
                "location": {
                    "latitude": 46.114576537999035, 
                    "longitude": 13.139061427873575
                }, 
                "patient_name": "Josephine Jenkins"
            }, 
            "act_0_16": {
                "duration": 60, 
                "time_window": {
                    "start": "2014-03-04T11:20:00", 
                    "finish": "2014-03-04T14:40:00"
                }, 
                "required_operators": 1, 
                "location": {
                    "latitude": 46.14487777020237, 
                    "longitude": 13.230258605602934
                }, 
                "patient_name": "Annette Stokes"
            }, 
            "act_0_15": {
                "duration": 60, 
                "time_window": {
                    "start": "2014-03-04T08:00:00", 
                    "finish": "2014-03-04T13:00:00"
                }, 
                "required_operators": 1, 
                "location": {
                    "latitude": 46.07286703342156, 
                    "longitude": 13.441611941231256
                }, 
                "patient_name": "Micheal Bergman"
            }, 
            "act_0_14": {
                "duration": 30, 
                "time_window": {
                    "start": "2014-03-04T13:00:00", 
                    "finish": "2014-03-04T18:00:00"
                }, 
                "required_operators": 1, 
                "location": {
                    "latitude": 46.19869695096832, 
                    "longitude": 13.088157875744796
                }, 
                "patient_name": "Wanda Dietlin"
            }, 
            "act_0_13": {
                "duration": 30, 
                "time_window": {
                    "start": "2014-03-04T13:00:00", 
                    "finish": "2014-03-04T18:00:00"
                }, 
                "required_operators": 1, 
                "location": {
                    "latitude": 46.10259921939605, 
                    "longitude": 13.206811150036552
                }, 
                "patient_name": "William Nguyen"
            }, 
            "act_0_12": {
                "duration": 30, 
                "time_window": {
                    "start": "2014-03-04T08:00:00", 
                    "finish": "2014-03-04T18:00:00"
                }, 
                "required_operators": 1, 
                "location": {
                    "latitude": 46.18161825902245, 
                    "longitude": 13.193251082094044
                }, 
                "patient_name": "Ella Mcclain"
            }, 
            "act_0_11": {
                "duration": 30, 
                "time_window": {
                    "start": "2014-03-04T13:00:00", 
                    "finish": "2014-03-04T18:00:00"
                }, 
                "required_operators": 1, 
                "location": {
                    "latitude": 46.229689908940685, 
                    "longitude": 13.34239164521283
                }, 
                "patient_name": "Meredith Aynes"
            }, 
            "act_0_10": {
                "duration": 30, 
                "time_window": {
                    "start": "2014-03-04T08:00:00", 
                    "finish": "2014-03-04T18:00:00"
                }, 
                "required_operators": 3, 
                "location": {
                    "latitude": 46.19108156446748, 
                    "longitude": 13.386792350829078
                }, 
                "patient_name": "Jill Conley"
            }, 
            "act_0_33": {
                "duration": 30, 
                "time_window": {
                    "start": "2014-03-04T08:00:00", 
                    "finish": "2014-03-04T11:20:00"
                }, 
                "required_operators": 1, 
                "location": {
                    "latitude": 46.240248622023664, 
                    "longitude": 13.282362549542833
                }, 
                "patient_name": "Rodolfo Gonzales"
            }, 
            "act_0_38": {
                "duration": 30, 
                "time_window": {
                    "start": "2014-03-04T08:00:00", 
                    "finish": "2014-03-04T13:00:00"
                }, 
                "required_operators": 1, 
                "location": {
                    "latitude": 45.94401546185278, 
                    "longitude": 13.161505785252245
                }, 
                "patient_name": "Carroll Champine"
            }, 
            "act_0_32": {
                "duration": 60, 
                "time_window": {
                    "start": "2014-03-04T13:00:00", 
                    "finish": "2014-03-04T18:00:00"
                }, 
                "required_operators": 1, 
                "location": {
                    "latitude": 46.172406763526006, 
                    "longitude": 12.909861212558756
                }, 
                "patient_name": "Angela Sullivan"
            }, 
            "act_0_9": {
                "duration": 30, 
                "time_window": {
                    "start": "2014-03-04T08:00:00", 
                    "finish": "2014-03-04T18:00:00"
                }, 
                "required_operators": 1, 
                "location": {
                    "latitude": 46.129544827479, 
                    "longitude": 13.31781935441163
                }, 
                "patient_name": "Maria Amini"
            }, 
            "act_0_8": {
                "duration": 30, 
                "time_window": {
                    "start": "2014-03-04T08:00:00", 
                    "finish": "2014-03-04T13:00:00"
                }, 
                "required_operators": 1, 
                "location": {
                    "latitude": 46.024314957839024, 
                    "longitude": 13.05422615707455
                }, 
                "patient_name": "Tom Dennis"
            }, 
            "act_0_3": {
                "duration": 30, 
                "time_window": {
                    "start": "2014-03-04T14:40:00", 
                    "finish": "2014-03-04T18:00:00"
                }, 
                "required_operators": 2, 
                "location": {
                    "latitude": 46.1065970056559, 
                    "longitude": 13.483207426332923
                }, 
                "patient_name": "Jonathan Aubert"
            }, 
            "act_0_2": {
                "duration": 60, 
                "time_window": {
                    "start": "2014-03-04T13:00:00", 
                    "finish": "2014-03-04T18:00:00"
                }, 
                "required_operators": 2, 
                "location": {
                    "latitude": 46.07922408586891, 
                    "longitude": 13.457502270170117
                }, 
                "patient_name": "Marcellus Taylor"
            }, 
            "act_0_1": {
                "duration": 30, 
                "time_window": {
                    "start": "2014-03-04T08:00:00", 
                    "finish": "2014-03-04T18:00:00"
                }, 
                "required_operators": 1, 
                "location": {
                    "latitude": 45.986434302984975, 
                    "longitude": 13.451257581896636
                }, 
                "patient_name": "Jason Ohare"
            }, 
            "act_0_0": {
                "duration": 60, 
                "time_window": {
                    "start": "2014-03-04T08:00:00", 
                    "finish": "2014-03-04T18:00:00"
                }, 
                "required_operators": 1, 
                "location": {
                    "latitude": 46.04613798285006, 
                    "longitude": 12.929490425779774
                }, 
                "patient_name": "Eula Zahar"
            }, 
            "act_0_7": {
                "duration": 30, 
                "time_window": {
                    "start": "2014-03-04T08:00:00", 
                    "finish": "2014-03-04T11:20:00"
                }, 
                "required_operators": 1, 
                "location": {
                    "latitude": 46.07294418319332, 
                    "longitude": 13.030975366201464
                }, 
                "patient_name": "Jimmy Rathje"
            }, 
            "act_0_6": {
                "duration": 30, 
                "time_window": {
                    "start": "2014-03-04T13:00:00", 
                    "finish": "2014-03-04T18:00:00"
                }, 
                "required_operators": 1, 
                "location": {
                    "latitude": 46.080304057254295, 
                    "longitude": 13.206496833424959
                }, 
                "patient_name": "Jean Hart"
            }, 
            "act_0_5": {
                "duration": 60, 
                "time_window": {
                    "start": "2014-03-04T13:00:00", 
                    "finish": "2014-03-04T18:00:00"
                }, 
                "required_operators": 1, 
                "location": {
                    "latitude": 46.07989401418976, 
                    "longitude": 13.458879631701313
                }, 
                "patient_name": "Rory Zimmerman"
            }, 
            "act_0_4": {
                "duration": 30, 
                "time_window": {
                    "start": "2014-03-04T11:20:00", 
                    "finish": "2014-03-04T14:40:00"
                }, 
                "required_operators": 1, 
                "location": {
                    "latitude": 46.24296526723239, 
                    "longitude": 13.330562709652941
                }, 
                "patient_name": "Rafael Hagins"
            }, 
            "act_0_22": {
                "duration": 60, 
                "time_window": {
                    "start": "2014-03-04T13:00:00", 
                    "finish": "2014-03-04T18:00:00"
                }, 
                "required_operators": 1, 
                "location": {
                    "latitude": 46.25723821271226, 
                    "longitude": 13.329390644322153
                }, 
                "patient_name": "Edward Sheridan"
            }, 
            "act_0_23": {
                "duration": 60, 
                "time_window": {
                    "start": "2014-03-04T08:00:00", 
                    "finish": "2014-03-04T18:00:00"
                }, 
                "required_operators": 1, 
                "location": {
                    "latitude": 46.155812137707294, 
                    "longitude": 13.06950939440959
                }, 
                "patient_name": "Jon Nagata"
            }, 
            "act_0_20": {
                "duration": 30, 
                "time_window": {
                    "start": "2014-03-04T13:00:00", 
                    "finish": "2014-03-04T18:00:00"
                }, 
                "required_operators": 1, 
                "location": {
                    "latitude": 46.01453511376809, 
                    "longitude": 12.999404944708271
                }, 
                "patient_name": "Susan Gettle"
            }, 
            "act_0_21": {
                "duration": 30, 
                "time_window": {
                    "start": "2014-03-04T08:00:00", 
                    "finish": "2014-03-04T13:00:00"
                }, 
                "required_operators": 1, 
                "location": {
                    "latitude": 46.19892923689307, 
                    "longitude": 13.19726181534339
                }, 
                "patient_name": "Esperanza Licata"
            }, 
            "act_0_26": {
                "duration": 30, 
                "time_window": {
                    "start": "2014-03-04T08:00:00", 
                    "finish": "2014-03-04T18:00:00"
                }, 
                "required_operators": 2, 
                "location": {
                    "latitude": 46.15727920827767, 
                    "longitude": 13.362512769444944
                }, 
                "patient_name": "Roger Mangan"
            }, 
            "act_0_27": {
                "duration": 30, 
                "time_window": {
                    "start": "2014-03-04T14:40:00", 
                    "finish": "2014-03-04T18:00:00"
                }, 
                "required_operators": 1, 
                "location": {
                    "latitude": 46.00848465089371, 
                    "longitude": 13.1274787587526
                }, 
                "patient_name": "Tangela Mosley"
            }, 
            "act_0_24": {
                "duration": 30, 
                "time_window": {
                    "start": "2014-03-04T08:00:00", 
                    "finish": "2014-03-04T18:00:00"
                }, 
                "required_operators": 1, 
                "location": {
                    "latitude": 46.03982504932556, 
                    "longitude": 13.054681734331888
                }, 
                "patient_name": "Brenda Magee"
            }, 
            "act_0_25": {
                "duration": 60, 
                "time_window": {
                    "start": "2014-03-04T11:20:00", 
                    "finish": "2014-03-04T14:40:00"
                }, 
                "required_operators": 2, 
                "location": {
                    "latitude": 46.118930312536556, 
                    "longitude": 13.190622173490404
                }, 
                "patient_name": "Anthony Sullivan"
            }, 
            "act_0_28": {
                "duration": 30, 
                "time_window": {
                    "start": "2014-03-04T13:00:00", 
                    "finish": "2014-03-04T18:00:00"
                }, 
                "required_operators": 1, 
                "location": {
                    "latitude": 46.17873219513475, 
                    "longitude": 12.98001423655608
                }, 
                "patient_name": "Jon Banister"
            }, 
            "act_0_29": {
                "duration": 60, 
                "time_window": {
                    "start": "2014-03-04T08:00:00", 
                    "finish": "2014-03-04T13:00:00"
                }, 
                "required_operators": 1, 
                "location": {
                    "latitude": 46.20465811780472, 
                    "longitude": 13.442302125950748
                }, 
                "patient_name": "Michael Tatum"
            }
        }, 
        {
            "act_1_38": {
                "duration": 30, 
                "time_window": {
                    "start": "2014-03-05T11:20:00", 
                    "finish": "2014-03-05T14:40:00"
                }, 
                "required_operators": 1, 
                "location": {
                    "latitude": 46.256867597516575, 
                    "longitude": 13.124330376690846
                }, 
                "patient_name": "Richard Garland"
            }, 
            "act_1_39": {
                "duration": 60, 
                "time_window": {
                    "start": "2014-03-05T11:20:00", 
                    "finish": "2014-03-05T14:40:00"
                }, 
                "required_operators": 1, 
                "location": {
                    "latitude": 46.054519826743096, 
                    "longitude": 13.205431631434351
                }, 
                "patient_name": "Vern Reta"
            }, 
            "act_1_32": {
                "duration": 60, 
                "time_window": {
                    "start": "2014-03-05T08:00:00", 
                    "finish": "2014-03-05T18:00:00"
                }, 
                "required_operators": 1, 
                "location": {
                    "latitude": 46.041763540447654, 
                    "longitude": 12.866222382375376
                }, 
                "patient_name": "Stephen Monteleone"
            }, 
            "act_1_33": {
                "duration": 60, 
                "time_window": {
                    "start": "2014-03-05T14:40:00", 
                    "finish": "2014-03-05T18:00:00"
                }, 
                "required_operators": 1, 
                "location": {
                    "latitude": 46.1764103892282, 
                    "longitude": 13.088649536073746
                }, 
                "patient_name": "Barbara Wheeler"
            }, 
            "act_1_30": {
                "duration": 30, 
                "time_window": {
                    "start": "2014-03-05T08:00:00", 
                    "finish": "2014-03-05T13:00:00"
                }, 
                "required_operators": 1, 
                "location": {
                    "latitude": 46.10705594305107, 
                    "longitude": 13.23001102382241
                }, 
                "patient_name": "Mariana Perry"
            }, 
            "act_1_31": {
                "duration": 60, 
                "time_window": {
                    "start": "2014-03-05T08:00:00", 
                    "finish": "2014-03-05T11:20:00"
                }, 
                "required_operators": 1, 
                "location": {
                    "latitude": 45.947949054455535, 
                    "longitude": 13.384766943107605
                }, 
                "patient_name": "Heather Roberts"
            }, 
            "act_1_36": {
                "duration": 30, 
                "time_window": {
                    "start": "2014-03-05T08:00:00", 
                    "finish": "2014-03-05T18:00:00"
                }, 
                "required_operators": 1, 
                "location": {
                    "latitude": 46.14112888737541, 
                    "longitude": 13.29918551035677
                }, 
                "patient_name": "Jamie Pham"
            }, 
            "act_1_37": {
                "duration": 60, 
                "time_window": {
                    "start": "2014-03-05T08:00:00", 
                    "finish": "2014-03-05T13:00:00"
                }, 
                "required_operators": 1, 
                "location": {
                    "latitude": 46.23064519005738, 
                    "longitude": 13.340988924600776
                }, 
                "patient_name": "Rhonda Nelson"
            }, 
            "act_1_34": {
                "duration": 60, 
                "time_window": {
                    "start": "2014-03-05T08:00:00", 
                    "finish": "2014-03-05T13:00:00"
                }, 
                "required_operators": 1, 
                "location": {
                    "latitude": 46.132453756436746, 
                    "longitude": 13.450862914193781
                }, 
                "patient_name": "Joseph Hunt"
            }, 
            "act_1_35": {
                "duration": 60, 
                "time_window": {
                    "start": "2014-03-05T13:00:00", 
                    "finish": "2014-03-05T18:00:00"
                }, 
                "required_operators": 1, 
                "location": {
                    "latitude": 45.97522565434896, 
                    "longitude": 13.031307192409603
                }, 
                "patient_name": "Jessie Zager"
            }, 
            "act_1_14": {
                "duration": 30, 
                "time_window": {
                    "start": "2014-03-05T11:20:00", 
                    "finish": "2014-03-05T14:40:00"
                }, 
                "required_operators": 1, 
                "location": {
                    "latitude": 45.99780012187496, 
                    "longitude": 13.276856020006628
                }, 
                "patient_name": "Mary Cockrell"
            }, 
            "act_1_15": {
                "duration": 30, 
                "time_window": {
                    "start": "2014-03-05T14:40:00", 
                    "finish": "2014-03-05T18:00:00"
                }, 
                "required_operators": 1, 
                "location": {
                    "latitude": 46.07516350238945, 
                    "longitude": 13.43747099806471
                }, 
                "patient_name": "Zachary Parish"
            }, 
            "act_1_16": {
                "duration": 60, 
                "time_window": {
                    "start": "2014-03-05T08:00:00", 
                    "finish": "2014-03-05T13:00:00"
                }, 
                "required_operators": 1, 
                "location": {
                    "latitude": 46.25729304533594, 
                    "longitude": 12.865531137575271
                }, 
                "patient_name": "James Mitchell"
            }, 
            "act_1_17": {
                "duration": 30, 
                "time_window": {
                    "start": "2014-03-05T08:00:00", 
                    "finish": "2014-03-05T18:00:00"
                }, 
                "required_operators": 1, 
                "location": {
                    "latitude": 46.06384382802323, 
                    "longitude": 13.455891312578547
                }, 
                "patient_name": "Jimmy Molina"
            }, 
            "act_1_10": {
                "duration": 30, 
                "time_window": {
                    "start": "2014-03-05T08:00:00", 
                    "finish": "2014-03-05T18:00:00"
                }, 
                "required_operators": 1, 
                "location": {
                    "latitude": 46.128970674914974, 
                    "longitude": 12.941494222212214
                }, 
                "patient_name": "Tammy Braddy"
            }, 
            "act_1_11": {
                "duration": 30, 
                "time_window": {
                    "start": "2014-03-05T14:40:00", 
                    "finish": "2014-03-05T18:00:00"
                }, 
                "required_operators": 1, 
                "location": {
                    "latitude": 46.191524683087565, 
                    "longitude": 12.9224911872002
                }, 
                "patient_name": "Christi Huguley"
            }, 
            "act_1_12": {
                "duration": 60, 
                "time_window": {
                    "start": "2014-03-05T08:00:00", 
                    "finish": "2014-03-05T13:00:00"
                }, 
                "required_operators": 1, 
                "location": {
                    "latitude": 46.19541657387358, 
                    "longitude": 12.936805357794306
                }, 
                "patient_name": "Juan Diaz"
            }, 
            "act_1_13": {
                "duration": 60, 
                "time_window": {
                    "start": "2014-03-05T13:00:00", 
                    "finish": "2014-03-05T18:00:00"
                }, 
                "required_operators": 1, 
                "location": {
                    "latitude": 46.24485404617239, 
                    "longitude": 13.210339808174785
                }, 
                "patient_name": "John Arnold"
            }, 
            "act_1_18": {
                "duration": 30, 
                "time_window": {
                    "start": "2014-03-05T14:40:00", 
                    "finish": "2014-03-05T18:00:00"
                }, 
                "required_operators": 1, 
                "location": {
                    "latitude": 46.11526888846873, 
                    "longitude": 12.916647285327038
                }, 
                "patient_name": "Jerry Shackley"
            }, 
            "act_1_19": {
                "duration": 60, 
                "time_window": {
                    "start": "2014-03-05T08:00:00", 
                    "finish": "2014-03-05T18:00:00"
                }, 
                "required_operators": 1, 
                "location": {
                    "latitude": 46.11406328077951, 
                    "longitude": 13.178353640552029
                }, 
                "patient_name": "Harold Davidson"
            }, 
            "act_1_2": {
                "duration": 30, 
                "time_window": {
                    "start": "2014-03-05T13:00:00", 
                    "finish": "2014-03-05T18:00:00"
                }, 
                "required_operators": 1, 
                "location": {
                    "latitude": 46.10511157824553, 
                    "longitude": 13.066396687829851
                }, 
                "patient_name": "Lynnette Botcher"
            }, 
            "act_1_3": {
                "duration": 60, 
                "time_window": {
                    "start": "2014-03-05T08:00:00", 
                    "finish": "2014-03-05T18:00:00"
                }, 
                "required_operators": 2, 
                "location": {
                    "latitude": 46.2115860174474, 
                    "longitude": 13.099530835403234
                }, 
                "patient_name": "Florence Bridenbaker"
            }, 
            "act_1_0": {
                "duration": 30, 
                "time_window": {
                    "start": "2014-03-05T14:40:00", 
                    "finish": "2014-03-05T18:00:00"
                }, 
                "required_operators": 1, 
                "location": {
                    "latitude": 46.137483338821404, 
                    "longitude": 13.025163969477784
                }, 
                "patient_name": "Robert Jacobs"
            }, 
            "act_1_1": {
                "duration": 30, 
                "time_window": {
                    "start": "2014-03-05T08:00:00", 
                    "finish": "2014-03-05T13:00:00"
                }, 
                "required_operators": 1, 
                "location": {
                    "latitude": 46.03234972526568, 
                    "longitude": 13.032290485906378
                }, 
                "patient_name": "Whitney Jones"
            }, 
            "act_1_6": {
                "duration": 30, 
                "time_window": {
                    "start": "2014-03-05T08:00:00", 
                    "finish": "2014-03-05T18:00:00"
                }, 
                "required_operators": 2, 
                "location": {
                    "latitude": 45.97686082432989, 
                    "longitude": 13.196094355370185
                }, 
                "patient_name": "Christine Santiago"
            }, 
            "act_1_7": {
                "duration": 30, 
                "time_window": {
                    "start": "2014-03-05T13:00:00", 
                    "finish": "2014-03-05T18:00:00"
                }, 
                "required_operators": 1, 
                "location": {
                    "latitude": 46.16379757799661, 
                    "longitude": 13.441202758485533
                }, 
                "patient_name": "Andrew Mulvaney"
            }, 
            "act_1_4": {
                "duration": 30, 
                "time_window": {
                    "start": "2014-03-05T08:00:00", 
                    "finish": "2014-03-05T11:20:00"
                }, 
                "required_operators": 1, 
                "location": {
                    "latitude": 46.21329085917459, 
                    "longitude": 12.983695655014701
                }, 
                "patient_name": "Shantell Brown"
            }, 
            "act_1_5": {
                "duration": 60, 
                "time_window": {
                    "start": "2014-03-05T08:00:00", 
                    "finish": "2014-03-05T18:00:00"
                }, 
                "required_operators": 3, 
                "location": {
                    "latitude": 46.10596817000742, 
                    "longitude": 13.05370220003759
                }, 
                "patient_name": "Linda Crosswell"
            }, 
            "act_1_8": {
                "duration": 30, 
                "time_window": {
                    "start": "2014-03-05T13:00:00", 
                    "finish": "2014-03-05T18:00:00"
                }, 
                "required_operators": 1, 
                "location": {
                    "latitude": 46.24705116148559, 
                    "longitude": 12.956971319032066
                }, 
                "patient_name": "Jill Wheaton"
            }, 
            "act_1_9": {
                "duration": 30, 
                "time_window": {
                    "start": "2014-03-05T08:00:00", 
                    "finish": "2014-03-05T18:00:00"
                }, 
                "required_operators": 2, 
                "location": {
                    "latitude": 46.136622136174466, 
                    "longitude": 12.895879734146423
                }, 
                "patient_name": "Eleanor Butler"
            }, 
            "act_1_29": {
                "duration": 60, 
                "time_window": {
                    "start": "2014-03-05T11:20:00", 
                    "finish": "2014-03-05T14:40:00"
                }, 
                "required_operators": 1, 
                "location": {
                    "latitude": 46.12451171087761, 
                    "longitude": 13.35158922066265
                }, 
                "patient_name": "Scott Tow"
            }, 
            "act_1_28": {
                "duration": 30, 
                "time_window": {
                    "start": "2014-03-05T13:00:00", 
                    "finish": "2014-03-05T18:00:00"
                }, 
                "required_operators": 1, 
                "location": {
                    "latitude": 46.06643576180016, 
                    "longitude": 13.059134132011042
                }, 
                "patient_name": "Charles Finseth"
            }, 
            "act_1_25": {
                "duration": 60, 
                "time_window": {
                    "start": "2014-03-05T13:00:00", 
                    "finish": "2014-03-05T18:00:00"
                }, 
                "required_operators": 1, 
                "location": {
                    "latitude": 46.03170606937446, 
                    "longitude": 12.995571033797704
                }, 
                "patient_name": "Joseph Benjamin"
            }, 
            "act_1_24": {
                "duration": 60, 
                "time_window": {
                    "start": "2014-03-05T08:00:00", 
                    "finish": "2014-03-05T11:20:00"
                }, 
                "required_operators": 1, 
                "location": {
                    "latitude": 45.9831669507939, 
                    "longitude": 13.441545014196047
                }, 
                "patient_name": "Ron Wood"
            }, 
            "act_1_27": {
                "duration": 60, 
                "time_window": {
                    "start": "2014-03-05T08:00:00", 
                    "finish": "2014-03-05T18:00:00"
                }, 
                "required_operators": 1, 
                "location": {
                    "latitude": 46.22718489405292, 
                    "longitude": 13.087145342915163
                }, 
                "patient_name": "Nancy Kedzierski"
            }, 
            "act_1_26": {
                "duration": 30, 
                "time_window": {
                    "start": "2014-03-05T08:00:00", 
                    "finish": "2014-03-05T11:20:00"
                }, 
                "required_operators": 1, 
                "location": {
                    "latitude": 46.03181236584912, 
                    "longitude": 13.352489236662871
                }, 
                "patient_name": "Marilyn Mcwhite"
            }, 
            "act_1_21": {
                "duration": 30, 
                "time_window": {
                    "start": "2014-03-05T08:00:00", 
                    "finish": "2014-03-05T18:00:00"
                }, 
                "required_operators": 1, 
                "location": {
                    "latitude": 46.07379853951856, 
                    "longitude": 13.23978483695138
                }, 
                "patient_name": "Brian Rhodes"
            }, 
            "act_1_20": {
                "duration": 30, 
                "time_window": {
                    "start": "2014-03-05T08:00:00", 
                    "finish": "2014-03-05T18:00:00"
                }, 
                "required_operators": 1, 
                "location": {
                    "latitude": 46.249217821847814, 
                    "longitude": 12.9317129569258
                }, 
                "patient_name": "Gilbert Cunningham"
            }, 
            "act_1_23": {
                "duration": 60, 
                "time_window": {
                    "start": "2014-03-05T08:00:00", 
                    "finish": "2014-03-05T18:00:00"
                }, 
                "required_operators": 1, 
                "location": {
                    "latitude": 46.072397223914514, 
                    "longitude": 13.099838196888154
                }, 
                "patient_name": "Aida Moore"
            }, 
            "act_1_22": {
                "duration": 60, 
                "time_window": {
                    "start": "2014-03-05T13:00:00", 
                    "finish": "2014-03-05T18:00:00"
                }, 
                "required_operators": 1, 
                "location": {
                    "latitude": 46.15144098718001, 
                    "longitude": 13.198831511410388
                }, 
                "patient_name": "Dewey Jones"
            }
        }, 
        {
            "act_2_19": {
                "duration": 30, 
                "time_window": {
                    "start": "2014-03-06T08:00:00", 
                    "finish": "2014-03-06T18:00:00"
                }, 
                "required_operators": 1, 
                "location": {
                    "latitude": 46.016325285960704, 
                    "longitude": 13.181331689160174
                }, 
                "patient_name": "Dennis Seid"
            }, 
            "act_2_18": {
                "duration": 60, 
                "time_window": {
                    "start": "2014-03-06T08:00:00", 
                    "finish": "2014-03-06T18:00:00"
                }, 
                "required_operators": 1, 
                "location": {
                    "latitude": 46.085311710722124, 
                    "longitude": 12.879829011121364
                }, 
                "patient_name": "Shaun Turner"
            }, 
            "act_2_11": {
                "duration": 30, 
                "time_window": {
                    "start": "2014-03-06T13:00:00", 
                    "finish": "2014-03-06T18:00:00"
                }, 
                "required_operators": 1, 
                "location": {
                    "latitude": 46.15825163045611, 
                    "longitude": 13.46263311808282
                }, 
                "patient_name": "Richard Guerin"
            }, 
            "act_2_10": {
                "duration": 30, 
                "time_window": {
                    "start": "2014-03-06T08:00:00", 
                    "finish": "2014-03-06T11:20:00"
                }, 
                "required_operators": 1, 
                "location": {
                    "latitude": 45.94937398759168, 
                    "longitude": 13.450047109240653
                }, 
                "patient_name": "Christopher Rubin"
            }, 
            "act_2_13": {
                "duration": 30, 
                "time_window": {
                    "start": "2014-03-06T13:00:00", 
                    "finish": "2014-03-06T18:00:00"
                }, 
                "required_operators": 1, 
                "location": {
                    "latitude": 46.14649145256251, 
                    "longitude": 13.009703550769865
                }, 
                "patient_name": "Melanie Calais"
            }, 
            "act_2_12": {
                "duration": 30, 
                "time_window": {
                    "start": "2014-03-06T08:00:00", 
                    "finish": "2014-03-06T18:00:00"
                }, 
                "required_operators": 1, 
                "location": {
                    "latitude": 46.148377990196806, 
                    "longitude": 13.457073797804735
                }, 
                "patient_name": "Brenda Dougher"
            }, 
            "act_2_15": {
                "duration": 60, 
                "time_window": {
                    "start": "2014-03-06T08:00:00", 
                    "finish": "2014-03-06T13:00:00"
                }, 
                "required_operators": 1, 
                "location": {
                    "latitude": 46.16964289350915, 
                    "longitude": 12.881415643128761
                }, 
                "patient_name": "Sam Cushing"
            }, 
            "act_2_14": {
                "duration": 60, 
                "time_window": {
                    "start": "2014-03-06T08:00:00", 
                    "finish": "2014-03-06T18:00:00"
                }, 
                "required_operators": 1, 
                "location": {
                    "latitude": 45.963625380298744, 
                    "longitude": 13.219820150617693
                }, 
                "patient_name": "Jacob Leblanc"
            }, 
            "act_2_17": {
                "duration": 30, 
                "time_window": {
                    "start": "2014-03-06T13:00:00", 
                    "finish": "2014-03-06T18:00:00"
                }, 
                "required_operators": 1, 
                "location": {
                    "latitude": 46.18647050698858, 
                    "longitude": 12.874210617199838
                }, 
                "patient_name": "Kayla Mccall"
            }, 
            "act_2_16": {
                "duration": 60, 
                "time_window": {
                    "start": "2014-03-06T11:20:00", 
                    "finish": "2014-03-06T14:40:00"
                }, 
                "required_operators": 1, 
                "location": {
                    "latitude": 46.21655779858954, 
                    "longitude": 12.910011616289061
                }, 
                "patient_name": "Carl Torres"
            }, 
            "act_2_33": {
                "duration": 60, 
                "time_window": {
                    "start": "2014-03-06T13:00:00", 
                    "finish": "2014-03-06T18:00:00"
                }, 
                "required_operators": 2, 
                "location": {
                    "latitude": 46.105844749902914, 
                    "longitude": 13.43591390347578
                }, 
                "patient_name": "Rhonda Elliott"
            }, 
            "act_2_32": {
                "duration": 60, 
                "time_window": {
                    "start": "2014-03-06T14:40:00", 
                    "finish": "2014-03-06T18:00:00"
                }, 
                "required_operators": 1, 
                "location": {
                    "latitude": 45.96703782530122, 
                    "longitude": 13.148797884157378
                }, 
                "patient_name": "Kimberly Milner"
            }, 
            "act_2_31": {
                "duration": 30, 
                "time_window": {
                    "start": "2014-03-06T14:40:00", 
                    "finish": "2014-03-06T18:00:00"
                }, 
                "required_operators": 1, 
                "location": {
                    "latitude": 46.06635126460716, 
                    "longitude": 13.442639228300916
                }, 
                "patient_name": "Elliott Schneider"
            }, 
            "act_2_30": {
                "duration": 30, 
                "time_window": {
                    "start": "2014-03-06T08:00:00", 
                    "finish": "2014-03-06T18:00:00"
                }, 
                "required_operators": 1, 
                "location": {
                    "latitude": 46.212032200527155, 
                    "longitude": 13.425560386901209
                }, 
                "patient_name": "Thomas Zechman"
            }, 
            "act_2_37": {
                "duration": 60, 
                "time_window": {
                    "start": "2014-03-06T13:00:00", 
                    "finish": "2014-03-06T18:00:00"
                }, 
                "required_operators": 1, 
                "location": {
                    "latitude": 46.11142161445498, 
                    "longitude": 13.278955755390708
                }, 
                "patient_name": "Donald Poquette"
            }, 
            "act_2_36": {
                "duration": 30, 
                "time_window": {
                    "start": "2014-03-06T08:00:00", 
                    "finish": "2014-03-06T18:00:00"
                }, 
                "required_operators": 1, 
                "location": {
                    "latitude": 46.10630888314562, 
                    "longitude": 13.079034461972217
                }, 
                "patient_name": "Craig Rhodes"
            }, 
            "act_2_35": {
                "duration": 30, 
                "time_window": {
                    "start": "2014-03-06T08:00:00", 
                    "finish": "2014-03-06T18:00:00"
                }, 
                "required_operators": 1, 
                "location": {
                    "latitude": 46.06090197506652, 
                    "longitude": 13.377229318566556
                }, 
                "patient_name": "Luz Kirk"
            }, 
            "act_2_34": {
                "duration": 30, 
                "time_window": {
                    "start": "2014-03-06T14:40:00", 
                    "finish": "2014-03-06T18:00:00"
                }, 
                "required_operators": 2, 
                "location": {
                    "latitude": 45.96623655122964, 
                    "longitude": 13.030475681245031
                }, 
                "patient_name": "Amy Berube"
            }, 
            "act_2_39": {
                "duration": 30, 
                "time_window": {
                    "start": "2014-03-06T13:00:00", 
                    "finish": "2014-03-06T18:00:00"
                }, 
                "required_operators": 1, 
                "location": {
                    "latitude": 46.00961828431943, 
                    "longitude": 13.119767290373126
                }, 
                "patient_name": "Mary Wiggin"
            }, 
            "act_2_38": {
                "duration": 30, 
                "time_window": {
                    "start": "2014-03-06T11:20:00", 
                    "finish": "2014-03-06T14:40:00"
                }, 
                "required_operators": 1, 
                "location": {
                    "latitude": 46.099562748567834, 
                    "longitude": 13.13276958447853
                }, 
                "patient_name": "Matthew Blades"
            }, 
            "act_2_20": {
                "duration": 30, 
                "time_window": {
                    "start": "2014-03-06T08:00:00", 
                    "finish": "2014-03-06T11:20:00"
                }, 
                "required_operators": 1, 
                "location": {
                    "latitude": 46.01701870779394, 
                    "longitude": 13.366042961902373
                }, 
                "patient_name": "Julie Freeman"
            }, 
            "act_2_21": {
                "duration": 30, 
                "time_window": {
                    "start": "2014-03-06T08:00:00", 
                    "finish": "2014-03-06T18:00:00"
                }, 
                "required_operators": 1, 
                "location": {
                    "latitude": 45.93872626886889, 
                    "longitude": 13.114047963996526
                }, 
                "patient_name": "Michelle Lockard"
            }, 
            "act_2_22": {
                "duration": 60, 
                "time_window": {
                    "start": "2014-03-06T08:00:00", 
                    "finish": "2014-03-06T18:00:00"
                }, 
                "required_operators": 1, 
                "location": {
                    "latitude": 46.17200593313802, 
                    "longitude": 12.936153616850675
                }, 
                "patient_name": "Latoya New"
            }, 
            "act_2_23": {
                "duration": 30, 
                "time_window": {
                    "start": "2014-03-06T08:00:00", 
                    "finish": "2014-03-06T18:00:00"
                }, 
                "required_operators": 1, 
                "location": {
                    "latitude": 45.983839167926114, 
                    "longitude": 13.340672022861641
                }, 
                "patient_name": "Jeffery Raybuck"
            }, 
            "act_2_24": {
                "duration": 60, 
                "time_window": {
                    "start": "2014-03-06T08:00:00", 
                    "finish": "2014-03-06T11:20:00"
                }, 
                "required_operators": 1, 
                "location": {
                    "latitude": 45.94567012607385, 
                    "longitude": 13.023621926776023
                }, 
                "patient_name": "Brian Moore"
            }, 
            "act_2_25": {
                "duration": 30, 
                "time_window": {
                    "start": "2014-03-06T13:00:00", 
                    "finish": "2014-03-06T18:00:00"
                }, 
                "required_operators": 1, 
                "location": {
                    "latitude": 46.072183037583, 
                    "longitude": 13.45852940639278
                }, 
                "patient_name": "Terry Swartz"
            }, 
            "act_2_26": {
                "duration": 30, 
                "time_window": {
                    "start": "2014-03-06T14:40:00", 
                    "finish": "2014-03-06T18:00:00"
                }, 
                "required_operators": 2, 
                "location": {
                    "latitude": 46.09940597830327, 
                    "longitude": 13.335169622765909
                }, 
                "patient_name": "Mallory Hinchee"
            }, 
            "act_2_27": {
                "duration": 30, 
                "time_window": {
                    "start": "2014-03-06T08:00:00", 
                    "finish": "2014-03-06T13:00:00"
                }, 
                "required_operators": 1, 
                "location": {
                    "latitude": 46.16067062439135, 
                    "longitude": 12.931138062780196
                }, 
                "patient_name": "John Johnston"
            }, 
            "act_2_28": {
                "duration": 30, 
                "time_window": {
                    "start": "2014-03-06T08:00:00", 
                    "finish": "2014-03-06T18:00:00"
                }, 
                "required_operators": 1, 
                "location": {
                    "latitude": 46.15788421547277, 
                    "longitude": 13.087066538635609
                }, 
                "patient_name": "Phyllis Hayes"
            }, 
            "act_2_29": {
                "duration": 60, 
                "time_window": {
                    "start": "2014-03-06T08:00:00", 
                    "finish": "2014-03-06T18:00:00"
                }, 
                "required_operators": 1, 
                "location": {
                    "latitude": 46.135559868082275, 
                    "longitude": 13.366616352009473
                }, 
                "patient_name": "Vicki Haviland"
            }, 
            "act_2_9": {
                "duration": 30, 
                "time_window": {
                    "start": "2014-03-06T08:00:00", 
                    "finish": "2014-03-06T13:00:00"
                }, 
                "required_operators": 1, 
                "location": {
                    "latitude": 46.05709166415106, 
                    "longitude": 12.961375677508753
                }, 
                "patient_name": "Oliver Interrante"
            }, 
            "act_2_8": {
                "duration": 30, 
                "time_window": {
                    "start": "2014-03-06T08:00:00", 
                    "finish": "2014-03-06T13:00:00"
                }, 
                "required_operators": 1, 
                "location": {
                    "latitude": 46.19665445878545, 
                    "longitude": 13.190616376879849
                }, 
                "patient_name": "Richard Combs"
            }, 
            "act_2_5": {
                "duration": 30, 
                "time_window": {
                    "start": "2014-03-06T08:00:00", 
                    "finish": "2014-03-06T18:00:00"
                }, 
                "required_operators": 2, 
                "location": {
                    "latitude": 45.960035225407644, 
                    "longitude": 12.951050312002328
                }, 
                "patient_name": "Christopher Ooten"
            }, 
            "act_2_4": {
                "duration": 60, 
                "time_window": {
                    "start": "2014-03-06T14:40:00", 
                    "finish": "2014-03-06T18:00:00"
                }, 
                "required_operators": 1, 
                "location": {
                    "latitude": 46.1348274372854, 
                    "longitude": 13.326075966167796
                }, 
                "patient_name": "Chester Perry"
            }, 
            "act_2_7": {
                "duration": 30, 
                "time_window": {
                    "start": "2014-03-06T11:20:00", 
                    "finish": "2014-03-06T14:40:00"
                }, 
                "required_operators": 1, 
                "location": {
                    "latitude": 46.1346668517914, 
                    "longitude": 13.446980972493396
                }, 
                "patient_name": "Richard Sterling"
            }, 
            "act_2_6": {
                "duration": 30, 
                "time_window": {
                    "start": "2014-03-06T08:00:00", 
                    "finish": "2014-03-06T13:00:00"
                }, 
                "required_operators": 1, 
                "location": {
                    "latitude": 45.955566716792866, 
                    "longitude": 13.44607798754008
                }, 
                "patient_name": "Maryanne Garcia"
            }, 
            "act_2_1": {
                "duration": 30, 
                "time_window": {
                    "start": "2014-03-06T08:00:00", 
                    "finish": "2014-03-06T18:00:00"
                }, 
                "required_operators": 1, 
                "location": {
                    "latitude": 46.14006935230229, 
                    "longitude": 13.427678331039827
                }, 
                "patient_name": "Marie Lutman"
            }, 
            "act_2_0": {
                "duration": 30, 
                "time_window": {
                    "start": "2014-03-06T08:00:00", 
                    "finish": "2014-03-06T18:00:00"
                }, 
                "required_operators": 1, 
                "location": {
                    "latitude": 46.205812667714625, 
                    "longitude": 13.400762711146514
                }, 
                "patient_name": "Monica Jordan"
            }, 
            "act_2_3": {
                "duration": 30, 
                "time_window": {
                    "start": "2014-03-06T08:00:00", 
                    "finish": "2014-03-06T18:00:00"
                }, 
                "required_operators": 2, 
                "location": {
                    "latitude": 46.25009498282274, 
                    "longitude": 12.876456927788023
                }, 
                "patient_name": "Connie Hannan"
            }, 
            "act_2_2": {
                "duration": 30, 
                "time_window": {
                    "start": "2014-03-06T11:20:00", 
                    "finish": "2014-03-06T14:40:00"
                }, 
                "required_operators": 1, 
                "location": {
                    "latitude": 46.03919337515747, 
                    "longitude": 12.924098832869017
                }, 
                "patient_name": "James Dewing"
            }
        }
    ], 
    "operators": {
        "op_12": {
            "time_windows": [
                {
                    "start": "2014-03-04T13:00:00", 
                    "finish": "2014-03-04T18:00:00", 
                    "regular_worktime": "4:00:00"
                }, 
                {
                    "start": "2014-03-05T08:00:00", 
                    "finish": "2014-03-05T18:00:00", 
                    "regular_worktime": "8:00:00"
                }, 
                {
                    "start": "2014-03-06T08:00:00", 
                    "finish": "2014-03-06T18:00:00", 
                    "regular_worktime": "8:00:00"
                }
            ], 
            "incompatible_activities": [
                "act_0_37", 
                "act_0_19", 
                "act_2_7", 
                "act_2_28", 
                "act_0_35", 
                "act_2_23", 
                "act_2_35", 
                "act_2_4"
            ], 
            "maximum_working_hours": "16:00:00", 
            "name": "Michael Porter", 
            "minimum_working_hours": "12:00:00"
        }, 
        "op_15": {
            "time_windows": [
                {
                    "start": "2014-03-04T08:00:00", 
                    "finish": "2014-03-04T18:00:00", 
                    "regular_worktime": "8:00:00"
                }, 
                {
                    "start": "2014-03-05T08:00:00", 
                    "finish": "2014-03-05T18:00:00", 
                    "regular_worktime": "8:00:00"
                }, 
                {
                    "start": "2014-03-06T08:00:00", 
                    "finish": "2014-03-06T13:00:00", 
                    "regular_worktime": "4:00:00"
                }
            ], 
            "incompatible_activities": [
                "act_2_26", 
                "act_0_15", 
                "act_2_15", 
                "act_2_12", 
                "act_2_16", 
                "act_1_37", 
                "act_1_13", 
                "act_2_37"
            ], 
            "maximum_working_hours": "16:00:00", 
            "name": "Kyle Xue", 
            "minimum_working_hours": "12:00:00"
        }, 
        "op_8": {
            "time_windows": [
                {
                    "start": "2014-03-04T08:00:00", 
                    "finish": "2014-03-04T13:00:00", 
                    "regular_worktime": "4:00:00"
                }, 
                {
                    "start": "2014-03-05T08:00:00", 
                    "finish": "2014-03-05T13:00:00", 
                    "regular_worktime": "4:00:00"
                }, 
                {
                    "start": "2014-03-06T08:00:00", 
                    "finish": "2014-03-06T18:00:00", 
                    "regular_worktime": "8:00:00"
                }
            ], 
            "incompatible_activities": [
                "act_2_6", 
                "act_2_16", 
                "act_2_8", 
                "act_1_18", 
                "act_2_1", 
                "act_0_34", 
                "act_2_12", 
                "act_2_11"
            ], 
            "maximum_working_hours": "12:00:00", 
            "name": "Cammie Tooley", 
            "minimum_working_hours": "08:00:00"
        }, 
        "op_9": {
            "time_windows": [
                {
                    "start": "2014-03-04T08:00:00", 
                    "finish": "2014-03-04T18:00:00", 
                    "regular_worktime": "8:00:00"
                }, 
                {
                    "start": "2014-03-05T08:00:00", 
                    "finish": "2014-03-05T18:00:00", 
                    "regular_worktime": "8:00:00"
                }, 
                {
                    "start": "2014-03-06T08:00:00", 
                    "finish": "2014-03-06T18:00:00", 
                    "regular_worktime": "8:00:00"
                }
            ], 
            "incompatible_activities": [
                "act_2_29", 
                "act_2_3", 
                "act_1_16", 
                "act_0_32", 
                "act_0_7", 
                "act_2_24", 
                "act_2_32", 
                "act_0_24"
            ], 
            "maximum_working_hours": "16:00:00", 
            "name": "Duane Gill", 
            "minimum_working_hours": "16:00:00"
        }, 
        "op_18": {
            "time_windows": [
                {
                    "start": "2014-03-04T08:00:00", 
                    "finish": "2014-03-04T18:00:00", 
                    "regular_worktime": "8:00:00"
                }, 
                {
                    "start": "2014-03-05T08:00:00", 
                    "finish": "2014-03-05T18:00:00", 
                    "regular_worktime": "8:00:00"
                }, 
                {
                    "start": "2014-03-06T13:00:00", 
                    "finish": "2014-03-06T18:00:00", 
                    "regular_worktime": "4:00:00"
                }
            ], 
            "incompatible_activities": [
                "act_2_23", 
                "act_1_25", 
                "act_1_26", 
                "act_1_27", 
                "act_1_38", 
                "act_0_4", 
                "act_0_5", 
                "act_2_22"
            ], 
            "maximum_working_hours": "16:00:00", 
            "name": "Bradley Blanks", 
            "minimum_working_hours": "12:00:00"
        }, 
        "op_13": {
            "time_windows": [
                {
                    "start": "2014-03-04T08:00:00", 
                    "finish": "2014-03-04T18:00:00", 
                    "regular_worktime": "8:00:00"
                }, 
                {
                    "start": "2014-03-05T08:00:00", 
                    "finish": "2014-03-05T18:00:00", 
                    "regular_worktime": "8:00:00"
                }, 
                {
                    "start": "2014-03-06T08:00:00", 
                    "finish": "2014-03-06T18:00:00", 
                    "regular_worktime": "8:00:00"
                }
            ], 
            "incompatible_activities": [
                "act_0_16", 
                "act_1_9", 
                "act_2_34", 
                "act_0_18", 
                "act_0_9", 
                "act_2_5", 
                "act_1_17", 
                "act_0_2"
            ], 
            "maximum_working_hours": "16:00:00", 
            "name": "Amanda Rascon", 
            "minimum_working_hours": "16:00:00"
        }, 
        "op_4": {
            "time_windows": [
                {
                    "start": "2014-03-04T08:00:00", 
                    "finish": "2014-03-04T18:00:00", 
                    "regular_worktime": "8:00:00"
                }, 
                {
                    "start": "2014-03-05T08:00:00", 
                    "finish": "2014-03-05T13:00:00", 
                    "regular_worktime": "4:00:00"
                }, 
                {
                    "start": "2014-03-06T13:00:00", 
                    "finish": "2014-03-06T18:00:00", 
                    "regular_worktime": "4:00:00"
                }
            ], 
            "incompatible_activities": [
                "act_0_35", 
                "act_1_11", 
                "act_1_6", 
                "act_1_35", 
                "act_0_39", 
                "act_0_32", 
                "act_0_7", 
                "act_0_29"
            ], 
            "maximum_working_hours": "12:00:00", 
            "name": "Leonardo Broussard", 
            "minimum_working_hours": "08:00:00"
        }, 
        "op_5": {
            "time_windows": [
                {
                    "start": "2014-03-04T08:00:00", 
                    "finish": "2014-03-04T18:00:00", 
                    "regular_worktime": "8:00:00"
                }, 
                {
                    "start": "2014-03-05T08:00:00", 
                    "finish": "2014-03-05T18:00:00", 
                    "regular_worktime": "8:00:00"
                }, 
                {
                    "start": "2014-03-06T08:00:00", 
                    "finish": "2014-03-06T18:00:00", 
                    "regular_worktime": "8:00:00"
                }
            ], 
            "incompatible_activities": [
                "act_1_29", 
                "act_1_3", 
                "act_0_6", 
                "act_1_15", 
                "act_0_25", 
                "act_1_34", 
                "act_0_26", 
                "act_2_1"
            ], 
            "maximum_working_hours": "16:00:00", 
            "name": "Wayne Huot", 
            "minimum_working_hours": "16:00:00"
        }, 
        "op_6": {
            "time_windows": [
                {
                    "start": "2014-03-04T08:00:00", 
                    "finish": "2014-03-04T13:00:00", 
                    "regular_worktime": "4:00:00"
                }, 
                {
                    "start": "2014-03-05T08:00:00", 
                    "finish": "2014-03-05T18:00:00", 
                    "regular_worktime": "8:00:00"
                }, 
                {
                    "start": "2014-03-06T08:00:00", 
                    "finish": "2014-03-06T18:00:00", 
                    "regular_worktime": "8:00:00"
                }
            ], 
            "incompatible_activities": [
                "act_1_28", 
                "act_2_22", 
                "act_2_34", 
                "act_2_6", 
                "act_0_20", 
                "act_2_19", 
                "act_2_27", 
                "act_1_37"
            ], 
            "maximum_working_hours": "16:00:00", 
            "name": "Denise Mcwayne", 
            "minimum_working_hours": "12:00:00"
        }, 
        "op_7": {
            "time_windows": [
                {
                    "start": "2014-03-04T08:00:00", 
                    "finish": "2014-03-04T18:00:00", 
                    "regular_worktime": "8:00:00"
                }, 
                {
                    "start": "2014-03-05T13:00:00", 
                    "finish": "2014-03-05T18:00:00", 
                    "regular_worktime": "4:00:00"
                }, 
                {
                    "start": "2014-03-06T08:00:00", 
                    "finish": "2014-03-06T18:00:00", 
                    "regular_worktime": "8:00:00"
                }
            ], 
            "incompatible_activities": [
                "act_0_0", 
                "act_1_38", 
                "act_0_5", 
                "act_0_23", 
                "act_1_1", 
                "act_1_29", 
                "act_0_24", 
                "act_2_27"
            ], 
            "maximum_working_hours": "16:00:00", 
            "name": "Elizabeth Martin", 
            "minimum_working_hours": "12:00:00"
        }, 
        "op_0": {
            "time_windows": [
                {
                    "start": "2014-03-04T08:00:00", 
                    "finish": "2014-03-04T13:00:00", 
                    "regular_worktime": "4:00:00"
                }, 
                {
                    "start": "2014-03-05T08:00:00", 
                    "finish": "2014-03-05T18:00:00", 
                    "regular_worktime": "8:00:00"
                }, 
                {
                    "start": "2014-03-06T13:00:00", 
                    "finish": "2014-03-06T18:00:00", 
                    "regular_worktime": "4:00:00"
                }
            ], 
            "incompatible_activities": [
                "act_1_32", 
                "act_2_30", 
                "act_0_16", 
                "act_2_35", 
                "act_0_20", 
                "act_1_22", 
                "act_0_26", 
                "act_2_14"
            ], 
            "maximum_working_hours": "12:00:00", 
            "name": "Joseph Mccarrel", 
            "minimum_working_hours": "08:00:00"
        }, 
        "op_1": {
            "time_windows": [
                {
                    "start": "2014-03-04T08:00:00", 
                    "finish": "2014-03-04T18:00:00", 
                    "regular_worktime": "8:00:00"
                }, 
                {
                    "start": "2014-03-05T08:00:00", 
                    "finish": "2014-03-05T18:00:00", 
                    "regular_worktime": "8:00:00"
                }, 
                {
                    "start": "2014-03-06T08:00:00", 
                    "finish": "2014-03-06T18:00:00", 
                    "regular_worktime": "8:00:00"
                }
            ], 
            "incompatible_activities": [
                "act_1_14", 
                "act_2_27", 
                "act_1_26", 
                "act_0_14", 
                "act_1_28", 
                "act_0_10", 
                "act_0_18", 
                "act_1_10"
            ], 
            "maximum_working_hours": "16:00:00", 
            "name": "Jacinda Foster", 
            "minimum_working_hours": "16:00:00"
        }, 
        "op_2": {
            "time_windows": [
                {
                    "start": "2014-03-04T08:00:00", 
                    "finish": "2014-03-04T18:00:00", 
                    "regular_worktime": "8:00:00"
                }, 
                {
                    "start": "2014-03-05T08:00:00", 
                    "finish": "2014-03-05T18:00:00", 
                    "regular_worktime": "8:00:00"
                }, 
                {
                    "start": "2014-03-06T08:00:00", 
                    "finish": "2014-03-06T18:00:00", 
                    "regular_worktime": "8:00:00"
                }
            ], 
            "incompatible_activities": [
                "act_1_22", 
                "act_0_32", 
                "act_2_8", 
                "act_0_17", 
                "act_2_36", 
                "act_1_35", 
                "act_1_11", 
                "act_1_9"
            ], 
            "maximum_working_hours": "16:00:00", 
            "name": "Jerry Haas", 
            "minimum_working_hours": "16:00:00"
        }, 
        "op_3": {
            "time_windows": [
                {
                    "start": "2014-03-04T08:00:00", 
                    "finish": "2014-03-04T13:00:00", 
                    "regular_worktime": "4:00:00"
                }, 
                {
                    "start": "2014-03-05T08:00:00", 
                    "finish": "2014-03-05T18:00:00", 
                    "regular_worktime": "8:00:00"
                }, 
                {
                    "start": "2014-03-06T08:00:00", 
                    "finish": "2014-03-06T18:00:00", 
                    "regular_worktime": "8:00:00"
                }
            ], 
            "incompatible_activities": [
                "act_1_28", 
                "act_1_4", 
                "act_0_23", 
                "act_2_4", 
                "act_1_22", 
                "act_0_24", 
                "act_2_6", 
                "act_2_35"
            ], 
            "maximum_working_hours": "16:00:00", 
            "name": "Gregory Preskar", 
            "minimum_working_hours": "12:00:00"
        }, 
        "op_16": {
            "time_windows": [
                {
                    "start": "2014-03-04T08:00:00", 
                    "finish": "2014-03-04T13:00:00", 
                    "regular_worktime": "4:00:00"
                }, 
                {
                    "start": "2014-03-05T13:00:00", 
                    "finish": "2014-03-05T18:00:00", 
                    "regular_worktime": "4:00:00"
                }, 
                {
                    "start": "2014-03-06T08:00:00", 
                    "finish": "2014-03-06T13:00:00", 
                    "regular_worktime": "4:00:00"
                }
            ], 
            "incompatible_activities": [
                "act_1_27", 
                "act_0_26", 
                "act_2_33", 
                "act_0_36", 
                "act_2_28", 
                "act_1_19", 
                "act_1_14", 
                "act_0_17"
            ], 
            "maximum_working_hours": "08:00:00", 
            "name": "Ronald Lee", 
            "minimum_working_hours": "08:00:00"
        }, 
        "op_19": {
            "time_windows": [
                {
                    "start": "2014-03-04T08:00:00", 
                    "finish": "2014-03-04T18:00:00", 
                    "regular_worktime": "8:00:00"
                }, 
                {
                    "start": "2014-03-05T08:00:00", 
                    "finish": "2014-03-05T13:00:00", 
                    "regular_worktime": "4:00:00"
                }, 
                {
                    "start": "2014-03-06T13:00:00", 
                    "finish": "2014-03-06T18:00:00", 
                    "regular_worktime": "4:00:00"
                }
            ], 
            "incompatible_activities": [
                "act_2_31", 
                "act_2_19", 
                "act_0_3", 
                "act_1_5", 
                "act_0_1", 
                "act_2_37", 
                "act_1_8", 
                "act_0_5"
            ], 
            "maximum_working_hours": "12:00:00", 
            "name": "Annie Vietti", 
            "minimum_working_hours": "08:00:00"
        }, 
        "op_10": {
            "time_windows": [
                {
                    "start": "2014-03-04T13:00:00", 
                    "finish": "2014-03-04T18:00:00", 
                    "regular_worktime": "4:00:00"
                }, 
                {
                    "start": "2014-03-05T08:00:00", 
                    "finish": "2014-03-05T18:00:00", 
                    "regular_worktime": "8:00:00"
                }, 
                {
                    "start": "2014-03-06T08:00:00", 
                    "finish": "2014-03-06T18:00:00", 
                    "regular_worktime": "8:00:00"
                }
            ], 
            "incompatible_activities": [
                "act_0_36", 
                "act_1_5", 
                "act_2_18", 
                "act_2_14", 
                "act_0_19", 
                "act_0_4", 
                "act_0_5", 
                "act_1_16"
            ], 
            "maximum_working_hours": "16:00:00", 
            "name": "Jeffrey Goings", 
            "minimum_working_hours": "12:00:00"
        }, 
        "op_17": {
            "time_windows": [
                {
                    "start": "2014-03-04T08:00:00", 
                    "finish": "2014-03-04T18:00:00", 
                    "regular_worktime": "8:00:00"
                }, 
                {
                    "start": "2014-03-05T08:00:00", 
                    "finish": "2014-03-05T18:00:00", 
                    "regular_worktime": "8:00:00"
                }, 
                {
                    "start": "2014-03-06T08:00:00", 
                    "finish": "2014-03-06T13:00:00", 
                    "regular_worktime": "4:00:00"
                }
            ], 
            "incompatible_activities": [
                "act_0_9", 
                "act_0_13", 
                "act_1_5", 
                "act_0_35", 
                "act_1_11", 
                "act_1_9", 
                "act_0_14", 
                "act_2_38"
            ], 
            "maximum_working_hours": "16:00:00", 
            "name": "Curtis Small", 
            "minimum_working_hours": "12:00:00"
        }, 
        "op_11": {
            "time_windows": [
                {
                    "start": "2014-03-04T08:00:00", 
                    "finish": "2014-03-04T18:00:00", 
                    "regular_worktime": "8:00:00"
                }, 
                {
                    "start": "2014-03-05T13:00:00", 
                    "finish": "2014-03-05T18:00:00", 
                    "regular_worktime": "4:00:00"
                }, 
                {
                    "start": "2014-03-06T08:00:00", 
                    "finish": "2014-03-06T18:00:00", 
                    "regular_worktime": "8:00:00"
                }
            ], 
            "incompatible_activities": [
                "act_1_14", 
                "act_2_20", 
                "act_2_6", 
                "act_2_33", 
                "act_0_26", 
                "act_0_30", 
                "act_1_27", 
                "act_0_35"
            ], 
            "maximum_working_hours": "16:00:00", 
            "name": "Shannon Tyler", 
            "minimum_working_hours": "12:00:00"
        }, 
        "op_14": {
            "time_windows": [
                {
                    "start": "2014-03-04T08:00:00", 
                    "finish": "2014-03-04T18:00:00", 
                    "regular_worktime": "8:00:00"
                }, 
                {
                    "start": "2014-03-05T08:00:00", 
                    "finish": "2014-03-05T18:00:00", 
                    "regular_worktime": "8:00:00"
                }, 
                {
                    "start": "2014-03-06T08:00:00", 
                    "finish": "2014-03-06T18:00:00", 
                    "regular_worktime": "8:00:00"
                }
            ], 
            "incompatible_activities": [
                "act_2_38", 
                "act_1_35", 
                "act_1_24", 
                "act_1_22", 
                "act_2_4", 
                "act_1_4", 
                "act_1_30", 
                "act_0_7"
            ], 
            "maximum_working_hours": "16:00:00", 
            "name": "Edward Johnson", 
            "minimum_working_hours": "16:00:00"
        }
    }, 
    "meta": {
        "time_window": {
            "start": "08:00:00", 
            "finish": "18:00:00"
        }, 
        "horizon": 3, 
        "granularity": 10, 
        "geographic_area": {
            "upper_left": [
                46.259645, 
                12.860656
            ], 
            "lower_right": [
                45.936826, 
                13.485503
            ]
        }, 
        "max_consecutive_days": 2, 
        "finish_date": "2014-03-07T00:00:00", 
        "max_overtime_rate": 1.1, 
        "start_date": "2014-03-04T00:00:00"
    }
}