{
    "activities": [
        {
            "act_0_9": {
                "duration": 60, 
                "time_window": {
                    "start": "2014-03-04T13:00:00", 
                    "finish": "2014-03-04T18:00:00"
                }, 
                "required_operators": 1, 
                "location": {
                    "latitude": 45.9497815039431, 
                    "longitude": 12.872020420616948
                }, 
                "patient_name": "John Eads"
            }, 
            "act_0_8": {
                "duration": 60, 
                "time_window": {
                    "start": "2014-03-04T13:00:00", 
                    "finish": "2014-03-04T18:00:00"
                }, 
                "required_operators": 1, 
                "location": {
                    "latitude": 46.152770283621095, 
                    "longitude": 12.971591144862243
                }, 
                "patient_name": "John Freeman"
            }, 
            "act_0_3": {
                "duration": 30, 
                "time_window": {
                    "start": "2014-03-04T08:00:00", 
                    "finish": "2014-03-04T13:00:00"
                }, 
                "required_operators": 1, 
                "location": {
                    "latitude": 46.23080234671679, 
                    "longitude": 13.444630735417766
                }, 
                "patient_name": "Aaron Loy"
            }, 
            "act_0_2": {
                "duration": 60, 
                "time_window": {
                    "start": "2014-03-04T08:00:00", 
                    "finish": "2014-03-04T11:20:00"
                }, 
                "required_operators": 1, 
                "location": {
                    "latitude": 45.983748271721595, 
                    "longitude": 13.41055307183579
                }, 
                "patient_name": "Doreen Powell"
            }, 
            "act_0_1": {
                "duration": 30, 
                "time_window": {
                    "start": "2014-03-04T08:00:00", 
                    "finish": "2014-03-04T18:00:00"
                }, 
                "required_operators": 2, 
                "location": {
                    "latitude": 45.960238244138026, 
                    "longitude": 13.378604205719048
                }, 
                "patient_name": "Shirley Story"
            }, 
            "act_0_0": {
                "duration": 30, 
                "time_window": {
                    "start": "2014-03-04T08:00:00", 
                    "finish": "2014-03-04T18:00:00"
                }, 
                "required_operators": 1, 
                "location": {
                    "latitude": 45.963311670945465, 
                    "longitude": 13.360816250475102
                }, 
                "patient_name": "Robert Espinoza"
            }, 
            "act_0_7": {
                "duration": 60, 
                "time_window": {
                    "start": "2014-03-04T08:00:00", 
                    "finish": "2014-03-04T11:20:00"
                }, 
                "required_operators": 1, 
                "location": {
                    "latitude": 46.07934123204859, 
                    "longitude": 13.425714578246126
                }, 
                "patient_name": "Phillip Chavez"
            }, 
            "act_0_6": {
                "duration": 30, 
                "time_window": {
                    "start": "2014-03-04T08:00:00", 
                    "finish": "2014-03-04T13:00:00"
                }, 
                "required_operators": 1, 
                "location": {
                    "latitude": 46.19651016013281, 
                    "longitude": 13.118589502672148
                }, 
                "patient_name": "Martha Swan"
            }, 
            "act_0_5": {
                "duration": 30, 
                "time_window": {
                    "start": "2014-03-04T08:00:00", 
                    "finish": "2014-03-04T18:00:00"
                }, 
                "required_operators": 1, 
                "location": {
                    "latitude": 46.245686800652564, 
                    "longitude": 12.889600162111348
                }, 
                "patient_name": "Steve Pace"
            }, 
            "act_0_4": {
                "duration": 30, 
                "time_window": {
                    "start": "2014-03-04T11:20:00", 
                    "finish": "2014-03-04T14:40:00"
                }, 
                "required_operators": 1, 
                "location": {
                    "latitude": 45.985880255483735, 
                    "longitude": 13.178310953609543
                }, 
                "patient_name": "Emma Romero"
            }, 
            "act_0_19": {
                "duration": 60, 
                "time_window": {
                    "start": "2014-03-04T08:00:00", 
                    "finish": "2014-03-04T18:00:00"
                }, 
                "required_operators": 1, 
                "location": {
                    "latitude": 46.235633539384416, 
                    "longitude": 13.467437596868647
                }, 
                "patient_name": "Lucy Rinaldi"
            }, 
            "act_0_18": {
                "duration": 60, 
                "time_window": {
                    "start": "2014-03-04T08:00:00", 
                    "finish": "2014-03-04T11:20:00"
                }, 
                "required_operators": 1, 
                "location": {
                    "latitude": 46.05223575495373, 
                    "longitude": 13.369797688626468
                }, 
                "patient_name": "Christian Dilly"
            }, 
            "act_0_17": {
                "duration": 60, 
                "time_window": {
                    "start": "2014-03-04T13:00:00", 
                    "finish": "2014-03-04T18:00:00"
                }, 
                "required_operators": 1, 
                "location": {
                    "latitude": 46.22965233330157, 
                    "longitude": 12.99244953808265
                }, 
                "patient_name": "Archie Pannell"
            }, 
            "act_0_16": {
                "duration": 30, 
                "time_window": {
                    "start": "2014-03-04T13:00:00", 
                    "finish": "2014-03-04T18:00:00"
                }, 
                "required_operators": 2, 
                "location": {
                    "latitude": 46.07714115056821, 
                    "longitude": 13.479611138527087
                }, 
                "patient_name": "Richard Simpson"
            }, 
            "act_0_15": {
                "duration": 60, 
                "time_window": {
                    "start": "2014-03-04T13:00:00", 
                    "finish": "2014-03-04T18:00:00"
                }, 
                "required_operators": 1, 
                "location": {
                    "latitude": 46.24942766333176, 
                    "longitude": 13.019613116157274
                }, 
                "patient_name": "Larry Daniels"
            }, 
            "act_0_14": {
                "duration": 60, 
                "time_window": {
                    "start": "2014-03-04T08:00:00", 
                    "finish": "2014-03-04T13:00:00"
                }, 
                "required_operators": 1, 
                "location": {
                    "latitude": 46.18156729736397, 
                    "longitude": 13.117232230163763
                }, 
                "patient_name": "Juan Gingrich"
            }, 
            "act_0_13": {
                "duration": 30, 
                "time_window": {
                    "start": "2014-03-04T14:40:00", 
                    "finish": "2014-03-04T18:00:00"
                }, 
                "required_operators": 2, 
                "location": {
                    "latitude": 46.179244135233475, 
                    "longitude": 13.484026191041412
                }, 
                "patient_name": "John Richardson"
            }, 
            "act_0_12": {
                "duration": 30, 
                "time_window": {
                    "start": "2014-03-04T08:00:00", 
                    "finish": "2014-03-04T18:00:00"
                }, 
                "required_operators": 1, 
                "location": {
                    "latitude": 46.122785071681214, 
                    "longitude": 12.990572214821608
                }, 
                "patient_name": "Dan Cobb"
            }, 
            "act_0_11": {
                "duration": 60, 
                "time_window": {
                    "start": "2014-03-04T08:00:00", 
                    "finish": "2014-03-04T11:20:00"
                }, 
                "required_operators": 1, 
                "location": {
                    "latitude": 46.256611642132725, 
                    "longitude": 12.888647391605812
                }, 
                "patient_name": "Eric Mitchell"
            }, 
            "act_0_10": {
                "duration": 60, 
                "time_window": {
                    "start": "2014-03-04T08:00:00", 
                    "finish": "2014-03-04T13:00:00"
                }, 
                "required_operators": 1, 
                "location": {
                    "latitude": 45.9956023653064, 
                    "longitude": 13.043992516766739
                }, 
                "patient_name": "Davis Dahlberg"
            }
        }, 
        {
            "act_1_14": {
                "duration": 60, 
                "time_window": {
                    "start": "2014-03-05T08:00:00", 
                    "finish": "2014-03-05T18:00:00"
                }, 
                "required_operators": 1, 
                "location": {
                    "latitude": 46.16261201879786, 
                    "longitude": 12.87513456088012
                }, 
                "patient_name": "Timothy Fineran"
            }, 
            "act_1_15": {
                "duration": 60, 
                "time_window": {
                    "start": "2014-03-05T13:00:00", 
                    "finish": "2014-03-05T18:00:00"
                }, 
                "required_operators": 1, 
                "location": {
                    "latitude": 46.20848924685083, 
                    "longitude": 13.225672126282292
                }, 
                "patient_name": "Ernie Becraft"
            }, 
            "act_1_16": {
                "duration": 60, 
                "time_window": {
                    "start": "2014-03-05T13:00:00", 
                    "finish": "2014-03-05T18:00:00"
                }, 
                "required_operators": 2, 
                "location": {
                    "latitude": 46.04161417207809, 
                    "longitude": 13.326293033355203
                }, 
                "patient_name": "Roy Abud"
            }, 
            "act_1_17": {
                "duration": 30, 
                "time_window": {
                    "start": "2014-03-05T11:20:00", 
                    "finish": "2014-03-05T14:40:00"
                }, 
                "required_operators": 1, 
                "location": {
                    "latitude": 45.9701168207597, 
                    "longitude": 13.300291779398082
                }, 
                "patient_name": "Stacie Hanson"
            }, 
            "act_1_10": {
                "duration": 60, 
                "time_window": {
                    "start": "2014-03-05T08:00:00", 
                    "finish": "2014-03-05T11:20:00"
                }, 
                "required_operators": 1, 
                "location": {
                    "latitude": 46.057334152637715, 
                    "longitude": 13.28351080519591
                }, 
                "patient_name": "Thomas Boyter"
            }, 
            "act_1_11": {
                "duration": 60, 
                "time_window": {
                    "start": "2014-03-05T08:00:00", 
                    "finish": "2014-03-05T13:00:00"
                }, 
                "required_operators": 1, 
                "location": {
                    "latitude": 45.97959109581098, 
                    "longitude": 13.352316476309019
                }, 
                "patient_name": "Catherine Kemnitz"
            }, 
            "act_1_12": {
                "duration": 30, 
                "time_window": {
                    "start": "2014-03-05T13:00:00", 
                    "finish": "2014-03-05T18:00:00"
                }, 
                "required_operators": 1, 
                "location": {
                    "latitude": 46.216627835717944, 
                    "longitude": 12.912243438068021
                }, 
                "patient_name": "Anne Roberts"
            }, 
            "act_1_13": {
                "duration": 30, 
                "time_window": {
                    "start": "2014-03-05T11:20:00", 
                    "finish": "2014-03-05T14:40:00"
                }, 
                "required_operators": 1, 
                "location": {
                    "latitude": 46.14651603286373, 
                    "longitude": 13.248579780742688
                }, 
                "patient_name": "Brett Ramirez"
            }, 
            "act_1_18": {
                "duration": 60, 
                "time_window": {
                    "start": "2014-03-05T14:40:00", 
                    "finish": "2014-03-05T18:00:00"
                }, 
                "required_operators": 1, 
                "location": {
                    "latitude": 46.130447374591434, 
                    "longitude": 13.111007222618746
                }, 
                "patient_name": "Joseph Pena"
            }, 
            "act_1_19": {
                "duration": 30, 
                "time_window": {
                    "start": "2014-03-05T08:00:00", 
                    "finish": "2014-03-05T18:00:00"
                }, 
                "required_operators": 1, 
                "location": {
                    "latitude": 46.03583802013306, 
                    "longitude": 13.24478688287818
                }, 
                "patient_name": "Debra Mueller"
            }, 
            "act_1_2": {
                "duration": 60, 
                "time_window": {
                    "start": "2014-03-05T13:00:00", 
                    "finish": "2014-03-05T18:00:00"
                }, 
                "required_operators": 1, 
                "location": {
                    "latitude": 46.08189814791209, 
                    "longitude": 13.409713725347554
                }, 
                "patient_name": "Arturo King"
            }, 
            "act_1_3": {
                "duration": 60, 
                "time_window": {
                    "start": "2014-03-05T13:00:00", 
                    "finish": "2014-03-05T18:00:00"
                }, 
                "required_operators": 1, 
                "location": {
                    "latitude": 46.08971028736954, 
                    "longitude": 12.877147873573112
                }, 
                "patient_name": "Mike Santiago"
            }, 
            "act_1_0": {
                "duration": 30, 
                "time_window": {
                    "start": "2014-03-05T13:00:00", 
                    "finish": "2014-03-05T18:00:00"
                }, 
                "required_operators": 1, 
                "location": {
                    "latitude": 46.044263418058755, 
                    "longitude": 12.898448691060915
                }, 
                "patient_name": "Charlene Davis"
            }, 
            "act_1_1": {
                "duration": 60, 
                "time_window": {
                    "start": "2014-03-05T13:00:00", 
                    "finish": "2014-03-05T18:00:00"
                }, 
                "required_operators": 1, 
                "location": {
                    "latitude": 46.258588404784504, 
                    "longitude": 13.436991124532112
                }, 
                "patient_name": "Jesse Babb"
            }, 
            "act_1_6": {
                "duration": 30, 
                "time_window": {
                    "start": "2014-03-05T08:00:00", 
                    "finish": "2014-03-05T18:00:00"
                }, 
                "required_operators": 1, 
                "location": {
                    "latitude": 45.973839493186304, 
                    "longitude": 13.180874246785864
                }, 
                "patient_name": "Walter Grunau"
            }, 
            "act_1_7": {
                "duration": 60, 
                "time_window": {
                    "start": "2014-03-05T08:00:00", 
                    "finish": "2014-03-05T18:00:00"
                }, 
                "required_operators": 2, 
                "location": {
                    "latitude": 45.9896256380957, 
                    "longitude": 13.12463164176087
                }, 
                "patient_name": "Alfredo Eichler"
            }, 
            "act_1_4": {
                "duration": 60, 
                "time_window": {
                    "start": "2014-03-05T13:00:00", 
                    "finish": "2014-03-05T18:00:00"
                }, 
                "required_operators": 2, 
                "location": {
                    "latitude": 46.0118557574069, 
                    "longitude": 13.187442415679499
                }, 
                "patient_name": "Billy Hutchins"
            }, 
            "act_1_5": {
                "duration": 30, 
                "time_window": {
                    "start": "2014-03-05T08:00:00", 
                    "finish": "2014-03-05T18:00:00"
                }, 
                "required_operators": 1, 
                "location": {
                    "latitude": 46.005461360239266, 
                    "longitude": 13.05508924977604
                }, 
                "patient_name": "Clinton Bouley"
            }, 
            "act_1_8": {
                "duration": 30, 
                "time_window": {
                    "start": "2014-03-05T08:00:00", 
                    "finish": "2014-03-05T18:00:00"
                }, 
                "required_operators": 1, 
                "location": {
                    "latitude": 46.15034335817123, 
                    "longitude": 13.19923748963734
                }, 
                "patient_name": "Donna Landsman"
            }, 
            "act_1_9": {
                "duration": 30, 
                "time_window": {
                    "start": "2014-03-05T08:00:00", 
                    "finish": "2014-03-05T11:20:00"
                }, 
                "required_operators": 1, 
                "location": {
                    "latitude": 46.028640030225084, 
                    "longitude": 13.163237818700805
                }, 
                "patient_name": "Gwendolyn Smith"
            }
        }, 
        {
            "act_2_19": {
                "duration": 60, 
                "time_window": {
                    "start": "2014-03-06T08:00:00", 
                    "finish": "2014-03-06T11:20:00"
                }, 
                "required_operators": 1, 
                "location": {
                    "latitude": 46.09464577448394, 
                    "longitude": 12.879453051126998
                }, 
                "patient_name": "Martin Kulas"
            }, 
            "act_2_18": {
                "duration": 60, 
                "time_window": {
                    "start": "2014-03-06T08:00:00", 
                    "finish": "2014-03-06T18:00:00"
                }, 
                "required_operators": 1, 
                "location": {
                    "latitude": 46.17056468367782, 
                    "longitude": 13.332904985951854
                }, 
                "patient_name": "Sara Peterson"
            }, 
            "act_2_11": {
                "duration": 30, 
                "time_window": {
                    "start": "2014-03-06T14:40:00", 
                    "finish": "2014-03-06T18:00:00"
                }, 
                "required_operators": 1, 
                "location": {
                    "latitude": 46.057865574735885, 
                    "longitude": 13.072570790022445
                }, 
                "patient_name": "Anna Bozek"
            }, 
            "act_2_10": {
                "duration": 60, 
                "time_window": {
                    "start": "2014-03-06T08:00:00", 
                    "finish": "2014-03-06T11:20:00"
                }, 
                "required_operators": 1, 
                "location": {
                    "latitude": 46.06592102186423, 
                    "longitude": 12.883916441192403
                }, 
                "patient_name": "Russell Padovano"
            }, 
            "act_2_13": {
                "duration": 30, 
                "time_window": {
                    "start": "2014-03-06T13:00:00", 
                    "finish": "2014-03-06T18:00:00"
                }, 
                "required_operators": 1, 
                "location": {
                    "latitude": 46.06664031533983, 
                    "longitude": 13.016789612723688
                }, 
                "patient_name": "Gloria Martin"
            }, 
            "act_2_12": {
                "duration": 60, 
                "time_window": {
                    "start": "2014-03-06T13:00:00", 
                    "finish": "2014-03-06T18:00:00"
                }, 
                "required_operators": 1, 
                "location": {
                    "latitude": 46.06444235837923, 
                    "longitude": 13.190007970329312
                }, 
                "patient_name": "Kris Wollenberg"
            }, 
            "act_2_15": {
                "duration": 30, 
                "time_window": {
                    "start": "2014-03-06T14:40:00", 
                    "finish": "2014-03-06T18:00:00"
                }, 
                "required_operators": 1, 
                "location": {
                    "latitude": 46.24857335229607, 
                    "longitude": 13.159383846751151
                }, 
                "patient_name": "Kelly Grey"
            }, 
            "act_2_14": {
                "duration": 60, 
                "time_window": {
                    "start": "2014-03-06T11:20:00", 
                    "finish": "2014-03-06T14:40:00"
                }, 
                "required_operators": 2, 
                "location": {
                    "latitude": 45.99277537173028, 
                    "longitude": 13.178891056467014
                }, 
                "patient_name": "John Krol"
            }, 
            "act_2_17": {
                "duration": 60, 
                "time_window": {
                    "start": "2014-03-06T13:00:00", 
                    "finish": "2014-03-06T18:00:00"
                }, 
                "required_operators": 1, 
                "location": {
                    "latitude": 46.036663431150515, 
                    "longitude": 13.353557303080148
                }, 
                "patient_name": "Jose Konakowitz"
            }, 
            "act_2_16": {
                "duration": 60, 
                "time_window": {
                    "start": "2014-03-06T13:00:00", 
                    "finish": "2014-03-06T18:00:00"
                }, 
                "required_operators": 1, 
                "location": {
                    "latitude": 46.134242690339775, 
                    "longitude": 13.238567290109318
                }, 
                "patient_name": "Ronald Seegmiller"
            }, 
            "act_2_9": {
                "duration": 30, 
                "time_window": {
                    "start": "2014-03-06T11:20:00", 
                    "finish": "2014-03-06T14:40:00"
                }, 
                "required_operators": 1, 
                "location": {
                    "latitude": 45.99049172487566, 
                    "longitude": 13.227583031260139
                }, 
                "patient_name": "Lena Slowinski"
            }, 
            "act_2_8": {
                "duration": 30, 
                "time_window": {
                    "start": "2014-03-06T08:00:00", 
                    "finish": "2014-03-06T13:00:00"
                }, 
                "required_operators": 1, 
                "location": {
                    "latitude": 46.199892755811426, 
                    "longitude": 13.376461081154135
                }, 
                "patient_name": "Tami Stevens"
            }, 
            "act_2_5": {
                "duration": 30, 
                "time_window": {
                    "start": "2014-03-06T13:00:00", 
                    "finish": "2014-03-06T18:00:00"
                }, 
                "required_operators": 1, 
                "location": {
                    "latitude": 46.20986586389925, 
                    "longitude": 13.388236559188622
                }, 
                "patient_name": "Debbie Boatright"
            }, 
            "act_2_4": {
                "duration": 60, 
                "time_window": {
                    "start": "2014-03-06T13:00:00", 
                    "finish": "2014-03-06T18:00:00"
                }, 
                "required_operators": 1, 
                "location": {
                    "latitude": 45.95212344654559, 
                    "longitude": 13.409572179222817
                }, 
                "patient_name": "Amanda Schenkel"
            }, 
            "act_2_7": {
                "duration": 60, 
                "time_window": {
                    "start": "2014-03-06T08:00:00", 
                    "finish": "2014-03-06T18:00:00"
                }, 
                "required_operators": 2, 
                "location": {
                    "latitude": 46.21041087522206, 
                    "longitude": 12.958553301220984
                }, 
                "patient_name": "Jason Knox"
            }, 
            "act_2_6": {
                "duration": 30, 
                "time_window": {
                    "start": "2014-03-06T13:00:00", 
                    "finish": "2014-03-06T18:00:00"
                }, 
                "required_operators": 1, 
                "location": {
                    "latitude": 46.0394370204707, 
                    "longitude": 13.399021786736705
                }, 
                "patient_name": "John Cooper"
            }, 
            "act_2_1": {
                "duration": 30, 
                "time_window": {
                    "start": "2014-03-06T08:00:00", 
                    "finish": "2014-03-06T18:00:00"
                }, 
                "required_operators": 1, 
                "location": {
                    "latitude": 45.97150843396625, 
                    "longitude": 13.346736312975374
                }, 
                "patient_name": "Catherine Robinson"
            }, 
            "act_2_0": {
                "duration": 30, 
                "time_window": {
                    "start": "2014-03-06T08:00:00", 
                    "finish": "2014-03-06T18:00:00"
                }, 
                "required_operators": 1, 
                "location": {
                    "latitude": 45.94075830447794, 
                    "longitude": 13.435492826632466
                }, 
                "patient_name": "Burton Malcolm"
            }, 
            "act_2_3": {
                "duration": 30, 
                "time_window": {
                    "start": "2014-03-06T08:00:00", 
                    "finish": "2014-03-06T18:00:00"
                }, 
                "required_operators": 2, 
                "location": {
                    "latitude": 46.22033492261334, 
                    "longitude": 12.89893205488947
                }, 
                "patient_name": "Rebecca Meredith"
            }, 
            "act_2_2": {
                "duration": 30, 
                "time_window": {
                    "start": "2014-03-06T11:20:00", 
                    "finish": "2014-03-06T14:40:00"
                }, 
                "required_operators": 1, 
                "location": {
                    "latitude": 46.039903280020766, 
                    "longitude": 13.20253182211411
                }, 
                "patient_name": "Joseph Gilbert"
            }
        }, 
        {
            "act_3_4": {
                "duration": 60, 
                "time_window": {
                    "start": "2014-03-07T11:20:00", 
                    "finish": "2014-03-07T14:40:00"
                }, 
                "required_operators": 1, 
                "location": {
                    "latitude": 45.94001890962413, 
                    "longitude": 12.968051400078428
                }, 
                "patient_name": "Kenneth Mcdaniel"
            }, 
            "act_3_5": {
                "duration": 60, 
                "time_window": {
                    "start": "2014-03-07T14:40:00", 
                    "finish": "2014-03-07T18:00:00"
                }, 
                "required_operators": 2, 
                "location": {
                    "latitude": 46.03227713939089, 
                    "longitude": 13.27810263827223
                }, 
                "patient_name": "Elwood Bolar"
            }, 
            "act_3_6": {
                "duration": 30, 
                "time_window": {
                    "start": "2014-03-07T08:00:00", 
                    "finish": "2014-03-07T18:00:00"
                }, 
                "required_operators": 1, 
                "location": {
                    "latitude": 46.085123051100354, 
                    "longitude": 13.086972219115033
                }, 
                "patient_name": "Margaret Butler"
            }, 
            "act_3_7": {
                "duration": 30, 
                "time_window": {
                    "start": "2014-03-07T08:00:00", 
                    "finish": "2014-03-07T18:00:00"
                }, 
                "required_operators": 1, 
                "location": {
                    "latitude": 46.182725951636094, 
                    "longitude": 13.219204365621751
                }, 
                "patient_name": "Francisca Squire"
            }, 
            "act_3_0": {
                "duration": 60, 
                "time_window": {
                    "start": "2014-03-07T08:00:00", 
                    "finish": "2014-03-07T18:00:00"
                }, 
                "required_operators": 2, 
                "location": {
                    "latitude": 46.20606004341336, 
                    "longitude": 12.918223048991198
                }, 
                "patient_name": "Paul Burlingham"
            }, 
            "act_3_1": {
                "duration": 30, 
                "time_window": {
                    "start": "2014-03-07T13:00:00", 
                    "finish": "2014-03-07T18:00:00"
                }, 
                "required_operators": 2, 
                "location": {
                    "latitude": 46.11256039289284, 
                    "longitude": 13.479447166411088
                }, 
                "patient_name": "Roman Faber"
            }, 
            "act_3_2": {
                "duration": 60, 
                "time_window": {
                    "start": "2014-03-07T08:00:00", 
                    "finish": "2014-03-07T18:00:00"
                }, 
                "required_operators": 1, 
                "location": {
                    "latitude": 46.076525538925594, 
                    "longitude": 13.273453340731503
                }, 
                "patient_name": "Thomas Tinkham"
            }, 
            "act_3_3": {
                "duration": 60, 
                "time_window": {
                    "start": "2014-03-07T08:00:00", 
                    "finish": "2014-03-07T18:00:00"
                }, 
                "required_operators": 2, 
                "location": {
                    "latitude": 46.20118883809303, 
                    "longitude": 12.989473323718896
                }, 
                "patient_name": "Jennifer Hey"
            }, 
            "act_3_8": {
                "duration": 60, 
                "time_window": {
                    "start": "2014-03-07T08:00:00", 
                    "finish": "2014-03-07T11:20:00"
                }, 
                "required_operators": 1, 
                "location": {
                    "latitude": 46.19810439411756, 
                    "longitude": 13.078248960387473
                }, 
                "patient_name": "Victor Warner"
            }, 
            "act_3_9": {
                "duration": 60, 
                "time_window": {
                    "start": "2014-03-07T08:00:00", 
                    "finish": "2014-03-07T18:00:00"
                }, 
                "required_operators": 1, 
                "location": {
                    "latitude": 45.956700806399, 
                    "longitude": 13.171411783623299
                }, 
                "patient_name": "Deborah Williams"
            }, 
            "act_3_18": {
                "duration": 30, 
                "time_window": {
                    "start": "2014-03-07T08:00:00", 
                    "finish": "2014-03-07T18:00:00"
                }, 
                "required_operators": 1, 
                "location": {
                    "latitude": 46.036593121534196, 
                    "longitude": 13.460282483115979
                }, 
                "patient_name": "Jerry Burlew"
            }, 
            "act_3_19": {
                "duration": 30, 
                "time_window": {
                    "start": "2014-03-07T08:00:00", 
                    "finish": "2014-03-07T18:00:00"
                }, 
                "required_operators": 1, 
                "location": {
                    "latitude": 45.98693034993931, 
                    "longitude": 12.905674349718648
                }, 
                "patient_name": "Amanda Blackwell"
            }, 
            "act_3_16": {
                "duration": 30, 
                "time_window": {
                    "start": "2014-03-07T11:20:00", 
                    "finish": "2014-03-07T14:40:00"
                }, 
                "required_operators": 1, 
                "location": {
                    "latitude": 46.066959255118654, 
                    "longitude": 12.892795418380855
                }, 
                "patient_name": "Trevor Spain"
            }, 
            "act_3_17": {
                "duration": 60, 
                "time_window": {
                    "start": "2014-03-07T11:20:00", 
                    "finish": "2014-03-07T14:40:00"
                }, 
                "required_operators": 1, 
                "location": {
                    "latitude": 46.08409012621277, 
                    "longitude": 13.025083531358337
                }, 
                "patient_name": "Bettye Martin"
            }, 
            "act_3_14": {
                "duration": 60, 
                "time_window": {
                    "start": "2014-03-07T08:00:00", 
                    "finish": "2014-03-07T11:20:00"
                }, 
                "required_operators": 1, 
                "location": {
                    "latitude": 45.95015528655643, 
                    "longitude": 13.44563640847898
                }, 
                "patient_name": "Todd Cox"
            }, 
            "act_3_15": {
                "duration": 30, 
                "time_window": {
                    "start": "2014-03-07T08:00:00", 
                    "finish": "2014-03-07T13:00:00"
                }, 
                "required_operators": 1, 
                "location": {
                    "latitude": 46.19607431721423, 
                    "longitude": 13.155070407367763
                }, 
                "patient_name": "Steven Platt"
            }, 
            "act_3_12": {
                "duration": 30, 
                "time_window": {
                    "start": "2014-03-07T11:20:00", 
                    "finish": "2014-03-07T14:40:00"
                }, 
                "required_operators": 2, 
                "location": {
                    "latitude": 46.06592381766891, 
                    "longitude": 13.235077615646638
                }, 
                "patient_name": "Ophelia Velazquez"
            }, 
            "act_3_13": {
                "duration": 30, 
                "time_window": {
                    "start": "2014-03-07T13:00:00", 
                    "finish": "2014-03-07T18:00:00"
                }, 
                "required_operators": 2, 
                "location": {
                    "latitude": 46.16746094627987, 
                    "longitude": 13.132555957910565
                }, 
                "patient_name": "Mary Bean"
            }, 
            "act_3_10": {
                "duration": 30, 
                "time_window": {
                    "start": "2014-03-07T08:00:00", 
                    "finish": "2014-03-07T11:20:00"
                }, 
                "required_operators": 1, 
                "location": {
                    "latitude": 46.10993853058866, 
                    "longitude": 13.083053887135113
                }, 
                "patient_name": "Donald Cureton"
            }, 
            "act_3_11": {
                "duration": 60, 
                "time_window": {
                    "start": "2014-03-07T13:00:00", 
                    "finish": "2014-03-07T18:00:00"
                }, 
                "required_operators": 1, 
                "location": {
                    "latitude": 46.222552439361486, 
                    "longitude": 13.045318185868425
                }, 
                "patient_name": "Michael Jones"
            }
        }, 
        {
            "act_4_13": {
                "duration": 30, 
                "time_window": {
                    "start": "2014-03-08T13:00:00", 
                    "finish": "2014-03-08T18:00:00"
                }, 
                "required_operators": 2, 
                "location": {
                    "latitude": 46.19161968052181, 
                    "longitude": 12.877707996860249
                }, 
                "patient_name": "Domingo Herring"
            }, 
            "act_4_12": {
                "duration": 60, 
                "time_window": {
                    "start": "2014-03-08T08:00:00", 
                    "finish": "2014-03-08T11:20:00"
                }, 
                "required_operators": 2, 
                "location": {
                    "latitude": 46.01452404399518, 
                    "longitude": 13.21857565493861
                }, 
                "patient_name": "Carolyne Hubbard"
            }, 
            "act_4_11": {
                "duration": 30, 
                "time_window": {
                    "start": "2014-03-08T08:00:00", 
                    "finish": "2014-03-08T18:00:00"
                }, 
                "required_operators": 2, 
                "location": {
                    "latitude": 46.11948490282385, 
                    "longitude": 13.32133910187838
                }, 
                "patient_name": "Robert Kees"
            }, 
            "act_4_10": {
                "duration": 30, 
                "time_window": {
                    "start": "2014-03-08T11:20:00", 
                    "finish": "2014-03-08T14:40:00"
                }, 
                "required_operators": 1, 
                "location": {
                    "latitude": 46.11713354614901, 
                    "longitude": 13.318150905466336
                }, 
                "patient_name": "Shirley Holmes"
            }, 
            "act_4_17": {
                "duration": 60, 
                "time_window": {
                    "start": "2014-03-08T14:40:00", 
                    "finish": "2014-03-08T18:00:00"
                }, 
                "required_operators": 1, 
                "location": {
                    "latitude": 46.200070100280314, 
                    "longitude": 13.159774043044393
                }, 
                "patient_name": "James Hevey"
            }, 
            "act_4_15": {
                "duration": 60, 
                "time_window": {
                    "start": "2014-03-08T08:00:00", 
                    "finish": "2014-03-08T18:00:00"
                }, 
                "required_operators": 1, 
                "location": {
                    "latitude": 45.94328402498264, 
                    "longitude": 13.37976998007165
                }, 
                "patient_name": "Judy Fetterhoff"
            }, 
            "act_4_9": {
                "duration": 30, 
                "time_window": {
                    "start": "2014-03-08T11:20:00", 
                    "finish": "2014-03-08T14:40:00"
                }, 
                "required_operators": 2, 
                "location": {
                    "latitude": 46.25880050236978, 
                    "longitude": 13.270021822045182
                }, 
                "patient_name": "Ruth Rodriguez"
            }, 
            "act_4_8": {
                "duration": 30, 
                "time_window": {
                    "start": "2014-03-08T14:40:00", 
                    "finish": "2014-03-08T18:00:00"
                }, 
                "required_operators": 1, 
                "location": {
                    "latitude": 46.00219554913747, 
                    "longitude": 13.06593014349493
                }, 
                "patient_name": "Mark Doyle"
            }, 
            "act_4_7": {
                "duration": 30, 
                "time_window": {
                    "start": "2014-03-08T08:00:00", 
                    "finish": "2014-03-08T11:20:00"
                }, 
                "required_operators": 1, 
                "location": {
                    "latitude": 46.15760214046436, 
                    "longitude": 12.991299946338527
                }, 
                "patient_name": "Julia Curry"
            }, 
            "act_4_6": {
                "duration": 30, 
                "time_window": {
                    "start": "2014-03-08T08:00:00", 
                    "finish": "2014-03-08T13:00:00"
                }, 
                "required_operators": 2, 
                "location": {
                    "latitude": 46.038892042480086, 
                    "longitude": 13.314055835859179
                }, 
                "patient_name": "Chris Cornell"
            }, 
            "act_4_5": {
                "duration": 30, 
                "time_window": {
                    "start": "2014-03-08T08:00:00", 
                    "finish": "2014-03-08T13:00:00"
                }, 
                "required_operators": 1, 
                "location": {
                    "latitude": 46.05793252649339, 
                    "longitude": 12.967250180268444
                }, 
                "patient_name": "Ronald Mccready"
            }, 
            "act_4_4": {
                "duration": 30, 
                "time_window": {
                    "start": "2014-03-08T11:20:00", 
                    "finish": "2014-03-08T14:40:00"
                }, 
                "required_operators": 1, 
                "location": {
                    "latitude": 46.08362769864455, 
                    "longitude": 13.12616941735773
                }, 
                "patient_name": "Alan Jackson"
            }, 
            "act_4_3": {
                "duration": 30, 
                "time_window": {
                    "start": "2014-03-08T13:00:00", 
                    "finish": "2014-03-08T18:00:00"
                }, 
                "required_operators": 1, 
                "location": {
                    "latitude": 46.17019693797588, 
                    "longitude": 13.22759559823165
                }, 
                "patient_name": "Michael Walker"
            }, 
            "act_4_2": {
                "duration": 30, 
                "time_window": {
                    "start": "2014-03-08T14:40:00", 
                    "finish": "2014-03-08T18:00:00"
                }, 
                "required_operators": 1, 
                "location": {
                    "latitude": 46.03696813064178, 
                    "longitude": 12.900931763290739
                }, 
                "patient_name": "Alan Petit"
            }, 
            "act_4_1": {
                "duration": 30, 
                "time_window": {
                    "start": "2014-03-08T11:20:00", 
                    "finish": "2014-03-08T14:40:00"
                }, 
                "required_operators": 2, 
                "location": {
                    "latitude": 46.09253120584106, 
                    "longitude": 13.125629681800124
                }, 
                "patient_name": "Mack Lupez"
            }, 
            "act_4_0": {
                "duration": 30, 
                "time_window": {
                    "start": "2014-03-08T11:20:00", 
                    "finish": "2014-03-08T14:40:00"
                }, 
                "required_operators": 1, 
                "location": {
                    "latitude": 45.95125682072041, 
                    "longitude": 13.372022496087766
                }, 
                "patient_name": "Robert Hickman"
            }, 
            "act_4_18": {
                "duration": 60, 
                "time_window": {
                    "start": "2014-03-08T08:00:00", 
                    "finish": "2014-03-08T13:00:00"
                }, 
                "required_operators": 2, 
                "location": {
                    "latitude": 46.25585316945416, 
                    "longitude": 13.297503910929674
                }, 
                "patient_name": "Evelyn Orr"
            }, 
            "act_4_16": {
                "duration": 30, 
                "time_window": {
                    "start": "2014-03-08T13:00:00", 
                    "finish": "2014-03-08T18:00:00"
                }, 
                "required_operators": 1, 
                "location": {
                    "latitude": 45.96125188120324, 
                    "longitude": 13.038529610273509
                }, 
                "patient_name": "Louise Swindle"
            }, 
            "act_4_19": {
                "duration": 30, 
                "time_window": {
                    "start": "2014-03-08T08:00:00", 
                    "finish": "2014-03-08T18:00:00"
                }, 
                "required_operators": 1, 
                "location": {
                    "latitude": 46.17406491139882, 
                    "longitude": 13.308628417310041
                }, 
                "patient_name": "Annie Gober"
            }, 
            "act_4_14": {
                "duration": 60, 
                "time_window": {
                    "start": "2014-03-08T13:00:00", 
                    "finish": "2014-03-08T18:00:00"
                }, 
                "required_operators": 1, 
                "location": {
                    "latitude": 46.157079233871386, 
                    "longitude": 13.278999867266716
                }, 
                "patient_name": "Michael Hopper"
            }
        }, 
        {
            "act_5_18": {
                "duration": 60, 
                "time_window": {
                    "start": "2014-03-09T14:40:00", 
                    "finish": "2014-03-09T18:00:00"
                }, 
                "required_operators": 1, 
                "location": {
                    "latitude": 46.103201584424085, 
                    "longitude": 13.023202820519204
                }, 
                "patient_name": "Kenneth Fote"
            }, 
            "act_5_19": {
                "duration": 60, 
                "time_window": {
                    "start": "2014-03-09T11:20:00", 
                    "finish": "2014-03-09T14:40:00"
                }, 
                "required_operators": 1, 
                "location": {
                    "latitude": 46.10182096163657, 
                    "longitude": 13.463569020727649
                }, 
                "patient_name": "Jimmy Silvas"
            }, 
            "act_5_10": {
                "duration": 60, 
                "time_window": {
                    "start": "2014-03-09T08:00:00", 
                    "finish": "2014-03-09T13:00:00"
                }, 
                "required_operators": 1, 
                "location": {
                    "latitude": 46.07707170478728, 
                    "longitude": 13.014997780857442
                }, 
                "patient_name": "Andrew Rasor"
            }, 
            "act_5_11": {
                "duration": 30, 
                "time_window": {
                    "start": "2014-03-09T08:00:00", 
                    "finish": "2014-03-09T11:20:00"
                }, 
                "required_operators": 1, 
                "location": {
                    "latitude": 46.167198473894445, 
                    "longitude": 13.439709453074068
                }, 
                "patient_name": "Kathleen Smith"
            }, 
            "act_5_12": {
                "duration": 60, 
                "time_window": {
                    "start": "2014-03-09T11:20:00", 
                    "finish": "2014-03-09T14:40:00"
                }, 
                "required_operators": 1, 
                "location": {
                    "latitude": 46.13362089600397, 
                    "longitude": 13.200433835173541
                }, 
                "patient_name": "Sandra Puma"
            }, 
            "act_5_13": {
                "duration": 30, 
                "time_window": {
                    "start": "2014-03-09T13:00:00", 
                    "finish": "2014-03-09T18:00:00"
                }, 
                "required_operators": 2, 
                "location": {
                    "latitude": 46.23362432713831, 
                    "longitude": 13.1486129211845
                }, 
                "patient_name": "Annette Ross"
            }, 
            "act_5_14": {
                "duration": 60, 
                "time_window": {
                    "start": "2014-03-09T13:00:00", 
                    "finish": "2014-03-09T18:00:00"
                }, 
                "required_operators": 2, 
                "location": {
                    "latitude": 46.07174238574441, 
                    "longitude": 13.029273349472101
                }, 
                "patient_name": "Juan Kelley"
            }, 
            "act_5_15": {
                "duration": 30, 
                "time_window": {
                    "start": "2014-03-09T08:00:00", 
                    "finish": "2014-03-09T13:00:00"
                }, 
                "required_operators": 1, 
                "location": {
                    "latitude": 45.97419144603533, 
                    "longitude": 13.075333199356317
                }, 
                "patient_name": "Mary Molina"
            }, 
            "act_5_16": {
                "duration": 30, 
                "time_window": {
                    "start": "2014-03-09T11:20:00", 
                    "finish": "2014-03-09T14:40:00"
                }, 
                "required_operators": 1, 
                "location": {
                    "latitude": 46.15188832295518, 
                    "longitude": 12.880583267410781
                }, 
                "patient_name": "Michelle Hronick"
            }, 
            "act_5_17": {
                "duration": 30, 
                "time_window": {
                    "start": "2014-03-09T08:00:00", 
                    "finish": "2014-03-09T13:00:00"
                }, 
                "required_operators": 2, 
                "location": {
                    "latitude": 46.09381527633581, 
                    "longitude": 13.373296054578061
                }, 
                "patient_name": "Eddie Dillard"
            }, 
            "act_5_6": {
                "duration": 60, 
                "time_window": {
                    "start": "2014-03-09T13:00:00", 
                    "finish": "2014-03-09T18:00:00"
                }, 
                "required_operators": 1, 
                "location": {
                    "latitude": 46.054656333811515, 
                    "longitude": 12.934741653529382
                }, 
                "patient_name": "Roy Reagan"
            }, 
            "act_5_7": {
                "duration": 60, 
                "time_window": {
                    "start": "2014-03-09T08:00:00", 
                    "finish": "2014-03-09T11:20:00"
                }, 
                "required_operators": 1, 
                "location": {
                    "latitude": 46.13547128387123, 
                    "longitude": 12.989919292183506
                }, 
                "patient_name": "Robert Manalo"
            }, 
            "act_5_4": {
                "duration": 60, 
                "time_window": {
                    "start": "2014-03-09T13:00:00", 
                    "finish": "2014-03-09T18:00:00"
                }, 
                "required_operators": 1, 
                "location": {
                    "latitude": 46.001999137465404, 
                    "longitude": 12.900098402933748
                }, 
                "patient_name": "John Mcintosh"
            }, 
            "act_5_5": {
                "duration": 60, 
                "time_window": {
                    "start": "2014-03-09T08:00:00", 
                    "finish": "2014-03-09T18:00:00"
                }, 
                "required_operators": 1, 
                "location": {
                    "latitude": 46.25510928379978, 
                    "longitude": 13.16219700299978
                }, 
                "patient_name": "Carol Smith"
            }, 
            "act_5_2": {
                "duration": 30, 
                "time_window": {
                    "start": "2014-03-09T08:00:00", 
                    "finish": "2014-03-09T18:00:00"
                }, 
                "required_operators": 1, 
                "location": {
                    "latitude": 45.97883558250228, 
                    "longitude": 13.051128102193458
                }, 
                "patient_name": "Sharon Mercier"
            }, 
            "act_5_3": {
                "duration": 60, 
                "time_window": {
                    "start": "2014-03-09T08:00:00", 
                    "finish": "2014-03-09T18:00:00"
                }, 
                "required_operators": 1, 
                "location": {
                    "latitude": 46.074232151192156, 
                    "longitude": 13.031783558440319
                }, 
                "patient_name": "Cecil Kiely"
            }, 
            "act_5_0": {
                "duration": 60, 
                "time_window": {
                    "start": "2014-03-09T13:00:00", 
                    "finish": "2014-03-09T18:00:00"
                }, 
                "required_operators": 1, 
                "location": {
                    "latitude": 45.959820866019754, 
                    "longitude": 13.324053807926738
                }, 
                "patient_name": "Gina Hemrich"
            }, 
            "act_5_1": {
                "duration": 60, 
                "time_window": {
                    "start": "2014-03-09T13:00:00", 
                    "finish": "2014-03-09T18:00:00"
                }, 
                "required_operators": 1, 
                "location": {
                    "latitude": 46.04372664823785, 
                    "longitude": 13.019579062949166
                }, 
                "patient_name": "Henry Dudek"
            }, 
            "act_5_8": {
                "duration": 60, 
                "time_window": {
                    "start": "2014-03-09T08:00:00", 
                    "finish": "2014-03-09T18:00:00"
                }, 
                "required_operators": 1, 
                "location": {
                    "latitude": 45.97812559353456, 
                    "longitude": 13.38887037784716
                }, 
                "patient_name": "Patrick Bryan"
            }, 
            "act_5_9": {
                "duration": 60, 
                "time_window": {
                    "start": "2014-03-09T08:00:00", 
                    "finish": "2014-03-09T13:00:00"
                }, 
                "required_operators": 1, 
                "location": {
                    "latitude": 46.22493547212238, 
                    "longitude": 12.950824964375814
                }, 
                "patient_name": "Elisa Mickelson"
            }
        }
    ], 
    "operators": {
        "op_8": {
            "time_windows": [
                {}, 
                {
                    "start": "2014-03-05T08:00:00", 
                    "finish": "2014-03-05T18:00:00", 
                    "regular_worktime": "8:00:00"
                }, 
                {
                    "start": "2014-03-06T13:00:00", 
                    "finish": "2014-03-06T18:00:00", 
                    "regular_worktime": "4:00:00"
                }, 
                {
                    "start": "2014-03-07T08:00:00", 
                    "finish": "2014-03-07T18:00:00", 
                    "regular_worktime": "8:00:00"
                }, 
                {
                    "start": "2014-03-08T08:00:00", 
                    "finish": "2014-03-08T13:00:00", 
                    "regular_worktime": "4:00:00"
                }, 
                {
                    "start": "2014-03-09T08:00:00", 
                    "finish": "2014-03-09T18:00:00", 
                    "regular_worktime": "8:00:00"
                }
            ], 
            "incompatible_activities": [
                "act_4_11", 
                "act_1_1", 
                "act_4_6", 
                "act_5_1"
            ], 
            "maximum_working_hours": "32:00:00", 
            "name": "Marina Brown", 
            "minimum_working_hours": "32:00:00"
        }, 
        "op_4": {
            "time_windows": [
                {
                    "start": "2014-03-04T08:00:00", 
                    "finish": "2014-03-04T13:00:00", 
                    "regular_worktime": "4:00:00"
                }, 
                {
                    "start": "2014-03-05T08:00:00", 
                    "finish": "2014-03-05T18:00:00", 
                    "regular_worktime": "8:00:00"
                }, 
                {
                    "start": "2014-03-06T08:00:00", 
                    "finish": "2014-03-06T13:00:00", 
                    "regular_worktime": "4:00:00"
                }, 
                {
                    "start": "2014-03-07T13:00:00", 
                    "finish": "2014-03-07T18:00:00", 
                    "regular_worktime": "4:00:00"
                }, 
                {
                    "start": "2014-03-08T08:00:00", 
                    "finish": "2014-03-08T18:00:00", 
                    "regular_worktime": "8:00:00"
                }, 
                {
                    "start": "2014-03-09T08:00:00", 
                    "finish": "2014-03-09T18:00:00", 
                    "regular_worktime": "8:00:00"
                }
            ], 
            "incompatible_activities": [
                "act_0_14", 
                "act_0_7", 
                "act_4_8", 
                "act_2_9"
            ], 
            "maximum_working_hours": "32:00:00", 
            "name": "Gordon Polston", 
            "minimum_working_hours": "28:00:00"
        }, 
        "op_5": {
            "time_windows": [
                {
                    "start": "2014-03-04T08:00:00", 
                    "finish": "2014-03-04T18:00:00", 
                    "regular_worktime": "8:00:00"
                }, 
                {
                    "start": "2014-03-05T08:00:00", 
                    "finish": "2014-03-05T18:00:00", 
                    "regular_worktime": "8:00:00"
                }, 
                {
                    "start": "2014-03-06T08:00:00", 
                    "finish": "2014-03-06T18:00:00", 
                    "regular_worktime": "8:00:00"
                }, 
                {
                    "start": "2014-03-07T08:00:00", 
                    "finish": "2014-03-07T18:00:00", 
                    "regular_worktime": "8:00:00"
                }, 
                {
                    "start": "2014-03-08T08:00:00", 
                    "finish": "2014-03-08T18:00:00", 
                    "regular_worktime": "8:00:00"
                }, 
                {
                    "start": "2014-03-09T08:00:00", 
                    "finish": "2014-03-09T18:00:00", 
                    "regular_worktime": "8:00:00"
                }
            ], 
            "incompatible_activities": [
                "act_3_9", 
                "act_2_15", 
                "act_0_14", 
                "act_2_1"
            ], 
            "maximum_working_hours": "40:00:00", 
            "name": "Brian Gibbs", 
            "minimum_working_hours": "40:00:00"
        }, 
        "op_6": {
            "time_windows": [
                {
                    "start": "2014-03-04T08:00:00", 
                    "finish": "2014-03-04T13:00:00", 
                    "regular_worktime": "4:00:00"
                }, 
                {
                    "start": "2014-03-05T08:00:00", 
                    "finish": "2014-03-05T18:00:00", 
                    "regular_worktime": "8:00:00"
                }, 
                {
                    "start": "2014-03-06T08:00:00", 
                    "finish": "2014-03-06T18:00:00", 
                    "regular_worktime": "8:00:00"
                }, 
                {
                    "start": "2014-03-07T08:00:00", 
                    "finish": "2014-03-07T18:00:00", 
                    "regular_worktime": "8:00:00"
                }, 
                {
                    "start": "2014-03-08T08:00:00", 
                    "finish": "2014-03-08T18:00:00", 
                    "regular_worktime": "8:00:00"
                }, 
                {
                    "start": "2014-03-09T08:00:00", 
                    "finish": "2014-03-09T18:00:00", 
                    "regular_worktime": "8:00:00"
                }
            ], 
            "incompatible_activities": [
                "act_5_7", 
                "act_2_4", 
                "act_2_10", 
                "act_4_0"
            ], 
            "maximum_working_hours": "40:00:00", 
            "name": "Melody Ables", 
            "minimum_working_hours": "36:00:00"
        }, 
        "op_7": {
            "time_windows": [
                {
                    "start": "2014-03-04T08:00:00", 
                    "finish": "2014-03-04T18:00:00", 
                    "regular_worktime": "8:00:00"
                }, 
                {
                    "start": "2014-03-05T13:00:00", 
                    "finish": "2014-03-05T18:00:00", 
                    "regular_worktime": "4:00:00"
                }, 
                {
                    "start": "2014-03-06T08:00:00", 
                    "finish": "2014-03-06T18:00:00", 
                    "regular_worktime": "8:00:00"
                }, 
                {
                    "start": "2014-03-07T08:00:00", 
                    "finish": "2014-03-07T18:00:00", 
                    "regular_worktime": "8:00:00"
                }, 
                {
                    "start": "2014-03-08T08:00:00", 
                    "finish": "2014-03-08T18:00:00", 
                    "regular_worktime": "8:00:00"
                }, 
                {
                    "start": "2014-03-09T08:00:00", 
                    "finish": "2014-03-09T13:00:00", 
                    "regular_worktime": "4:00:00"
                }
            ], 
            "incompatible_activities": [
                "act_3_14", 
                "act_3_5", 
                "act_4_3", 
                "act_0_6"
            ], 
            "maximum_working_hours": "36:00:00", 
            "name": "Warren Evans", 
            "minimum_working_hours": "32:00:00"
        }, 
        "op_0": {
            "time_windows": [
                {
                    "start": "2014-03-04T08:00:00", 
                    "finish": "2014-03-04T18:00:00", 
                    "regular_worktime": "8:00:00"
                }, 
                {
                    "start": "2014-03-05T08:00:00", 
                    "finish": "2014-03-05T18:00:00", 
                    "regular_worktime": "8:00:00"
                }, 
                {
                    "start": "2014-03-06T08:00:00", 
                    "finish": "2014-03-06T18:00:00", 
                    "regular_worktime": "8:00:00"
                }, 
                {
                    "start": "2014-03-07T08:00:00", 
                    "finish": "2014-03-07T18:00:00", 
                    "regular_worktime": "8:00:00"
                }, 
                {
                    "start": "2014-03-08T13:00:00", 
                    "finish": "2014-03-08T18:00:00", 
                    "regular_worktime": "4:00:00"
                }, 
                {
                    "start": "2014-03-09T08:00:00", 
                    "finish": "2014-03-09T18:00:00", 
                    "regular_worktime": "8:00:00"
                }
            ], 
            "incompatible_activities": [
                "act_3_16", 
                "act_3_17", 
                "act_0_10", 
                "act_3_4"
            ], 
            "maximum_working_hours": "40:00:00", 
            "name": "Kevin Corley", 
            "minimum_working_hours": "36:00:00"
        }, 
        "op_1": {
            "time_windows": [
                {
                    "start": "2014-03-04T08:00:00", 
                    "finish": "2014-03-04T18:00:00", 
                    "regular_worktime": "8:00:00"
                }, 
                {
                    "start": "2014-03-05T08:00:00", 
                    "finish": "2014-03-05T18:00:00", 
                    "regular_worktime": "8:00:00"
                }, 
                {
                    "start": "2014-03-06T13:00:00", 
                    "finish": "2014-03-06T18:00:00", 
                    "regular_worktime": "4:00:00"
                }, 
                {
                    "start": "2014-03-07T08:00:00", 
                    "finish": "2014-03-07T13:00:00", 
                    "regular_worktime": "4:00:00"
                }, 
                {
                    "start": "2014-03-08T13:00:00", 
                    "finish": "2014-03-08T18:00:00", 
                    "regular_worktime": "4:00:00"
                }, 
                {
                    "start": "2014-03-09T13:00:00", 
                    "finish": "2014-03-09T18:00:00", 
                    "regular_worktime": "4:00:00"
                }
            ], 
            "incompatible_activities": [
                "act_1_8", 
                "act_3_15", 
                "act_2_14", 
                "act_1_14"
            ], 
            "maximum_working_hours": "28:00:00", 
            "name": "Jason James", 
            "minimum_working_hours": "24:00:00"
        }, 
        "op_2": {
            "time_windows": [
                {
                    "start": "2014-03-04T08:00:00", 
                    "finish": "2014-03-04T18:00:00", 
                    "regular_worktime": "8:00:00"
                }, 
                {
                    "start": "2014-03-05T08:00:00", 
                    "finish": "2014-03-05T18:00:00", 
                    "regular_worktime": "8:00:00"
                }, 
                {
                    "start": "2014-03-06T08:00:00", 
                    "finish": "2014-03-06T18:00:00", 
                    "regular_worktime": "8:00:00"
                }, 
                {
                    "start": "2014-03-07T08:00:00", 
                    "finish": "2014-03-07T18:00:00", 
                    "regular_worktime": "8:00:00"
                }, 
                {
                    "start": "2014-03-08T13:00:00", 
                    "finish": "2014-03-08T18:00:00", 
                    "regular_worktime": "4:00:00"
                }, 
                {
                    "start": "2014-03-09T08:00:00", 
                    "finish": "2014-03-09T18:00:00", 
                    "regular_worktime": "8:00:00"
                }
            ], 
            "incompatible_activities": [
                "act_1_0", 
                "act_2_5", 
                "act_4_10", 
                "act_0_1"
            ], 
            "maximum_working_hours": "40:00:00", 
            "name": "Mike Larson", 
            "minimum_working_hours": "36:00:00"
        }, 
        "op_3": {
            "time_windows": [
                {
                    "start": "2014-03-04T08:00:00", 
                    "finish": "2014-03-04T18:00:00", 
                    "regular_worktime": "8:00:00"
                }, 
                {
                    "start": "2014-03-05T08:00:00", 
                    "finish": "2014-03-05T18:00:00", 
                    "regular_worktime": "8:00:00"
                }, 
                {
                    "start": "2014-03-06T08:00:00", 
                    "finish": "2014-03-06T18:00:00", 
                    "regular_worktime": "8:00:00"
                }, 
                {
                    "start": "2014-03-07T08:00:00", 
                    "finish": "2014-03-07T18:00:00", 
                    "regular_worktime": "8:00:00"
                }, 
                {
                    "start": "2014-03-08T08:00:00", 
                    "finish": "2014-03-08T18:00:00", 
                    "regular_worktime": "8:00:00"
                }, 
                {
                    "start": "2014-03-09T08:00:00", 
                    "finish": "2014-03-09T18:00:00", 
                    "regular_worktime": "8:00:00"
                }
            ], 
            "incompatible_activities": [
                "act_1_16", 
                "act_4_19", 
                "act_0_1", 
                "act_2_2"
            ], 
            "maximum_working_hours": "40:00:00", 
            "name": "Barbara Testani", 
            "minimum_working_hours": "40:00:00"
        }
    }, 
    "meta": {
        "time_window": {
            "start": "08:00:00", 
            "finish": "18:00:00"
        }, 
        "horizon": 6, 
        "granularity": 10, 
        "geographic_area": {
            "upper_left": [
                46.259645, 
                12.860656
            ], 
            "lower_right": [
                45.936826, 
                13.485503
            ]
        }, 
        "max_consecutive_days": 5, 
        "finish_date": "2014-03-10T00:00:00", 
        "max_overtime_rate": 1.1, 
        "start_date": "2014-03-04T00:00:00"
    }
}