{
    "activities": [
        {
            "act_0_39": {
                "duration": 30, 
                "time_window": {
                    "start": "2014-03-05T14:40:00", 
                    "finish": "2014-03-05T18:00:00"
                }, 
                "required_operators": 1, 
                "location": {
                    "latitude": 45.98935584091942, 
                    "longitude": 13.298926990789766
                }, 
                "patient_name": "David Dumbleton"
            }, 
            "act_0_35": {
                "duration": 30, 
                "time_window": {
                    "start": "2014-03-05T14:40:00", 
                    "finish": "2014-03-05T18:00:00"
                }, 
                "required_operators": 1, 
                "location": {
                    "latitude": 46.07477134829074, 
                    "longitude": 12.939651186111972
                }, 
                "patient_name": "Melinda Wilson"
            }, 
            "act_0_34": {
                "duration": 60, 
                "time_window": {
                    "start": "2014-03-05T11:20:00", 
                    "finish": "2014-03-05T14:40:00"
                }, 
                "required_operators": 2, 
                "location": {
                    "latitude": 46.07221478787195, 
                    "longitude": 12.98324463317543
                }, 
                "patient_name": "James Henderson"
            }, 
            "act_0_37": {
                "duration": 30, 
                "time_window": {
                    "start": "2014-03-05T08:00:00", 
                    "finish": "2014-03-05T11:20:00"
                }, 
                "required_operators": 2, 
                "location": {
                    "latitude": 46.25206327698415, 
                    "longitude": 13.30282271759078
                }, 
                "patient_name": "Charles Campbell"
            }, 
            "act_0_36": {
                "duration": 60, 
                "time_window": {
                    "start": "2014-03-05T08:00:00", 
                    "finish": "2014-03-05T13:00:00"
                }, 
                "required_operators": 1, 
                "location": {
                    "latitude": 46.090477434542265, 
                    "longitude": 13.322961357410199
                }, 
                "patient_name": "Stefanie Vasquez"
            }, 
            "act_0_31": {
                "duration": 30, 
                "time_window": {
                    "start": "2014-03-05T08:00:00", 
                    "finish": "2014-03-05T13:00:00"
                }, 
                "required_operators": 2, 
                "location": {
                    "latitude": 45.96747355017668, 
                    "longitude": 13.080831763026536
                }, 
                "patient_name": "Albert Gordan"
            }, 
            "act_0_30": {
                "duration": 60, 
                "time_window": {
                    "start": "2014-03-05T13:00:00", 
                    "finish": "2014-03-05T18:00:00"
                }, 
                "required_operators": 1, 
                "location": {
                    "latitude": 46.219876898679, 
                    "longitude": 13.484472050537374
                }, 
                "patient_name": "Amy Vanhamlin"
            }, 
            "act_0_19": {
                "duration": 30, 
                "time_window": {
                    "start": "2014-03-05T13:00:00", 
                    "finish": "2014-03-05T18:00:00"
                }, 
                "required_operators": 1, 
                "location": {
                    "latitude": 45.9664429149754, 
                    "longitude": 13.270618450681493
                }, 
                "patient_name": "Michelle Cassada"
            }, 
            "act_0_18": {
                "duration": 30, 
                "time_window": {
                    "start": "2014-03-05T08:00:00", 
                    "finish": "2014-03-05T18:00:00"
                }, 
                "required_operators": 1, 
                "location": {
                    "latitude": 46.105047780185004, 
                    "longitude": 13.113492265107876
                }, 
                "patient_name": "Angie Burden"
            }, 
            "act_0_17": {
                "duration": 30, 
                "time_window": {
                    "start": "2014-03-05T08:00:00", 
                    "finish": "2014-03-05T13:00:00"
                }, 
                "required_operators": 1, 
                "location": {
                    "latitude": 46.118181825925014, 
                    "longitude": 13.44692400385831
                }, 
                "patient_name": "Marta Stratton"
            }, 
            "act_0_16": {
                "duration": 30, 
                "time_window": {
                    "start": "2014-03-05T08:00:00", 
                    "finish": "2014-03-05T13:00:00"
                }, 
                "required_operators": 1, 
                "location": {
                    "latitude": 46.19830575391147, 
                    "longitude": 12.974831991828518
                }, 
                "patient_name": "Debra Pena"
            }, 
            "act_0_15": {
                "duration": 30, 
                "time_window": {
                    "start": "2014-03-05T08:00:00", 
                    "finish": "2014-03-05T13:00:00"
                }, 
                "required_operators": 1, 
                "location": {
                    "latitude": 46.04246159791618, 
                    "longitude": 13.44089793335065
                }, 
                "patient_name": "Jodi Johnson"
            }, 
            "act_0_14": {
                "duration": 30, 
                "time_window": {
                    "start": "2014-03-05T14:40:00", 
                    "finish": "2014-03-05T18:00:00"
                }, 
                "required_operators": 2, 
                "location": {
                    "latitude": 46.23332337798393, 
                    "longitude": 12.99238538325962
                }, 
                "patient_name": "Zachary Bila"
            }, 
            "act_0_13": {
                "duration": 30, 
                "time_window": {
                    "start": "2014-03-05T13:00:00", 
                    "finish": "2014-03-05T18:00:00"
                }, 
                "required_operators": 2, 
                "location": {
                    "latitude": 46.20430145856771, 
                    "longitude": 12.92361585992627
                }, 
                "patient_name": "Lindsay Casey"
            }, 
            "act_0_12": {
                "duration": 60, 
                "time_window": {
                    "start": "2014-03-05T13:00:00", 
                    "finish": "2014-03-05T18:00:00"
                }, 
                "required_operators": 1, 
                "location": {
                    "latitude": 45.999704741712044, 
                    "longitude": 13.285173438007686
                }, 
                "patient_name": "Willie Stephenson"
            }, 
            "act_0_11": {
                "duration": 60, 
                "time_window": {
                    "start": "2014-03-05T13:00:00", 
                    "finish": "2014-03-05T18:00:00"
                }, 
                "required_operators": 1, 
                "location": {
                    "latitude": 46.095410590405876, 
                    "longitude": 13.329063748775601
                }, 
                "patient_name": "Seymour Franz"
            }, 
            "act_0_10": {
                "duration": 60, 
                "time_window": {
                    "start": "2014-03-05T13:00:00", 
                    "finish": "2014-03-05T18:00:00"
                }, 
                "required_operators": 1, 
                "location": {
                    "latitude": 46.19894764090189, 
                    "longitude": 13.271022812670163
                }, 
                "patient_name": "Robert Goyco"
            }, 
            "act_0_33": {
                "duration": 30, 
                "time_window": {
                    "start": "2014-03-05T14:40:00", 
                    "finish": "2014-03-05T18:00:00"
                }, 
                "required_operators": 2, 
                "location": {
                    "latitude": 46.1496470262648, 
                    "longitude": 13.194264001427888
                }, 
                "patient_name": "Brittany Mosely"
            }, 
            "act_0_38": {
                "duration": 60, 
                "time_window": {
                    "start": "2014-03-05T08:00:00", 
                    "finish": "2014-03-05T18:00:00"
                }, 
                "required_operators": 1, 
                "location": {
                    "latitude": 45.96230617833179, 
                    "longitude": 13.165423112104998
                }, 
                "patient_name": "Kristen Williams"
            }, 
            "act_0_32": {
                "duration": 60, 
                "time_window": {
                    "start": "2014-03-05T13:00:00", 
                    "finish": "2014-03-05T18:00:00"
                }, 
                "required_operators": 1, 
                "location": {
                    "latitude": 46.08242546268489, 
                    "longitude": 13.03380099792388
                }, 
                "patient_name": "Sophie Bird"
            }, 
            "act_0_9": {
                "duration": 60, 
                "time_window": {
                    "start": "2014-03-05T08:00:00", 
                    "finish": "2014-03-05T13:00:00"
                }, 
                "required_operators": 1, 
                "location": {
                    "latitude": 46.03919321660598, 
                    "longitude": 13.433109124786837
                }, 
                "patient_name": "William Christmas"
            }, 
            "act_0_8": {
                "duration": 30, 
                "time_window": {
                    "start": "2014-03-05T08:00:00", 
                    "finish": "2014-03-05T13:00:00"
                }, 
                "required_operators": 1, 
                "location": {
                    "latitude": 46.21852918047285, 
                    "longitude": 13.383912234711167
                }, 
                "patient_name": "Randall Martinez"
            }, 
            "act_0_3": {
                "duration": 30, 
                "time_window": {
                    "start": "2014-03-05T11:20:00", 
                    "finish": "2014-03-05T14:40:00"
                }, 
                "required_operators": 1, 
                "location": {
                    "latitude": 46.028541193030215, 
                    "longitude": 13.069069177151695
                }, 
                "patient_name": "Lucio Gehl"
            }, 
            "act_0_2": {
                "duration": 30, 
                "time_window": {
                    "start": "2014-03-05T11:20:00", 
                    "finish": "2014-03-05T14:40:00"
                }, 
                "required_operators": 1, 
                "location": {
                    "latitude": 45.938418312877744, 
                    "longitude": 13.40613789143782
                }, 
                "patient_name": "Brad Kerr"
            }, 
            "act_0_1": {
                "duration": 30, 
                "time_window": {
                    "start": "2014-03-05T08:00:00", 
                    "finish": "2014-03-05T18:00:00"
                }, 
                "required_operators": 1, 
                "location": {
                    "latitude": 46.25867255638635, 
                    "longitude": 13.181976816615617
                }, 
                "patient_name": "Andrew Galimi"
            }, 
            "act_0_0": {
                "duration": 30, 
                "time_window": {
                    "start": "2014-03-05T14:40:00", 
                    "finish": "2014-03-05T18:00:00"
                }, 
                "required_operators": 1, 
                "location": {
                    "latitude": 45.958245609550765, 
                    "longitude": 13.080234947595114
                }, 
                "patient_name": "Edith Hernandez"
            }, 
            "act_0_7": {
                "duration": 30, 
                "time_window": {
                    "start": "2014-03-05T14:40:00", 
                    "finish": "2014-03-05T18:00:00"
                }, 
                "required_operators": 2, 
                "location": {
                    "latitude": 46.126570658835064, 
                    "longitude": 13.30832054541866
                }, 
                "patient_name": "Frances Zimmerman"
            }, 
            "act_0_6": {
                "duration": 60, 
                "time_window": {
                    "start": "2014-03-05T11:20:00", 
                    "finish": "2014-03-05T14:40:00"
                }, 
                "required_operators": 1, 
                "location": {
                    "latitude": 46.03514968874285, 
                    "longitude": 13.052424099165483
                }, 
                "patient_name": "Lisa Morris"
            }, 
            "act_0_5": {
                "duration": 60, 
                "time_window": {
                    "start": "2014-03-05T08:00:00", 
                    "finish": "2014-03-05T18:00:00"
                }, 
                "required_operators": 1, 
                "location": {
                    "latitude": 45.964066016061274, 
                    "longitude": 12.8949836391706
                }, 
                "patient_name": "Shelia Carrillo"
            }, 
            "act_0_4": {
                "duration": 60, 
                "time_window": {
                    "start": "2014-03-05T14:40:00", 
                    "finish": "2014-03-05T18:00:00"
                }, 
                "required_operators": 1, 
                "location": {
                    "latitude": 46.13184513419658, 
                    "longitude": 13.296408002078353
                }, 
                "patient_name": "Marvin Pingrey"
            }, 
            "act_0_22": {
                "duration": 60, 
                "time_window": {
                    "start": "2014-03-05T08:00:00", 
                    "finish": "2014-03-05T13:00:00"
                }, 
                "required_operators": 1, 
                "location": {
                    "latitude": 46.178395237763986, 
                    "longitude": 12.89400541384989
                }, 
                "patient_name": "Zachery Miley"
            }, 
            "act_0_23": {
                "duration": 30, 
                "time_window": {
                    "start": "2014-03-05T13:00:00", 
                    "finish": "2014-03-05T18:00:00"
                }, 
                "required_operators": 1, 
                "location": {
                    "latitude": 46.14754912757443, 
                    "longitude": 13.234754055009581
                }, 
                "patient_name": "Young Hodge"
            }, 
            "act_0_20": {
                "duration": 60, 
                "time_window": {
                    "start": "2014-03-05T08:00:00", 
                    "finish": "2014-03-05T18:00:00"
                }, 
                "required_operators": 1, 
                "location": {
                    "latitude": 46.09877060010726, 
                    "longitude": 13.245765933480476
                }, 
                "patient_name": "Johnny Davis"
            }, 
            "act_0_21": {
                "duration": 30, 
                "time_window": {
                    "start": "2014-03-05T08:00:00", 
                    "finish": "2014-03-05T18:00:00"
                }, 
                "required_operators": 1, 
                "location": {
                    "latitude": 46.19295746802547, 
                    "longitude": 13.061579079043366
                }, 
                "patient_name": "Dolores Moore"
            }, 
            "act_0_26": {
                "duration": 30, 
                "time_window": {
                    "start": "2014-03-05T08:00:00", 
                    "finish": "2014-03-05T18:00:00"
                }, 
                "required_operators": 1, 
                "location": {
                    "latitude": 46.01446451481193, 
                    "longitude": 12.975924031832697
                }, 
                "patient_name": "Nelson Douglas"
            }, 
            "act_0_27": {
                "duration": 30, 
                "time_window": {
                    "start": "2014-03-05T11:20:00", 
                    "finish": "2014-03-05T14:40:00"
                }, 
                "required_operators": 1, 
                "location": {
                    "latitude": 46.12960082958034, 
                    "longitude": 13.091088909039787
                }, 
                "patient_name": "Booker Evans"
            }, 
            "act_0_24": {
                "duration": 30, 
                "time_window": {
                    "start": "2014-03-05T13:00:00", 
                    "finish": "2014-03-05T18:00:00"
                }, 
                "required_operators": 1, 
                "location": {
                    "latitude": 46.03782665878028, 
                    "longitude": 12.935436843094713
                }, 
                "patient_name": "Mary Freitag"
            }, 
            "act_0_25": {
                "duration": 30, 
                "time_window": {
                    "start": "2014-03-05T08:00:00", 
                    "finish": "2014-03-05T13:00:00"
                }, 
                "required_operators": 1, 
                "location": {
                    "latitude": 46.19077401611233, 
                    "longitude": 13.20791204821552
                }, 
                "patient_name": "Diane Penn"
            }, 
            "act_0_28": {
                "duration": 60, 
                "time_window": {
                    "start": "2014-03-05T13:00:00", 
                    "finish": "2014-03-05T18:00:00"
                }, 
                "required_operators": 1, 
                "location": {
                    "latitude": 45.960829685380865, 
                    "longitude": 12.901864588006642
                }, 
                "patient_name": "Valerie Broughton"
            }, 
            "act_0_29": {
                "duration": 30, 
                "time_window": {
                    "start": "2014-03-05T11:20:00", 
                    "finish": "2014-03-05T14:40:00"
                }, 
                "required_operators": 1, 
                "location": {
                    "latitude": 46.01661076229069, 
                    "longitude": 13.342060698779413
                }, 
                "patient_name": "William Hairston"
            }
        }, 
        {
            "act_1_38": {
                "duration": 60, 
                "time_window": {
                    "start": "2014-03-06T08:00:00", 
                    "finish": "2014-03-06T18:00:00"
                }, 
                "required_operators": 1, 
                "location": {
                    "latitude": 45.988341918289564, 
                    "longitude": 13.377389979388752
                }, 
                "patient_name": "Norman Garcia"
            }, 
            "act_1_39": {
                "duration": 30, 
                "time_window": {
                    "start": "2014-03-06T13:00:00", 
                    "finish": "2014-03-06T18:00:00"
                }, 
                "required_operators": 1, 
                "location": {
                    "latitude": 46.026159867478874, 
                    "longitude": 13.193229487668768
                }, 
                "patient_name": "Jeffery Wolfe"
            }, 
            "act_1_32": {
                "duration": 30, 
                "time_window": {
                    "start": "2014-03-06T08:00:00", 
                    "finish": "2014-03-06T13:00:00"
                }, 
                "required_operators": 2, 
                "location": {
                    "latitude": 46.0640085462354, 
                    "longitude": 13.401546960885758
                }, 
                "patient_name": "Stanley Johnson"
            }, 
            "act_1_33": {
                "duration": 60, 
                "time_window": {
                    "start": "2014-03-06T08:00:00", 
                    "finish": "2014-03-06T18:00:00"
                }, 
                "required_operators": 2, 
                "location": {
                    "latitude": 46.20969299167512, 
                    "longitude": 13.139195062697134
                }, 
                "patient_name": "Virginia Kenney"
            }, 
            "act_1_30": {
                "duration": 60, 
                "time_window": {
                    "start": "2014-03-06T08:00:00", 
                    "finish": "2014-03-06T13:00:00"
                }, 
                "required_operators": 1, 
                "location": {
                    "latitude": 45.95522777801111, 
                    "longitude": 13.45673329500771
                }, 
                "patient_name": "Beatrice Lee"
            }, 
            "act_1_31": {
                "duration": 60, 
                "time_window": {
                    "start": "2014-03-06T08:00:00", 
                    "finish": "2014-03-06T18:00:00"
                }, 
                "required_operators": 1, 
                "location": {
                    "latitude": 46.02593035023046, 
                    "longitude": 13.010255938653938
                }, 
                "patient_name": "Katherine Moore"
            }, 
            "act_1_36": {
                "duration": 30, 
                "time_window": {
                    "start": "2014-03-06T08:00:00", 
                    "finish": "2014-03-06T18:00:00"
                }, 
                "required_operators": 1, 
                "location": {
                    "latitude": 45.97314973730165, 
                    "longitude": 13.295686900912115
                }, 
                "patient_name": "Casey Scroggins"
            }, 
            "act_1_37": {
                "duration": 30, 
                "time_window": {
                    "start": "2014-03-06T08:00:00", 
                    "finish": "2014-03-06T18:00:00"
                }, 
                "required_operators": 2, 
                "location": {
                    "latitude": 46.077780847116635, 
                    "longitude": 13.429239762927864
                }, 
                "patient_name": "Anthony Stone"
            }, 
            "act_1_34": {
                "duration": 30, 
                "time_window": {
                    "start": "2014-03-06T13:00:00", 
                    "finish": "2014-03-06T18:00:00"
                }, 
                "required_operators": 2, 
                "location": {
                    "latitude": 46.01698994943591, 
                    "longitude": 13.118010657617665
                }, 
                "patient_name": "John Gholston"
            }, 
            "act_1_35": {
                "duration": 30, 
                "time_window": {
                    "start": "2014-03-06T13:00:00", 
                    "finish": "2014-03-06T18:00:00"
                }, 
                "required_operators": 2, 
                "location": {
                    "latitude": 46.00172756165068, 
                    "longitude": 13.399200042554844
                }, 
                "patient_name": "Carrie Demar"
            }, 
            "act_1_14": {
                "duration": 60, 
                "time_window": {
                    "start": "2014-03-06T08:00:00", 
                    "finish": "2014-03-06T11:20:00"
                }, 
                "required_operators": 2, 
                "location": {
                    "latitude": 45.97917019527097, 
                    "longitude": 13.432227000285083
                }, 
                "patient_name": "Martha London"
            }, 
            "act_1_15": {
                "duration": 60, 
                "time_window": {
                    "start": "2014-03-06T08:00:00", 
                    "finish": "2014-03-06T11:20:00"
                }, 
                "required_operators": 1, 
                "location": {
                    "latitude": 46.03294660165242, 
                    "longitude": 13.143262343864285
                }, 
                "patient_name": "Tony Berry"
            }, 
            "act_1_16": {
                "duration": 60, 
                "time_window": {
                    "start": "2014-03-06T08:00:00", 
                    "finish": "2014-03-06T18:00:00"
                }, 
                "required_operators": 1, 
                "location": {
                    "latitude": 46.113934112394894, 
                    "longitude": 13.12522376780049
                }, 
                "patient_name": "Virginia Kriser"
            }, 
            "act_1_17": {
                "duration": 60, 
                "time_window": {
                    "start": "2014-03-06T14:40:00", 
                    "finish": "2014-03-06T18:00:00"
                }, 
                "required_operators": 1, 
                "location": {
                    "latitude": 46.02248816812534, 
                    "longitude": 13.306630883950035
                }, 
                "patient_name": "Stacey Herring"
            }, 
            "act_1_10": {
                "duration": 60, 
                "time_window": {
                    "start": "2014-03-06T13:00:00", 
                    "finish": "2014-03-06T18:00:00"
                }, 
                "required_operators": 1, 
                "location": {
                    "latitude": 46.06861907970319, 
                    "longitude": 13.422192553993549
                }, 
                "patient_name": "Cary Salazar"
            }, 
            "act_1_11": {
                "duration": 60, 
                "time_window": {
                    "start": "2014-03-06T13:00:00", 
                    "finish": "2014-03-06T18:00:00"
                }, 
                "required_operators": 1, 
                "location": {
                    "latitude": 46.22150571852014, 
                    "longitude": 13.352679081365604
                }, 
                "patient_name": "Corrine Crittenden"
            }, 
            "act_1_12": {
                "duration": 60, 
                "time_window": {
                    "start": "2014-03-06T08:00:00", 
                    "finish": "2014-03-06T18:00:00"
                }, 
                "required_operators": 1, 
                "location": {
                    "latitude": 46.13166324269201, 
                    "longitude": 12.93905191257309
                }, 
                "patient_name": "Nina Flores"
            }, 
            "act_1_13": {
                "duration": 30, 
                "time_window": {
                    "start": "2014-03-06T13:00:00", 
                    "finish": "2014-03-06T18:00:00"
                }, 
                "required_operators": 1, 
                "location": {
                    "latitude": 46.24195952208459, 
                    "longitude": 13.351910937344353
                }, 
                "patient_name": "Mary Herzog"
            }, 
            "act_1_18": {
                "duration": 60, 
                "time_window": {
                    "start": "2014-03-06T13:00:00", 
                    "finish": "2014-03-06T18:00:00"
                }, 
                "required_operators": 1, 
                "location": {
                    "latitude": 46.20164509581182, 
                    "longitude": 12.896238010007783
                }, 
                "patient_name": "Glen Camp"
            }, 
            "act_1_19": {
                "duration": 60, 
                "time_window": {
                    "start": "2014-03-06T08:00:00", 
                    "finish": "2014-03-06T18:00:00"
                }, 
                "required_operators": 1, 
                "location": {
                    "latitude": 46.115383499363695, 
                    "longitude": 13.129722367983515
                }, 
                "patient_name": "Stanley Moga"
            }, 
            "act_1_2": {
                "duration": 30, 
                "time_window": {
                    "start": "2014-03-06T08:00:00", 
                    "finish": "2014-03-06T18:00:00"
                }, 
                "required_operators": 1, 
                "location": {
                    "latitude": 45.937166317769744, 
                    "longitude": 13.315531617453832
                }, 
                "patient_name": "Alec Wolfram"
            }, 
            "act_1_3": {
                "duration": 60, 
                "time_window": {
                    "start": "2014-03-06T08:00:00", 
                    "finish": "2014-03-06T18:00:00"
                }, 
                "required_operators": 1, 
                "location": {
                    "latitude": 46.13828622846193, 
                    "longitude": 13.18089943073028
                }, 
                "patient_name": "Robbie Duncan"
            }, 
            "act_1_0": {
                "duration": 30, 
                "time_window": {
                    "start": "2014-03-06T08:00:00", 
                    "finish": "2014-03-06T18:00:00"
                }, 
                "required_operators": 1, 
                "location": {
                    "latitude": 46.085289207037796, 
                    "longitude": 13.450695214406496
                }, 
                "patient_name": "Caron Bryant"
            }, 
            "act_1_1": {
                "duration": 60, 
                "time_window": {
                    "start": "2014-03-06T08:00:00", 
                    "finish": "2014-03-06T13:00:00"
                }, 
                "required_operators": 1, 
                "location": {
                    "latitude": 46.16300571811195, 
                    "longitude": 12.919783598163377
                }, 
                "patient_name": "Robert Pitts"
            }, 
            "act_1_6": {
                "duration": 30, 
                "time_window": {
                    "start": "2014-03-06T14:40:00", 
                    "finish": "2014-03-06T18:00:00"
                }, 
                "required_operators": 1, 
                "location": {
                    "latitude": 46.16425162910678, 
                    "longitude": 13.32526889893576
                }, 
                "patient_name": "Rickie Bonner"
            }, 
            "act_1_7": {
                "duration": 30, 
                "time_window": {
                    "start": "2014-03-06T08:00:00", 
                    "finish": "2014-03-06T11:20:00"
                }, 
                "required_operators": 1, 
                "location": {
                    "latitude": 46.245510934312975, 
                    "longitude": 13.104876961389968
                }, 
                "patient_name": "Brandon Carruthers"
            }, 
            "act_1_4": {
                "duration": 60, 
                "time_window": {
                    "start": "2014-03-06T14:40:00", 
                    "finish": "2014-03-06T18:00:00"
                }, 
                "required_operators": 1, 
                "location": {
                    "latitude": 46.22023197133915, 
                    "longitude": 13.062910642641782
                }, 
                "patient_name": "Brandon Lowery"
            }, 
            "act_1_5": {
                "duration": 60, 
                "time_window": {
                    "start": "2014-03-06T14:40:00", 
                    "finish": "2014-03-06T18:00:00"
                }, 
                "required_operators": 2, 
                "location": {
                    "latitude": 46.0945971824802, 
                    "longitude": 13.476866582141433
                }, 
                "patient_name": "Jaime Laitila"
            }, 
            "act_1_8": {
                "duration": 60, 
                "time_window": {
                    "start": "2014-03-06T08:00:00", 
                    "finish": "2014-03-06T13:00:00"
                }, 
                "required_operators": 1, 
                "location": {
                    "latitude": 46.11603399566439, 
                    "longitude": 13.393569254542019
                }, 
                "patient_name": "Dina Mccord"
            }, 
            "act_1_9": {
                "duration": 30, 
                "time_window": {
                    "start": "2014-03-06T13:00:00", 
                    "finish": "2014-03-06T18:00:00"
                }, 
                "required_operators": 2, 
                "location": {
                    "latitude": 46.15863118438474, 
                    "longitude": 13.35338930457612
                }, 
                "patient_name": "Emma Lindsay"
            }, 
            "act_1_29": {
                "duration": 30, 
                "time_window": {
                    "start": "2014-03-06T08:00:00", 
                    "finish": "2014-03-06T18:00:00"
                }, 
                "required_operators": 2, 
                "location": {
                    "latitude": 45.95973423561302, 
                    "longitude": 12.89329401161953
                }, 
                "patient_name": "Jamie Okane"
            }, 
            "act_1_28": {
                "duration": 30, 
                "time_window": {
                    "start": "2014-03-06T08:00:00", 
                    "finish": "2014-03-06T18:00:00"
                }, 
                "required_operators": 2, 
                "location": {
                    "latitude": 46.049919423292486, 
                    "longitude": 13.183419170173316
                }, 
                "patient_name": "John Kissell"
            }, 
            "act_1_25": {
                "duration": 60, 
                "time_window": {
                    "start": "2014-03-06T08:00:00", 
                    "finish": "2014-03-06T11:20:00"
                }, 
                "required_operators": 1, 
                "location": {
                    "latitude": 46.079195266722614, 
                    "longitude": 13.203400170548425
                }, 
                "patient_name": "Kristy Green"
            }, 
            "act_1_24": {
                "duration": 60, 
                "time_window": {
                    "start": "2014-03-06T08:00:00", 
                    "finish": "2014-03-06T11:20:00"
                }, 
                "required_operators": 2, 
                "location": {
                    "latitude": 46.22267525920786, 
                    "longitude": 13.131089096585347
                }, 
                "patient_name": "Rudy Battle"
            }, 
            "act_1_27": {
                "duration": 60, 
                "time_window": {
                    "start": "2014-03-06T08:00:00", 
                    "finish": "2014-03-06T13:00:00"
                }, 
                "required_operators": 1, 
                "location": {
                    "latitude": 46.13955359804545, 
                    "longitude": 13.46539654275285
                }, 
                "patient_name": "Donald Muro"
            }, 
            "act_1_26": {
                "duration": 60, 
                "time_window": {
                    "start": "2014-03-06T08:00:00", 
                    "finish": "2014-03-06T13:00:00"
                }, 
                "required_operators": 1, 
                "location": {
                    "latitude": 46.24382737790732, 
                    "longitude": 12.866600498247198
                }, 
                "patient_name": "Pauline Baker"
            }, 
            "act_1_21": {
                "duration": 60, 
                "time_window": {
                    "start": "2014-03-06T08:00:00", 
                    "finish": "2014-03-06T11:20:00"
                }, 
                "required_operators": 1, 
                "location": {
                    "latitude": 46.13945914125717, 
                    "longitude": 13.077089875785232
                }, 
                "patient_name": "Mary Kahn"
            }, 
            "act_1_20": {
                "duration": 60, 
                "time_window": {
                    "start": "2014-03-06T08:00:00", 
                    "finish": "2014-03-06T18:00:00"
                }, 
                "required_operators": 1, 
                "location": {
                    "latitude": 45.98278625974567, 
                    "longitude": 13.116648214108265
                }, 
                "patient_name": "Patrick Howard"
            }, 
            "act_1_23": {
                "duration": 30, 
                "time_window": {
                    "start": "2014-03-06T08:00:00", 
                    "finish": "2014-03-06T18:00:00"
                }, 
                "required_operators": 1, 
                "location": {
                    "latitude": 46.00529747229505, 
                    "longitude": 13.088363537579223
                }, 
                "patient_name": "David Speights"
            }, 
            "act_1_22": {
                "duration": 30, 
                "time_window": {
                    "start": "2014-03-06T11:20:00", 
                    "finish": "2014-03-06T14:40:00"
                }, 
                "required_operators": 1, 
                "location": {
                    "latitude": 46.06575344904988, 
                    "longitude": 13.332243740452666
                }, 
                "patient_name": "Leroy Moore"
            }
        }, 
        {
            "act_2_19": {
                "duration": 60, 
                "time_window": {
                    "start": "2014-03-07T14:40:00", 
                    "finish": "2014-03-07T18:00:00"
                }, 
                "required_operators": 2, 
                "location": {
                    "latitude": 46.1748457254774, 
                    "longitude": 13.117424158819237
                }, 
                "patient_name": "Rita Soler"
            }, 
            "act_2_18": {
                "duration": 30, 
                "time_window": {
                    "start": "2014-03-07T08:00:00", 
                    "finish": "2014-03-07T18:00:00"
                }, 
                "required_operators": 2, 
                "location": {
                    "latitude": 46.11222744446209, 
                    "longitude": 13.381920439465357
                }, 
                "patient_name": "James Morey"
            }, 
            "act_2_11": {
                "duration": 30, 
                "time_window": {
                    "start": "2014-03-07T13:00:00", 
                    "finish": "2014-03-07T18:00:00"
                }, 
                "required_operators": 1, 
                "location": {
                    "latitude": 46.02173745823088, 
                    "longitude": 13.296720836320477
                }, 
                "patient_name": "Johnathan Carroll"
            }, 
            "act_2_10": {
                "duration": 30, 
                "time_window": {
                    "start": "2014-03-07T08:00:00", 
                    "finish": "2014-03-07T18:00:00"
                }, 
                "required_operators": 3, 
                "location": {
                    "latitude": 45.99496029981677, 
                    "longitude": 13.060727035364279
                }, 
                "patient_name": "Roy Price"
            }, 
            "act_2_13": {
                "duration": 30, 
                "time_window": {
                    "start": "2014-03-07T08:00:00", 
                    "finish": "2014-03-07T18:00:00"
                }, 
                "required_operators": 1, 
                "location": {
                    "latitude": 46.21300388348157, 
                    "longitude": 13.216577664504884
                }, 
                "patient_name": "Angela Allery"
            }, 
            "act_2_12": {
                "duration": 60, 
                "time_window": {
                    "start": "2014-03-07T13:00:00", 
                    "finish": "2014-03-07T18:00:00"
                }, 
                "required_operators": 1, 
                "location": {
                    "latitude": 46.087505700409324, 
                    "longitude": 13.118411056217388
                }, 
                "patient_name": "John Han"
            }, 
            "act_2_15": {
                "duration": 60, 
                "time_window": {
                    "start": "2014-03-07T11:20:00", 
                    "finish": "2014-03-07T14:40:00"
                }, 
                "required_operators": 1, 
                "location": {
                    "latitude": 46.1626655251937, 
                    "longitude": 13.28495251660682
                }, 
                "patient_name": "Steven Warner"
            }, 
            "act_2_14": {
                "duration": 30, 
                "time_window": {
                    "start": "2014-03-07T08:00:00", 
                    "finish": "2014-03-07T18:00:00"
                }, 
                "required_operators": 2, 
                "location": {
                    "latitude": 46.09104408488768, 
                    "longitude": 13.257747665343556
                }, 
                "patient_name": "Roxanne Pryce"
            }, 
            "act_2_17": {
                "duration": 30, 
                "time_window": {
                    "start": "2014-03-07T13:00:00", 
                    "finish": "2014-03-07T18:00:00"
                }, 
                "required_operators": 1, 
                "location": {
                    "latitude": 46.01056275390128, 
                    "longitude": 13.232261174476116
                }, 
                "patient_name": "Carmen Cruz"
            }, 
            "act_2_16": {
                "duration": 60, 
                "time_window": {
                    "start": "2014-03-07T08:00:00", 
                    "finish": "2014-03-07T18:00:00"
                }, 
                "required_operators": 1, 
                "location": {
                    "latitude": 46.17520542054099, 
                    "longitude": 13.282266315081436
                }, 
                "patient_name": "Christine Hill"
            }, 
            "act_2_33": {
                "duration": 60, 
                "time_window": {
                    "start": "2014-03-07T11:20:00", 
                    "finish": "2014-03-07T14:40:00"
                }, 
                "required_operators": 1, 
                "location": {
                    "latitude": 46.25673491797554, 
                    "longitude": 13.01541296156049
                }, 
                "patient_name": "James Rodrigues"
            }, 
            "act_2_32": {
                "duration": 30, 
                "time_window": {
                    "start": "2014-03-07T08:00:00", 
                    "finish": "2014-03-07T13:00:00"
                }, 
                "required_operators": 1, 
                "location": {
                    "latitude": 45.97867002344762, 
                    "longitude": 13.046998032482557
                }, 
                "patient_name": "Faye Kern"
            }, 
            "act_2_31": {
                "duration": 60, 
                "time_window": {
                    "start": "2014-03-07T08:00:00", 
                    "finish": "2014-03-07T13:00:00"
                }, 
                "required_operators": 2, 
                "location": {
                    "latitude": 46.211909992638816, 
                    "longitude": 13.03391127232018
                }, 
                "patient_name": "Stephen Yoo"
            }, 
            "act_2_30": {
                "duration": 30, 
                "time_window": {
                    "start": "2014-03-07T08:00:00", 
                    "finish": "2014-03-07T13:00:00"
                }, 
                "required_operators": 1, 
                "location": {
                    "latitude": 46.07198326848336, 
                    "longitude": 13.385621622833233
                }, 
                "patient_name": "Lyle Mackay"
            }, 
            "act_2_37": {
                "duration": 30, 
                "time_window": {
                    "start": "2014-03-07T11:20:00", 
                    "finish": "2014-03-07T14:40:00"
                }, 
                "required_operators": 1, 
                "location": {
                    "latitude": 46.05712613753467, 
                    "longitude": 13.314265497161767
                }, 
                "patient_name": "Roy Valdez"
            }, 
            "act_2_36": {
                "duration": 30, 
                "time_window": {
                    "start": "2014-03-07T08:00:00", 
                    "finish": "2014-03-07T13:00:00"
                }, 
                "required_operators": 1, 
                "location": {
                    "latitude": 45.95345450053585, 
                    "longitude": 13.098993403416388
                }, 
                "patient_name": "Susan Monson"
            }, 
            "act_2_35": {
                "duration": 30, 
                "time_window": {
                    "start": "2014-03-07T08:00:00", 
                    "finish": "2014-03-07T11:20:00"
                }, 
                "required_operators": 1, 
                "location": {
                    "latitude": 46.135390654375456, 
                    "longitude": 13.037295438330146
                }, 
                "patient_name": "Paula Richardt"
            }, 
            "act_2_34": {
                "duration": 60, 
                "time_window": {
                    "start": "2014-03-07T08:00:00", 
                    "finish": "2014-03-07T18:00:00"
                }, 
                "required_operators": 1, 
                "location": {
                    "latitude": 46.035596192937525, 
                    "longitude": 13.078569562619665
                }, 
                "patient_name": "Leroy Roush"
            }, 
            "act_2_39": {
                "duration": 30, 
                "time_window": {
                    "start": "2014-03-07T08:00:00", 
                    "finish": "2014-03-07T18:00:00"
                }, 
                "required_operators": 1, 
                "location": {
                    "latitude": 45.97347490851876, 
                    "longitude": 12.98452476588561
                }, 
                "patient_name": "Stephanie Garrett"
            }, 
            "act_2_38": {
                "duration": 60, 
                "time_window": {
                    "start": "2014-03-07T08:00:00", 
                    "finish": "2014-03-07T11:20:00"
                }, 
                "required_operators": 1, 
                "location": {
                    "latitude": 46.25631473987957, 
                    "longitude": 13.098127167668746
                }, 
                "patient_name": "Mary Roberts"
            }, 
            "act_2_20": {
                "duration": 30, 
                "time_window": {
                    "start": "2014-03-07T08:00:00", 
                    "finish": "2014-03-07T18:00:00"
                }, 
                "required_operators": 1, 
                "location": {
                    "latitude": 46.18060784690494, 
                    "longitude": 13.172013694876402
                }, 
                "patient_name": "Thelma Harbaugh"
            }, 
            "act_2_21": {
                "duration": 30, 
                "time_window": {
                    "start": "2014-03-07T13:00:00", 
                    "finish": "2014-03-07T18:00:00"
                }, 
                "required_operators": 1, 
                "location": {
                    "latitude": 46.19150901070168, 
                    "longitude": 13.207575322323843
                }, 
                "patient_name": "Crystal Verne"
            }, 
            "act_2_22": {
                "duration": 60, 
                "time_window": {
                    "start": "2014-03-07T08:00:00", 
                    "finish": "2014-03-07T18:00:00"
                }, 
                "required_operators": 1, 
                "location": {
                    "latitude": 46.181616624853746, 
                    "longitude": 13.463878887870138
                }, 
                "patient_name": "Josef Fox"
            }, 
            "act_2_23": {
                "duration": 60, 
                "time_window": {
                    "start": "2014-03-07T08:00:00", 
                    "finish": "2014-03-07T18:00:00"
                }, 
                "required_operators": 1, 
                "location": {
                    "latitude": 46.12922163363426, 
                    "longitude": 13.325589250377632
                }, 
                "patient_name": "Jesica Mayfield"
            }, 
            "act_2_24": {
                "duration": 60, 
                "time_window": {
                    "start": "2014-03-07T14:40:00", 
                    "finish": "2014-03-07T18:00:00"
                }, 
                "required_operators": 1, 
                "location": {
                    "latitude": 46.09098866587938, 
                    "longitude": 13.320025295820946
                }, 
                "patient_name": "Pamela Wilson"
            }, 
            "act_2_25": {
                "duration": 30, 
                "time_window": {
                    "start": "2014-03-07T13:00:00", 
                    "finish": "2014-03-07T18:00:00"
                }, 
                "required_operators": 1, 
                "location": {
                    "latitude": 46.13792770106485, 
                    "longitude": 12.9254203902089
                }, 
                "patient_name": "Michael Patton"
            }, 
            "act_2_26": {
                "duration": 30, 
                "time_window": {
                    "start": "2014-03-07T08:00:00", 
                    "finish": "2014-03-07T13:00:00"
                }, 
                "required_operators": 1, 
                "location": {
                    "latitude": 45.96609160759212, 
                    "longitude": 12.933578072538884
                }, 
                "patient_name": "Alvin Sylvester"
            }, 
            "act_2_27": {
                "duration": 60, 
                "time_window": {
                    "start": "2014-03-07T08:00:00", 
                    "finish": "2014-03-07T13:00:00"
                }, 
                "required_operators": 1, 
                "location": {
                    "latitude": 45.96369715127823, 
                    "longitude": 13.469720707562152
                }, 
                "patient_name": "David Bourgeois"
            }, 
            "act_2_28": {
                "duration": 30, 
                "time_window": {
                    "start": "2014-03-07T08:00:00", 
                    "finish": "2014-03-07T18:00:00"
                }, 
                "required_operators": 1, 
                "location": {
                    "latitude": 45.93845179870305, 
                    "longitude": 13.373867692322925
                }, 
                "patient_name": "Eve Gervais"
            }, 
            "act_2_29": {
                "duration": 30, 
                "time_window": {
                    "start": "2014-03-07T11:20:00", 
                    "finish": "2014-03-07T14:40:00"
                }, 
                "required_operators": 1, 
                "location": {
                    "latitude": 46.08291260284287, 
                    "longitude": 13.25881584537487
                }, 
                "patient_name": "Hazel Klotz"
            }, 
            "act_2_9": {
                "duration": 30, 
                "time_window": {
                    "start": "2014-03-07T08:00:00", 
                    "finish": "2014-03-07T13:00:00"
                }, 
                "required_operators": 1, 
                "location": {
                    "latitude": 46.1214584852204, 
                    "longitude": 12.991341560485672
                }, 
                "patient_name": "Doris Hoefling"
            }, 
            "act_2_8": {
                "duration": 30, 
                "time_window": {
                    "start": "2014-03-07T08:00:00", 
                    "finish": "2014-03-07T13:00:00"
                }, 
                "required_operators": 1, 
                "location": {
                    "latitude": 46.14762926419486, 
                    "longitude": 13.397118762763338
                }, 
                "patient_name": "William Reff"
            }, 
            "act_2_5": {
                "duration": 30, 
                "time_window": {
                    "start": "2014-03-07T08:00:00", 
                    "finish": "2014-03-07T11:20:00"
                }, 
                "required_operators": 1, 
                "location": {
                    "latitude": 46.233134762861255, 
                    "longitude": 13.125211873707197
                }, 
                "patient_name": "Maxine Obrien"
            }, 
            "act_2_4": {
                "duration": 60, 
                "time_window": {
                    "start": "2014-03-07T08:00:00", 
                    "finish": "2014-03-07T18:00:00"
                }, 
                "required_operators": 1, 
                "location": {
                    "latitude": 46.11827684090156, 
                    "longitude": 13.455650530157708
                }, 
                "patient_name": "Christy Anderson"
            }, 
            "act_2_7": {
                "duration": 60, 
                "time_window": {
                    "start": "2014-03-07T11:20:00", 
                    "finish": "2014-03-07T14:40:00"
                }, 
                "required_operators": 1, 
                "location": {
                    "latitude": 46.108506237032984, 
                    "longitude": 13.304506913562237
                }, 
                "patient_name": "Carl Roy"
            }, 
            "act_2_6": {
                "duration": 60, 
                "time_window": {
                    "start": "2014-03-07T11:20:00", 
                    "finish": "2014-03-07T14:40:00"
                }, 
                "required_operators": 1, 
                "location": {
                    "latitude": 46.133063449567736, 
                    "longitude": 12.949888597472496
                }, 
                "patient_name": "Ola Beasley"
            }, 
            "act_2_1": {
                "duration": 60, 
                "time_window": {
                    "start": "2014-03-07T08:00:00", 
                    "finish": "2014-03-07T18:00:00"
                }, 
                "required_operators": 1, 
                "location": {
                    "latitude": 45.94275706325198, 
                    "longitude": 13.155648787813547
                }, 
                "patient_name": "Nathan Christie"
            }, 
            "act_2_0": {
                "duration": 60, 
                "time_window": {
                    "start": "2014-03-07T08:00:00", 
                    "finish": "2014-03-07T18:00:00"
                }, 
                "required_operators": 2, 
                "location": {
                    "latitude": 46.080610129931735, 
                    "longitude": 13.356956201334073
                }, 
                "patient_name": "Harold Jewett"
            }, 
            "act_2_3": {
                "duration": 60, 
                "time_window": {
                    "start": "2014-03-07T08:00:00", 
                    "finish": "2014-03-07T18:00:00"
                }, 
                "required_operators": 1, 
                "location": {
                    "latitude": 46.09657926310345, 
                    "longitude": 13.414342336341468
                }, 
                "patient_name": "Marcella Gardner"
            }, 
            "act_2_2": {
                "duration": 30, 
                "time_window": {
                    "start": "2014-03-07T13:00:00", 
                    "finish": "2014-03-07T18:00:00"
                }, 
                "required_operators": 3, 
                "location": {
                    "latitude": 46.25756629029226, 
                    "longitude": 13.17050850176506
                }, 
                "patient_name": "Donald George"
            }
        }
    ], 
    "operators": {
        "op_12": {
            "time_windows": [
                {
                    "start": "2014-03-05T08:00:00", 
                    "finish": "2014-03-05T18:00:00", 
                    "regular_worktime": "8:00:00"
                }, 
                {
                    "start": "2014-03-06T08:00:00", 
                    "finish": "2014-03-06T13:00:00", 
                    "regular_worktime": "4:00:00"
                }, 
                {
                    "start": "2014-03-07T08:00:00", 
                    "finish": "2014-03-07T18:00:00", 
                    "regular_worktime": "8:00:00"
                }
            ], 
            "incompatible_activities": [
                "act_1_31", 
                "act_0_1", 
                "act_2_3", 
                "act_2_14", 
                "act_2_23", 
                "act_0_34", 
                "act_1_3", 
                "act_1_23"
            ], 
            "maximum_working_hours": "16:00:00", 
            "name": "Deborah Malchow", 
            "minimum_working_hours": "12:00:00"
        }, 
        "op_15": {
            "time_windows": [
                {
                    "start": "2014-03-05T08:00:00", 
                    "finish": "2014-03-05T18:00:00", 
                    "regular_worktime": "8:00:00"
                }, 
                {
                    "start": "2014-03-06T08:00:00", 
                    "finish": "2014-03-06T18:00:00", 
                    "regular_worktime": "8:00:00"
                }, 
                {
                    "start": "2014-03-07T08:00:00", 
                    "finish": "2014-03-07T18:00:00", 
                    "regular_worktime": "8:00:00"
                }
            ], 
            "incompatible_activities": [
                "act_2_23", 
                "act_0_3", 
                "act_1_18", 
                "act_1_39", 
                "act_0_36", 
                "act_1_28", 
                "act_1_36", 
                "act_2_26"
            ], 
            "maximum_working_hours": "16:00:00", 
            "name": "Dave Holzman", 
            "minimum_working_hours": "16:00:00"
        }, 
        "op_8": {
            "time_windows": [
                {
                    "start": "2014-03-05T13:00:00", 
                    "finish": "2014-03-05T18:00:00", 
                    "regular_worktime": "4:00:00"
                }, 
                {
                    "start": "2014-03-06T08:00:00", 
                    "finish": "2014-03-06T18:00:00", 
                    "regular_worktime": "8:00:00"
                }, 
                {
                    "start": "2014-03-07T08:00:00", 
                    "finish": "2014-03-07T13:00:00", 
                    "regular_worktime": "4:00:00"
                }
            ], 
            "incompatible_activities": [
                "act_0_12", 
                "act_1_12", 
                "act_1_24", 
                "act_1_14", 
                "act_0_34", 
                "act_0_2", 
                "act_2_32", 
                "act_1_21"
            ], 
            "maximum_working_hours": "12:00:00", 
            "name": "Clarence Sherrow", 
            "minimum_working_hours": "08:00:00"
        }, 
        "op_9": {
            "time_windows": [
                {
                    "start": "2014-03-05T08:00:00", 
                    "finish": "2014-03-05T13:00:00", 
                    "regular_worktime": "4:00:00"
                }, 
                {
                    "start": "2014-03-06T08:00:00", 
                    "finish": "2014-03-06T18:00:00", 
                    "regular_worktime": "8:00:00"
                }, 
                {
                    "start": "2014-03-07T08:00:00", 
                    "finish": "2014-03-07T18:00:00", 
                    "regular_worktime": "8:00:00"
                }
            ], 
            "incompatible_activities": [
                "act_1_29", 
                "act_0_6", 
                "act_2_7", 
                "act_2_20", 
                "act_1_3", 
                "act_0_19", 
                "act_1_27", 
                "act_2_26"
            ], 
            "maximum_working_hours": "16:00:00", 
            "name": "Sabrina Fink", 
            "minimum_working_hours": "12:00:00"
        }, 
        "op_13": {
            "time_windows": [
                {
                    "start": "2014-03-05T08:00:00", 
                    "finish": "2014-03-05T18:00:00", 
                    "regular_worktime": "8:00:00"
                }, 
                {
                    "start": "2014-03-06T08:00:00", 
                    "finish": "2014-03-06T13:00:00", 
                    "regular_worktime": "4:00:00"
                }, 
                {
                    "start": "2014-03-07T08:00:00", 
                    "finish": "2014-03-07T18:00:00", 
                    "regular_worktime": "8:00:00"
                }
            ], 
            "incompatible_activities": [
                "act_2_13", 
                "act_1_13", 
                "act_1_24", 
                "act_1_8", 
                "act_2_9", 
                "act_2_31", 
                "act_0_11", 
                "act_2_5"
            ], 
            "maximum_working_hours": "16:00:00", 
            "name": "Trevor Woods", 
            "minimum_working_hours": "12:00:00"
        }, 
        "op_4": {
            "time_windows": [
                {
                    "start": "2014-03-05T08:00:00", 
                    "finish": "2014-03-05T18:00:00", 
                    "regular_worktime": "8:00:00"
                }, 
                {
                    "start": "2014-03-06T08:00:00", 
                    "finish": "2014-03-06T13:00:00", 
                    "regular_worktime": "4:00:00"
                }, 
                {
                    "start": "2014-03-07T08:00:00", 
                    "finish": "2014-03-07T18:00:00", 
                    "regular_worktime": "8:00:00"
                }
            ], 
            "incompatible_activities": [
                "act_1_2", 
                "act_1_11", 
                "act_0_1", 
                "act_1_25", 
                "act_2_32", 
                "act_1_18", 
                "act_2_22", 
                "act_1_22"
            ], 
            "maximum_working_hours": "16:00:00", 
            "name": "Nichole Towle", 
            "minimum_working_hours": "12:00:00"
        }, 
        "op_5": {
            "time_windows": [
                {
                    "start": "2014-03-05T08:00:00", 
                    "finish": "2014-03-05T13:00:00", 
                    "regular_worktime": "4:00:00"
                }, 
                {
                    "start": "2014-03-06T13:00:00", 
                    "finish": "2014-03-06T18:00:00", 
                    "regular_worktime": "4:00:00"
                }, 
                {
                    "start": "2014-03-07T08:00:00", 
                    "finish": "2014-03-07T18:00:00", 
                    "regular_worktime": "8:00:00"
                }
            ], 
            "incompatible_activities": [
                "act_0_16", 
                "act_2_29", 
                "act_2_35", 
                "act_0_27", 
                "act_0_13", 
                "act_2_17", 
                "act_2_14", 
                "act_1_0"
            ], 
            "maximum_working_hours": "12:00:00", 
            "name": "Anna Burlock", 
            "minimum_working_hours": "08:00:00"
        }, 
        "op_6": {
            "time_windows": [
                {
                    "start": "2014-03-05T08:00:00", 
                    "finish": "2014-03-05T18:00:00", 
                    "regular_worktime": "8:00:00"
                }, 
                {
                    "start": "2014-03-06T08:00:00", 
                    "finish": "2014-03-06T18:00:00", 
                    "regular_worktime": "8:00:00"
                }, 
                {
                    "start": "2014-03-07T08:00:00", 
                    "finish": "2014-03-07T13:00:00", 
                    "regular_worktime": "4:00:00"
                }
            ], 
            "incompatible_activities": [
                "act_2_14", 
                "act_2_33", 
                "act_0_5", 
                "act_0_38", 
                "act_1_18", 
                "act_0_6", 
                "act_2_7", 
                "act_0_14"
            ], 
            "maximum_working_hours": "16:00:00", 
            "name": "Earlene Tartaglione", 
            "minimum_working_hours": "12:00:00"
        }, 
        "op_7": {
            "time_windows": [
                {
                    "start": "2014-03-05T08:00:00", 
                    "finish": "2014-03-05T18:00:00", 
                    "regular_worktime": "8:00:00"
                }, 
                {
                    "start": "2014-03-06T08:00:00", 
                    "finish": "2014-03-06T18:00:00", 
                    "regular_worktime": "8:00:00"
                }, 
                {
                    "start": "2014-03-07T08:00:00", 
                    "finish": "2014-03-07T18:00:00", 
                    "regular_worktime": "8:00:00"
                }
            ], 
            "incompatible_activities": [
                "act_2_28", 
                "act_0_27", 
                "act_1_4", 
                "act_2_17", 
                "act_2_33", 
                "act_1_19", 
                "act_0_20", 
                "act_2_10"
            ], 
            "maximum_working_hours": "16:00:00", 
            "name": "Roy Maines", 
            "minimum_working_hours": "16:00:00"
        }, 
        "op_0": {
            "time_windows": [
                {
                    "start": "2014-03-05T08:00:00", 
                    "finish": "2014-03-05T18:00:00", 
                    "regular_worktime": "8:00:00"
                }, 
                {
                    "start": "2014-03-06T08:00:00", 
                    "finish": "2014-03-06T18:00:00", 
                    "regular_worktime": "8:00:00"
                }, 
                {
                    "start": "2014-03-07T08:00:00", 
                    "finish": "2014-03-07T18:00:00", 
                    "regular_worktime": "8:00:00"
                }
            ], 
            "incompatible_activities": [
                "act_1_25", 
                "act_1_34", 
                "act_2_5", 
                "act_2_2", 
                "act_0_21", 
                "act_2_25", 
                "act_1_17", 
                "act_2_15"
            ], 
            "maximum_working_hours": "16:00:00", 
            "name": "Hollie Jacobson", 
            "minimum_working_hours": "16:00:00"
        }, 
        "op_1": {
            "time_windows": [
                {
                    "start": "2014-03-05T08:00:00", 
                    "finish": "2014-03-05T18:00:00", 
                    "regular_worktime": "8:00:00"
                }, 
                {
                    "start": "2014-03-06T08:00:00", 
                    "finish": "2014-03-06T18:00:00", 
                    "regular_worktime": "8:00:00"
                }, 
                {
                    "start": "2014-03-07T08:00:00", 
                    "finish": "2014-03-07T18:00:00", 
                    "regular_worktime": "8:00:00"
                }
            ], 
            "incompatible_activities": [
                "act_1_34", 
                "act_2_10", 
                "act_0_9", 
                "act_2_32", 
                "act_2_15", 
                "act_1_13", 
                "act_1_4", 
                "act_1_10"
            ], 
            "maximum_working_hours": "16:00:00", 
            "name": "Eula Young", 
            "minimum_working_hours": "16:00:00"
        }, 
        "op_2": {
            "time_windows": [
                {
                    "start": "2014-03-05T08:00:00", 
                    "finish": "2014-03-05T18:00:00", 
                    "regular_worktime": "8:00:00"
                }, 
                {
                    "start": "2014-03-06T08:00:00", 
                    "finish": "2014-03-06T18:00:00", 
                    "regular_worktime": "8:00:00"
                }, 
                {
                    "start": "2014-03-07T08:00:00", 
                    "finish": "2014-03-07T18:00:00", 
                    "regular_worktime": "8:00:00"
                }
            ], 
            "incompatible_activities": [
                "act_1_4", 
                "act_1_8", 
                "act_1_36", 
                "act_2_7", 
                "act_0_34", 
                "act_0_10", 
                "act_1_9", 
                "act_0_17"
            ], 
            "maximum_working_hours": "16:00:00", 
            "name": "Geraldine Lavin", 
            "minimum_working_hours": "16:00:00"
        }, 
        "op_3": {
            "time_windows": [
                {
                    "start": "2014-03-05T08:00:00", 
                    "finish": "2014-03-05T18:00:00", 
                    "regular_worktime": "8:00:00"
                }, 
                {
                    "start": "2014-03-06T08:00:00", 
                    "finish": "2014-03-06T18:00:00", 
                    "regular_worktime": "8:00:00"
                }, 
                {
                    "start": "2014-03-07T08:00:00", 
                    "finish": "2014-03-07T18:00:00", 
                    "regular_worktime": "8:00:00"
                }
            ], 
            "incompatible_activities": [
                "act_1_10", 
                "act_0_9", 
                "act_2_36", 
                "act_2_28", 
                "act_0_33", 
                "act_0_20", 
                "act_1_9", 
                "act_2_35"
            ], 
            "maximum_working_hours": "16:00:00", 
            "name": "Clarence Bush", 
            "minimum_working_hours": "16:00:00"
        }, 
        "op_16": {
            "time_windows": [
                {
                    "start": "2014-03-05T08:00:00", 
                    "finish": "2014-03-05T18:00:00", 
                    "regular_worktime": "8:00:00"
                }, 
                {
                    "start": "2014-03-06T08:00:00", 
                    "finish": "2014-03-06T13:00:00", 
                    "regular_worktime": "4:00:00"
                }, 
                {
                    "start": "2014-03-07T08:00:00", 
                    "finish": "2014-03-07T18:00:00", 
                    "regular_worktime": "8:00:00"
                }
            ], 
            "incompatible_activities": [
                "act_0_13", 
                "act_2_27", 
                "act_2_3", 
                "act_0_28", 
                "act_1_19", 
                "act_0_33", 
                "act_1_39", 
                "act_1_11"
            ], 
            "maximum_working_hours": "16:00:00", 
            "name": "Royce Griffin", 
            "minimum_working_hours": "12:00:00"
        }, 
        "op_10": {
            "time_windows": [
                {
                    "start": "2014-03-05T08:00:00", 
                    "finish": "2014-03-05T18:00:00", 
                    "regular_worktime": "8:00:00"
                }, 
                {
                    "start": "2014-03-06T08:00:00", 
                    "finish": "2014-03-06T13:00:00", 
                    "regular_worktime": "4:00:00"
                }, 
                {
                    "start": "2014-03-07T13:00:00", 
                    "finish": "2014-03-07T18:00:00", 
                    "regular_worktime": "4:00:00"
                }
            ], 
            "incompatible_activities": [
                "act_2_14", 
                "act_2_4", 
                "act_2_18", 
                "act_0_12", 
                "act_0_4", 
                "act_0_38", 
                "act_1_37", 
                "act_0_13"
            ], 
            "maximum_working_hours": "12:00:00", 
            "name": "Margaret Biggs", 
            "minimum_working_hours": "08:00:00"
        }, 
        "op_11": {
            "time_windows": [
                {
                    "start": "2014-03-05T08:00:00", 
                    "finish": "2014-03-05T18:00:00", 
                    "regular_worktime": "8:00:00"
                }, 
                {
                    "start": "2014-03-06T08:00:00", 
                    "finish": "2014-03-06T18:00:00", 
                    "regular_worktime": "8:00:00"
                }, 
                {
                    "start": "2014-03-07T08:00:00", 
                    "finish": "2014-03-07T13:00:00", 
                    "regular_worktime": "4:00:00"
                }
            ], 
            "incompatible_activities": [
                "act_0_9", 
                "act_1_26", 
                "act_0_22", 
                "act_2_6", 
                "act_1_11", 
                "act_0_0", 
                "act_1_33", 
                "act_2_7"
            ], 
            "maximum_working_hours": "16:00:00", 
            "name": "Ruth Farris", 
            "minimum_working_hours": "12:00:00"
        }, 
        "op_14": {
            "time_windows": [
                {
                    "start": "2014-03-05T08:00:00", 
                    "finish": "2014-03-05T18:00:00", 
                    "regular_worktime": "8:00:00"
                }, 
                {
                    "start": "2014-03-06T08:00:00", 
                    "finish": "2014-03-06T18:00:00", 
                    "regular_worktime": "8:00:00"
                }, 
                {
                    "start": "2014-03-07T08:00:00", 
                    "finish": "2014-03-07T18:00:00", 
                    "regular_worktime": "8:00:00"
                }
            ], 
            "incompatible_activities": [
                "act_1_16", 
                "act_0_5", 
                "act_0_14", 
                "act_2_14", 
                "act_0_15", 
                "act_1_13", 
                "act_2_10", 
                "act_2_1"
            ], 
            "maximum_working_hours": "16:00:00", 
            "name": "Theodore Harris", 
            "minimum_working_hours": "16:00:00"
        }
    }, 
    "meta": {
        "time_window": {
            "start": "08:00:00", 
            "finish": "18:00:00"
        }, 
        "horizon": 3, 
        "granularity": 10, 
        "geographic_area": {
            "upper_left": [
                46.259645, 
                12.860656
            ], 
            "lower_right": [
                45.936826, 
                13.485503
            ]
        }, 
        "max_consecutive_days": 2, 
        "finish_date": "2014-03-08T00:00:00", 
        "max_overtime_rate": 1.1, 
        "start_date": "2014-03-05T00:00:00"
    }
}