{
    "activities": [
        {
            "act_0_9": {
                "duration": 60, 
                "time_window": {
                    "start": "2014-03-05T13:00:00", 
                    "finish": "2014-03-05T18:00:00"
                }, 
                "required_operators": 1, 
                "location": {
                    "latitude": 46.194594557980466, 
                    "longitude": 13.29408358463875
                }, 
                "patient_name": "Richard Brown"
            }, 
            "act_0_8": {
                "duration": 30, 
                "time_window": {
                    "start": "2014-03-05T08:00:00", 
                    "finish": "2014-03-05T13:00:00"
                }, 
                "required_operators": 1, 
                "location": {
                    "latitude": 46.146936369693094, 
                    "longitude": 13.065785801824651
                }, 
                "patient_name": "Christina Rodriguez"
            }, 
            "act_0_3": {
                "duration": 60, 
                "time_window": {
                    "start": "2014-03-05T13:00:00", 
                    "finish": "2014-03-05T18:00:00"
                }, 
                "required_operators": 1, 
                "location": {
                    "latitude": 45.95079856680572, 
                    "longitude": 13.055903424544221
                }, 
                "patient_name": "Marilou Herndon"
            }, 
            "act_0_2": {
                "duration": 30, 
                "time_window": {
                    "start": "2014-03-05T08:00:00", 
                    "finish": "2014-03-05T18:00:00"
                }, 
                "required_operators": 1, 
                "location": {
                    "latitude": 46.07149837419489, 
                    "longitude": 13.446755553371775
                }, 
                "patient_name": "Dana Priest"
            }, 
            "act_0_1": {
                "duration": 60, 
                "time_window": {
                    "start": "2014-03-05T13:00:00", 
                    "finish": "2014-03-05T18:00:00"
                }, 
                "required_operators": 1, 
                "location": {
                    "latitude": 45.961408935227695, 
                    "longitude": 13.303119521397907
                }, 
                "patient_name": "Rory Obrien"
            }, 
            "act_0_0": {
                "duration": 30, 
                "time_window": {
                    "start": "2014-03-05T11:20:00", 
                    "finish": "2014-03-05T14:40:00"
                }, 
                "required_operators": 2, 
                "location": {
                    "latitude": 46.14806427918289, 
                    "longitude": 13.416489236078588
                }, 
                "patient_name": "Karen Williams"
            }, 
            "act_0_7": {
                "duration": 30, 
                "time_window": {
                    "start": "2014-03-05T08:00:00", 
                    "finish": "2014-03-05T18:00:00"
                }, 
                "required_operators": 1, 
                "location": {
                    "latitude": 45.95958338618391, 
                    "longitude": 13.455608309773128
                }, 
                "patient_name": "Maria Nunmaker"
            }, 
            "act_0_6": {
                "duration": 30, 
                "time_window": {
                    "start": "2014-03-05T08:00:00", 
                    "finish": "2014-03-05T18:00:00"
                }, 
                "required_operators": 1, 
                "location": {
                    "latitude": 46.11971205350395, 
                    "longitude": 13.281326568310915
                }, 
                "patient_name": "Kevin Wilburn"
            }, 
            "act_0_5": {
                "duration": 30, 
                "time_window": {
                    "start": "2014-03-05T13:00:00", 
                    "finish": "2014-03-05T18:00:00"
                }, 
                "required_operators": 1, 
                "location": {
                    "latitude": 46.04626169459611, 
                    "longitude": 13.433305503127782
                }, 
                "patient_name": "Patricia Calvello"
            }, 
            "act_0_4": {
                "duration": 60, 
                "time_window": {
                    "start": "2014-03-05T14:40:00", 
                    "finish": "2014-03-05T18:00:00"
                }, 
                "required_operators": 1, 
                "location": {
                    "latitude": 46.19991432663708, 
                    "longitude": 12.891351676167153
                }, 
                "patient_name": "Candis Custer"
            }, 
            "act_0_19": {
                "duration": 60, 
                "time_window": {
                    "start": "2014-03-05T08:00:00", 
                    "finish": "2014-03-05T13:00:00"
                }, 
                "required_operators": 2, 
                "location": {
                    "latitude": 46.05296516268372, 
                    "longitude": 12.970305883100911
                }, 
                "patient_name": "Karen Griffith"
            }, 
            "act_0_18": {
                "duration": 60, 
                "time_window": {
                    "start": "2014-03-05T08:00:00", 
                    "finish": "2014-03-05T11:20:00"
                }, 
                "required_operators": 1, 
                "location": {
                    "latitude": 45.98641793332461, 
                    "longitude": 13.006445172366886
                }, 
                "patient_name": "James Brisco"
            }, 
            "act_0_17": {
                "duration": 60, 
                "time_window": {
                    "start": "2014-03-05T08:00:00", 
                    "finish": "2014-03-05T13:00:00"
                }, 
                "required_operators": 2, 
                "location": {
                    "latitude": 46.064770289161835, 
                    "longitude": 12.887058764503594
                }, 
                "patient_name": "Tony Rogers"
            }, 
            "act_0_16": {
                "duration": 30, 
                "time_window": {
                    "start": "2014-03-05T08:00:00", 
                    "finish": "2014-03-05T13:00:00"
                }, 
                "required_operators": 1, 
                "location": {
                    "latitude": 46.18515800477352, 
                    "longitude": 13.027036890043757
                }, 
                "patient_name": "Jason Board"
            }, 
            "act_0_15": {
                "duration": 30, 
                "time_window": {
                    "start": "2014-03-05T08:00:00", 
                    "finish": "2014-03-05T11:20:00"
                }, 
                "required_operators": 1, 
                "location": {
                    "latitude": 46.24900088378938, 
                    "longitude": 12.987627910499107
                }, 
                "patient_name": "Ellie Avera"
            }, 
            "act_0_14": {
                "duration": 30, 
                "time_window": {
                    "start": "2014-03-05T08:00:00", 
                    "finish": "2014-03-05T18:00:00"
                }, 
                "required_operators": 1, 
                "location": {
                    "latitude": 46.19259118048143, 
                    "longitude": 13.075685456490312
                }, 
                "patient_name": "Andy Brooks"
            }, 
            "act_0_13": {
                "duration": 60, 
                "time_window": {
                    "start": "2014-03-05T08:00:00", 
                    "finish": "2014-03-05T11:20:00"
                }, 
                "required_operators": 1, 
                "location": {
                    "latitude": 46.2215228821947, 
                    "longitude": 12.995839786640794
                }, 
                "patient_name": "Kathryn Lane"
            }, 
            "act_0_12": {
                "duration": 30, 
                "time_window": {
                    "start": "2014-03-05T08:00:00", 
                    "finish": "2014-03-05T11:20:00"
                }, 
                "required_operators": 1, 
                "location": {
                    "latitude": 46.149701310198054, 
                    "longitude": 12.967741521900471
                }, 
                "patient_name": "Bernice Fraiser"
            }, 
            "act_0_11": {
                "duration": 60, 
                "time_window": {
                    "start": "2014-03-05T08:00:00", 
                    "finish": "2014-03-05T18:00:00"
                }, 
                "required_operators": 1, 
                "location": {
                    "latitude": 46.145440263316736, 
                    "longitude": 13.350645034291658
                }, 
                "patient_name": "Eliz Knopp"
            }, 
            "act_0_10": {
                "duration": 30, 
                "time_window": {
                    "start": "2014-03-05T11:20:00", 
                    "finish": "2014-03-05T14:40:00"
                }, 
                "required_operators": 1, 
                "location": {
                    "latitude": 46.09870951294174, 
                    "longitude": 13.18804801929392
                }, 
                "patient_name": "Jose Stelzer"
            }
        }, 
        {
            "act_1_14": {
                "duration": 30, 
                "time_window": {
                    "start": "2014-03-06T08:00:00", 
                    "finish": "2014-03-06T18:00:00"
                }, 
                "required_operators": 1, 
                "location": {
                    "latitude": 46.203169927075116, 
                    "longitude": 13.11426888279439
                }, 
                "patient_name": "Allen Sebek"
            }, 
            "act_1_15": {
                "duration": 60, 
                "time_window": {
                    "start": "2014-03-06T08:00:00", 
                    "finish": "2014-03-06T18:00:00"
                }, 
                "required_operators": 1, 
                "location": {
                    "latitude": 46.18687091174133, 
                    "longitude": 13.191821997678113
                }, 
                "patient_name": "Amber Engelbrecht"
            }, 
            "act_1_16": {
                "duration": 30, 
                "time_window": {
                    "start": "2014-03-06T08:00:00", 
                    "finish": "2014-03-06T18:00:00"
                }, 
                "required_operators": 1, 
                "location": {
                    "latitude": 46.00204904448312, 
                    "longitude": 13.093543440354738
                }, 
                "patient_name": "Valerie Ornelas"
            }, 
            "act_1_17": {
                "duration": 30, 
                "time_window": {
                    "start": "2014-03-06T08:00:00", 
                    "finish": "2014-03-06T18:00:00"
                }, 
                "required_operators": 1, 
                "location": {
                    "latitude": 46.24481552703209, 
                    "longitude": 13.238646917790254
                }, 
                "patient_name": "Suzanne Murray"
            }, 
            "act_1_10": {
                "duration": 30, 
                "time_window": {
                    "start": "2014-03-06T14:40:00", 
                    "finish": "2014-03-06T18:00:00"
                }, 
                "required_operators": 1, 
                "location": {
                    "latitude": 46.09678665414183, 
                    "longitude": 12.903901710776092
                }, 
                "patient_name": "Neville Quiros"
            }, 
            "act_1_11": {
                "duration": 30, 
                "time_window": {
                    "start": "2014-03-06T13:00:00", 
                    "finish": "2014-03-06T18:00:00"
                }, 
                "required_operators": 1, 
                "location": {
                    "latitude": 46.2439458928489, 
                    "longitude": 13.289420808933848
                }, 
                "patient_name": "Jason Burlingham"
            }, 
            "act_1_12": {
                "duration": 30, 
                "time_window": {
                    "start": "2014-03-06T08:00:00", 
                    "finish": "2014-03-06T18:00:00"
                }, 
                "required_operators": 2, 
                "location": {
                    "latitude": 46.113320783325776, 
                    "longitude": 13.346964561564398
                }, 
                "patient_name": "Delores Webster"
            }, 
            "act_1_13": {
                "duration": 30, 
                "time_window": {
                    "start": "2014-03-06T13:00:00", 
                    "finish": "2014-03-06T18:00:00"
                }, 
                "required_operators": 1, 
                "location": {
                    "latitude": 46.07070785289989, 
                    "longitude": 13.050139039544055
                }, 
                "patient_name": "Joshua Lo"
            }, 
            "act_1_18": {
                "duration": 60, 
                "time_window": {
                    "start": "2014-03-06T13:00:00", 
                    "finish": "2014-03-06T18:00:00"
                }, 
                "required_operators": 1, 
                "location": {
                    "latitude": 46.21759805848079, 
                    "longitude": 13.093433806400913
                }, 
                "patient_name": "Dean Adams"
            }, 
            "act_1_19": {
                "duration": 60, 
                "time_window": {
                    "start": "2014-03-06T08:00:00", 
                    "finish": "2014-03-06T18:00:00"
                }, 
                "required_operators": 2, 
                "location": {
                    "latitude": 46.09557894809412, 
                    "longitude": 12.960973796078036
                }, 
                "patient_name": "Rebecca Smith"
            }, 
            "act_1_2": {
                "duration": 30, 
                "time_window": {
                    "start": "2014-03-06T13:00:00", 
                    "finish": "2014-03-06T18:00:00"
                }, 
                "required_operators": 3, 
                "location": {
                    "latitude": 46.13706884822527, 
                    "longitude": 13.00808601992567
                }, 
                "patient_name": "Jan Wilkins"
            }, 
            "act_1_3": {
                "duration": 60, 
                "time_window": {
                    "start": "2014-03-06T13:00:00", 
                    "finish": "2014-03-06T18:00:00"
                }, 
                "required_operators": 1, 
                "location": {
                    "latitude": 46.089456937073834, 
                    "longitude": 13.340411595546525
                }, 
                "patient_name": "Latrina Stewart"
            }, 
            "act_1_0": {
                "duration": 60, 
                "time_window": {
                    "start": "2014-03-06T08:00:00", 
                    "finish": "2014-03-06T18:00:00"
                }, 
                "required_operators": 1, 
                "location": {
                    "latitude": 46.19884284663024, 
                    "longitude": 13.034217955196336
                }, 
                "patient_name": "Juliana Rock"
            }, 
            "act_1_1": {
                "duration": 60, 
                "time_window": {
                    "start": "2014-03-06T13:00:00", 
                    "finish": "2014-03-06T18:00:00"
                }, 
                "required_operators": 1, 
                "location": {
                    "latitude": 46.19814865560016, 
                    "longitude": 13.11417149810203
                }, 
                "patient_name": "Ted Stanford"
            }, 
            "act_1_6": {
                "duration": 30, 
                "time_window": {
                    "start": "2014-03-06T13:00:00", 
                    "finish": "2014-03-06T18:00:00"
                }, 
                "required_operators": 1, 
                "location": {
                    "latitude": 46.18265982366187, 
                    "longitude": 12.896504468952404
                }, 
                "patient_name": "Tamra Amezquita"
            }, 
            "act_1_7": {
                "duration": 30, 
                "time_window": {
                    "start": "2014-03-06T08:00:00", 
                    "finish": "2014-03-06T18:00:00"
                }, 
                "required_operators": 1, 
                "location": {
                    "latitude": 46.152396803509326, 
                    "longitude": 12.970304185313932
                }, 
                "patient_name": "Carolyn Williams"
            }, 
            "act_1_4": {
                "duration": 60, 
                "time_window": {
                    "start": "2014-03-06T08:00:00", 
                    "finish": "2014-03-06T13:00:00"
                }, 
                "required_operators": 3, 
                "location": {
                    "latitude": 46.2020658407524, 
                    "longitude": 13.176067099956603
                }, 
                "patient_name": "Erwin Barham"
            }, 
            "act_1_5": {
                "duration": 60, 
                "time_window": {
                    "start": "2014-03-06T13:00:00", 
                    "finish": "2014-03-06T18:00:00"
                }, 
                "required_operators": 1, 
                "location": {
                    "latitude": 45.94635002239435, 
                    "longitude": 13.449131329962364
                }, 
                "patient_name": "Terra Deleon"
            }, 
            "act_1_8": {
                "duration": 30, 
                "time_window": {
                    "start": "2014-03-06T08:00:00", 
                    "finish": "2014-03-06T13:00:00"
                }, 
                "required_operators": 1, 
                "location": {
                    "latitude": 45.976228030426796, 
                    "longitude": 13.459920966318744
                }, 
                "patient_name": "Jose Cannon"
            }, 
            "act_1_9": {
                "duration": 30, 
                "time_window": {
                    "start": "2014-03-06T13:00:00", 
                    "finish": "2014-03-06T18:00:00"
                }, 
                "required_operators": 2, 
                "location": {
                    "latitude": 46.15941526607794, 
                    "longitude": 12.9473444835094
                }, 
                "patient_name": "John Dicaprio"
            }
        }, 
        {
            "act_2_19": {
                "duration": 30, 
                "time_window": {
                    "start": "2014-03-07T08:00:00", 
                    "finish": "2014-03-07T11:20:00"
                }, 
                "required_operators": 1, 
                "location": {
                    "latitude": 45.97799613358353, 
                    "longitude": 13.104614882316282
                }, 
                "patient_name": "Larry Calderone"
            }, 
            "act_2_18": {
                "duration": 30, 
                "time_window": {
                    "start": "2014-03-07T13:00:00", 
                    "finish": "2014-03-07T18:00:00"
                }, 
                "required_operators": 2, 
                "location": {
                    "latitude": 46.001191948864324, 
                    "longitude": 13.09634659094389
                }, 
                "patient_name": "Allison Forster"
            }, 
            "act_2_11": {
                "duration": 30, 
                "time_window": {
                    "start": "2014-03-07T08:00:00", 
                    "finish": "2014-03-07T18:00:00"
                }, 
                "required_operators": 2, 
                "location": {
                    "latitude": 46.18148027920821, 
                    "longitude": 13.416813385187499
                }, 
                "patient_name": "Michael Freeman"
            }, 
            "act_2_10": {
                "duration": 30, 
                "time_window": {
                    "start": "2014-03-07T14:40:00", 
                    "finish": "2014-03-07T18:00:00"
                }, 
                "required_operators": 1, 
                "location": {
                    "latitude": 45.99187477837935, 
                    "longitude": 12.934353526427378
                }, 
                "patient_name": "Robin Williams"
            }, 
            "act_2_13": {
                "duration": 30, 
                "time_window": {
                    "start": "2014-03-07T08:00:00", 
                    "finish": "2014-03-07T11:20:00"
                }, 
                "required_operators": 1, 
                "location": {
                    "latitude": 45.96583919039875, 
                    "longitude": 12.985193102256888
                }, 
                "patient_name": "Melvin Elliott"
            }, 
            "act_2_12": {
                "duration": 30, 
                "time_window": {
                    "start": "2014-03-07T08:00:00", 
                    "finish": "2014-03-07T18:00:00"
                }, 
                "required_operators": 2, 
                "location": {
                    "latitude": 46.18392187040273, 
                    "longitude": 13.320043905724088
                }, 
                "patient_name": "Frank Kujawa"
            }, 
            "act_2_15": {
                "duration": 30, 
                "time_window": {
                    "start": "2014-03-07T08:00:00", 
                    "finish": "2014-03-07T13:00:00"
                }, 
                "required_operators": 1, 
                "location": {
                    "latitude": 46.03854304700858, 
                    "longitude": 13.352062083462732
                }, 
                "patient_name": "Dorothy Campos"
            }, 
            "act_2_14": {
                "duration": 60, 
                "time_window": {
                    "start": "2014-03-07T11:20:00", 
                    "finish": "2014-03-07T14:40:00"
                }, 
                "required_operators": 1, 
                "location": {
                    "latitude": 46.2435568987763, 
                    "longitude": 13.164637069080344
                }, 
                "patient_name": "William Rose"
            }, 
            "act_2_17": {
                "duration": 30, 
                "time_window": {
                    "start": "2014-03-07T08:00:00", 
                    "finish": "2014-03-07T18:00:00"
                }, 
                "required_operators": 1, 
                "location": {
                    "latitude": 46.18442799177155, 
                    "longitude": 12.940071372359126
                }, 
                "patient_name": "John Richey"
            }, 
            "act_2_16": {
                "duration": 30, 
                "time_window": {
                    "start": "2014-03-07T14:40:00", 
                    "finish": "2014-03-07T18:00:00"
                }, 
                "required_operators": 1, 
                "location": {
                    "latitude": 46.15602303875523, 
                    "longitude": 12.888631175960347
                }, 
                "patient_name": "Raymond Sorensen"
            }, 
            "act_2_9": {
                "duration": 60, 
                "time_window": {
                    "start": "2014-03-07T08:00:00", 
                    "finish": "2014-03-07T13:00:00"
                }, 
                "required_operators": 2, 
                "location": {
                    "latitude": 45.998349135898515, 
                    "longitude": 13.188952505419929
                }, 
                "patient_name": "Johnathan Gutierrez"
            }, 
            "act_2_8": {
                "duration": 30, 
                "time_window": {
                    "start": "2014-03-07T08:00:00", 
                    "finish": "2014-03-07T11:20:00"
                }, 
                "required_operators": 1, 
                "location": {
                    "latitude": 46.19874502960823, 
                    "longitude": 13.104700365829713
                }, 
                "patient_name": "Mae Gross"
            }, 
            "act_2_5": {
                "duration": 30, 
                "time_window": {
                    "start": "2014-03-07T08:00:00", 
                    "finish": "2014-03-07T13:00:00"
                }, 
                "required_operators": 1, 
                "location": {
                    "latitude": 46.06178179548005, 
                    "longitude": 13.356380617881799
                }, 
                "patient_name": "Robert Sledge"
            }, 
            "act_2_4": {
                "duration": 30, 
                "time_window": {
                    "start": "2014-03-07T13:00:00", 
                    "finish": "2014-03-07T18:00:00"
                }, 
                "required_operators": 2, 
                "location": {
                    "latitude": 45.962777770166994, 
                    "longitude": 13.143075575904192
                }, 
                "patient_name": "Wendy Deep"
            }, 
            "act_2_7": {
                "duration": 60, 
                "time_window": {
                    "start": "2014-03-07T08:00:00", 
                    "finish": "2014-03-07T18:00:00"
                }, 
                "required_operators": 1, 
                "location": {
                    "latitude": 46.055873071819626, 
                    "longitude": 13.052571114797582
                }, 
                "patient_name": "James Hernandez"
            }, 
            "act_2_6": {
                "duration": 60, 
                "time_window": {
                    "start": "2014-03-07T08:00:00", 
                    "finish": "2014-03-07T11:20:00"
                }, 
                "required_operators": 1, 
                "location": {
                    "latitude": 45.991022363316546, 
                    "longitude": 13.144875873259675
                }, 
                "patient_name": "Paul Nagel"
            }, 
            "act_2_1": {
                "duration": 30, 
                "time_window": {
                    "start": "2014-03-07T08:00:00", 
                    "finish": "2014-03-07T18:00:00"
                }, 
                "required_operators": 1, 
                "location": {
                    "latitude": 46.243343240955014, 
                    "longitude": 12.937603562436538
                }, 
                "patient_name": "Jeffery Naylor"
            }, 
            "act_2_0": {
                "duration": 30, 
                "time_window": {
                    "start": "2014-03-07T14:40:00", 
                    "finish": "2014-03-07T18:00:00"
                }, 
                "required_operators": 1, 
                "location": {
                    "latitude": 46.17764364223944, 
                    "longitude": 13.138301466992377
                }, 
                "patient_name": "Anthony Holcomb"
            }, 
            "act_2_3": {
                "duration": 30, 
                "time_window": {
                    "start": "2014-03-07T08:00:00", 
                    "finish": "2014-03-07T11:20:00"
                }, 
                "required_operators": 1, 
                "location": {
                    "latitude": 46.21232674139553, 
                    "longitude": 13.426404770751306
                }, 
                "patient_name": "Charlie Shepherd"
            }, 
            "act_2_2": {
                "duration": 60, 
                "time_window": {
                    "start": "2014-03-07T11:20:00", 
                    "finish": "2014-03-07T14:40:00"
                }, 
                "required_operators": 1, 
                "location": {
                    "latitude": 46.12067778736539, 
                    "longitude": 13.318274232026372
                }, 
                "patient_name": "Arnold Richey"
            }
        }, 
        {
            "act_3_4": {
                "duration": 30, 
                "time_window": {
                    "start": "2014-03-08T08:00:00", 
                    "finish": "2014-03-08T18:00:00"
                }, 
                "required_operators": 1, 
                "location": {
                    "latitude": 46.03859029058671, 
                    "longitude": 13.446111619588194
                }, 
                "patient_name": "Latoya Garcia"
            }, 
            "act_3_5": {
                "duration": 60, 
                "time_window": {
                    "start": "2014-03-08T13:00:00", 
                    "finish": "2014-03-08T18:00:00"
                }, 
                "required_operators": 1, 
                "location": {
                    "latitude": 46.06787315689012, 
                    "longitude": 13.108052479778628
                }, 
                "patient_name": "Pauline Aiello"
            }, 
            "act_3_6": {
                "duration": 60, 
                "time_window": {
                    "start": "2014-03-08T11:20:00", 
                    "finish": "2014-03-08T14:40:00"
                }, 
                "required_operators": 1, 
                "location": {
                    "latitude": 46.031526049479076, 
                    "longitude": 13.216814880095118
                }, 
                "patient_name": "Leon Houston"
            }, 
            "act_3_7": {
                "duration": 60, 
                "time_window": {
                    "start": "2014-03-08T08:00:00", 
                    "finish": "2014-03-08T13:00:00"
                }, 
                "required_operators": 1, 
                "location": {
                    "latitude": 46.248088371257424, 
                    "longitude": 13.28810210660184
                }, 
                "patient_name": "James Sparkman"
            }, 
            "act_3_0": {
                "duration": 30, 
                "time_window": {
                    "start": "2014-03-08T08:00:00", 
                    "finish": "2014-03-08T18:00:00"
                }, 
                "required_operators": 1, 
                "location": {
                    "latitude": 45.981673946467076, 
                    "longitude": 13.064202935931323
                }, 
                "patient_name": "Darrell Clark"
            }, 
            "act_3_1": {
                "duration": 60, 
                "time_window": {
                    "start": "2014-03-08T08:00:00", 
                    "finish": "2014-03-08T18:00:00"
                }, 
                "required_operators": 1, 
                "location": {
                    "latitude": 46.1724178324955, 
                    "longitude": 12.90589476346054
                }, 
                "patient_name": "Ronald Hill"
            }, 
            "act_3_2": {
                "duration": 60, 
                "time_window": {
                    "start": "2014-03-08T08:00:00", 
                    "finish": "2014-03-08T18:00:00"
                }, 
                "required_operators": 1, 
                "location": {
                    "latitude": 46.01947042884686, 
                    "longitude": 13.168589366920983
                }, 
                "patient_name": "Jenette Gram"
            }, 
            "act_3_3": {
                "duration": 30, 
                "time_window": {
                    "start": "2014-03-08T08:00:00", 
                    "finish": "2014-03-08T18:00:00"
                }, 
                "required_operators": 1, 
                "location": {
                    "latitude": 45.995806538019345, 
                    "longitude": 13.16448799437066
                }, 
                "patient_name": "Della Hicks"
            }, 
            "act_3_8": {
                "duration": 30, 
                "time_window": {
                    "start": "2014-03-08T08:00:00", 
                    "finish": "2014-03-08T18:00:00"
                }, 
                "required_operators": 2, 
                "location": {
                    "latitude": 46.191791315755324, 
                    "longitude": 12.995066538273043
                }, 
                "patient_name": "Matthew Dower"
            }, 
            "act_3_9": {
                "duration": 60, 
                "time_window": {
                    "start": "2014-03-08T08:00:00", 
                    "finish": "2014-03-08T11:20:00"
                }, 
                "required_operators": 1, 
                "location": {
                    "latitude": 46.017518188313154, 
                    "longitude": 13.18238292576651
                }, 
                "patient_name": "Linda Martinez"
            }, 
            "act_3_18": {
                "duration": 60, 
                "time_window": {
                    "start": "2014-03-08T14:40:00", 
                    "finish": "2014-03-08T18:00:00"
                }, 
                "required_operators": 1, 
                "location": {
                    "latitude": 46.13767943680546, 
                    "longitude": 13.110510740056531
                }, 
                "patient_name": "Janelle Guzman"
            }, 
            "act_3_19": {
                "duration": 60, 
                "time_window": {
                    "start": "2014-03-08T08:00:00", 
                    "finish": "2014-03-08T18:00:00"
                }, 
                "required_operators": 1, 
                "location": {
                    "latitude": 46.152807268631754, 
                    "longitude": 13.25919833142405
                }, 
                "patient_name": "Lawrence Kinslow"
            }, 
            "act_3_16": {
                "duration": 30, 
                "time_window": {
                    "start": "2014-03-08T13:00:00", 
                    "finish": "2014-03-08T18:00:00"
                }, 
                "required_operators": 1, 
                "location": {
                    "latitude": 46.184877872069066, 
                    "longitude": 12.918154101685646
                }, 
                "patient_name": "Brandi Young"
            }, 
            "act_3_17": {
                "duration": 60, 
                "time_window": {
                    "start": "2014-03-08T08:00:00", 
                    "finish": "2014-03-08T18:00:00"
                }, 
                "required_operators": 1, 
                "location": {
                    "latitude": 46.07115914936616, 
                    "longitude": 13.135518824530005
                }, 
                "patient_name": "Donald Arevalos"
            }, 
            "act_3_14": {
                "duration": 60, 
                "time_window": {
                    "start": "2014-03-08T11:20:00", 
                    "finish": "2014-03-08T14:40:00"
                }, 
                "required_operators": 2, 
                "location": {
                    "latitude": 46.090420572877406, 
                    "longitude": 13.32701757427111
                }, 
                "patient_name": "Vivian Mcnulty"
            }, 
            "act_3_15": {
                "duration": 60, 
                "time_window": {
                    "start": "2014-03-08T13:00:00", 
                    "finish": "2014-03-08T18:00:00"
                }, 
                "required_operators": 1, 
                "location": {
                    "latitude": 46.19061750912876, 
                    "longitude": 12.881771745528226
                }, 
                "patient_name": "Maria Carney"
            }, 
            "act_3_12": {
                "duration": 30, 
                "time_window": {
                    "start": "2014-03-08T13:00:00", 
                    "finish": "2014-03-08T18:00:00"
                }, 
                "required_operators": 2, 
                "location": {
                    "latitude": 46.000247422666185, 
                    "longitude": 13.206719092717027
                }, 
                "patient_name": "Dianne Wells"
            }, 
            "act_3_13": {
                "duration": 30, 
                "time_window": {
                    "start": "2014-03-08T08:00:00", 
                    "finish": "2014-03-08T18:00:00"
                }, 
                "required_operators": 1, 
                "location": {
                    "latitude": 46.18629504358497, 
                    "longitude": 13.044410059942741
                }, 
                "patient_name": "Charles Yates"
            }, 
            "act_3_10": {
                "duration": 30, 
                "time_window": {
                    "start": "2014-03-08T08:00:00", 
                    "finish": "2014-03-08T11:20:00"
                }, 
                "required_operators": 1, 
                "location": {
                    "latitude": 46.159356958327464, 
                    "longitude": 13.400122177552653
                }, 
                "patient_name": "Dan Baker"
            }, 
            "act_3_11": {
                "duration": 60, 
                "time_window": {
                    "start": "2014-03-08T08:00:00", 
                    "finish": "2014-03-08T13:00:00"
                }, 
                "required_operators": 1, 
                "location": {
                    "latitude": 46.196297953990424, 
                    "longitude": 13.183051323652652
                }, 
                "patient_name": "Ward Juan"
            }
        }, 
        {
            "act_4_13": {
                "duration": 60, 
                "time_window": {
                    "start": "2014-03-09T14:40:00", 
                    "finish": "2014-03-09T18:00:00"
                }, 
                "required_operators": 1, 
                "location": {
                    "latitude": 46.03998755739671, 
                    "longitude": 13.15305862097697
                }, 
                "patient_name": "Ronald Nunez"
            }, 
            "act_4_12": {
                "duration": 30, 
                "time_window": {
                    "start": "2014-03-09T08:00:00", 
                    "finish": "2014-03-09T13:00:00"
                }, 
                "required_operators": 1, 
                "location": {
                    "latitude": 45.93816930762561, 
                    "longitude": 13.025162573416084
                }, 
                "patient_name": "Richard Rodeheaver"
            }, 
            "act_4_11": {
                "duration": 30, 
                "time_window": {
                    "start": "2014-03-09T08:00:00", 
                    "finish": "2014-03-09T18:00:00"
                }, 
                "required_operators": 2, 
                "location": {
                    "latitude": 45.971148119435426, 
                    "longitude": 13.191000775424724
                }, 
                "patient_name": "Lisa Swinney"
            }, 
            "act_4_10": {
                "duration": 60, 
                "time_window": {
                    "start": "2014-03-09T13:00:00", 
                    "finish": "2014-03-09T18:00:00"
                }, 
                "required_operators": 1, 
                "location": {
                    "latitude": 45.97122907886604, 
                    "longitude": 13.476444222475841
                }, 
                "patient_name": "Carly Castle"
            }, 
            "act_4_17": {
                "duration": 60, 
                "time_window": {
                    "start": "2014-03-09T08:00:00", 
                    "finish": "2014-03-09T11:20:00"
                }, 
                "required_operators": 1, 
                "location": {
                    "latitude": 46.211763474328166, 
                    "longitude": 12.944017216175672
                }, 
                "patient_name": "Sonja Toney"
            }, 
            "act_4_15": {
                "duration": 30, 
                "time_window": {
                    "start": "2014-03-09T08:00:00", 
                    "finish": "2014-03-09T11:20:00"
                }, 
                "required_operators": 1, 
                "location": {
                    "latitude": 46.23761308253701, 
                    "longitude": 13.26128708392022
                }, 
                "patient_name": "Alvin Ceovantes"
            }, 
            "act_4_9": {
                "duration": 60, 
                "time_window": {
                    "start": "2014-03-09T13:00:00", 
                    "finish": "2014-03-09T18:00:00"
                }, 
                "required_operators": 1, 
                "location": {
                    "latitude": 46.202539076849696, 
                    "longitude": 13.175094631963887
                }, 
                "patient_name": "Debra Parrish"
            }, 
            "act_4_8": {
                "duration": 30, 
                "time_window": {
                    "start": "2014-03-09T08:00:00", 
                    "finish": "2014-03-09T11:20:00"
                }, 
                "required_operators": 1, 
                "location": {
                    "latitude": 46.14690943020803, 
                    "longitude": 13.16001125864006
                }, 
                "patient_name": "Cindy Jewell"
            }, 
            "act_4_7": {
                "duration": 60, 
                "time_window": {
                    "start": "2014-03-09T08:00:00", 
                    "finish": "2014-03-09T11:20:00"
                }, 
                "required_operators": 1, 
                "location": {
                    "latitude": 46.24555922667207, 
                    "longitude": 13.09654709339946
                }, 
                "patient_name": "Colin Hobart"
            }, 
            "act_4_6": {
                "duration": 30, 
                "time_window": {
                    "start": "2014-03-09T08:00:00", 
                    "finish": "2014-03-09T18:00:00"
                }, 
                "required_operators": 1, 
                "location": {
                    "latitude": 45.97092474356466, 
                    "longitude": 13.41256762795404
                }, 
                "patient_name": "Marissa Cianciolo"
            }, 
            "act_4_5": {
                "duration": 30, 
                "time_window": {
                    "start": "2014-03-09T08:00:00", 
                    "finish": "2014-03-09T18:00:00"
                }, 
                "required_operators": 1, 
                "location": {
                    "latitude": 45.941522216019344, 
                    "longitude": 13.250445678211511
                }, 
                "patient_name": "Robert Pomeroy"
            }, 
            "act_4_4": {
                "duration": 30, 
                "time_window": {
                    "start": "2014-03-09T08:00:00", 
                    "finish": "2014-03-09T13:00:00"
                }, 
                "required_operators": 1, 
                "location": {
                    "latitude": 46.12618896084046, 
                    "longitude": 13.381015093125281
                }, 
                "patient_name": "Dwayne Arroyo"
            }, 
            "act_4_3": {
                "duration": 30, 
                "time_window": {
                    "start": "2014-03-09T11:20:00", 
                    "finish": "2014-03-09T14:40:00"
                }, 
                "required_operators": 1, 
                "location": {
                    "latitude": 46.221518043677925, 
                    "longitude": 13.297054904548844
                }, 
                "patient_name": "Rosemarie Krebbs"
            }, 
            "act_4_2": {
                "duration": 60, 
                "time_window": {
                    "start": "2014-03-09T08:00:00", 
                    "finish": "2014-03-09T18:00:00"
                }, 
                "required_operators": 1, 
                "location": {
                    "latitude": 46.115476625169514, 
                    "longitude": 13.255500171156049
                }, 
                "patient_name": "Douglas Mcdonald"
            }, 
            "act_4_1": {
                "duration": 60, 
                "time_window": {
                    "start": "2014-03-09T08:00:00", 
                    "finish": "2014-03-09T11:20:00"
                }, 
                "required_operators": 2, 
                "location": {
                    "latitude": 46.060665607076274, 
                    "longitude": 13.1288212311694
                }, 
                "patient_name": "Kimberly Hyde"
            }, 
            "act_4_0": {
                "duration": 60, 
                "time_window": {
                    "start": "2014-03-09T13:00:00", 
                    "finish": "2014-03-09T18:00:00"
                }, 
                "required_operators": 1, 
                "location": {
                    "latitude": 46.033035597136625, 
                    "longitude": 13.43084526063822
                }, 
                "patient_name": "Leah Sanders"
            }, 
            "act_4_18": {
                "duration": 60, 
                "time_window": {
                    "start": "2014-03-09T08:00:00", 
                    "finish": "2014-03-09T11:20:00"
                }, 
                "required_operators": 1, 
                "location": {
                    "latitude": 45.978844868789615, 
                    "longitude": 13.149494040738466
                }, 
                "patient_name": "Dionne Miller"
            }, 
            "act_4_16": {
                "duration": 60, 
                "time_window": {
                    "start": "2014-03-09T11:20:00", 
                    "finish": "2014-03-09T14:40:00"
                }, 
                "required_operators": 2, 
                "location": {
                    "latitude": 45.95924859678433, 
                    "longitude": 13.409987649420156
                }, 
                "patient_name": "Ina James"
            }, 
            "act_4_19": {
                "duration": 30, 
                "time_window": {
                    "start": "2014-03-09T14:40:00", 
                    "finish": "2014-03-09T18:00:00"
                }, 
                "required_operators": 1, 
                "location": {
                    "latitude": 46.15479387153383, 
                    "longitude": 13.012649928319535
                }, 
                "patient_name": "Linda Feltner"
            }, 
            "act_4_14": {
                "duration": 60, 
                "time_window": {
                    "start": "2014-03-09T14:40:00", 
                    "finish": "2014-03-09T18:00:00"
                }, 
                "required_operators": 1, 
                "location": {
                    "latitude": 46.16541063022465, 
                    "longitude": 12.86122128466599
                }, 
                "patient_name": "Marguerite Woll"
            }
        }, 
        {
            "act_5_18": {
                "duration": 60, 
                "time_window": {
                    "start": "2014-03-10T08:00:00", 
                    "finish": "2014-03-10T18:00:00"
                }, 
                "required_operators": 1, 
                "location": {
                    "latitude": 45.98605732655864, 
                    "longitude": 13.450051486470674
                }, 
                "patient_name": "Krista Hicks"
            }, 
            "act_5_19": {
                "duration": 60, 
                "time_window": {
                    "start": "2014-03-10T13:00:00", 
                    "finish": "2014-03-10T18:00:00"
                }, 
                "required_operators": 1, 
                "location": {
                    "latitude": 46.24017480422645, 
                    "longitude": 13.223379761061423
                }, 
                "patient_name": "Mary Frye"
            }, 
            "act_5_10": {
                "duration": 30, 
                "time_window": {
                    "start": "2014-03-10T08:00:00", 
                    "finish": "2014-03-10T11:20:00"
                }, 
                "required_operators": 1, 
                "location": {
                    "latitude": 46.25453667395017, 
                    "longitude": 13.298805355688572
                }, 
                "patient_name": "Michael Armistead"
            }, 
            "act_5_11": {
                "duration": 60, 
                "time_window": {
                    "start": "2014-03-10T08:00:00", 
                    "finish": "2014-03-10T13:00:00"
                }, 
                "required_operators": 1, 
                "location": {
                    "latitude": 46.2349914319416, 
                    "longitude": 13.073948326895655
                }, 
                "patient_name": "Slyvia Terry"
            }, 
            "act_5_12": {
                "duration": 60, 
                "time_window": {
                    "start": "2014-03-10T13:00:00", 
                    "finish": "2014-03-10T18:00:00"
                }, 
                "required_operators": 1, 
                "location": {
                    "latitude": 45.95753306647362, 
                    "longitude": 12.932140361273214
                }, 
                "patient_name": "Mary Sotelo"
            }, 
            "act_5_13": {
                "duration": 30, 
                "time_window": {
                    "start": "2014-03-10T08:00:00", 
                    "finish": "2014-03-10T18:00:00"
                }, 
                "required_operators": 1, 
                "location": {
                    "latitude": 45.961739883040366, 
                    "longitude": 12.878282154830352
                }, 
                "patient_name": "Donald Perdue"
            }, 
            "act_5_14": {
                "duration": 30, 
                "time_window": {
                    "start": "2014-03-10T08:00:00", 
                    "finish": "2014-03-10T13:00:00"
                }, 
                "required_operators": 1, 
                "location": {
                    "latitude": 45.975236813855915, 
                    "longitude": 13.149933794671922
                }, 
                "patient_name": "William Falcone"
            }, 
            "act_5_15": {
                "duration": 60, 
                "time_window": {
                    "start": "2014-03-10T08:00:00", 
                    "finish": "2014-03-10T18:00:00"
                }, 
                "required_operators": 2, 
                "location": {
                    "latitude": 45.9656335486472, 
                    "longitude": 13.253037164138108
                }, 
                "patient_name": "Kendra Rouzer"
            }, 
            "act_5_16": {
                "duration": 30, 
                "time_window": {
                    "start": "2014-03-10T08:00:00", 
                    "finish": "2014-03-10T11:20:00"
                }, 
                "required_operators": 1, 
                "location": {
                    "latitude": 46.221454008032126, 
                    "longitude": 12.88229805591461
                }, 
                "patient_name": "Wanda Dillon"
            }, 
            "act_5_17": {
                "duration": 60, 
                "time_window": {
                    "start": "2014-03-10T08:00:00", 
                    "finish": "2014-03-10T11:20:00"
                }, 
                "required_operators": 1, 
                "location": {
                    "latitude": 46.184658409663065, 
                    "longitude": 13.369149587458152
                }, 
                "patient_name": "Shari Carrillo"
            }, 
            "act_5_6": {
                "duration": 30, 
                "time_window": {
                    "start": "2014-03-10T14:40:00", 
                    "finish": "2014-03-10T18:00:00"
                }, 
                "required_operators": 1, 
                "location": {
                    "latitude": 46.15355775031134, 
                    "longitude": 13.247014272691887
                }, 
                "patient_name": "Billie Reed"
            }, 
            "act_5_7": {
                "duration": 60, 
                "time_window": {
                    "start": "2014-03-10T08:00:00", 
                    "finish": "2014-03-10T13:00:00"
                }, 
                "required_operators": 2, 
                "location": {
                    "latitude": 46.218677768884994, 
                    "longitude": 13.189561568313009
                }, 
                "patient_name": "Roy Toney"
            }, 
            "act_5_4": {
                "duration": 30, 
                "time_window": {
                    "start": "2014-03-10T08:00:00", 
                    "finish": "2014-03-10T13:00:00"
                }, 
                "required_operators": 1, 
                "location": {
                    "latitude": 46.11671803227727, 
                    "longitude": 13.312906527600447
                }, 
                "patient_name": "Dakota Gardner"
            }, 
            "act_5_5": {
                "duration": 60, 
                "time_window": {
                    "start": "2014-03-10T08:00:00", 
                    "finish": "2014-03-10T18:00:00"
                }, 
                "required_operators": 1, 
                "location": {
                    "latitude": 45.95633236845688, 
                    "longitude": 13.014915864470511
                }, 
                "patient_name": "Edelmira Kiley"
            }, 
            "act_5_2": {
                "duration": 30, 
                "time_window": {
                    "start": "2014-03-10T08:00:00", 
                    "finish": "2014-03-10T11:20:00"
                }, 
                "required_operators": 1, 
                "location": {
                    "latitude": 46.215091442809445, 
                    "longitude": 12.979302468927585
                }, 
                "patient_name": "Jessica Tran"
            }, 
            "act_5_3": {
                "duration": 30, 
                "time_window": {
                    "start": "2014-03-10T08:00:00", 
                    "finish": "2014-03-10T11:20:00"
                }, 
                "required_operators": 1, 
                "location": {
                    "latitude": 46.00900534323174, 
                    "longitude": 13.364436354046285
                }, 
                "patient_name": "Mark Smith"
            }, 
            "act_5_0": {
                "duration": 60, 
                "time_window": {
                    "start": "2014-03-10T14:40:00", 
                    "finish": "2014-03-10T18:00:00"
                }, 
                "required_operators": 1, 
                "location": {
                    "latitude": 45.942025788089474, 
                    "longitude": 13.42329998473614
                }, 
                "patient_name": "John Rogers"
            }, 
            "act_5_1": {
                "duration": 30, 
                "time_window": {
                    "start": "2014-03-10T08:00:00", 
                    "finish": "2014-03-10T18:00:00"
                }, 
                "required_operators": 1, 
                "location": {
                    "latitude": 46.101346146515475, 
                    "longitude": 13.024962711187639
                }, 
                "patient_name": "Bob Hirneise"
            }, 
            "act_5_8": {
                "duration": 30, 
                "time_window": {
                    "start": "2014-03-10T13:00:00", 
                    "finish": "2014-03-10T18:00:00"
                }, 
                "required_operators": 1, 
                "location": {
                    "latitude": 46.10049108485047, 
                    "longitude": 13.165733443670907
                }, 
                "patient_name": "Marsha Smith"
            }, 
            "act_5_9": {
                "duration": 30, 
                "time_window": {
                    "start": "2014-03-10T08:00:00", 
                    "finish": "2014-03-10T18:00:00"
                }, 
                "required_operators": 1, 
                "location": {
                    "latitude": 46.20851895500514, 
                    "longitude": 13.360433909576324
                }, 
                "patient_name": "Carolyn Holcomb"
            }
        }
    ], 
    "operators": {
        "op_8": {
            "time_windows": [
                {
                    "start": "2014-03-05T08:00:00", 
                    "finish": "2014-03-05T18:00:00", 
                    "regular_worktime": "8:00:00"
                }, 
                {
                    "start": "2014-03-06T08:00:00", 
                    "finish": "2014-03-06T18:00:00", 
                    "regular_worktime": "8:00:00"
                }, 
                {
                    "start": "2014-03-07T08:00:00", 
                    "finish": "2014-03-07T18:00:00", 
                    "regular_worktime": "8:00:00"
                }, 
                {
                    "start": "2014-03-08T08:00:00", 
                    "finish": "2014-03-08T18:00:00", 
                    "regular_worktime": "8:00:00"
                }, 
                {
                    "start": "2014-03-09T08:00:00", 
                    "finish": "2014-03-09T18:00:00", 
                    "regular_worktime": "8:00:00"
                }, 
                {
                    "start": "2014-03-10T08:00:00", 
                    "finish": "2014-03-10T18:00:00", 
                    "regular_worktime": "8:00:00"
                }
            ], 
            "incompatible_activities": [
                "act_0_13", 
                "act_0_14", 
                "act_2_12", 
                "act_1_7"
            ], 
            "maximum_working_hours": "40:00:00", 
            "name": "Dorothy Rowe", 
            "minimum_working_hours": "40:00:00"
        }, 
        "op_4": {
            "time_windows": [
                {
                    "start": "2014-03-05T08:00:00", 
                    "finish": "2014-03-05T18:00:00", 
                    "regular_worktime": "8:00:00"
                }, 
                {
                    "start": "2014-03-06T08:00:00", 
                    "finish": "2014-03-06T18:00:00", 
                    "regular_worktime": "8:00:00"
                }, 
                {
                    "start": "2014-03-07T08:00:00", 
                    "finish": "2014-03-07T18:00:00", 
                    "regular_worktime": "8:00:00"
                }, 
                {
                    "start": "2014-03-08T08:00:00", 
                    "finish": "2014-03-08T13:00:00", 
                    "regular_worktime": "4:00:00"
                }, 
                {
                    "start": "2014-03-09T08:00:00", 
                    "finish": "2014-03-09T18:00:00", 
                    "regular_worktime": "8:00:00"
                }, 
                {
                    "start": "2014-03-10T08:00:00", 
                    "finish": "2014-03-10T18:00:00", 
                    "regular_worktime": "8:00:00"
                }
            ], 
            "incompatible_activities": [
                "act_2_10", 
                "act_3_11", 
                "act_5_14", 
                "act_5_9"
            ], 
            "maximum_working_hours": "40:00:00", 
            "name": "Mark Grossman", 
            "minimum_working_hours": "36:00:00"
        }, 
        "op_5": {
            "time_windows": [
                {
                    "start": "2014-03-05T08:00:00", 
                    "finish": "2014-03-05T18:00:00", 
                    "regular_worktime": "8:00:00"
                }, 
                {
                    "start": "2014-03-06T08:00:00", 
                    "finish": "2014-03-06T18:00:00", 
                    "regular_worktime": "8:00:00"
                }, 
                {
                    "start": "2014-03-07T08:00:00", 
                    "finish": "2014-03-07T18:00:00", 
                    "regular_worktime": "8:00:00"
                }, 
                {
                    "start": "2014-03-08T08:00:00", 
                    "finish": "2014-03-08T18:00:00", 
                    "regular_worktime": "8:00:00"
                }, 
                {
                    "start": "2014-03-09T08:00:00", 
                    "finish": "2014-03-09T18:00:00", 
                    "regular_worktime": "8:00:00"
                }, 
                {
                    "start": "2014-03-10T08:00:00", 
                    "finish": "2014-03-10T18:00:00", 
                    "regular_worktime": "8:00:00"
                }
            ], 
            "incompatible_activities": [
                "act_2_8", 
                "act_4_7", 
                "act_5_13", 
                "act_1_19"
            ], 
            "maximum_working_hours": "40:00:00", 
            "name": "Randy Rowan", 
            "minimum_working_hours": "40:00:00"
        }, 
        "op_6": {
            "time_windows": [
                {
                    "start": "2014-03-05T08:00:00", 
                    "finish": "2014-03-05T13:00:00", 
                    "regular_worktime": "4:00:00"
                }, 
                {
                    "start": "2014-03-06T08:00:00", 
                    "finish": "2014-03-06T13:00:00", 
                    "regular_worktime": "4:00:00"
                }, 
                {
                    "start": "2014-03-07T08:00:00", 
                    "finish": "2014-03-07T18:00:00", 
                    "regular_worktime": "8:00:00"
                }, 
                {
                    "start": "2014-03-08T13:00:00", 
                    "finish": "2014-03-08T18:00:00", 
                    "regular_worktime": "4:00:00"
                }, 
                {
                    "start": "2014-03-09T08:00:00", 
                    "finish": "2014-03-09T13:00:00", 
                    "regular_worktime": "4:00:00"
                }, 
                {
                    "start": "2014-03-10T08:00:00", 
                    "finish": "2014-03-10T18:00:00", 
                    "regular_worktime": "8:00:00"
                }
            ], 
            "incompatible_activities": [
                "act_2_11", 
                "act_4_19", 
                "act_5_17", 
                "act_5_12"
            ], 
            "maximum_working_hours": "28:00:00", 
            "name": "Sandra William", 
            "minimum_working_hours": "24:00:00"
        }, 
        "op_7": {
            "time_windows": [
                {
                    "start": "2014-03-05T08:00:00", 
                    "finish": "2014-03-05T18:00:00", 
                    "regular_worktime": "8:00:00"
                }, 
                {
                    "start": "2014-03-06T08:00:00", 
                    "finish": "2014-03-06T18:00:00", 
                    "regular_worktime": "8:00:00"
                }, 
                {
                    "start": "2014-03-07T08:00:00", 
                    "finish": "2014-03-07T18:00:00", 
                    "regular_worktime": "8:00:00"
                }, 
                {
                    "start": "2014-03-08T08:00:00", 
                    "finish": "2014-03-08T18:00:00", 
                    "regular_worktime": "8:00:00"
                }, 
                {
                    "start": "2014-03-09T08:00:00", 
                    "finish": "2014-03-09T18:00:00", 
                    "regular_worktime": "8:00:00"
                }, 
                {
                    "start": "2014-03-10T13:00:00", 
                    "finish": "2014-03-10T18:00:00", 
                    "regular_worktime": "4:00:00"
                }
            ], 
            "incompatible_activities": [
                "act_3_0", 
                "act_0_13", 
                "act_1_0", 
                "act_5_2"
            ], 
            "maximum_working_hours": "40:00:00", 
            "name": "Gwendolyn Strain", 
            "minimum_working_hours": "36:00:00"
        }, 
        "op_0": {
            "time_windows": [
                {
                    "start": "2014-03-05T13:00:00", 
                    "finish": "2014-03-05T18:00:00", 
                    "regular_worktime": "4:00:00"
                }, 
                {
                    "start": "2014-03-06T08:00:00", 
                    "finish": "2014-03-06T18:00:00", 
                    "regular_worktime": "8:00:00"
                }, 
                {
                    "start": "2014-03-07T08:00:00", 
                    "finish": "2014-03-07T13:00:00", 
                    "regular_worktime": "4:00:00"
                }, 
                {
                    "start": "2014-03-08T08:00:00", 
                    "finish": "2014-03-08T18:00:00", 
                    "regular_worktime": "8:00:00"
                }, 
                {
                    "start": "2014-03-09T08:00:00", 
                    "finish": "2014-03-09T18:00:00", 
                    "regular_worktime": "8:00:00"
                }, 
                {
                    "start": "2014-03-10T08:00:00", 
                    "finish": "2014-03-10T18:00:00", 
                    "regular_worktime": "8:00:00"
                }
            ], 
            "incompatible_activities": [
                "act_5_13", 
                "act_0_2", 
                "act_3_2", 
                "act_3_13"
            ], 
            "maximum_working_hours": "36:00:00", 
            "name": "Arthur Wells", 
            "minimum_working_hours": "32:00:00"
        }, 
        "op_1": {
            "time_windows": [
                {
                    "start": "2014-03-05T13:00:00", 
                    "finish": "2014-03-05T18:00:00", 
                    "regular_worktime": "4:00:00"
                }, 
                {
                    "start": "2014-03-06T08:00:00", 
                    "finish": "2014-03-06T18:00:00", 
                    "regular_worktime": "8:00:00"
                }, 
                {
                    "start": "2014-03-07T08:00:00", 
                    "finish": "2014-03-07T18:00:00", 
                    "regular_worktime": "8:00:00"
                }, 
                {
                    "start": "2014-03-08T08:00:00", 
                    "finish": "2014-03-08T18:00:00", 
                    "regular_worktime": "8:00:00"
                }, 
                {
                    "start": "2014-03-09T08:00:00", 
                    "finish": "2014-03-09T18:00:00", 
                    "regular_worktime": "8:00:00"
                }, 
                {
                    "start": "2014-03-10T08:00:00", 
                    "finish": "2014-03-10T18:00:00", 
                    "regular_worktime": "8:00:00"
                }
            ], 
            "incompatible_activities": [
                "act_3_15", 
                "act_5_16", 
                "act_4_16", 
                "act_2_12"
            ], 
            "maximum_working_hours": "40:00:00", 
            "name": "Terry Spada", 
            "minimum_working_hours": "36:00:00"
        }, 
        "op_2": {
            "time_windows": [
                {
                    "start": "2014-03-05T13:00:00", 
                    "finish": "2014-03-05T18:00:00", 
                    "regular_worktime": "4:00:00"
                }, 
                {
                    "start": "2014-03-06T08:00:00", 
                    "finish": "2014-03-06T18:00:00", 
                    "regular_worktime": "8:00:00"
                }, 
                {
                    "start": "2014-03-07T13:00:00", 
                    "finish": "2014-03-07T18:00:00", 
                    "regular_worktime": "4:00:00"
                }, 
                {
                    "start": "2014-03-08T08:00:00", 
                    "finish": "2014-03-08T18:00:00", 
                    "regular_worktime": "8:00:00"
                }, 
                {
                    "start": "2014-03-09T08:00:00", 
                    "finish": "2014-03-09T18:00:00", 
                    "regular_worktime": "8:00:00"
                }, 
                {
                    "start": "2014-03-10T08:00:00", 
                    "finish": "2014-03-10T13:00:00", 
                    "regular_worktime": "4:00:00"
                }
            ], 
            "incompatible_activities": [
                "act_4_19", 
                "act_2_4", 
                "act_4_9", 
                "act_0_12"
            ], 
            "maximum_working_hours": "32:00:00", 
            "name": "Marvin Mcmahon", 
            "minimum_working_hours": "28:00:00"
        }, 
        "op_3": {
            "time_windows": [
                {
                    "start": "2014-03-05T08:00:00", 
                    "finish": "2014-03-05T18:00:00", 
                    "regular_worktime": "8:00:00"
                }, 
                {
                    "start": "2014-03-06T08:00:00", 
                    "finish": "2014-03-06T18:00:00", 
                    "regular_worktime": "8:00:00"
                }, 
                {
                    "start": "2014-03-07T08:00:00", 
                    "finish": "2014-03-07T13:00:00", 
                    "regular_worktime": "4:00:00"
                }, 
                {
                    "start": "2014-03-08T08:00:00", 
                    "finish": "2014-03-08T18:00:00", 
                    "regular_worktime": "8:00:00"
                }, 
                {
                    "start": "2014-03-09T08:00:00", 
                    "finish": "2014-03-09T13:00:00", 
                    "regular_worktime": "4:00:00"
                }, 
                {
                    "start": "2014-03-10T13:00:00", 
                    "finish": "2014-03-10T18:00:00", 
                    "regular_worktime": "4:00:00"
                }
            ], 
            "incompatible_activities": [
                "act_4_2", 
                "act_4_13", 
                "act_1_14", 
                "act_1_9"
            ], 
            "maximum_working_hours": "32:00:00", 
            "name": "Summer Glennon", 
            "minimum_working_hours": "28:00:00"
        }
    }, 
    "meta": {
        "time_window": {
            "start": "08:00:00", 
            "finish": "18:00:00"
        }, 
        "horizon": 6, 
        "granularity": 10, 
        "geographic_area": {
            "upper_left": [
                46.259645, 
                12.860656
            ], 
            "lower_right": [
                45.936826, 
                13.485503
            ]
        }, 
        "max_consecutive_days": 5, 
        "finish_date": "2014-03-11T00:00:00", 
        "max_overtime_rate": 1.1, 
        "start_date": "2014-03-05T00:00:00"
    }
}