{
    "activities": [
        {
            "act_0_39": {
                "duration": 60, 
                "time_window": {
                    "start": "2014-03-04T08:00:00", 
                    "finish": "2014-03-04T11:20:00"
                }, 
                "required_operators": 1, 
                "location": {
                    "latitude": 46.17145654979689, 
                    "longitude": 13.144800544201132
                }, 
                "patient_name": "Tony Roja"
            }, 
            "act_0_35": {
                "duration": 60, 
                "time_window": {
                    "start": "2014-03-04T08:00:00", 
                    "finish": "2014-03-04T18:00:00"
                }, 
                "required_operators": 1, 
                "location": {
                    "latitude": 46.01098611389048, 
                    "longitude": 13.33806940404107
                }, 
                "patient_name": "Matthew Zeigler"
            }, 
            "act_0_34": {
                "duration": 30, 
                "time_window": {
                    "start": "2014-03-04T08:00:00", 
                    "finish": "2014-03-04T18:00:00"
                }, 
                "required_operators": 1, 
                "location": {
                    "latitude": 46.22274013506198, 
                    "longitude": 13.391431817156015
                }, 
                "patient_name": "Donald Quay"
            }, 
            "act_0_37": {
                "duration": 60, 
                "time_window": {
                    "start": "2014-03-04T13:00:00", 
                    "finish": "2014-03-04T18:00:00"
                }, 
                "required_operators": 1, 
                "location": {
                    "latitude": 46.23359127439475, 
                    "longitude": 13.326385731873032
                }, 
                "patient_name": "Jack Gonzalez"
            }, 
            "act_0_36": {
                "duration": 30, 
                "time_window": {
                    "start": "2014-03-04T08:00:00", 
                    "finish": "2014-03-04T18:00:00"
                }, 
                "required_operators": 1, 
                "location": {
                    "latitude": 46.085801589406834, 
                    "longitude": 13.330440833324513
                }, 
                "patient_name": "Brad Hiltz"
            }, 
            "act_0_31": {
                "duration": 60, 
                "time_window": {
                    "start": "2014-03-04T08:00:00", 
                    "finish": "2014-03-04T11:20:00"
                }, 
                "required_operators": 2, 
                "location": {
                    "latitude": 46.251982892393215, 
                    "longitude": 13.17755409277273
                }, 
                "patient_name": "Rita Bills"
            }, 
            "act_0_30": {
                "duration": 60, 
                "time_window": {
                    "start": "2014-03-04T08:00:00", 
                    "finish": "2014-03-04T18:00:00"
                }, 
                "required_operators": 1, 
                "location": {
                    "latitude": 46.20988060087557, 
                    "longitude": 13.18621700267775
                }, 
                "patient_name": "Nancy Karlin"
            }, 
            "act_0_19": {
                "duration": 60, 
                "time_window": {
                    "start": "2014-03-04T08:00:00", 
                    "finish": "2014-03-04T18:00:00"
                }, 
                "required_operators": 1, 
                "location": {
                    "latitude": 45.943105012525244, 
                    "longitude": 13.407064049428511
                }, 
                "patient_name": "Roma Abraham"
            }, 
            "act_0_18": {
                "duration": 30, 
                "time_window": {
                    "start": "2014-03-04T08:00:00", 
                    "finish": "2014-03-04T18:00:00"
                }, 
                "required_operators": 1, 
                "location": {
                    "latitude": 45.980742953177916, 
                    "longitude": 12.89933725382687
                }, 
                "patient_name": "Linda Wyatt"
            }, 
            "act_0_17": {
                "duration": 60, 
                "time_window": {
                    "start": "2014-03-04T14:40:00", 
                    "finish": "2014-03-04T18:00:00"
                }, 
                "required_operators": 1, 
                "location": {
                    "latitude": 45.958424205947125, 
                    "longitude": 13.271049164529789
                }, 
                "patient_name": "Luis Harrison"
            }, 
            "act_0_16": {
                "duration": 30, 
                "time_window": {
                    "start": "2014-03-04T08:00:00", 
                    "finish": "2014-03-04T11:20:00"
                }, 
                "required_operators": 2, 
                "location": {
                    "latitude": 46.212356690608274, 
                    "longitude": 13.31391834844748
                }, 
                "patient_name": "Lewis Hudson"
            }, 
            "act_0_15": {
                "duration": 60, 
                "time_window": {
                    "start": "2014-03-04T08:00:00", 
                    "finish": "2014-03-04T18:00:00"
                }, 
                "required_operators": 2, 
                "location": {
                    "latitude": 46.1152226615633, 
                    "longitude": 13.20100416211522
                }, 
                "patient_name": "Christopher Walker"
            }, 
            "act_0_14": {
                "duration": 60, 
                "time_window": {
                    "start": "2014-03-04T11:20:00", 
                    "finish": "2014-03-04T14:40:00"
                }, 
                "required_operators": 1, 
                "location": {
                    "latitude": 45.958249161503076, 
                    "longitude": 13.153661502715153
                }, 
                "patient_name": "Antoinette Walters"
            }, 
            "act_0_13": {
                "duration": 60, 
                "time_window": {
                    "start": "2014-03-04T08:00:00", 
                    "finish": "2014-03-04T13:00:00"
                }, 
                "required_operators": 1, 
                "location": {
                    "latitude": 46.135646931993726, 
                    "longitude": 13.460494099154044
                }, 
                "patient_name": "Donita Steib"
            }, 
            "act_0_12": {
                "duration": 30, 
                "time_window": {
                    "start": "2014-03-04T11:20:00", 
                    "finish": "2014-03-04T14:40:00"
                }, 
                "required_operators": 1, 
                "location": {
                    "latitude": 46.14061005920388, 
                    "longitude": 13.211266011722863
                }, 
                "patient_name": "Thomas Lankford"
            }, 
            "act_0_11": {
                "duration": 30, 
                "time_window": {
                    "start": "2014-03-04T08:00:00", 
                    "finish": "2014-03-04T18:00:00"
                }, 
                "required_operators": 2, 
                "location": {
                    "latitude": 46.185385227455356, 
                    "longitude": 13.406135536064918
                }, 
                "patient_name": "Jan Goodman"
            }, 
            "act_0_10": {
                "duration": 30, 
                "time_window": {
                    "start": "2014-03-04T08:00:00", 
                    "finish": "2014-03-04T18:00:00"
                }, 
                "required_operators": 2, 
                "location": {
                    "latitude": 45.942344340519774, 
                    "longitude": 13.226843725020052
                }, 
                "patient_name": "Ernest Wynn"
            }, 
            "act_0_33": {
                "duration": 30, 
                "time_window": {
                    "start": "2014-03-04T08:00:00", 
                    "finish": "2014-03-04T13:00:00"
                }, 
                "required_operators": 1, 
                "location": {
                    "latitude": 45.93714286445799, 
                    "longitude": 13.13072113067586
                }, 
                "patient_name": "Brian Shaddix"
            }, 
            "act_0_38": {
                "duration": 30, 
                "time_window": {
                    "start": "2014-03-04T11:20:00", 
                    "finish": "2014-03-04T14:40:00"
                }, 
                "required_operators": 1, 
                "location": {
                    "latitude": 46.10764063957741, 
                    "longitude": 13.101788820764149
                }, 
                "patient_name": "Samuel Simpson"
            }, 
            "act_0_32": {
                "duration": 30, 
                "time_window": {
                    "start": "2014-03-04T11:20:00", 
                    "finish": "2014-03-04T14:40:00"
                }, 
                "required_operators": 1, 
                "location": {
                    "latitude": 46.10597484776681, 
                    "longitude": 13.238725843458113
                }, 
                "patient_name": "Michael Grubb"
            }, 
            "act_0_9": {
                "duration": 30, 
                "time_window": {
                    "start": "2014-03-04T08:00:00", 
                    "finish": "2014-03-04T11:20:00"
                }, 
                "required_operators": 1, 
                "location": {
                    "latitude": 46.17456973455471, 
                    "longitude": 13.049537994675651
                }, 
                "patient_name": "Bonny Knox"
            }, 
            "act_0_8": {
                "duration": 30, 
                "time_window": {
                    "start": "2014-03-04T08:00:00", 
                    "finish": "2014-03-04T18:00:00"
                }, 
                "required_operators": 1, 
                "location": {
                    "latitude": 46.07517099215067, 
                    "longitude": 12.87259432638248
                }, 
                "patient_name": "Virgil Sniezek"
            }, 
            "act_0_3": {
                "duration": 60, 
                "time_window": {
                    "start": "2014-03-04T08:00:00", 
                    "finish": "2014-03-04T18:00:00"
                }, 
                "required_operators": 1, 
                "location": {
                    "latitude": 45.93991452737619, 
                    "longitude": 13.134743919186711
                }, 
                "patient_name": "Steven Thompson"
            }, 
            "act_0_2": {
                "duration": 30, 
                "time_window": {
                    "start": "2014-03-04T08:00:00", 
                    "finish": "2014-03-04T18:00:00"
                }, 
                "required_operators": 1, 
                "location": {
                    "latitude": 46.20639657170575, 
                    "longitude": 13.2678677225506
                }, 
                "patient_name": "Gilbert Saavedra"
            }, 
            "act_0_1": {
                "duration": 30, 
                "time_window": {
                    "start": "2014-03-04T13:00:00", 
                    "finish": "2014-03-04T18:00:00"
                }, 
                "required_operators": 1, 
                "location": {
                    "latitude": 45.968635587951894, 
                    "longitude": 13.084371645760202
                }, 
                "patient_name": "Rodney Wolf"
            }, 
            "act_0_0": {
                "duration": 30, 
                "time_window": {
                    "start": "2014-03-04T11:20:00", 
                    "finish": "2014-03-04T14:40:00"
                }, 
                "required_operators": 1, 
                "location": {
                    "latitude": 46.022676690126175, 
                    "longitude": 13.272086518547257
                }, 
                "patient_name": "Chad Pridgen"
            }, 
            "act_0_7": {
                "duration": 30, 
                "time_window": {
                    "start": "2014-03-04T08:00:00", 
                    "finish": "2014-03-04T13:00:00"
                }, 
                "required_operators": 1, 
                "location": {
                    "latitude": 46.22902425229054, 
                    "longitude": 13.15715724902011
                }, 
                "patient_name": "Elaine Carver"
            }, 
            "act_0_6": {
                "duration": 60, 
                "time_window": {
                    "start": "2014-03-04T08:00:00", 
                    "finish": "2014-03-04T18:00:00"
                }, 
                "required_operators": 2, 
                "location": {
                    "latitude": 46.229628096224076, 
                    "longitude": 13.16085588530094
                }, 
                "patient_name": "Maria Gutierrez"
            }, 
            "act_0_5": {
                "duration": 30, 
                "time_window": {
                    "start": "2014-03-04T08:00:00", 
                    "finish": "2014-03-04T13:00:00"
                }, 
                "required_operators": 1, 
                "location": {
                    "latitude": 46.09808050660468, 
                    "longitude": 12.92465784563697
                }, 
                "patient_name": "Edith Powell"
            }, 
            "act_0_4": {
                "duration": 30, 
                "time_window": {
                    "start": "2014-03-04T08:00:00", 
                    "finish": "2014-03-04T18:00:00"
                }, 
                "required_operators": 1, 
                "location": {
                    "latitude": 46.201150830844036, 
                    "longitude": 12.91981182710901
                }, 
                "patient_name": "Magdalena Matheson"
            }, 
            "act_0_22": {
                "duration": 60, 
                "time_window": {
                    "start": "2014-03-04T08:00:00", 
                    "finish": "2014-03-04T18:00:00"
                }, 
                "required_operators": 1, 
                "location": {
                    "latitude": 45.968795208809226, 
                    "longitude": 13.395060136265267
                }, 
                "patient_name": "Mary Nozum"
            }, 
            "act_0_23": {
                "duration": 30, 
                "time_window": {
                    "start": "2014-03-04T11:20:00", 
                    "finish": "2014-03-04T14:40:00"
                }, 
                "required_operators": 2, 
                "location": {
                    "latitude": 45.99930453634767, 
                    "longitude": 13.301823616630196
                }, 
                "patient_name": "Eric Cross"
            }, 
            "act_0_20": {
                "duration": 30, 
                "time_window": {
                    "start": "2014-03-04T13:00:00", 
                    "finish": "2014-03-04T18:00:00"
                }, 
                "required_operators": 2, 
                "location": {
                    "latitude": 46.069534872632175, 
                    "longitude": 12.863700906875655
                }, 
                "patient_name": "Jacquelin Thomas"
            }, 
            "act_0_21": {
                "duration": 30, 
                "time_window": {
                    "start": "2014-03-04T08:00:00", 
                    "finish": "2014-03-04T13:00:00"
                }, 
                "required_operators": 1, 
                "location": {
                    "latitude": 46.179530119513615, 
                    "longitude": 13.286271964053737
                }, 
                "patient_name": "Dan Cordova"
            }, 
            "act_0_26": {
                "duration": 30, 
                "time_window": {
                    "start": "2014-03-04T08:00:00", 
                    "finish": "2014-03-04T18:00:00"
                }, 
                "required_operators": 1, 
                "location": {
                    "latitude": 46.18003177336369, 
                    "longitude": 12.917188182759853
                }, 
                "patient_name": "Lisa Harrison"
            }, 
            "act_0_27": {
                "duration": 60, 
                "time_window": {
                    "start": "2014-03-04T14:40:00", 
                    "finish": "2014-03-04T18:00:00"
                }, 
                "required_operators": 1, 
                "location": {
                    "latitude": 46.00959291926079, 
                    "longitude": 13.12554744470854
                }, 
                "patient_name": "Eva Jones"
            }, 
            "act_0_24": {
                "duration": 60, 
                "time_window": {
                    "start": "2014-03-04T08:00:00", 
                    "finish": "2014-03-04T13:00:00"
                }, 
                "required_operators": 2, 
                "location": {
                    "latitude": 46.07337359215903, 
                    "longitude": 13.356994254362592
                }, 
                "patient_name": "Thelma Losada"
            }, 
            "act_0_25": {
                "duration": 30, 
                "time_window": {
                    "start": "2014-03-04T08:00:00", 
                    "finish": "2014-03-04T13:00:00"
                }, 
                "required_operators": 2, 
                "location": {
                    "latitude": 46.10597179937959, 
                    "longitude": 13.103093104125582
                }, 
                "patient_name": "Manuel Corrente"
            }, 
            "act_0_28": {
                "duration": 30, 
                "time_window": {
                    "start": "2014-03-04T13:00:00", 
                    "finish": "2014-03-04T18:00:00"
                }, 
                "required_operators": 1, 
                "location": {
                    "latitude": 46.03653344531064, 
                    "longitude": 13.100953347709872
                }, 
                "patient_name": "Micheal Valdes"
            }, 
            "act_0_29": {
                "duration": 30, 
                "time_window": {
                    "start": "2014-03-04T08:00:00", 
                    "finish": "2014-03-04T11:20:00"
                }, 
                "required_operators": 1, 
                "location": {
                    "latitude": 46.15937042976298, 
                    "longitude": 12.970463050766924
                }, 
                "patient_name": "Lillian Ledezma"
            }
        }, 
        {
            "act_1_38": {
                "duration": 60, 
                "time_window": {
                    "start": "2014-03-05T08:00:00", 
                    "finish": "2014-03-05T18:00:00"
                }, 
                "required_operators": 1, 
                "location": {
                    "latitude": 46.03704349048316, 
                    "longitude": 12.995353278099394
                }, 
                "patient_name": "Betty Lopez"
            }, 
            "act_1_39": {
                "duration": 60, 
                "time_window": {
                    "start": "2014-03-05T08:00:00", 
                    "finish": "2014-03-05T13:00:00"
                }, 
                "required_operators": 1, 
                "location": {
                    "latitude": 46.2222719129371, 
                    "longitude": 12.92099105722677
                }, 
                "patient_name": "Kenneth Schnakenberg"
            }, 
            "act_1_32": {
                "duration": 30, 
                "time_window": {
                    "start": "2014-03-05T14:40:00", 
                    "finish": "2014-03-05T18:00:00"
                }, 
                "required_operators": 1, 
                "location": {
                    "latitude": 46.12622947451805, 
                    "longitude": 13.373973706877369
                }, 
                "patient_name": "Salvador Simmons"
            }, 
            "act_1_33": {
                "duration": 30, 
                "time_window": {
                    "start": "2014-03-05T08:00:00", 
                    "finish": "2014-03-05T18:00:00"
                }, 
                "required_operators": 2, 
                "location": {
                    "latitude": 46.24992447461977, 
                    "longitude": 13.215023326668158
                }, 
                "patient_name": "Terry Foreman"
            }, 
            "act_1_30": {
                "duration": 30, 
                "time_window": {
                    "start": "2014-03-05T13:00:00", 
                    "finish": "2014-03-05T18:00:00"
                }, 
                "required_operators": 1, 
                "location": {
                    "latitude": 45.9622387544051, 
                    "longitude": 13.035337719038568
                }, 
                "patient_name": "Robert Hahn"
            }, 
            "act_1_31": {
                "duration": 60, 
                "time_window": {
                    "start": "2014-03-05T08:00:00", 
                    "finish": "2014-03-05T18:00:00"
                }, 
                "required_operators": 1, 
                "location": {
                    "latitude": 46.205574954531734, 
                    "longitude": 12.984577188391278
                }, 
                "patient_name": "Manuel Morris"
            }, 
            "act_1_36": {
                "duration": 60, 
                "time_window": {
                    "start": "2014-03-05T08:00:00", 
                    "finish": "2014-03-05T18:00:00"
                }, 
                "required_operators": 2, 
                "location": {
                    "latitude": 46.217580294074146, 
                    "longitude": 12.928423682760753
                }, 
                "patient_name": "Bryan Naylor"
            }, 
            "act_1_37": {
                "duration": 30, 
                "time_window": {
                    "start": "2014-03-05T13:00:00", 
                    "finish": "2014-03-05T18:00:00"
                }, 
                "required_operators": 1, 
                "location": {
                    "latitude": 45.985139959732216, 
                    "longitude": 12.937232145210574
                }, 
                "patient_name": "Eli Williams"
            }, 
            "act_1_34": {
                "duration": 60, 
                "time_window": {
                    "start": "2014-03-05T08:00:00", 
                    "finish": "2014-03-05T18:00:00"
                }, 
                "required_operators": 1, 
                "location": {
                    "latitude": 46.028849496422765, 
                    "longitude": 13.155073059129872
                }, 
                "patient_name": "Bianca Sause"
            }, 
            "act_1_35": {
                "duration": 60, 
                "time_window": {
                    "start": "2014-03-05T08:00:00", 
                    "finish": "2014-03-05T13:00:00"
                }, 
                "required_operators": 2, 
                "location": {
                    "latitude": 46.1916797388054, 
                    "longitude": 13.115961906347936
                }, 
                "patient_name": "Christina Buchana"
            }, 
            "act_1_14": {
                "duration": 60, 
                "time_window": {
                    "start": "2014-03-05T08:00:00", 
                    "finish": "2014-03-05T18:00:00"
                }, 
                "required_operators": 2, 
                "location": {
                    "latitude": 45.961029164717935, 
                    "longitude": 13.388893110650809
                }, 
                "patient_name": "Lavon Ridenour"
            }, 
            "act_1_15": {
                "duration": 30, 
                "time_window": {
                    "start": "2014-03-05T08:00:00", 
                    "finish": "2014-03-05T18:00:00"
                }, 
                "required_operators": 1, 
                "location": {
                    "latitude": 46.24680484734435, 
                    "longitude": 13.063984432467649
                }, 
                "patient_name": "Bobbi Ramirez"
            }, 
            "act_1_16": {
                "duration": 30, 
                "time_window": {
                    "start": "2014-03-05T08:00:00", 
                    "finish": "2014-03-05T18:00:00"
                }, 
                "required_operators": 1, 
                "location": {
                    "latitude": 46.255714582661646, 
                    "longitude": 12.999752343983634
                }, 
                "patient_name": "Kimberly Hollenbach"
            }, 
            "act_1_17": {
                "duration": 60, 
                "time_window": {
                    "start": "2014-03-05T08:00:00", 
                    "finish": "2014-03-05T13:00:00"
                }, 
                "required_operators": 1, 
                "location": {
                    "latitude": 45.991401932370685, 
                    "longitude": 12.870860264204122
                }, 
                "patient_name": "Evan Keller"
            }, 
            "act_1_10": {
                "duration": 60, 
                "time_window": {
                    "start": "2014-03-05T08:00:00", 
                    "finish": "2014-03-05T13:00:00"
                }, 
                "required_operators": 1, 
                "location": {
                    "latitude": 46.13551698021384, 
                    "longitude": 13.110134598915176
                }, 
                "patient_name": "Joesph Harding"
            }, 
            "act_1_11": {
                "duration": 30, 
                "time_window": {
                    "start": "2014-03-05T08:00:00", 
                    "finish": "2014-03-05T13:00:00"
                }, 
                "required_operators": 1, 
                "location": {
                    "latitude": 46.02075331474397, 
                    "longitude": 13.161345831822116
                }, 
                "patient_name": "Jacob Williamson"
            }, 
            "act_1_12": {
                "duration": 30, 
                "time_window": {
                    "start": "2014-03-05T13:00:00", 
                    "finish": "2014-03-05T18:00:00"
                }, 
                "required_operators": 1, 
                "location": {
                    "latitude": 45.981930519560436, 
                    "longitude": 13.156600311589003
                }, 
                "patient_name": "Enriqueta Antrikin"
            }, 
            "act_1_13": {
                "duration": 60, 
                "time_window": {
                    "start": "2014-03-05T08:00:00", 
                    "finish": "2014-03-05T18:00:00"
                }, 
                "required_operators": 1, 
                "location": {
                    "latitude": 46.10015802571842, 
                    "longitude": 13.31413160987237
                }, 
                "patient_name": "Janice Mccarthy"
            }, 
            "act_1_18": {
                "duration": 30, 
                "time_window": {
                    "start": "2014-03-05T08:00:00", 
                    "finish": "2014-03-05T18:00:00"
                }, 
                "required_operators": 1, 
                "location": {
                    "latitude": 46.05920363965952, 
                    "longitude": 12.869363893621188
                }, 
                "patient_name": "Mary Carol"
            }, 
            "act_1_19": {
                "duration": 60, 
                "time_window": {
                    "start": "2014-03-05T08:00:00", 
                    "finish": "2014-03-05T18:00:00"
                }, 
                "required_operators": 1, 
                "location": {
                    "latitude": 46.01112238454783, 
                    "longitude": 13.06201748174785
                }, 
                "patient_name": "Margaret Chambers"
            }, 
            "act_1_2": {
                "duration": 60, 
                "time_window": {
                    "start": "2014-03-05T08:00:00", 
                    "finish": "2014-03-05T13:00:00"
                }, 
                "required_operators": 1, 
                "location": {
                    "latitude": 45.95427954620222, 
                    "longitude": 12.956357303693638
                }, 
                "patient_name": "Edward Poli"
            }, 
            "act_1_3": {
                "duration": 30, 
                "time_window": {
                    "start": "2014-03-05T08:00:00", 
                    "finish": "2014-03-05T11:20:00"
                }, 
                "required_operators": 1, 
                "location": {
                    "latitude": 46.20477103511182, 
                    "longitude": 13.460915206539664
                }, 
                "patient_name": "Monica Hixson"
            }, 
            "act_1_0": {
                "duration": 30, 
                "time_window": {
                    "start": "2014-03-05T08:00:00", 
                    "finish": "2014-03-05T18:00:00"
                }, 
                "required_operators": 3, 
                "location": {
                    "latitude": 46.13814686868192, 
                    "longitude": 13.013125478529414
                }, 
                "patient_name": "Patty Burchett"
            }, 
            "act_1_1": {
                "duration": 60, 
                "time_window": {
                    "start": "2014-03-05T11:20:00", 
                    "finish": "2014-03-05T14:40:00"
                }, 
                "required_operators": 1, 
                "location": {
                    "latitude": 46.20205720733942, 
                    "longitude": 13.462788426451084
                }, 
                "patient_name": "Carl Wardlaw"
            }, 
            "act_1_6": {
                "duration": 30, 
                "time_window": {
                    "start": "2014-03-05T13:00:00", 
                    "finish": "2014-03-05T18:00:00"
                }, 
                "required_operators": 1, 
                "location": {
                    "latitude": 45.95430615708745, 
                    "longitude": 13.142847728253905
                }, 
                "patient_name": "Sonja Smith"
            }, 
            "act_1_7": {
                "duration": 60, 
                "time_window": {
                    "start": "2014-03-05T08:00:00", 
                    "finish": "2014-03-05T13:00:00"
                }, 
                "required_operators": 1, 
                "location": {
                    "latitude": 45.943299631183095, 
                    "longitude": 13.445639218648878
                }, 
                "patient_name": "John Cattaneo"
            }, 
            "act_1_4": {
                "duration": 30, 
                "time_window": {
                    "start": "2014-03-05T08:00:00", 
                    "finish": "2014-03-05T18:00:00"
                }, 
                "required_operators": 1, 
                "location": {
                    "latitude": 46.18407137859687, 
                    "longitude": 12.867048351659026
                }, 
                "patient_name": "Thomas Macon"
            }, 
            "act_1_5": {
                "duration": 30, 
                "time_window": {
                    "start": "2014-03-05T13:00:00", 
                    "finish": "2014-03-05T18:00:00"
                }, 
                "required_operators": 1, 
                "location": {
                    "latitude": 45.948111206488605, 
                    "longitude": 13.004181102326797
                }, 
                "patient_name": "Wilma Vargas"
            }, 
            "act_1_8": {
                "duration": 30, 
                "time_window": {
                    "start": "2014-03-05T08:00:00", 
                    "finish": "2014-03-05T11:20:00"
                }, 
                "required_operators": 1, 
                "location": {
                    "latitude": 46.25043786328795, 
                    "longitude": 13.468208595569113
                }, 
                "patient_name": "Rosa Wertheim"
            }, 
            "act_1_9": {
                "duration": 30, 
                "time_window": {
                    "start": "2014-03-05T08:00:00", 
                    "finish": "2014-03-05T11:20:00"
                }, 
                "required_operators": 1, 
                "location": {
                    "latitude": 46.25499960120478, 
                    "longitude": 13.075062148934087
                }, 
                "patient_name": "Jeffrey Alvarez"
            }, 
            "act_1_29": {
                "duration": 30, 
                "time_window": {
                    "start": "2014-03-05T08:00:00", 
                    "finish": "2014-03-05T18:00:00"
                }, 
                "required_operators": 1, 
                "location": {
                    "latitude": 46.037652822414906, 
                    "longitude": 13.020649007393859
                }, 
                "patient_name": "Mark Dawkins"
            }, 
            "act_1_28": {
                "duration": 30, 
                "time_window": {
                    "start": "2014-03-05T08:00:00", 
                    "finish": "2014-03-05T18:00:00"
                }, 
                "required_operators": 1, 
                "location": {
                    "latitude": 46.01684647360046, 
                    "longitude": 13.036134743891534
                }, 
                "patient_name": "Marion Cole"
            }, 
            "act_1_25": {
                "duration": 60, 
                "time_window": {
                    "start": "2014-03-05T08:00:00", 
                    "finish": "2014-03-05T11:20:00"
                }, 
                "required_operators": 1, 
                "location": {
                    "latitude": 46.05694604156693, 
                    "longitude": 13.232255767252532
                }, 
                "patient_name": "Ashley Inabinet"
            }, 
            "act_1_24": {
                "duration": 30, 
                "time_window": {
                    "start": "2014-03-05T08:00:00", 
                    "finish": "2014-03-05T11:20:00"
                }, 
                "required_operators": 2, 
                "location": {
                    "latitude": 46.22036910068288, 
                    "longitude": 13.36664403666853
                }, 
                "patient_name": "Sonya Luther"
            }, 
            "act_1_27": {
                "duration": 30, 
                "time_window": {
                    "start": "2014-03-05T08:00:00", 
                    "finish": "2014-03-05T11:20:00"
                }, 
                "required_operators": 1, 
                "location": {
                    "latitude": 46.23134202458434, 
                    "longitude": 13.263632581456507
                }, 
                "patient_name": "Margaret Laidlaw"
            }, 
            "act_1_26": {
                "duration": 60, 
                "time_window": {
                    "start": "2014-03-05T08:00:00", 
                    "finish": "2014-03-05T13:00:00"
                }, 
                "required_operators": 1, 
                "location": {
                    "latitude": 45.960556932360674, 
                    "longitude": 13.412608315237499
                }, 
                "patient_name": "Mariana Quezad"
            }, 
            "act_1_21": {
                "duration": 30, 
                "time_window": {
                    "start": "2014-03-05T08:00:00", 
                    "finish": "2014-03-05T18:00:00"
                }, 
                "required_operators": 2, 
                "location": {
                    "latitude": 46.15155952457318, 
                    "longitude": 12.97350204839524
                }, 
                "patient_name": "Erma Mcghee"
            }, 
            "act_1_20": {
                "duration": 30, 
                "time_window": {
                    "start": "2014-03-05T11:20:00", 
                    "finish": "2014-03-05T14:40:00"
                }, 
                "required_operators": 1, 
                "location": {
                    "latitude": 46.0409355074531, 
                    "longitude": 13.351620542579477
                }, 
                "patient_name": "Wiley Mcclay"
            }, 
            "act_1_23": {
                "duration": 30, 
                "time_window": {
                    "start": "2014-03-05T11:20:00", 
                    "finish": "2014-03-05T14:40:00"
                }, 
                "required_operators": 3, 
                "location": {
                    "latitude": 46.23533564789902, 
                    "longitude": 13.332464605624992
                }, 
                "patient_name": "Rosario Chappell"
            }, 
            "act_1_22": {
                "duration": 60, 
                "time_window": {
                    "start": "2014-03-05T11:20:00", 
                    "finish": "2014-03-05T14:40:00"
                }, 
                "required_operators": 1, 
                "location": {
                    "latitude": 46.08312388924134, 
                    "longitude": 12.86079032459439
                }, 
                "patient_name": "Shannon Lowe"
            }
        }, 
        {
            "act_2_19": {
                "duration": 30, 
                "time_window": {
                    "start": "2014-03-06T14:40:00", 
                    "finish": "2014-03-06T18:00:00"
                }, 
                "required_operators": 1, 
                "location": {
                    "latitude": 46.08611976468817, 
                    "longitude": 13.019681377268748
                }, 
                "patient_name": "Pablo Murray"
            }, 
            "act_2_18": {
                "duration": 60, 
                "time_window": {
                    "start": "2014-03-06T08:00:00", 
                    "finish": "2014-03-06T13:00:00"
                }, 
                "required_operators": 1, 
                "location": {
                    "latitude": 46.2582380009791, 
                    "longitude": 13.108093658948897
                }, 
                "patient_name": "Joshua Willett"
            }, 
            "act_2_11": {
                "duration": 30, 
                "time_window": {
                    "start": "2014-03-06T08:00:00", 
                    "finish": "2014-03-06T18:00:00"
                }, 
                "required_operators": 1, 
                "location": {
                    "latitude": 45.95434723532214, 
                    "longitude": 12.991524419440898
                }, 
                "patient_name": "Doug Harrison"
            }, 
            "act_2_10": {
                "duration": 30, 
                "time_window": {
                    "start": "2014-03-06T11:20:00", 
                    "finish": "2014-03-06T14:40:00"
                }, 
                "required_operators": 1, 
                "location": {
                    "latitude": 46.18470150033876, 
                    "longitude": 12.945106980284375
                }, 
                "patient_name": "Elizabeth Zeger"
            }, 
            "act_2_13": {
                "duration": 60, 
                "time_window": {
                    "start": "2014-03-06T11:20:00", 
                    "finish": "2014-03-06T14:40:00"
                }, 
                "required_operators": 1, 
                "location": {
                    "latitude": 45.98735225023104, 
                    "longitude": 12.88417780833841
                }, 
                "patient_name": "Rita Barnett"
            }, 
            "act_2_12": {
                "duration": 60, 
                "time_window": {
                    "start": "2014-03-06T08:00:00", 
                    "finish": "2014-03-06T18:00:00"
                }, 
                "required_operators": 1, 
                "location": {
                    "latitude": 46.17031157987196, 
                    "longitude": 13.152862802077792
                }, 
                "patient_name": "John Segovia"
            }, 
            "act_2_15": {
                "duration": 60, 
                "time_window": {
                    "start": "2014-03-06T08:00:00", 
                    "finish": "2014-03-06T18:00:00"
                }, 
                "required_operators": 1, 
                "location": {
                    "latitude": 46.19443694087104, 
                    "longitude": 13.061995177059588
                }, 
                "patient_name": "John Ramos"
            }, 
            "act_2_14": {
                "duration": 30, 
                "time_window": {
                    "start": "2014-03-06T08:00:00", 
                    "finish": "2014-03-06T18:00:00"
                }, 
                "required_operators": 1, 
                "location": {
                    "latitude": 46.0968488726004, 
                    "longitude": 13.344383223801206
                }, 
                "patient_name": "Teresa Harcar"
            }, 
            "act_2_17": {
                "duration": 60, 
                "time_window": {
                    "start": "2014-03-06T08:00:00", 
                    "finish": "2014-03-06T18:00:00"
                }, 
                "required_operators": 3, 
                "location": {
                    "latitude": 46.257008501569935, 
                    "longitude": 13.39757552823289
                }, 
                "patient_name": "Dennis Trew"
            }, 
            "act_2_16": {
                "duration": 30, 
                "time_window": {
                    "start": "2014-03-06T14:40:00", 
                    "finish": "2014-03-06T18:00:00"
                }, 
                "required_operators": 1, 
                "location": {
                    "latitude": 45.96454055265247, 
                    "longitude": 13.331519552266046
                }, 
                "patient_name": "Stephen Miles"
            }, 
            "act_2_33": {
                "duration": 30, 
                "time_window": {
                    "start": "2014-03-06T08:00:00", 
                    "finish": "2014-03-06T11:20:00"
                }, 
                "required_operators": 2, 
                "location": {
                    "latitude": 45.99044710158633, 
                    "longitude": 13.274562500923217
                }, 
                "patient_name": "Matthew Lewis"
            }, 
            "act_2_32": {
                "duration": 30, 
                "time_window": {
                    "start": "2014-03-06T13:00:00", 
                    "finish": "2014-03-06T18:00:00"
                }, 
                "required_operators": 1, 
                "location": {
                    "latitude": 45.941143342425555, 
                    "longitude": 13.387179060818031
                }, 
                "patient_name": "Joy Park"
            }, 
            "act_2_31": {
                "duration": 60, 
                "time_window": {
                    "start": "2014-03-06T13:00:00", 
                    "finish": "2014-03-06T18:00:00"
                }, 
                "required_operators": 2, 
                "location": {
                    "latitude": 46.184519329580674, 
                    "longitude": 13.183882229836133
                }, 
                "patient_name": "Jessica Sampson"
            }, 
            "act_2_30": {
                "duration": 60, 
                "time_window": {
                    "start": "2014-03-06T13:00:00", 
                    "finish": "2014-03-06T18:00:00"
                }, 
                "required_operators": 1, 
                "location": {
                    "latitude": 46.16066416677464, 
                    "longitude": 12.88885685659869
                }, 
                "patient_name": "Donita Weishaupt"
            }, 
            "act_2_37": {
                "duration": 30, 
                "time_window": {
                    "start": "2014-03-06T08:00:00", 
                    "finish": "2014-03-06T18:00:00"
                }, 
                "required_operators": 3, 
                "location": {
                    "latitude": 45.95156661305097, 
                    "longitude": 13.414275969210113
                }, 
                "patient_name": "Judy Collica"
            }, 
            "act_2_36": {
                "duration": 30, 
                "time_window": {
                    "start": "2014-03-06T13:00:00", 
                    "finish": "2014-03-06T18:00:00"
                }, 
                "required_operators": 2, 
                "location": {
                    "latitude": 46.10872471746869, 
                    "longitude": 12.993556944069825
                }, 
                "patient_name": "Daniel Benson"
            }, 
            "act_2_35": {
                "duration": 30, 
                "time_window": {
                    "start": "2014-03-06T08:00:00", 
                    "finish": "2014-03-06T13:00:00"
                }, 
                "required_operators": 1, 
                "location": {
                    "latitude": 45.95006342270375, 
                    "longitude": 12.992034645462983
                }, 
                "patient_name": "Joshua Ashley"
            }, 
            "act_2_34": {
                "duration": 30, 
                "time_window": {
                    "start": "2014-03-06T13:00:00", 
                    "finish": "2014-03-06T18:00:00"
                }, 
                "required_operators": 1, 
                "location": {
                    "latitude": 46.197311182012236, 
                    "longitude": 13.297561959452906
                }, 
                "patient_name": "Michael Hernandez"
            }, 
            "act_2_39": {
                "duration": 60, 
                "time_window": {
                    "start": "2014-03-06T13:00:00", 
                    "finish": "2014-03-06T18:00:00"
                }, 
                "required_operators": 1, 
                "location": {
                    "latitude": 46.07763541020663, 
                    "longitude": 12.927598995494504
                }, 
                "patient_name": "Kathleen Robbins"
            }, 
            "act_2_38": {
                "duration": 30, 
                "time_window": {
                    "start": "2014-03-06T08:00:00", 
                    "finish": "2014-03-06T18:00:00"
                }, 
                "required_operators": 1, 
                "location": {
                    "latitude": 46.173088227345076, 
                    "longitude": 13.10910264193022
                }, 
                "patient_name": "Carmen Halverson"
            }, 
            "act_2_20": {
                "duration": 30, 
                "time_window": {
                    "start": "2014-03-06T13:00:00", 
                    "finish": "2014-03-06T18:00:00"
                }, 
                "required_operators": 1, 
                "location": {
                    "latitude": 46.15586046895388, 
                    "longitude": 13.468635490937208
                }, 
                "patient_name": "Lynn Raggs"
            }, 
            "act_2_21": {
                "duration": 30, 
                "time_window": {
                    "start": "2014-03-06T08:00:00", 
                    "finish": "2014-03-06T13:00:00"
                }, 
                "required_operators": 1, 
                "location": {
                    "latitude": 46.07079538150485, 
                    "longitude": 13.198390793612528
                }, 
                "patient_name": "Laura Helton"
            }, 
            "act_2_22": {
                "duration": 60, 
                "time_window": {
                    "start": "2014-03-06T08:00:00", 
                    "finish": "2014-03-06T18:00:00"
                }, 
                "required_operators": 2, 
                "location": {
                    "latitude": 46.092616237490596, 
                    "longitude": 13.217179172069343
                }, 
                "patient_name": "Heather Macdonald"
            }, 
            "act_2_23": {
                "duration": 30, 
                "time_window": {
                    "start": "2014-03-06T08:00:00", 
                    "finish": "2014-03-06T18:00:00"
                }, 
                "required_operators": 1, 
                "location": {
                    "latitude": 46.0970300152242, 
                    "longitude": 13.169565189734769
                }, 
                "patient_name": "Keith Lewis"
            }, 
            "act_2_24": {
                "duration": 30, 
                "time_window": {
                    "start": "2014-03-06T14:40:00", 
                    "finish": "2014-03-06T18:00:00"
                }, 
                "required_operators": 2, 
                "location": {
                    "latitude": 45.970709096141334, 
                    "longitude": 13.35541857981831
                }, 
                "patient_name": "Tara Johnson"
            }, 
            "act_2_25": {
                "duration": 60, 
                "time_window": {
                    "start": "2014-03-06T08:00:00", 
                    "finish": "2014-03-06T18:00:00"
                }, 
                "required_operators": 1, 
                "location": {
                    "latitude": 46.04013485510625, 
                    "longitude": 13.044346709725447
                }, 
                "patient_name": "Byron Ames"
            }, 
            "act_2_26": {
                "duration": 60, 
                "time_window": {
                    "start": "2014-03-06T08:00:00", 
                    "finish": "2014-03-06T18:00:00"
                }, 
                "required_operators": 1, 
                "location": {
                    "latitude": 46.103241140998605, 
                    "longitude": 13.28795076112233
                }, 
                "patient_name": "Michael Rice"
            }, 
            "act_2_27": {
                "duration": 30, 
                "time_window": {
                    "start": "2014-03-06T08:00:00", 
                    "finish": "2014-03-06T13:00:00"
                }, 
                "required_operators": 1, 
                "location": {
                    "latitude": 46.187080601618895, 
                    "longitude": 13.225219481121263
                }, 
                "patient_name": "Annie Knight"
            }, 
            "act_2_28": {
                "duration": 60, 
                "time_window": {
                    "start": "2014-03-06T13:00:00", 
                    "finish": "2014-03-06T18:00:00"
                }, 
                "required_operators": 1, 
                "location": {
                    "latitude": 45.994412466138286, 
                    "longitude": 13.31382437017128
                }, 
                "patient_name": "Cynthia Adams"
            }, 
            "act_2_29": {
                "duration": 30, 
                "time_window": {
                    "start": "2014-03-06T11:20:00", 
                    "finish": "2014-03-06T14:40:00"
                }, 
                "required_operators": 1, 
                "location": {
                    "latitude": 46.21772721240397, 
                    "longitude": 13.051564834927376
                }, 
                "patient_name": "Brandon Ewing"
            }, 
            "act_2_9": {
                "duration": 30, 
                "time_window": {
                    "start": "2014-03-06T08:00:00", 
                    "finish": "2014-03-06T18:00:00"
                }, 
                "required_operators": 2, 
                "location": {
                    "latitude": 46.23893271852504, 
                    "longitude": 13.463923350504144
                }, 
                "patient_name": "Mitchell Booth"
            }, 
            "act_2_8": {
                "duration": 60, 
                "time_window": {
                    "start": "2014-03-06T08:00:00", 
                    "finish": "2014-03-06T18:00:00"
                }, 
                "required_operators": 2, 
                "location": {
                    "latitude": 46.02992453794974, 
                    "longitude": 13.235040236999492
                }, 
                "patient_name": "Cleo Lamson"
            }, 
            "act_2_5": {
                "duration": 30, 
                "time_window": {
                    "start": "2014-03-06T08:00:00", 
                    "finish": "2014-03-06T13:00:00"
                }, 
                "required_operators": 3, 
                "location": {
                    "latitude": 45.93878098024169, 
                    "longitude": 13.151824096362017
                }, 
                "patient_name": "John Jones"
            }, 
            "act_2_4": {
                "duration": 30, 
                "time_window": {
                    "start": "2014-03-06T13:00:00", 
                    "finish": "2014-03-06T18:00:00"
                }, 
                "required_operators": 1, 
                "location": {
                    "latitude": 46.00239388213939, 
                    "longitude": 13.344009764474364
                }, 
                "patient_name": "Agnes Green"
            }, 
            "act_2_7": {
                "duration": 30, 
                "time_window": {
                    "start": "2014-03-06T13:00:00", 
                    "finish": "2014-03-06T18:00:00"
                }, 
                "required_operators": 1, 
                "location": {
                    "latitude": 46.01971621877614, 
                    "longitude": 13.1288781944375
                }, 
                "patient_name": "Susanne Vazquez"
            }, 
            "act_2_6": {
                "duration": 60, 
                "time_window": {
                    "start": "2014-03-06T08:00:00", 
                    "finish": "2014-03-06T18:00:00"
                }, 
                "required_operators": 1, 
                "location": {
                    "latitude": 45.996471699597286, 
                    "longitude": 12.907996559948
                }, 
                "patient_name": "William Lawson"
            }, 
            "act_2_1": {
                "duration": 30, 
                "time_window": {
                    "start": "2014-03-06T08:00:00", 
                    "finish": "2014-03-06T18:00:00"
                }, 
                "required_operators": 1, 
                "location": {
                    "latitude": 45.946359133664394, 
                    "longitude": 12.90723182346622
                }, 
                "patient_name": "Kathryn Harvey"
            }, 
            "act_2_0": {
                "duration": 30, 
                "time_window": {
                    "start": "2014-03-06T08:00:00", 
                    "finish": "2014-03-06T13:00:00"
                }, 
                "required_operators": 2, 
                "location": {
                    "latitude": 46.10128034354111, 
                    "longitude": 13.433817210952098
                }, 
                "patient_name": "Alexander Gonzales"
            }, 
            "act_2_3": {
                "duration": 60, 
                "time_window": {
                    "start": "2014-03-06T08:00:00", 
                    "finish": "2014-03-06T13:00:00"
                }, 
                "required_operators": 1, 
                "location": {
                    "latitude": 46.23446238188539, 
                    "longitude": 13.121269551291313
                }, 
                "patient_name": "Diana Mellis"
            }, 
            "act_2_2": {
                "duration": 30, 
                "time_window": {
                    "start": "2014-03-06T08:00:00", 
                    "finish": "2014-03-06T18:00:00"
                }, 
                "required_operators": 1, 
                "location": {
                    "latitude": 46.25412758147688, 
                    "longitude": 13.375017835459357
                }, 
                "patient_name": "Gary Pendleton"
            }
        }
    ], 
    "operators": {
        "op_12": {
            "time_windows": [
                {
                    "start": "2014-03-04T08:00:00", 
                    "finish": "2014-03-04T18:00:00", 
                    "regular_worktime": "8:00:00"
                }, 
                {
                    "start": "2014-03-05T08:00:00", 
                    "finish": "2014-03-05T18:00:00", 
                    "regular_worktime": "8:00:00"
                }, 
                {
                    "start": "2014-03-06T13:00:00", 
                    "finish": "2014-03-06T18:00:00", 
                    "regular_worktime": "4:00:00"
                }
            ], 
            "incompatible_activities": [
                "act_0_31", 
                "act_0_4", 
                "act_2_18", 
                "act_2_16", 
                "act_1_22", 
                "act_2_35", 
                "act_0_39", 
                "act_0_24"
            ], 
            "maximum_working_hours": "16:00:00", 
            "name": "Eleanor Tobey", 
            "minimum_working_hours": "12:00:00"
        }, 
        "op_15": {
            "time_windows": [
                {
                    "start": "2014-03-04T08:00:00", 
                    "finish": "2014-03-04T13:00:00", 
                    "regular_worktime": "4:00:00"
                }, 
                {
                    "start": "2014-03-05T08:00:00", 
                    "finish": "2014-03-05T18:00:00", 
                    "regular_worktime": "8:00:00"
                }, 
                {
                    "start": "2014-03-06T08:00:00", 
                    "finish": "2014-03-06T13:00:00", 
                    "regular_worktime": "4:00:00"
                }
            ], 
            "incompatible_activities": [
                "act_1_2", 
                "act_1_9", 
                "act_2_11", 
                "act_2_33", 
                "act_2_9", 
                "act_0_35", 
                "act_0_34", 
                "act_2_6"
            ], 
            "maximum_working_hours": "12:00:00", 
            "name": "Nita Fergerson", 
            "minimum_working_hours": "08:00:00"
        }, 
        "op_8": {
            "time_windows": [
                {
                    "start": "2014-03-04T08:00:00", 
                    "finish": "2014-03-04T18:00:00", 
                    "regular_worktime": "8:00:00"
                }, 
                {
                    "start": "2014-03-05T08:00:00", 
                    "finish": "2014-03-05T18:00:00", 
                    "regular_worktime": "8:00:00"
                }, 
                {
                    "start": "2014-03-06T08:00:00", 
                    "finish": "2014-03-06T18:00:00", 
                    "regular_worktime": "8:00:00"
                }
            ], 
            "incompatible_activities": [
                "act_0_32", 
                "act_0_2", 
                "act_2_9", 
                "act_0_29", 
                "act_2_39", 
                "act_2_2", 
                "act_1_39", 
                "act_2_21"
            ], 
            "maximum_working_hours": "16:00:00", 
            "name": "Arthur Spencer", 
            "minimum_working_hours": "16:00:00"
        }, 
        "op_9": {
            "time_windows": [
                {
                    "start": "2014-03-04T08:00:00", 
                    "finish": "2014-03-04T18:00:00", 
                    "regular_worktime": "8:00:00"
                }, 
                {
                    "start": "2014-03-05T08:00:00", 
                    "finish": "2014-03-05T13:00:00", 
                    "regular_worktime": "4:00:00"
                }, 
                {
                    "start": "2014-03-06T08:00:00", 
                    "finish": "2014-03-06T18:00:00", 
                    "regular_worktime": "8:00:00"
                }
            ], 
            "incompatible_activities": [
                "act_0_25", 
                "act_0_6", 
                "act_1_2", 
                "act_2_36", 
                "act_1_17", 
                "act_1_4", 
                "act_2_32", 
                "act_0_15"
            ], 
            "maximum_working_hours": "16:00:00", 
            "name": "John Autry", 
            "minimum_working_hours": "12:00:00"
        }, 
        "op_13": {
            "time_windows": [
                {
                    "start": "2014-03-04T08:00:00", 
                    "finish": "2014-03-04T13:00:00", 
                    "regular_worktime": "4:00:00"
                }, 
                {
                    "start": "2014-03-05T08:00:00", 
                    "finish": "2014-03-05T18:00:00", 
                    "regular_worktime": "8:00:00"
                }, 
                {
                    "start": "2014-03-06T08:00:00", 
                    "finish": "2014-03-06T18:00:00", 
                    "regular_worktime": "8:00:00"
                }
            ], 
            "incompatible_activities": [
                "act_1_36", 
                "act_2_25", 
                "act_0_37", 
                "act_1_10", 
                "act_2_0", 
                "act_1_33", 
                "act_2_11", 
                "act_2_24"
            ], 
            "maximum_working_hours": "16:00:00", 
            "name": "Michael Pelton", 
            "minimum_working_hours": "12:00:00"
        }, 
        "op_4": {
            "time_windows": [
                {
                    "start": "2014-03-04T08:00:00", 
                    "finish": "2014-03-04T18:00:00", 
                    "regular_worktime": "8:00:00"
                }, 
                {
                    "start": "2014-03-05T08:00:00", 
                    "finish": "2014-03-05T18:00:00", 
                    "regular_worktime": "8:00:00"
                }, 
                {
                    "start": "2014-03-06T08:00:00", 
                    "finish": "2014-03-06T18:00:00", 
                    "regular_worktime": "8:00:00"
                }
            ], 
            "incompatible_activities": [
                "act_1_16", 
                "act_1_11", 
                "act_0_2", 
                "act_1_17", 
                "act_0_30", 
                "act_1_26", 
                "act_2_20", 
                "act_0_28"
            ], 
            "maximum_working_hours": "16:00:00", 
            "name": "Edward Higgins", 
            "minimum_working_hours": "16:00:00"
        }, 
        "op_5": {
            "time_windows": [
                {
                    "start": "2014-03-04T08:00:00", 
                    "finish": "2014-03-04T13:00:00", 
                    "regular_worktime": "4:00:00"
                }, 
                {
                    "start": "2014-03-05T08:00:00", 
                    "finish": "2014-03-05T18:00:00", 
                    "regular_worktime": "8:00:00"
                }, 
                {
                    "start": "2014-03-06T08:00:00", 
                    "finish": "2014-03-06T18:00:00", 
                    "regular_worktime": "8:00:00"
                }
            ], 
            "incompatible_activities": [
                "act_2_11", 
                "act_1_9", 
                "act_2_6", 
                "act_1_12", 
                "act_1_27", 
                "act_2_26", 
                "act_1_32", 
                "act_1_15"
            ], 
            "maximum_working_hours": "16:00:00", 
            "name": "Mary Trinkle", 
            "minimum_working_hours": "12:00:00"
        }, 
        "op_6": {
            "time_windows": [
                {
                    "start": "2014-03-04T08:00:00", 
                    "finish": "2014-03-04T18:00:00", 
                    "regular_worktime": "8:00:00"
                }, 
                {
                    "start": "2014-03-05T08:00:00", 
                    "finish": "2014-03-05T18:00:00", 
                    "regular_worktime": "8:00:00"
                }, 
                {
                    "start": "2014-03-06T08:00:00", 
                    "finish": "2014-03-06T13:00:00", 
                    "regular_worktime": "4:00:00"
                }
            ], 
            "incompatible_activities": [
                "act_1_34", 
                "act_0_21", 
                "act_2_31", 
                "act_2_15", 
                "act_1_0", 
                "act_0_22", 
                "act_0_18", 
                "act_2_28"
            ], 
            "maximum_working_hours": "16:00:00", 
            "name": "Cassandra Montenegro", 
            "minimum_working_hours": "12:00:00"
        }, 
        "op_7": {
            "time_windows": [
                {
                    "start": "2014-03-04T08:00:00", 
                    "finish": "2014-03-04T18:00:00", 
                    "regular_worktime": "8:00:00"
                }, 
                {
                    "start": "2014-03-05T08:00:00", 
                    "finish": "2014-03-05T13:00:00", 
                    "regular_worktime": "4:00:00"
                }, 
                {
                    "start": "2014-03-06T08:00:00", 
                    "finish": "2014-03-06T18:00:00", 
                    "regular_worktime": "8:00:00"
                }
            ], 
            "incompatible_activities": [
                "act_2_24", 
                "act_2_25", 
                "act_0_24", 
                "act_1_6", 
                "act_1_33", 
                "act_0_2", 
                "act_1_18", 
                "act_0_7"
            ], 
            "maximum_working_hours": "16:00:00", 
            "name": "Isabel Pacheco", 
            "minimum_working_hours": "12:00:00"
        }, 
        "op_0": {
            "time_windows": [
                {
                    "start": "2014-03-04T08:00:00", 
                    "finish": "2014-03-04T18:00:00", 
                    "regular_worktime": "8:00:00"
                }, 
                {
                    "start": "2014-03-05T08:00:00", 
                    "finish": "2014-03-05T18:00:00", 
                    "regular_worktime": "8:00:00"
                }, 
                {
                    "start": "2014-03-06T08:00:00", 
                    "finish": "2014-03-06T18:00:00", 
                    "regular_worktime": "8:00:00"
                }
            ], 
            "incompatible_activities": [
                "act_2_21", 
                "act_1_24", 
                "act_2_6", 
                "act_0_20", 
                "act_0_38", 
                "act_2_30", 
                "act_2_33", 
                "act_0_6"
            ], 
            "maximum_working_hours": "16:00:00", 
            "name": "Ana Watson", 
            "minimum_working_hours": "16:00:00"
        }, 
        "op_1": {
            "time_windows": [
                {
                    "start": "2014-03-04T08:00:00", 
                    "finish": "2014-03-04T18:00:00", 
                    "regular_worktime": "8:00:00"
                }, 
                {
                    "start": "2014-03-05T08:00:00", 
                    "finish": "2014-03-05T18:00:00", 
                    "regular_worktime": "8:00:00"
                }, 
                {
                    "start": "2014-03-06T08:00:00", 
                    "finish": "2014-03-06T18:00:00", 
                    "regular_worktime": "8:00:00"
                }
            ], 
            "incompatible_activities": [
                "act_2_0", 
                "act_0_23", 
                "act_1_33", 
                "act_2_23", 
                "act_2_3", 
                "act_1_3", 
                "act_1_4", 
                "act_1_2"
            ], 
            "maximum_working_hours": "16:00:00", 
            "name": "David Fry", 
            "minimum_working_hours": "16:00:00"
        }, 
        "op_2": {
            "time_windows": [
                {
                    "start": "2014-03-04T08:00:00", 
                    "finish": "2014-03-04T13:00:00", 
                    "regular_worktime": "4:00:00"
                }, 
                {
                    "start": "2014-03-05T08:00:00", 
                    "finish": "2014-03-05T18:00:00", 
                    "regular_worktime": "8:00:00"
                }, 
                {
                    "start": "2014-03-06T08:00:00", 
                    "finish": "2014-03-06T18:00:00", 
                    "regular_worktime": "8:00:00"
                }
            ], 
            "incompatible_activities": [
                "act_1_5", 
                "act_1_11", 
                "act_2_22", 
                "act_2_18", 
                "act_2_3", 
                "act_0_14", 
                "act_2_17", 
                "act_2_36"
            ], 
            "maximum_working_hours": "16:00:00", 
            "name": "Lashonda Oddi", 
            "minimum_working_hours": "12:00:00"
        }, 
        "op_3": {
            "time_windows": [
                {
                    "start": "2014-03-04T08:00:00", 
                    "finish": "2014-03-04T18:00:00", 
                    "regular_worktime": "8:00:00"
                }, 
                {
                    "start": "2014-03-05T08:00:00", 
                    "finish": "2014-03-05T18:00:00", 
                    "regular_worktime": "8:00:00"
                }, 
                {
                    "start": "2014-03-06T08:00:00", 
                    "finish": "2014-03-06T13:00:00", 
                    "regular_worktime": "4:00:00"
                }
            ], 
            "incompatible_activities": [
                "act_2_1", 
                "act_2_32", 
                "act_1_38", 
                "act_2_22", 
                "act_0_16", 
                "act_2_17", 
                "act_1_4", 
                "act_2_3"
            ], 
            "maximum_working_hours": "16:00:00", 
            "name": "James Weber", 
            "minimum_working_hours": "12:00:00"
        }, 
        "op_16": {
            "time_windows": [
                {
                    "start": "2014-03-04T08:00:00", 
                    "finish": "2014-03-04T13:00:00", 
                    "regular_worktime": "4:00:00"
                }, 
                {
                    "start": "2014-03-05T08:00:00", 
                    "finish": "2014-03-05T18:00:00", 
                    "regular_worktime": "8:00:00"
                }, 
                {
                    "start": "2014-03-06T08:00:00", 
                    "finish": "2014-03-06T13:00:00", 
                    "regular_worktime": "4:00:00"
                }
            ], 
            "incompatible_activities": [
                "act_0_10", 
                "act_0_25", 
                "act_2_14", 
                "act_0_38", 
                "act_1_10", 
                "act_0_30", 
                "act_1_37", 
                "act_0_23"
            ], 
            "maximum_working_hours": "12:00:00", 
            "name": "Susan Larson", 
            "minimum_working_hours": "08:00:00"
        }, 
        "op_10": {
            "time_windows": [
                {
                    "start": "2014-03-04T08:00:00", 
                    "finish": "2014-03-04T18:00:00", 
                    "regular_worktime": "8:00:00"
                }, 
                {
                    "start": "2014-03-05T08:00:00", 
                    "finish": "2014-03-05T18:00:00", 
                    "regular_worktime": "8:00:00"
                }, 
                {
                    "start": "2014-03-06T08:00:00", 
                    "finish": "2014-03-06T18:00:00", 
                    "regular_worktime": "8:00:00"
                }
            ], 
            "incompatible_activities": [
                "act_0_12", 
                "act_0_8", 
                "act_2_9", 
                "act_0_34", 
                "act_1_18", 
                "act_0_17", 
                "act_0_35", 
                "act_2_8"
            ], 
            "maximum_working_hours": "16:00:00", 
            "name": "Patricia Gonzales", 
            "minimum_working_hours": "16:00:00"
        }, 
        "op_11": {
            "time_windows": [
                {
                    "start": "2014-03-04T08:00:00", 
                    "finish": "2014-03-04T18:00:00", 
                    "regular_worktime": "8:00:00"
                }, 
                {
                    "start": "2014-03-05T08:00:00", 
                    "finish": "2014-03-05T18:00:00", 
                    "regular_worktime": "8:00:00"
                }, 
                {
                    "start": "2014-03-06T08:00:00", 
                    "finish": "2014-03-06T18:00:00", 
                    "regular_worktime": "8:00:00"
                }
            ], 
            "incompatible_activities": [
                "act_1_8", 
                "act_2_31", 
                "act_0_39", 
                "act_0_0", 
                "act_2_18", 
                "act_2_2", 
                "act_0_2", 
                "act_1_37"
            ], 
            "maximum_working_hours": "16:00:00", 
            "name": "Jolene Bohannon", 
            "minimum_working_hours": "16:00:00"
        }, 
        "op_14": {
            "time_windows": [
                {
                    "start": "2014-03-04T08:00:00", 
                    "finish": "2014-03-04T18:00:00", 
                    "regular_worktime": "8:00:00"
                }, 
                {
                    "start": "2014-03-05T08:00:00", 
                    "finish": "2014-03-05T18:00:00", 
                    "regular_worktime": "8:00:00"
                }, 
                {
                    "start": "2014-03-06T08:00:00", 
                    "finish": "2014-03-06T18:00:00", 
                    "regular_worktime": "8:00:00"
                }
            ], 
            "incompatible_activities": [
                "act_2_31", 
                "act_1_1", 
                "act_1_15", 
                "act_2_4", 
                "act_0_22", 
                "act_2_10", 
                "act_1_32", 
                "act_1_26"
            ], 
            "maximum_working_hours": "16:00:00", 
            "name": "Joyce Meadows", 
            "minimum_working_hours": "16:00:00"
        }
    }, 
    "meta": {
        "time_window": {
            "start": "08:00:00", 
            "finish": "18:00:00"
        }, 
        "horizon": 3, 
        "granularity": 10, 
        "geographic_area": {
            "upper_left": [
                46.259645, 
                12.860656
            ], 
            "lower_right": [
                45.936826, 
                13.485503
            ]
        }, 
        "max_consecutive_days": 2, 
        "finish_date": "2014-03-07T00:00:00", 
        "max_overtime_rate": 1.1, 
        "start_date": "2014-03-04T00:00:00"
    }
}