{
    "activities": [
        {
            "act_0_9": {
                "duration": 60, 
                "time_window": {
                    "start": "2014-03-04T08:00:00", 
                    "finish": "2014-03-04T11:20:00"
                }, 
                "required_operators": 2, 
                "location": {
                    "latitude": 46.0648237325628, 
                    "longitude": 13.312241872255045
                }, 
                "patient_name": "Sarah Rast"
            }, 
            "act_0_8": {
                "duration": 30, 
                "time_window": {
                    "start": "2014-03-04T14:40:00", 
                    "finish": "2014-03-04T18:00:00"
                }, 
                "required_operators": 1, 
                "location": {
                    "latitude": 45.97936014055883, 
                    "longitude": 13.414390677744727
                }, 
                "patient_name": "Marc Chairez"
            }, 
            "act_0_3": {
                "duration": 30, 
                "time_window": {
                    "start": "2014-03-04T13:00:00", 
                    "finish": "2014-03-04T18:00:00"
                }, 
                "required_operators": 1, 
                "location": {
                    "latitude": 46.077530341738004, 
                    "longitude": 13.129076303486642
                }, 
                "patient_name": "Nichole Hudson"
            }, 
            "act_0_2": {
                "duration": 60, 
                "time_window": {
                    "start": "2014-03-04T13:00:00", 
                    "finish": "2014-03-04T18:00:00"
                }, 
                "required_operators": 1, 
                "location": {
                    "latitude": 45.99287856726249, 
                    "longitude": 13.326010898728
                }, 
                "patient_name": "Daniel Parker"
            }, 
            "act_0_1": {
                "duration": 30, 
                "time_window": {
                    "start": "2014-03-04T08:00:00", 
                    "finish": "2014-03-04T18:00:00"
                }, 
                "required_operators": 1, 
                "location": {
                    "latitude": 45.98923356293584, 
                    "longitude": 13.240814256892804
                }, 
                "patient_name": "Nancy Ash"
            }, 
            "act_0_0": {
                "duration": 30, 
                "time_window": {
                    "start": "2014-03-04T13:00:00", 
                    "finish": "2014-03-04T18:00:00"
                }, 
                "required_operators": 1, 
                "location": {
                    "latitude": 46.21213898237679, 
                    "longitude": 13.00134838479718
                }, 
                "patient_name": "Curtis Sperry"
            }, 
            "act_0_7": {
                "duration": 30, 
                "time_window": {
                    "start": "2014-03-04T11:20:00", 
                    "finish": "2014-03-04T14:40:00"
                }, 
                "required_operators": 1, 
                "location": {
                    "latitude": 45.95846203410503, 
                    "longitude": 12.887654727319205
                }, 
                "patient_name": "Robert Staten"
            }, 
            "act_0_6": {
                "duration": 30, 
                "time_window": {
                    "start": "2014-03-04T08:00:00", 
                    "finish": "2014-03-04T18:00:00"
                }, 
                "required_operators": 1, 
                "location": {
                    "latitude": 46.183563557439825, 
                    "longitude": 12.982169340307916
                }, 
                "patient_name": "Aaron Flynn"
            }, 
            "act_0_5": {
                "duration": 30, 
                "time_window": {
                    "start": "2014-03-04T14:40:00", 
                    "finish": "2014-03-04T18:00:00"
                }, 
                "required_operators": 2, 
                "location": {
                    "latitude": 46.0909096711317, 
                    "longitude": 13.018937090825085
                }, 
                "patient_name": "Molly Carter"
            }, 
            "act_0_4": {
                "duration": 60, 
                "time_window": {
                    "start": "2014-03-04T08:00:00", 
                    "finish": "2014-03-04T18:00:00"
                }, 
                "required_operators": 1, 
                "location": {
                    "latitude": 45.94144838534746, 
                    "longitude": 13.292376945743943
                }, 
                "patient_name": "Frank Soto"
            }, 
            "act_0_19": {
                "duration": 60, 
                "time_window": {
                    "start": "2014-03-04T08:00:00", 
                    "finish": "2014-03-04T13:00:00"
                }, 
                "required_operators": 1, 
                "location": {
                    "latitude": 46.245578003685026, 
                    "longitude": 13.194981895393067
                }, 
                "patient_name": "Michael Webster"
            }, 
            "act_0_18": {
                "duration": 60, 
                "time_window": {
                    "start": "2014-03-04T08:00:00", 
                    "finish": "2014-03-04T18:00:00"
                }, 
                "required_operators": 1, 
                "location": {
                    "latitude": 46.16171679610798, 
                    "longitude": 13.10331108955499
                }, 
                "patient_name": "Michael Auvil"
            }, 
            "act_0_17": {
                "duration": 30, 
                "time_window": {
                    "start": "2014-03-04T08:00:00", 
                    "finish": "2014-03-04T18:00:00"
                }, 
                "required_operators": 1, 
                "location": {
                    "latitude": 46.15218945423008, 
                    "longitude": 13.041508965858512
                }, 
                "patient_name": "Mary Finnell"
            }, 
            "act_0_16": {
                "duration": 30, 
                "time_window": {
                    "start": "2014-03-04T08:00:00", 
                    "finish": "2014-03-04T11:20:00"
                }, 
                "required_operators": 1, 
                "location": {
                    "latitude": 46.23163819047652, 
                    "longitude": 13.334381488452957
                }, 
                "patient_name": "Paul Bryant"
            }, 
            "act_0_15": {
                "duration": 60, 
                "time_window": {
                    "start": "2014-03-04T14:40:00", 
                    "finish": "2014-03-04T18:00:00"
                }, 
                "required_operators": 1, 
                "location": {
                    "latitude": 46.06982358890526, 
                    "longitude": 13.08282954812091
                }, 
                "patient_name": "Lindsay Gardner"
            }, 
            "act_0_14": {
                "duration": 60, 
                "time_window": {
                    "start": "2014-03-04T08:00:00", 
                    "finish": "2014-03-04T13:00:00"
                }, 
                "required_operators": 1, 
                "location": {
                    "latitude": 46.249398800247796, 
                    "longitude": 13.173939722991948
                }, 
                "patient_name": "Frederic Espinosa"
            }, 
            "act_0_13": {
                "duration": 30, 
                "time_window": {
                    "start": "2014-03-04T08:00:00", 
                    "finish": "2014-03-04T13:00:00"
                }, 
                "required_operators": 1, 
                "location": {
                    "latitude": 46.25779977432523, 
                    "longitude": 13.069825263722175
                }, 
                "patient_name": "Steve Harris"
            }, 
            "act_0_12": {
                "duration": 30, 
                "time_window": {
                    "start": "2014-03-04T08:00:00", 
                    "finish": "2014-03-04T18:00:00"
                }, 
                "required_operators": 1, 
                "location": {
                    "latitude": 46.22041726392748, 
                    "longitude": 13.049049316090743
                }, 
                "patient_name": "Scott Hubbard"
            }, 
            "act_0_11": {
                "duration": 30, 
                "time_window": {
                    "start": "2014-03-04T08:00:00", 
                    "finish": "2014-03-04T18:00:00"
                }, 
                "required_operators": 1, 
                "location": {
                    "latitude": 46.08010824775571, 
                    "longitude": 13.200145119343572
                }, 
                "patient_name": "Rodney Hernandez"
            }, 
            "act_0_10": {
                "duration": 30, 
                "time_window": {
                    "start": "2014-03-04T08:00:00", 
                    "finish": "2014-03-04T13:00:00"
                }, 
                "required_operators": 1, 
                "location": {
                    "latitude": 46.14945593501953, 
                    "longitude": 13.045188985299356
                }, 
                "patient_name": "Carlos Saucedo"
            }
        }, 
        {
            "act_1_14": {
                "duration": 60, 
                "time_window": {
                    "start": "2014-03-05T14:40:00", 
                    "finish": "2014-03-05T18:00:00"
                }, 
                "required_operators": 1, 
                "location": {
                    "latitude": 46.06895269677722, 
                    "longitude": 13.021365293989087
                }, 
                "patient_name": "Lila Gandara"
            }, 
            "act_1_15": {
                "duration": 60, 
                "time_window": {
                    "start": "2014-03-05T08:00:00", 
                    "finish": "2014-03-05T18:00:00"
                }, 
                "required_operators": 1, 
                "location": {
                    "latitude": 46.09450502537583, 
                    "longitude": 13.344930680328885
                }, 
                "patient_name": "Don Pyle"
            }, 
            "act_1_16": {
                "duration": 30, 
                "time_window": {
                    "start": "2014-03-05T08:00:00", 
                    "finish": "2014-03-05T13:00:00"
                }, 
                "required_operators": 1, 
                "location": {
                    "latitude": 45.95845296896795, 
                    "longitude": 13.1383717738952
                }, 
                "patient_name": "Judith Petrucci"
            }, 
            "act_1_17": {
                "duration": 60, 
                "time_window": {
                    "start": "2014-03-05T11:20:00", 
                    "finish": "2014-03-05T14:40:00"
                }, 
                "required_operators": 1, 
                "location": {
                    "latitude": 46.234553770904434, 
                    "longitude": 13.159567068633304
                }, 
                "patient_name": "Julie Tribble"
            }, 
            "act_1_10": {
                "duration": 30, 
                "time_window": {
                    "start": "2014-03-05T13:00:00", 
                    "finish": "2014-03-05T18:00:00"
                }, 
                "required_operators": 1, 
                "location": {
                    "latitude": 46.05012285806672, 
                    "longitude": 13.128365703067596
                }, 
                "patient_name": "Edna Hannah"
            }, 
            "act_1_11": {
                "duration": 60, 
                "time_window": {
                    "start": "2014-03-05T08:00:00", 
                    "finish": "2014-03-05T18:00:00"
                }, 
                "required_operators": 3, 
                "location": {
                    "latitude": 46.098014772373, 
                    "longitude": 13.439173166084109
                }, 
                "patient_name": "Mary Laxson"
            }, 
            "act_1_12": {
                "duration": 30, 
                "time_window": {
                    "start": "2014-03-05T08:00:00", 
                    "finish": "2014-03-05T18:00:00"
                }, 
                "required_operators": 2, 
                "location": {
                    "latitude": 46.014376739330324, 
                    "longitude": 13.073057602797569
                }, 
                "patient_name": "Walter Redman"
            }, 
            "act_1_13": {
                "duration": 60, 
                "time_window": {
                    "start": "2014-03-05T08:00:00", 
                    "finish": "2014-03-05T13:00:00"
                }, 
                "required_operators": 1, 
                "location": {
                    "latitude": 46.22723670595071, 
                    "longitude": 13.431867618242881
                }, 
                "patient_name": "John Montenegro"
            }, 
            "act_1_18": {
                "duration": 30, 
                "time_window": {
                    "start": "2014-03-05T11:20:00", 
                    "finish": "2014-03-05T14:40:00"
                }, 
                "required_operators": 1, 
                "location": {
                    "latitude": 46.077515436991106, 
                    "longitude": 13.329114114194034
                }, 
                "patient_name": "Edgar Lorenzen"
            }, 
            "act_1_19": {
                "duration": 30, 
                "time_window": {
                    "start": "2014-03-05T08:00:00", 
                    "finish": "2014-03-05T11:20:00"
                }, 
                "required_operators": 1, 
                "location": {
                    "latitude": 46.19258157168246, 
                    "longitude": 13.443939699099294
                }, 
                "patient_name": "Charles Campbell"
            }, 
            "act_1_2": {
                "duration": 30, 
                "time_window": {
                    "start": "2014-03-05T08:00:00", 
                    "finish": "2014-03-05T13:00:00"
                }, 
                "required_operators": 1, 
                "location": {
                    "latitude": 45.98858821257973, 
                    "longitude": 13.421504041562255
                }, 
                "patient_name": "Sylvia Wogan"
            }, 
            "act_1_3": {
                "duration": 30, 
                "time_window": {
                    "start": "2014-03-05T13:00:00", 
                    "finish": "2014-03-05T18:00:00"
                }, 
                "required_operators": 1, 
                "location": {
                    "latitude": 45.94913870463768, 
                    "longitude": 13.046767907882979
                }, 
                "patient_name": "Michael Hand"
            }, 
            "act_1_0": {
                "duration": 30, 
                "time_window": {
                    "start": "2014-03-05T13:00:00", 
                    "finish": "2014-03-05T18:00:00"
                }, 
                "required_operators": 4, 
                "location": {
                    "latitude": 46.17954660797285, 
                    "longitude": 13.40305747786725
                }, 
                "patient_name": "Tyler Craig"
            }, 
            "act_1_1": {
                "duration": 60, 
                "time_window": {
                    "start": "2014-03-05T08:00:00", 
                    "finish": "2014-03-05T11:20:00"
                }, 
                "required_operators": 1, 
                "location": {
                    "latitude": 46.02774001659874, 
                    "longitude": 13.277171195258196
                }, 
                "patient_name": "Jerry Nunez"
            }, 
            "act_1_6": {
                "duration": 60, 
                "time_window": {
                    "start": "2014-03-05T08:00:00", 
                    "finish": "2014-03-05T18:00:00"
                }, 
                "required_operators": 1, 
                "location": {
                    "latitude": 46.25845961818272, 
                    "longitude": 12.878941997186978
                }, 
                "patient_name": "Oswaldo Castaneda"
            }, 
            "act_1_7": {
                "duration": 60, 
                "time_window": {
                    "start": "2014-03-05T08:00:00", 
                    "finish": "2014-03-05T18:00:00"
                }, 
                "required_operators": 1, 
                "location": {
                    "latitude": 46.12530554078927, 
                    "longitude": 13.48128187261603
                }, 
                "patient_name": "Steven Brucculeri"
            }, 
            "act_1_4": {
                "duration": 30, 
                "time_window": {
                    "start": "2014-03-05T13:00:00", 
                    "finish": "2014-03-05T18:00:00"
                }, 
                "required_operators": 1, 
                "location": {
                    "latitude": 45.97997330058096, 
                    "longitude": 13.48527029308319
                }, 
                "patient_name": "John Jones"
            }, 
            "act_1_5": {
                "duration": 60, 
                "time_window": {
                    "start": "2014-03-05T13:00:00", 
                    "finish": "2014-03-05T18:00:00"
                }, 
                "required_operators": 1, 
                "location": {
                    "latitude": 46.01365473495015, 
                    "longitude": 12.929023072987697
                }, 
                "patient_name": "Rachel Lombardi"
            }, 
            "act_1_8": {
                "duration": 60, 
                "time_window": {
                    "start": "2014-03-05T08:00:00", 
                    "finish": "2014-03-05T13:00:00"
                }, 
                "required_operators": 1, 
                "location": {
                    "latitude": 46.19704852392442, 
                    "longitude": 13.09533021427387
                }, 
                "patient_name": "Gladys Matthews"
            }, 
            "act_1_9": {
                "duration": 60, 
                "time_window": {
                    "start": "2014-03-05T08:00:00", 
                    "finish": "2014-03-05T18:00:00"
                }, 
                "required_operators": 3, 
                "location": {
                    "latitude": 46.06954655467579, 
                    "longitude": 13.052655585899528
                }, 
                "patient_name": "David Bermudez"
            }
        }, 
        {
            "act_2_19": {
                "duration": 30, 
                "time_window": {
                    "start": "2014-03-06T13:00:00", 
                    "finish": "2014-03-06T18:00:00"
                }, 
                "required_operators": 1, 
                "location": {
                    "latitude": 46.16447082511897, 
                    "longitude": 13.295131347123032
                }, 
                "patient_name": "Betty Richer"
            }, 
            "act_2_18": {
                "duration": 60, 
                "time_window": {
                    "start": "2014-03-06T08:00:00", 
                    "finish": "2014-03-06T18:00:00"
                }, 
                "required_operators": 1, 
                "location": {
                    "latitude": 46.02368562907093, 
                    "longitude": 13.172719806643206
                }, 
                "patient_name": "Selma Alston"
            }, 
            "act_2_11": {
                "duration": 30, 
                "time_window": {
                    "start": "2014-03-06T13:00:00", 
                    "finish": "2014-03-06T18:00:00"
                }, 
                "required_operators": 1, 
                "location": {
                    "latitude": 46.00687343109094, 
                    "longitude": 13.135876266174618
                }, 
                "patient_name": "Samuel Bruce"
            }, 
            "act_2_10": {
                "duration": 30, 
                "time_window": {
                    "start": "2014-03-06T14:40:00", 
                    "finish": "2014-03-06T18:00:00"
                }, 
                "required_operators": 2, 
                "location": {
                    "latitude": 46.14982704430316, 
                    "longitude": 13.12873782141204
                }, 
                "patient_name": "Gerald Deshotel"
            }, 
            "act_2_13": {
                "duration": 30, 
                "time_window": {
                    "start": "2014-03-06T13:00:00", 
                    "finish": "2014-03-06T18:00:00"
                }, 
                "required_operators": 1, 
                "location": {
                    "latitude": 46.02071128794327, 
                    "longitude": 13.147435001457698
                }, 
                "patient_name": "Frank Bolden"
            }, 
            "act_2_12": {
                "duration": 60, 
                "time_window": {
                    "start": "2014-03-06T13:00:00", 
                    "finish": "2014-03-06T18:00:00"
                }, 
                "required_operators": 1, 
                "location": {
                    "latitude": 46.080424987294926, 
                    "longitude": 12.978392901321294
                }, 
                "patient_name": "Brandi Hearne"
            }, 
            "act_2_15": {
                "duration": 30, 
                "time_window": {
                    "start": "2014-03-06T14:40:00", 
                    "finish": "2014-03-06T18:00:00"
                }, 
                "required_operators": 1, 
                "location": {
                    "latitude": 46.062091728538086, 
                    "longitude": 13.111896976356586
                }, 
                "patient_name": "Lori Brown"
            }, 
            "act_2_14": {
                "duration": 30, 
                "time_window": {
                    "start": "2014-03-06T08:00:00", 
                    "finish": "2014-03-06T13:00:00"
                }, 
                "required_operators": 2, 
                "location": {
                    "latitude": 46.0004815639333, 
                    "longitude": 13.320016901694824
                }, 
                "patient_name": "Sandra Mulder"
            }, 
            "act_2_17": {
                "duration": 60, 
                "time_window": {
                    "start": "2014-03-06T13:00:00", 
                    "finish": "2014-03-06T18:00:00"
                }, 
                "required_operators": 1, 
                "location": {
                    "latitude": 46.22294821393686, 
                    "longitude": 13.123130640860975
                }, 
                "patient_name": "Grace Taylor"
            }, 
            "act_2_16": {
                "duration": 60, 
                "time_window": {
                    "start": "2014-03-06T08:00:00", 
                    "finish": "2014-03-06T18:00:00"
                }, 
                "required_operators": 1, 
                "location": {
                    "latitude": 46.115105478457664, 
                    "longitude": 13.445382793163626
                }, 
                "patient_name": "Nancy Checca"
            }, 
            "act_2_9": {
                "duration": 60, 
                "time_window": {
                    "start": "2014-03-06T14:40:00", 
                    "finish": "2014-03-06T18:00:00"
                }, 
                "required_operators": 1, 
                "location": {
                    "latitude": 46.066180657939576, 
                    "longitude": 13.341711195755046
                }, 
                "patient_name": "Francisco Stovall"
            }, 
            "act_2_8": {
                "duration": 30, 
                "time_window": {
                    "start": "2014-03-06T11:20:00", 
                    "finish": "2014-03-06T14:40:00"
                }, 
                "required_operators": 1, 
                "location": {
                    "latitude": 46.01702540693048, 
                    "longitude": 13.327249197527513
                }, 
                "patient_name": "Brenda Collins"
            }, 
            "act_2_5": {
                "duration": 30, 
                "time_window": {
                    "start": "2014-03-06T08:00:00", 
                    "finish": "2014-03-06T18:00:00"
                }, 
                "required_operators": 2, 
                "location": {
                    "latitude": 46.22596219708847, 
                    "longitude": 13.30078884738171
                }, 
                "patient_name": "Anna Maddock"
            }, 
            "act_2_4": {
                "duration": 30, 
                "time_window": {
                    "start": "2014-03-06T13:00:00", 
                    "finish": "2014-03-06T18:00:00"
                }, 
                "required_operators": 1, 
                "location": {
                    "latitude": 46.20777402575086, 
                    "longitude": 13.396527308541703
                }, 
                "patient_name": "Reyna Fields"
            }, 
            "act_2_7": {
                "duration": 30, 
                "time_window": {
                    "start": "2014-03-06T13:00:00", 
                    "finish": "2014-03-06T18:00:00"
                }, 
                "required_operators": 1, 
                "location": {
                    "latitude": 46.2147023249479, 
                    "longitude": 12.861415799402879
                }, 
                "patient_name": "Robert Allaire"
            }, 
            "act_2_6": {
                "duration": 30, 
                "time_window": {
                    "start": "2014-03-06T08:00:00", 
                    "finish": "2014-03-06T18:00:00"
                }, 
                "required_operators": 1, 
                "location": {
                    "latitude": 46.25898852841192, 
                    "longitude": 13.414821009783902
                }, 
                "patient_name": "Jane Botts"
            }, 
            "act_2_1": {
                "duration": 30, 
                "time_window": {
                    "start": "2014-03-06T08:00:00", 
                    "finish": "2014-03-06T18:00:00"
                }, 
                "required_operators": 1, 
                "location": {
                    "latitude": 45.97443417661249, 
                    "longitude": 13.27270810947259
                }, 
                "patient_name": "James Ballou"
            }, 
            "act_2_0": {
                "duration": 30, 
                "time_window": {
                    "start": "2014-03-06T08:00:00", 
                    "finish": "2014-03-06T18:00:00"
                }, 
                "required_operators": 3, 
                "location": {
                    "latitude": 46.13482760344713, 
                    "longitude": 12.993364312366591
                }, 
                "patient_name": "Richard Lillpop"
            }, 
            "act_2_3": {
                "duration": 30, 
                "time_window": {
                    "start": "2014-03-06T08:00:00", 
                    "finish": "2014-03-06T13:00:00"
                }, 
                "required_operators": 1, 
                "location": {
                    "latitude": 46.16874939982788, 
                    "longitude": 13.222412535121254
                }, 
                "patient_name": "Carol Angell"
            }, 
            "act_2_2": {
                "duration": 30, 
                "time_window": {
                    "start": "2014-03-06T13:00:00", 
                    "finish": "2014-03-06T18:00:00"
                }, 
                "required_operators": 2, 
                "location": {
                    "latitude": 46.09215987762554, 
                    "longitude": 13.186188598464891
                }, 
                "patient_name": "Terry Harrel"
            }
        }
    ], 
    "operators": {
        "op_8": {
            "time_windows": [
                {
                    "start": "2014-03-04T13:00:00", 
                    "finish": "2014-03-04T18:00:00", 
                    "regular_worktime": "4:00:00"
                }, 
                {
                    "start": "2014-03-05T08:00:00", 
                    "finish": "2014-03-05T13:00:00", 
                    "regular_worktime": "4:00:00"
                }, 
                {
                    "start": "2014-03-06T08:00:00", 
                    "finish": "2014-03-06T13:00:00", 
                    "regular_worktime": "4:00:00"
                }
            ], 
            "incompatible_activities": [
                "act_0_5", 
                "act_2_5", 
                "act_1_12", 
                "act_0_1"
            ], 
            "maximum_working_hours": "08:00:00", 
            "name": "Vincent Harper", 
            "minimum_working_hours": "08:00:00"
        }, 
        "op_9": {
            "time_windows": [
                {
                    "start": "2014-03-04T08:00:00", 
                    "finish": "2014-03-04T18:00:00", 
                    "regular_worktime": "8:00:00"
                }, 
                {
                    "start": "2014-03-05T08:00:00", 
                    "finish": "2014-03-05T18:00:00", 
                    "regular_worktime": "8:00:00"
                }, 
                {
                    "start": "2014-03-06T08:00:00", 
                    "finish": "2014-03-06T13:00:00", 
                    "regular_worktime": "4:00:00"
                }
            ], 
            "incompatible_activities": [
                "act_1_5", 
                "act_1_9", 
                "act_2_4", 
                "act_0_19"
            ], 
            "maximum_working_hours": "16:00:00", 
            "name": "Margaret Osborne", 
            "minimum_working_hours": "12:00:00"
        }, 
        "op_4": {
            "time_windows": [
                {
                    "start": "2014-03-04T13:00:00", 
                    "finish": "2014-03-04T18:00:00", 
                    "regular_worktime": "4:00:00"
                }, 
                {
                    "start": "2014-03-05T13:00:00", 
                    "finish": "2014-03-05T18:00:00", 
                    "regular_worktime": "4:00:00"
                }, 
                {
                    "start": "2014-03-06T08:00:00", 
                    "finish": "2014-03-06T18:00:00", 
                    "regular_worktime": "8:00:00"
                }
            ], 
            "incompatible_activities": [
                "act_1_2", 
                "act_0_19", 
                "act_1_5", 
                "act_0_15"
            ], 
            "maximum_working_hours": "12:00:00", 
            "name": "Jennifer Depew", 
            "minimum_working_hours": "08:00:00"
        }, 
        "op_5": {
            "time_windows": [
                {
                    "start": "2014-03-04T08:00:00", 
                    "finish": "2014-03-04T18:00:00", 
                    "regular_worktime": "8:00:00"
                }, 
                {
                    "start": "2014-03-05T08:00:00", 
                    "finish": "2014-03-05T18:00:00", 
                    "regular_worktime": "8:00:00"
                }, 
                {
                    "start": "2014-03-06T08:00:00", 
                    "finish": "2014-03-06T18:00:00", 
                    "regular_worktime": "8:00:00"
                }
            ], 
            "incompatible_activities": [
                "act_0_7", 
                "act_1_12", 
                "act_0_15", 
                "act_2_19"
            ], 
            "maximum_working_hours": "16:00:00", 
            "name": "Stephen Emmert", 
            "minimum_working_hours": "16:00:00"
        }, 
        "op_6": {
            "time_windows": [
                {
                    "start": "2014-03-04T08:00:00", 
                    "finish": "2014-03-04T18:00:00", 
                    "regular_worktime": "8:00:00"
                }, 
                {
                    "start": "2014-03-05T08:00:00", 
                    "finish": "2014-03-05T18:00:00", 
                    "regular_worktime": "8:00:00"
                }, 
                {
                    "start": "2014-03-06T08:00:00", 
                    "finish": "2014-03-06T18:00:00", 
                    "regular_worktime": "8:00:00"
                }
            ], 
            "incompatible_activities": [
                "act_1_13", 
                "act_0_16", 
                "act_0_13", 
                "act_1_0"
            ], 
            "maximum_working_hours": "16:00:00", 
            "name": "Virginia Oster", 
            "minimum_working_hours": "16:00:00"
        }, 
        "op_7": {
            "time_windows": [
                {
                    "start": "2014-03-04T08:00:00", 
                    "finish": "2014-03-04T18:00:00", 
                    "regular_worktime": "8:00:00"
                }, 
                {
                    "start": "2014-03-05T08:00:00", 
                    "finish": "2014-03-05T18:00:00", 
                    "regular_worktime": "8:00:00"
                }, 
                {
                    "start": "2014-03-06T08:00:00", 
                    "finish": "2014-03-06T18:00:00", 
                    "regular_worktime": "8:00:00"
                }
            ], 
            "incompatible_activities": [
                "act_2_15", 
                "act_1_6", 
                "act_1_11", 
                "act_0_15"
            ], 
            "maximum_working_hours": "16:00:00", 
            "name": "Sally Smith", 
            "minimum_working_hours": "16:00:00"
        }, 
        "op_0": {
            "time_windows": [
                {
                    "start": "2014-03-04T08:00:00", 
                    "finish": "2014-03-04T18:00:00", 
                    "regular_worktime": "8:00:00"
                }, 
                {
                    "start": "2014-03-05T08:00:00", 
                    "finish": "2014-03-05T18:00:00", 
                    "regular_worktime": "8:00:00"
                }, 
                {
                    "start": "2014-03-06T13:00:00", 
                    "finish": "2014-03-06T18:00:00", 
                    "regular_worktime": "4:00:00"
                }
            ], 
            "incompatible_activities": [
                "act_1_4", 
                "act_0_15", 
                "act_1_18", 
                "act_0_7"
            ], 
            "maximum_working_hours": "16:00:00", 
            "name": "Vera Madison", 
            "minimum_working_hours": "12:00:00"
        }, 
        "op_1": {
            "time_windows": [
                {
                    "start": "2014-03-04T08:00:00", 
                    "finish": "2014-03-04T18:00:00", 
                    "regular_worktime": "8:00:00"
                }, 
                {
                    "start": "2014-03-05T08:00:00", 
                    "finish": "2014-03-05T13:00:00", 
                    "regular_worktime": "4:00:00"
                }, 
                {
                    "start": "2014-03-06T08:00:00", 
                    "finish": "2014-03-06T13:00:00", 
                    "regular_worktime": "4:00:00"
                }
            ], 
            "incompatible_activities": [
                "act_0_19", 
                "act_1_1", 
                "act_0_2", 
                "act_0_8"
            ], 
            "maximum_working_hours": "12:00:00", 
            "name": "Elizabeth Raines", 
            "minimum_working_hours": "08:00:00"
        }, 
        "op_2": {
            "time_windows": [
                {
                    "start": "2014-03-04T13:00:00", 
                    "finish": "2014-03-04T18:00:00", 
                    "regular_worktime": "4:00:00"
                }, 
                {
                    "start": "2014-03-05T13:00:00", 
                    "finish": "2014-03-05T18:00:00", 
                    "regular_worktime": "4:00:00"
                }, 
                {
                    "start": "2014-03-06T08:00:00", 
                    "finish": "2014-03-06T18:00:00", 
                    "regular_worktime": "8:00:00"
                }
            ], 
            "incompatible_activities": [
                "act_2_19", 
                "act_2_2", 
                "act_0_5", 
                "act_1_5"
            ], 
            "maximum_working_hours": "12:00:00", 
            "name": "Carole Goatley", 
            "minimum_working_hours": "08:00:00"
        }, 
        "op_3": {
            "time_windows": [
                {
                    "start": "2014-03-04T08:00:00", 
                    "finish": "2014-03-04T13:00:00", 
                    "regular_worktime": "4:00:00"
                }, 
                {
                    "start": "2014-03-05T08:00:00", 
                    "finish": "2014-03-05T18:00:00", 
                    "regular_worktime": "8:00:00"
                }, 
                {
                    "start": "2014-03-06T08:00:00", 
                    "finish": "2014-03-06T18:00:00", 
                    "regular_worktime": "8:00:00"
                }
            ], 
            "incompatible_activities": [
                "act_0_15", 
                "act_1_3", 
                "act_2_14", 
                "act_2_11"
            ], 
            "maximum_working_hours": "16:00:00", 
            "name": "Carol Roberts", 
            "minimum_working_hours": "12:00:00"
        }
    }, 
    "meta": {
        "time_window": {
            "start": "08:00:00", 
            "finish": "18:00:00"
        }, 
        "horizon": 3, 
        "granularity": 10, 
        "geographic_area": {
            "upper_left": [
                46.259645, 
                12.860656
            ], 
            "lower_right": [
                45.936826, 
                13.485503
            ]
        }, 
        "max_consecutive_days": 2, 
        "finish_date": "2014-03-07T00:00:00", 
        "max_overtime_rate": 1.1, 
        "start_date": "2014-03-04T00:00:00"
    }
}