{
    "activities": [
        {
            "act_0_9": {
                "duration": 30, 
                "time_window": {
                    "start": "2014-03-05T11:20:00", 
                    "finish": "2014-03-05T14:40:00"
                }, 
                "required_operators": 1, 
                "location": {
                    "latitude": 46.137479090456694, 
                    "longitude": 12.964678458016762
                }, 
                "patient_name": "Wanda Twogood"
            }, 
            "act_0_8": {
                "duration": 60, 
                "time_window": {
                    "start": "2014-03-05T08:00:00", 
                    "finish": "2014-03-05T18:00:00"
                }, 
                "required_operators": 2, 
                "location": {
                    "latitude": 46.25186916808824, 
                    "longitude": 12.959869099175036
                }, 
                "patient_name": "Stanley Zurita"
            }, 
            "act_0_3": {
                "duration": 30, 
                "time_window": {
                    "start": "2014-03-05T08:00:00", 
                    "finish": "2014-03-05T13:00:00"
                }, 
                "required_operators": 1, 
                "location": {
                    "latitude": 46.09238075648326, 
                    "longitude": 12.997960450944287
                }, 
                "patient_name": "Harry Farrell"
            }, 
            "act_0_2": {
                "duration": 60, 
                "time_window": {
                    "start": "2014-03-05T08:00:00", 
                    "finish": "2014-03-05T13:00:00"
                }, 
                "required_operators": 1, 
                "location": {
                    "latitude": 46.21463637063949, 
                    "longitude": 13.208265755280202
                }, 
                "patient_name": "Jackie Mcmullen"
            }, 
            "act_0_1": {
                "duration": 60, 
                "time_window": {
                    "start": "2014-03-05T13:00:00", 
                    "finish": "2014-03-05T18:00:00"
                }, 
                "required_operators": 1, 
                "location": {
                    "latitude": 45.944259428689, 
                    "longitude": 13.270103619628271
                }, 
                "patient_name": "Mary Ferebee"
            }, 
            "act_0_0": {
                "duration": 60, 
                "time_window": {
                    "start": "2014-03-05T13:00:00", 
                    "finish": "2014-03-05T18:00:00"
                }, 
                "required_operators": 1, 
                "location": {
                    "latitude": 45.94514832321085, 
                    "longitude": 13.258078169685984
                }, 
                "patient_name": "Fred Johnson"
            }, 
            "act_0_7": {
                "duration": 60, 
                "time_window": {
                    "start": "2014-03-05T14:40:00", 
                    "finish": "2014-03-05T18:00:00"
                }, 
                "required_operators": 1, 
                "location": {
                    "latitude": 45.946455626837356, 
                    "longitude": 12.887298337119056
                }, 
                "patient_name": "Christopher Avila"
            }, 
            "act_0_6": {
                "duration": 30, 
                "time_window": {
                    "start": "2014-03-05T08:00:00", 
                    "finish": "2014-03-05T18:00:00"
                }, 
                "required_operators": 3, 
                "location": {
                    "latitude": 46.038548976274186, 
                    "longitude": 13.03457746561186
                }, 
                "patient_name": "Anthony Rowley"
            }, 
            "act_0_5": {
                "duration": 30, 
                "time_window": {
                    "start": "2014-03-05T08:00:00", 
                    "finish": "2014-03-05T11:20:00"
                }, 
                "required_operators": 1, 
                "location": {
                    "latitude": 46.16154432386155, 
                    "longitude": 13.481683046187484
                }, 
                "patient_name": "Edward Espinosa"
            }, 
            "act_0_4": {
                "duration": 30, 
                "time_window": {
                    "start": "2014-03-05T08:00:00", 
                    "finish": "2014-03-05T18:00:00"
                }, 
                "required_operators": 1, 
                "location": {
                    "latitude": 46.11576135199273, 
                    "longitude": 13.448779127584867
                }, 
                "patient_name": "Lesley Hodge"
            }, 
            "act_0_19": {
                "duration": 60, 
                "time_window": {
                    "start": "2014-03-05T08:00:00", 
                    "finish": "2014-03-05T18:00:00"
                }, 
                "required_operators": 3, 
                "location": {
                    "latitude": 46.06911668772278, 
                    "longitude": 12.97936058421304
                }, 
                "patient_name": "Jacqueline Dibble"
            }, 
            "act_0_18": {
                "duration": 30, 
                "time_window": {
                    "start": "2014-03-05T08:00:00", 
                    "finish": "2014-03-05T13:00:00"
                }, 
                "required_operators": 1, 
                "location": {
                    "latitude": 46.00082877790061, 
                    "longitude": 13.202441631627778
                }, 
                "patient_name": "Raymond Wood"
            }, 
            "act_0_17": {
                "duration": 30, 
                "time_window": {
                    "start": "2014-03-05T08:00:00", 
                    "finish": "2014-03-05T18:00:00"
                }, 
                "required_operators": 1, 
                "location": {
                    "latitude": 46.2114276098066, 
                    "longitude": 13.33158085178837
                }, 
                "patient_name": "Robin Watson"
            }, 
            "act_0_16": {
                "duration": 30, 
                "time_window": {
                    "start": "2014-03-05T13:00:00", 
                    "finish": "2014-03-05T18:00:00"
                }, 
                "required_operators": 1, 
                "location": {
                    "latitude": 46.017761305023974, 
                    "longitude": 13.450000050983991
                }, 
                "patient_name": "Gerald Davis"
            }, 
            "act_0_15": {
                "duration": 60, 
                "time_window": {
                    "start": "2014-03-05T08:00:00", 
                    "finish": "2014-03-05T13:00:00"
                }, 
                "required_operators": 1, 
                "location": {
                    "latitude": 46.02325503528611, 
                    "longitude": 13.008632452981148
                }, 
                "patient_name": "Mary Jones"
            }, 
            "act_0_14": {
                "duration": 60, 
                "time_window": {
                    "start": "2014-03-05T13:00:00", 
                    "finish": "2014-03-05T18:00:00"
                }, 
                "required_operators": 1, 
                "location": {
                    "latitude": 46.032958194488984, 
                    "longitude": 13.315938252366147
                }, 
                "patient_name": "Henry Smith"
            }, 
            "act_0_13": {
                "duration": 30, 
                "time_window": {
                    "start": "2014-03-05T08:00:00", 
                    "finish": "2014-03-05T13:00:00"
                }, 
                "required_operators": 3, 
                "location": {
                    "latitude": 45.98584128748726, 
                    "longitude": 12.866592566358097
                }, 
                "patient_name": "Lawrence Mottet"
            }, 
            "act_0_12": {
                "duration": 30, 
                "time_window": {
                    "start": "2014-03-05T08:00:00", 
                    "finish": "2014-03-05T18:00:00"
                }, 
                "required_operators": 2, 
                "location": {
                    "latitude": 46.14052885350473, 
                    "longitude": 13.1090716922175
                }, 
                "patient_name": "Gloria Obrien"
            }, 
            "act_0_11": {
                "duration": 30, 
                "time_window": {
                    "start": "2014-03-05T08:00:00", 
                    "finish": "2014-03-05T13:00:00"
                }, 
                "required_operators": 1, 
                "location": {
                    "latitude": 46.0520481034745, 
                    "longitude": 13.026231640880253
                }, 
                "patient_name": "Inez Heyne"
            }, 
            "act_0_10": {
                "duration": 30, 
                "time_window": {
                    "start": "2014-03-05T08:00:00", 
                    "finish": "2014-03-05T13:00:00"
                }, 
                "required_operators": 2, 
                "location": {
                    "latitude": 46.18445146420519, 
                    "longitude": 12.949932915220462
                }, 
                "patient_name": "Ricardo Deleon"
            }
        }, 
        {
            "act_1_14": {
                "duration": 30, 
                "time_window": {
                    "start": "2014-03-06T08:00:00", 
                    "finish": "2014-03-06T13:00:00"
                }, 
                "required_operators": 1, 
                "location": {
                    "latitude": 45.99880046081105, 
                    "longitude": 13.319078297586154
                }, 
                "patient_name": "Janet Poland"
            }, 
            "act_1_15": {
                "duration": 60, 
                "time_window": {
                    "start": "2014-03-06T08:00:00", 
                    "finish": "2014-03-06T13:00:00"
                }, 
                "required_operators": 2, 
                "location": {
                    "latitude": 46.09648174410088, 
                    "longitude": 13.407022406681664
                }, 
                "patient_name": "Tonya Young"
            }, 
            "act_1_16": {
                "duration": 30, 
                "time_window": {
                    "start": "2014-03-06T11:20:00", 
                    "finish": "2014-03-06T14:40:00"
                }, 
                "required_operators": 1, 
                "location": {
                    "latitude": 45.99088953626607, 
                    "longitude": 12.921922859598634
                }, 
                "patient_name": "Jacob Blake"
            }, 
            "act_1_17": {
                "duration": 30, 
                "time_window": {
                    "start": "2014-03-06T11:20:00", 
                    "finish": "2014-03-06T14:40:00"
                }, 
                "required_operators": 1, 
                "location": {
                    "latitude": 46.095813778770626, 
                    "longitude": 13.468252872754228
                }, 
                "patient_name": "Woodrow Stewart"
            }, 
            "act_1_10": {
                "duration": 30, 
                "time_window": {
                    "start": "2014-03-06T08:00:00", 
                    "finish": "2014-03-06T18:00:00"
                }, 
                "required_operators": 1, 
                "location": {
                    "latitude": 46.205540330882265, 
                    "longitude": 13.089499382641584
                }, 
                "patient_name": "Leroy Murphy"
            }, 
            "act_1_11": {
                "duration": 60, 
                "time_window": {
                    "start": "2014-03-06T08:00:00", 
                    "finish": "2014-03-06T13:00:00"
                }, 
                "required_operators": 1, 
                "location": {
                    "latitude": 46.165782315833894, 
                    "longitude": 13.395036792664966
                }, 
                "patient_name": "Cecilia Robinson"
            }, 
            "act_1_12": {
                "duration": 60, 
                "time_window": {
                    "start": "2014-03-06T08:00:00", 
                    "finish": "2014-03-06T18:00:00"
                }, 
                "required_operators": 1, 
                "location": {
                    "latitude": 46.25665507496816, 
                    "longitude": 12.915147256585358
                }, 
                "patient_name": "Katherine Cochran"
            }, 
            "act_1_13": {
                "duration": 30, 
                "time_window": {
                    "start": "2014-03-06T13:00:00", 
                    "finish": "2014-03-06T18:00:00"
                }, 
                "required_operators": 1, 
                "location": {
                    "latitude": 46.07687179293306, 
                    "longitude": 13.059197897971805
                }, 
                "patient_name": "James Young"
            }, 
            "act_1_18": {
                "duration": 30, 
                "time_window": {
                    "start": "2014-03-06T08:00:00", 
                    "finish": "2014-03-06T18:00:00"
                }, 
                "required_operators": 1, 
                "location": {
                    "latitude": 46.206129875863844, 
                    "longitude": 13.098047285633077
                }, 
                "patient_name": "Eric Moffitt"
            }, 
            "act_1_19": {
                "duration": 60, 
                "time_window": {
                    "start": "2014-03-06T08:00:00", 
                    "finish": "2014-03-06T18:00:00"
                }, 
                "required_operators": 2, 
                "location": {
                    "latitude": 46.16701057685416, 
                    "longitude": 12.933130260540716
                }, 
                "patient_name": "Amy Francis"
            }, 
            "act_1_2": {
                "duration": 30, 
                "time_window": {
                    "start": "2014-03-06T08:00:00", 
                    "finish": "2014-03-06T18:00:00"
                }, 
                "required_operators": 1, 
                "location": {
                    "latitude": 46.10101767916895, 
                    "longitude": 13.100861580447607
                }, 
                "patient_name": "Charles Barela"
            }, 
            "act_1_3": {
                "duration": 30, 
                "time_window": {
                    "start": "2014-03-06T08:00:00", 
                    "finish": "2014-03-06T18:00:00"
                }, 
                "required_operators": 1, 
                "location": {
                    "latitude": 46.17754048130574, 
                    "longitude": 12.927852757748731
                }, 
                "patient_name": "Stephanie Yeah"
            }, 
            "act_1_0": {
                "duration": 30, 
                "time_window": {
                    "start": "2014-03-06T14:40:00", 
                    "finish": "2014-03-06T18:00:00"
                }, 
                "required_operators": 1, 
                "location": {
                    "latitude": 46.14830504155592, 
                    "longitude": 13.260152783240025
                }, 
                "patient_name": "Ernest Carolin"
            }, 
            "act_1_1": {
                "duration": 30, 
                "time_window": {
                    "start": "2014-03-06T14:40:00", 
                    "finish": "2014-03-06T18:00:00"
                }, 
                "required_operators": 1, 
                "location": {
                    "latitude": 46.019481553595874, 
                    "longitude": 13.290906043111217
                }, 
                "patient_name": "Shirley Banderas"
            }, 
            "act_1_6": {
                "duration": 60, 
                "time_window": {
                    "start": "2014-03-06T08:00:00", 
                    "finish": "2014-03-06T13:00:00"
                }, 
                "required_operators": 1, 
                "location": {
                    "latitude": 46.02122489043598, 
                    "longitude": 13.452059937228322
                }, 
                "patient_name": "Joseph Mcdavid"
            }, 
            "act_1_7": {
                "duration": 60, 
                "time_window": {
                    "start": "2014-03-06T08:00:00", 
                    "finish": "2014-03-06T13:00:00"
                }, 
                "required_operators": 1, 
                "location": {
                    "latitude": 45.99140937781306, 
                    "longitude": 13.220461686382976
                }, 
                "patient_name": "Wayne Torres"
            }, 
            "act_1_4": {
                "duration": 60, 
                "time_window": {
                    "start": "2014-03-06T08:00:00", 
                    "finish": "2014-03-06T13:00:00"
                }, 
                "required_operators": 2, 
                "location": {
                    "latitude": 46.15147382567455, 
                    "longitude": 13.399484749704905
                }, 
                "patient_name": "Gary Gardner"
            }, 
            "act_1_5": {
                "duration": 30, 
                "time_window": {
                    "start": "2014-03-06T08:00:00", 
                    "finish": "2014-03-06T18:00:00"
                }, 
                "required_operators": 2, 
                "location": {
                    "latitude": 46.03845944798275, 
                    "longitude": 13.298166028829879
                }, 
                "patient_name": "Alexander Garza"
            }, 
            "act_1_8": {
                "duration": 30, 
                "time_window": {
                    "start": "2014-03-06T08:00:00", 
                    "finish": "2014-03-06T18:00:00"
                }, 
                "required_operators": 1, 
                "location": {
                    "latitude": 46.21299257521999, 
                    "longitude": 13.098224250845554
                }, 
                "patient_name": "Elaine White"
            }, 
            "act_1_9": {
                "duration": 60, 
                "time_window": {
                    "start": "2014-03-06T08:00:00", 
                    "finish": "2014-03-06T13:00:00"
                }, 
                "required_operators": 1, 
                "location": {
                    "latitude": 46.246336814816026, 
                    "longitude": 12.9993130993131
                }, 
                "patient_name": "Branden Chow"
            }
        }, 
        {
            "act_2_19": {
                "duration": 30, 
                "time_window": {
                    "start": "2014-03-07T11:20:00", 
                    "finish": "2014-03-07T14:40:00"
                }, 
                "required_operators": 1, 
                "location": {
                    "latitude": 46.02165827902458, 
                    "longitude": 13.445172330581707
                }, 
                "patient_name": "Josie Williams"
            }, 
            "act_2_18": {
                "duration": 30, 
                "time_window": {
                    "start": "2014-03-07T08:00:00", 
                    "finish": "2014-03-07T18:00:00"
                }, 
                "required_operators": 1, 
                "location": {
                    "latitude": 46.198622420770256, 
                    "longitude": 13.361318039157828
                }, 
                "patient_name": "Jennie Douglas"
            }, 
            "act_2_11": {
                "duration": 30, 
                "time_window": {
                    "start": "2014-03-07T08:00:00", 
                    "finish": "2014-03-07T18:00:00"
                }, 
                "required_operators": 1, 
                "location": {
                    "latitude": 46.09095042002685, 
                    "longitude": 13.064431898354377
                }, 
                "patient_name": "Sandra Thompson"
            }, 
            "act_2_10": {
                "duration": 30, 
                "time_window": {
                    "start": "2014-03-07T08:00:00", 
                    "finish": "2014-03-07T18:00:00"
                }, 
                "required_operators": 1, 
                "location": {
                    "latitude": 45.94722104652304, 
                    "longitude": 13.43278225785909
                }, 
                "patient_name": "Veronica Mastoris"
            }, 
            "act_2_13": {
                "duration": 30, 
                "time_window": {
                    "start": "2014-03-07T13:00:00", 
                    "finish": "2014-03-07T18:00:00"
                }, 
                "required_operators": 1, 
                "location": {
                    "latitude": 46.199382227388284, 
                    "longitude": 12.906357956528463
                }, 
                "patient_name": "Wade Holder"
            }, 
            "act_2_12": {
                "duration": 30, 
                "time_window": {
                    "start": "2014-03-07T08:00:00", 
                    "finish": "2014-03-07T13:00:00"
                }, 
                "required_operators": 1, 
                "location": {
                    "latitude": 46.06823444469013, 
                    "longitude": 13.067220034369496
                }, 
                "patient_name": "Joseph Ramos"
            }, 
            "act_2_15": {
                "duration": 30, 
                "time_window": {
                    "start": "2014-03-07T08:00:00", 
                    "finish": "2014-03-07T13:00:00"
                }, 
                "required_operators": 1, 
                "location": {
                    "latitude": 46.19171802837261, 
                    "longitude": 13.070748700908526
                }, 
                "patient_name": "Dorothy Lugones"
            }, 
            "act_2_14": {
                "duration": 60, 
                "time_window": {
                    "start": "2014-03-07T08:00:00", 
                    "finish": "2014-03-07T18:00:00"
                }, 
                "required_operators": 1, 
                "location": {
                    "latitude": 46.25324669753189, 
                    "longitude": 13.060148514964117
                }, 
                "patient_name": "Myra Morris"
            }, 
            "act_2_17": {
                "duration": 30, 
                "time_window": {
                    "start": "2014-03-07T13:00:00", 
                    "finish": "2014-03-07T18:00:00"
                }, 
                "required_operators": 1, 
                "location": {
                    "latitude": 46.158815806839904, 
                    "longitude": 13.060762827905222
                }, 
                "patient_name": "Carlos Johndrow"
            }, 
            "act_2_16": {
                "duration": 30, 
                "time_window": {
                    "start": "2014-03-07T14:40:00", 
                    "finish": "2014-03-07T18:00:00"
                }, 
                "required_operators": 2, 
                "location": {
                    "latitude": 46.118156532155254, 
                    "longitude": 13.346644227346966
                }, 
                "patient_name": "Rebecca Otero"
            }, 
            "act_2_9": {
                "duration": 60, 
                "time_window": {
                    "start": "2014-03-07T08:00:00", 
                    "finish": "2014-03-07T18:00:00"
                }, 
                "required_operators": 1, 
                "location": {
                    "latitude": 46.04918154824869, 
                    "longitude": 13.1487466801342
                }, 
                "patient_name": "Martha Anderson"
            }, 
            "act_2_8": {
                "duration": 60, 
                "time_window": {
                    "start": "2014-03-07T11:20:00", 
                    "finish": "2014-03-07T14:40:00"
                }, 
                "required_operators": 1, 
                "location": {
                    "latitude": 46.23647551616731, 
                    "longitude": 12.86279851329352
                }, 
                "patient_name": "Frederick Jensen"
            }, 
            "act_2_5": {
                "duration": 60, 
                "time_window": {
                    "start": "2014-03-07T08:00:00", 
                    "finish": "2014-03-07T18:00:00"
                }, 
                "required_operators": 1, 
                "location": {
                    "latitude": 46.01662395204246, 
                    "longitude": 13.234617689494794
                }, 
                "patient_name": "Fred Arnold"
            }, 
            "act_2_4": {
                "duration": 30, 
                "time_window": {
                    "start": "2014-03-07T13:00:00", 
                    "finish": "2014-03-07T18:00:00"
                }, 
                "required_operators": 1, 
                "location": {
                    "latitude": 46.236112253120254, 
                    "longitude": 13.133628202970854
                }, 
                "patient_name": "Rosa Her"
            }, 
            "act_2_7": {
                "duration": 30, 
                "time_window": {
                    "start": "2014-03-07T08:00:00", 
                    "finish": "2014-03-07T18:00:00"
                }, 
                "required_operators": 1, 
                "location": {
                    "latitude": 45.97545082529988, 
                    "longitude": 13.362764272542286
                }, 
                "patient_name": "Craig Muise"
            }, 
            "act_2_6": {
                "duration": 60, 
                "time_window": {
                    "start": "2014-03-07T08:00:00", 
                    "finish": "2014-03-07T18:00:00"
                }, 
                "required_operators": 1, 
                "location": {
                    "latitude": 46.21944678554321, 
                    "longitude": 12.978435786348602
                }, 
                "patient_name": "Joseph Jones"
            }, 
            "act_2_1": {
                "duration": 30, 
                "time_window": {
                    "start": "2014-03-07T13:00:00", 
                    "finish": "2014-03-07T18:00:00"
                }, 
                "required_operators": 1, 
                "location": {
                    "latitude": 46.225236387000464, 
                    "longitude": 13.237251234301329
                }, 
                "patient_name": "Jacob Mccright"
            }, 
            "act_2_0": {
                "duration": 60, 
                "time_window": {
                    "start": "2014-03-07T08:00:00", 
                    "finish": "2014-03-07T11:20:00"
                }, 
                "required_operators": 1, 
                "location": {
                    "latitude": 46.01585306439743, 
                    "longitude": 13.435825090119733
                }, 
                "patient_name": "Tempie Mittman"
            }, 
            "act_2_3": {
                "duration": 60, 
                "time_window": {
                    "start": "2014-03-07T08:00:00", 
                    "finish": "2014-03-07T18:00:00"
                }, 
                "required_operators": 1, 
                "location": {
                    "latitude": 46.10394816857267, 
                    "longitude": 12.959335984598791
                }, 
                "patient_name": "Tanya Albano"
            }, 
            "act_2_2": {
                "duration": 30, 
                "time_window": {
                    "start": "2014-03-07T08:00:00", 
                    "finish": "2014-03-07T18:00:00"
                }, 
                "required_operators": 1, 
                "location": {
                    "latitude": 45.94571068366042, 
                    "longitude": 13.185749357333437
                }, 
                "patient_name": "Allen Laureano"
            }
        }, 
        {
            "act_3_4": {
                "duration": 30, 
                "time_window": {
                    "start": "2014-03-08T08:00:00", 
                    "finish": "2014-03-08T18:00:00"
                }, 
                "required_operators": 2, 
                "location": {
                    "latitude": 46.15075513869389, 
                    "longitude": 13.125084889050251
                }, 
                "patient_name": "James Hart"
            }, 
            "act_3_5": {
                "duration": 30, 
                "time_window": {
                    "start": "2014-03-08T13:00:00", 
                    "finish": "2014-03-08T18:00:00"
                }, 
                "required_operators": 2, 
                "location": {
                    "latitude": 46.235132538558126, 
                    "longitude": 12.997580537623026
                }, 
                "patient_name": "Jennifer Long"
            }, 
            "act_3_6": {
                "duration": 30, 
                "time_window": {
                    "start": "2014-03-08T08:00:00", 
                    "finish": "2014-03-08T18:00:00"
                }, 
                "required_operators": 1, 
                "location": {
                    "latitude": 46.13255396573245, 
                    "longitude": 13.240812845851602
                }, 
                "patient_name": "Margaret Macon"
            }, 
            "act_3_7": {
                "duration": 30, 
                "time_window": {
                    "start": "2014-03-08T08:00:00", 
                    "finish": "2014-03-08T18:00:00"
                }, 
                "required_operators": 1, 
                "location": {
                    "latitude": 46.01317802010916, 
                    "longitude": 12.89752808301138
                }, 
                "patient_name": "Amy Lopez"
            }, 
            "act_3_0": {
                "duration": 30, 
                "time_window": {
                    "start": "2014-03-08T14:40:00", 
                    "finish": "2014-03-08T18:00:00"
                }, 
                "required_operators": 1, 
                "location": {
                    "latitude": 46.12203129066057, 
                    "longitude": 13.403050958523687
                }, 
                "patient_name": "Christopher Harp"
            }, 
            "act_3_1": {
                "duration": 30, 
                "time_window": {
                    "start": "2014-03-08T13:00:00", 
                    "finish": "2014-03-08T18:00:00"
                }, 
                "required_operators": 1, 
                "location": {
                    "latitude": 46.02418897027781, 
                    "longitude": 13.453515845736717
                }, 
                "patient_name": "Olin Woods"
            }, 
            "act_3_2": {
                "duration": 60, 
                "time_window": {
                    "start": "2014-03-08T08:00:00", 
                    "finish": "2014-03-08T18:00:00"
                }, 
                "required_operators": 1, 
                "location": {
                    "latitude": 46.03606788996605, 
                    "longitude": 13.355933413114627
                }, 
                "patient_name": "Jared Grimes"
            }, 
            "act_3_3": {
                "duration": 30, 
                "time_window": {
                    "start": "2014-03-08T13:00:00", 
                    "finish": "2014-03-08T18:00:00"
                }, 
                "required_operators": 1, 
                "location": {
                    "latitude": 46.03475563146844, 
                    "longitude": 13.349368235708509
                }, 
                "patient_name": "Ruth Kutchera"
            }, 
            "act_3_8": {
                "duration": 30, 
                "time_window": {
                    "start": "2014-03-08T13:00:00", 
                    "finish": "2014-03-08T18:00:00"
                }, 
                "required_operators": 1, 
                "location": {
                    "latitude": 45.95643375247228, 
                    "longitude": 12.88819966473775
                }, 
                "patient_name": "April Patry"
            }, 
            "act_3_9": {
                "duration": 60, 
                "time_window": {
                    "start": "2014-03-08T14:40:00", 
                    "finish": "2014-03-08T18:00:00"
                }, 
                "required_operators": 1, 
                "location": {
                    "latitude": 46.25395824844363, 
                    "longitude": 13.05424925335942
                }, 
                "patient_name": "William Smalley"
            }, 
            "act_3_18": {
                "duration": 30, 
                "time_window": {
                    "start": "2014-03-08T08:00:00", 
                    "finish": "2014-03-08T13:00:00"
                }, 
                "required_operators": 1, 
                "location": {
                    "latitude": 45.99957076920618, 
                    "longitude": 12.945039814364055
                }, 
                "patient_name": "Melvin Donner"
            }, 
            "act_3_19": {
                "duration": 60, 
                "time_window": {
                    "start": "2014-03-08T08:00:00", 
                    "finish": "2014-03-08T13:00:00"
                }, 
                "required_operators": 1, 
                "location": {
                    "latitude": 46.2376612500137, 
                    "longitude": 12.884594164738967
                }, 
                "patient_name": "Marian Su"
            }, 
            "act_3_16": {
                "duration": 60, 
                "time_window": {
                    "start": "2014-03-08T08:00:00", 
                    "finish": "2014-03-08T18:00:00"
                }, 
                "required_operators": 1, 
                "location": {
                    "latitude": 45.99975899076179, 
                    "longitude": 12.968250156740776
                }, 
                "patient_name": "John Stenson"
            }, 
            "act_3_17": {
                "duration": 30, 
                "time_window": {
                    "start": "2014-03-08T14:40:00", 
                    "finish": "2014-03-08T18:00:00"
                }, 
                "required_operators": 1, 
                "location": {
                    "latitude": 45.99413165146472, 
                    "longitude": 13.078831209477448
                }, 
                "patient_name": "Dora Zampieri"
            }, 
            "act_3_14": {
                "duration": 60, 
                "time_window": {
                    "start": "2014-03-08T08:00:00", 
                    "finish": "2014-03-08T18:00:00"
                }, 
                "required_operators": 1, 
                "location": {
                    "latitude": 46.22288905910929, 
                    "longitude": 13.01377636876078
                }, 
                "patient_name": "Claudine Ortega"
            }, 
            "act_3_15": {
                "duration": 60, 
                "time_window": {
                    "start": "2014-03-08T14:40:00", 
                    "finish": "2014-03-08T18:00:00"
                }, 
                "required_operators": 1, 
                "location": {
                    "latitude": 46.06357647936552, 
                    "longitude": 12.902101937417997
                }, 
                "patient_name": "Roger Starks"
            }, 
            "act_3_12": {
                "duration": 30, 
                "time_window": {
                    "start": "2014-03-08T08:00:00", 
                    "finish": "2014-03-08T18:00:00"
                }, 
                "required_operators": 1, 
                "location": {
                    "latitude": 45.96790238006859, 
                    "longitude": 13.150963077023142
                }, 
                "patient_name": "Pamela Clawson"
            }, 
            "act_3_13": {
                "duration": 60, 
                "time_window": {
                    "start": "2014-03-08T08:00:00", 
                    "finish": "2014-03-08T11:20:00"
                }, 
                "required_operators": 1, 
                "location": {
                    "latitude": 46.14189687193807, 
                    "longitude": 13.362771416751567
                }, 
                "patient_name": "Betty Walley"
            }, 
            "act_3_10": {
                "duration": 30, 
                "time_window": {
                    "start": "2014-03-08T08:00:00", 
                    "finish": "2014-03-08T18:00:00"
                }, 
                "required_operators": 1, 
                "location": {
                    "latitude": 46.10391272712712, 
                    "longitude": 12.966938533198574
                }, 
                "patient_name": "Lawrence Valerio"
            }, 
            "act_3_11": {
                "duration": 30, 
                "time_window": {
                    "start": "2014-03-08T08:00:00", 
                    "finish": "2014-03-08T13:00:00"
                }, 
                "required_operators": 1, 
                "location": {
                    "latitude": 46.23138633506828, 
                    "longitude": 12.918367254450605
                }, 
                "patient_name": "Sara Osborn"
            }
        }, 
        {
            "act_4_13": {
                "duration": 30, 
                "time_window": {
                    "start": "2014-03-09T08:00:00", 
                    "finish": "2014-03-09T18:00:00"
                }, 
                "required_operators": 1, 
                "location": {
                    "latitude": 46.00611336265059, 
                    "longitude": 12.883392172185347
                }, 
                "patient_name": "Jennifer Bell"
            }, 
            "act_4_12": {
                "duration": 60, 
                "time_window": {
                    "start": "2014-03-09T08:00:00", 
                    "finish": "2014-03-09T11:20:00"
                }, 
                "required_operators": 1, 
                "location": {
                    "latitude": 46.16231052678879, 
                    "longitude": 13.112030270255168
                }, 
                "patient_name": "Robert Gilmore"
            }, 
            "act_4_11": {
                "duration": 30, 
                "time_window": {
                    "start": "2014-03-09T08:00:00", 
                    "finish": "2014-03-09T11:20:00"
                }, 
                "required_operators": 1, 
                "location": {
                    "latitude": 45.94815378626228, 
                    "longitude": 13.371795732354386
                }, 
                "patient_name": "Kimberly Lane"
            }, 
            "act_4_10": {
                "duration": 60, 
                "time_window": {
                    "start": "2014-03-09T13:00:00", 
                    "finish": "2014-03-09T18:00:00"
                }, 
                "required_operators": 1, 
                "location": {
                    "latitude": 46.18388089397425, 
                    "longitude": 12.97152799609433
                }, 
                "patient_name": "Donna Riggins"
            }, 
            "act_4_17": {
                "duration": 60, 
                "time_window": {
                    "start": "2014-03-09T14:40:00", 
                    "finish": "2014-03-09T18:00:00"
                }, 
                "required_operators": 1, 
                "location": {
                    "latitude": 46.217348618618, 
                    "longitude": 13.278462685500424
                }, 
                "patient_name": "Anna Oconnell"
            }, 
            "act_4_15": {
                "duration": 30, 
                "time_window": {
                    "start": "2014-03-09T14:40:00", 
                    "finish": "2014-03-09T18:00:00"
                }, 
                "required_operators": 1, 
                "location": {
                    "latitude": 46.1232922550504, 
                    "longitude": 12.90832701362401
                }, 
                "patient_name": "Paige Martin"
            }, 
            "act_4_9": {
                "duration": 30, 
                "time_window": {
                    "start": "2014-03-09T08:00:00", 
                    "finish": "2014-03-09T13:00:00"
                }, 
                "required_operators": 1, 
                "location": {
                    "latitude": 46.039787115526245, 
                    "longitude": 13.42697076538353
                }, 
                "patient_name": "Zachariah Willis"
            }, 
            "act_4_8": {
                "duration": 60, 
                "time_window": {
                    "start": "2014-03-09T08:00:00", 
                    "finish": "2014-03-09T18:00:00"
                }, 
                "required_operators": 1, 
                "location": {
                    "latitude": 46.00284659555295, 
                    "longitude": 12.876736873287628
                }, 
                "patient_name": "Rose Pinson"
            }, 
            "act_4_7": {
                "duration": 60, 
                "time_window": {
                    "start": "2014-03-09T08:00:00", 
                    "finish": "2014-03-09T13:00:00"
                }, 
                "required_operators": 2, 
                "location": {
                    "latitude": 45.97014899565067, 
                    "longitude": 13.042425982669691
                }, 
                "patient_name": "Manuela Torbert"
            }, 
            "act_4_6": {
                "duration": 60, 
                "time_window": {
                    "start": "2014-03-09T08:00:00", 
                    "finish": "2014-03-09T11:20:00"
                }, 
                "required_operators": 1, 
                "location": {
                    "latitude": 46.02834702773943, 
                    "longitude": 12.90196731016707
                }, 
                "patient_name": "Lois Stoltz"
            }, 
            "act_4_5": {
                "duration": 60, 
                "time_window": {
                    "start": "2014-03-09T13:00:00", 
                    "finish": "2014-03-09T18:00:00"
                }, 
                "required_operators": 1, 
                "location": {
                    "latitude": 45.97994127736936, 
                    "longitude": 13.255440762936987
                }, 
                "patient_name": "Billy Jolly"
            }, 
            "act_4_4": {
                "duration": 60, 
                "time_window": {
                    "start": "2014-03-09T13:00:00", 
                    "finish": "2014-03-09T18:00:00"
                }, 
                "required_operators": 1, 
                "location": {
                    "latitude": 46.19136481330544, 
                    "longitude": 13.041622085421071
                }, 
                "patient_name": "Shawn Ellis"
            }, 
            "act_4_3": {
                "duration": 30, 
                "time_window": {
                    "start": "2014-03-09T13:00:00", 
                    "finish": "2014-03-09T18:00:00"
                }, 
                "required_operators": 1, 
                "location": {
                    "latitude": 45.99686841343201, 
                    "longitude": 13.230133925205807
                }, 
                "patient_name": "Kaley Waddell"
            }, 
            "act_4_2": {
                "duration": 30, 
                "time_window": {
                    "start": "2014-03-09T08:00:00", 
                    "finish": "2014-03-09T18:00:00"
                }, 
                "required_operators": 1, 
                "location": {
                    "latitude": 45.980666966965515, 
                    "longitude": 13.35674133055796
                }, 
                "patient_name": "Bobby Lange"
            }, 
            "act_4_1": {
                "duration": 30, 
                "time_window": {
                    "start": "2014-03-09T08:00:00", 
                    "finish": "2014-03-09T13:00:00"
                }, 
                "required_operators": 1, 
                "location": {
                    "latitude": 46.08567541277147, 
                    "longitude": 13.143730589083074
                }, 
                "patient_name": "Harold Tabor"
            }, 
            "act_4_0": {
                "duration": 30, 
                "time_window": {
                    "start": "2014-03-09T08:00:00", 
                    "finish": "2014-03-09T11:20:00"
                }, 
                "required_operators": 1, 
                "location": {
                    "latitude": 46.13660177791865, 
                    "longitude": 12.970892195364293
                }, 
                "patient_name": "Christopher Chambers"
            }, 
            "act_4_18": {
                "duration": 30, 
                "time_window": {
                    "start": "2014-03-09T13:00:00", 
                    "finish": "2014-03-09T18:00:00"
                }, 
                "required_operators": 1, 
                "location": {
                    "latitude": 46.11694822934686, 
                    "longitude": 12.867028347061176
                }, 
                "patient_name": "Carl Beach"
            }, 
            "act_4_16": {
                "duration": 60, 
                "time_window": {
                    "start": "2014-03-09T11:20:00", 
                    "finish": "2014-03-09T14:40:00"
                }, 
                "required_operators": 1, 
                "location": {
                    "latitude": 46.07425108288535, 
                    "longitude": 13.293796095041314
                }, 
                "patient_name": "Walter Miller"
            }, 
            "act_4_19": {
                "duration": 60, 
                "time_window": {
                    "start": "2014-03-09T08:00:00", 
                    "finish": "2014-03-09T11:20:00"
                }, 
                "required_operators": 1, 
                "location": {
                    "latitude": 46.24073763016311, 
                    "longitude": 13.185170090700712
                }, 
                "patient_name": "Jason Robinson"
            }, 
            "act_4_14": {
                "duration": 30, 
                "time_window": {
                    "start": "2014-03-09T13:00:00", 
                    "finish": "2014-03-09T18:00:00"
                }, 
                "required_operators": 1, 
                "location": {
                    "latitude": 46.13407213476945, 
                    "longitude": 13.109922438678414
                }, 
                "patient_name": "Elsy Hackney"
            }
        }, 
        {
            "act_5_18": {
                "duration": 30, 
                "time_window": {
                    "start": "2014-03-10T08:00:00", 
                    "finish": "2014-03-10T18:00:00"
                }, 
                "required_operators": 1, 
                "location": {
                    "latitude": 46.126217091351315, 
                    "longitude": 13.247910557209588
                }, 
                "patient_name": "Marcia Arkenberg"
            }, 
            "act_5_19": {
                "duration": 30, 
                "time_window": {
                    "start": "2014-03-10T08:00:00", 
                    "finish": "2014-03-10T11:20:00"
                }, 
                "required_operators": 1, 
                "location": {
                    "latitude": 46.21123641343803, 
                    "longitude": 13.19884339338554
                }, 
                "patient_name": "Denise Delmont"
            }, 
            "act_5_10": {
                "duration": 60, 
                "time_window": {
                    "start": "2014-03-10T08:00:00", 
                    "finish": "2014-03-10T18:00:00"
                }, 
                "required_operators": 1, 
                "location": {
                    "latitude": 46.19655071136358, 
                    "longitude": 13.347349566800249
                }, 
                "patient_name": "Osvaldo Brock"
            }, 
            "act_5_11": {
                "duration": 60, 
                "time_window": {
                    "start": "2014-03-10T08:00:00", 
                    "finish": "2014-03-10T18:00:00"
                }, 
                "required_operators": 1, 
                "location": {
                    "latitude": 46.063539690131506, 
                    "longitude": 12.959627684320415
                }, 
                "patient_name": "Carol Vida"
            }, 
            "act_5_12": {
                "duration": 30, 
                "time_window": {
                    "start": "2014-03-10T08:00:00", 
                    "finish": "2014-03-10T18:00:00"
                }, 
                "required_operators": 1, 
                "location": {
                    "latitude": 46.148650192120535, 
                    "longitude": 13.15901853887367
                }, 
                "patient_name": "Barbara Crane"
            }, 
            "act_5_13": {
                "duration": 60, 
                "time_window": {
                    "start": "2014-03-10T13:00:00", 
                    "finish": "2014-03-10T18:00:00"
                }, 
                "required_operators": 1, 
                "location": {
                    "latitude": 46.20052745865447, 
                    "longitude": 13.299788710680259
                }, 
                "patient_name": "Elizabeth Vuong"
            }, 
            "act_5_14": {
                "duration": 60, 
                "time_window": {
                    "start": "2014-03-10T13:00:00", 
                    "finish": "2014-03-10T18:00:00"
                }, 
                "required_operators": 1, 
                "location": {
                    "latitude": 45.980452204170916, 
                    "longitude": 13.178040822212738
                }, 
                "patient_name": "Leonard Criss"
            }, 
            "act_5_15": {
                "duration": 30, 
                "time_window": {
                    "start": "2014-03-10T08:00:00", 
                    "finish": "2014-03-10T13:00:00"
                }, 
                "required_operators": 2, 
                "location": {
                    "latitude": 46.11541601999027, 
                    "longitude": 13.263907245817256
                }, 
                "patient_name": "Christopher Berstein"
            }, 
            "act_5_16": {
                "duration": 30, 
                "time_window": {
                    "start": "2014-03-10T13:00:00", 
                    "finish": "2014-03-10T18:00:00"
                }, 
                "required_operators": 1, 
                "location": {
                    "latitude": 46.089146569926534, 
                    "longitude": 13.07670309572517
                }, 
                "patient_name": "Leonard Fralick"
            }, 
            "act_5_17": {
                "duration": 30, 
                "time_window": {
                    "start": "2014-03-10T08:00:00", 
                    "finish": "2014-03-10T18:00:00"
                }, 
                "required_operators": 1, 
                "location": {
                    "latitude": 46.098255710239165, 
                    "longitude": 13.216093833197437
                }, 
                "patient_name": "Monica Ramirez"
            }, 
            "act_5_6": {
                "duration": 30, 
                "time_window": {
                    "start": "2014-03-10T14:40:00", 
                    "finish": "2014-03-10T18:00:00"
                }, 
                "required_operators": 2, 
                "location": {
                    "latitude": 46.07988692335202, 
                    "longitude": 13.482809349585592
                }, 
                "patient_name": "Donnette Buterbaugh"
            }, 
            "act_5_7": {
                "duration": 60, 
                "time_window": {
                    "start": "2014-03-10T14:40:00", 
                    "finish": "2014-03-10T18:00:00"
                }, 
                "required_operators": 2, 
                "location": {
                    "latitude": 46.16838125822967, 
                    "longitude": 13.126814491116694
                }, 
                "patient_name": "Clara Nardella"
            }, 
            "act_5_4": {
                "duration": 30, 
                "time_window": {
                    "start": "2014-03-10T08:00:00", 
                    "finish": "2014-03-10T11:20:00"
                }, 
                "required_operators": 1, 
                "location": {
                    "latitude": 46.03443236496545, 
                    "longitude": 12.978854206356063
                }, 
                "patient_name": "Jocelyn Thammavongsa"
            }, 
            "act_5_5": {
                "duration": 60, 
                "time_window": {
                    "start": "2014-03-10T08:00:00", 
                    "finish": "2014-03-10T13:00:00"
                }, 
                "required_operators": 1, 
                "location": {
                    "latitude": 46.1178533189534, 
                    "longitude": 13.050555503472925
                }, 
                "patient_name": "Cory Preece"
            }, 
            "act_5_2": {
                "duration": 30, 
                "time_window": {
                    "start": "2014-03-10T08:00:00", 
                    "finish": "2014-03-10T18:00:00"
                }, 
                "required_operators": 2, 
                "location": {
                    "latitude": 46.253839963052684, 
                    "longitude": 13.475056477946898
                }, 
                "patient_name": "Roberta Taylor"
            }, 
            "act_5_3": {
                "duration": 30, 
                "time_window": {
                    "start": "2014-03-10T08:00:00", 
                    "finish": "2014-03-10T18:00:00"
                }, 
                "required_operators": 1, 
                "location": {
                    "latitude": 45.953618230679766, 
                    "longitude": 13.40859525283235
                }, 
                "patient_name": "Richard Mujalli"
            }, 
            "act_5_0": {
                "duration": 30, 
                "time_window": {
                    "start": "2014-03-10T13:00:00", 
                    "finish": "2014-03-10T18:00:00"
                }, 
                "required_operators": 1, 
                "location": {
                    "latitude": 46.009096320038914, 
                    "longitude": 13.442460197024726
                }, 
                "patient_name": "Mary Morehouse"
            }, 
            "act_5_1": {
                "duration": 30, 
                "time_window": {
                    "start": "2014-03-10T08:00:00", 
                    "finish": "2014-03-10T18:00:00"
                }, 
                "required_operators": 1, 
                "location": {
                    "latitude": 46.04587119408171, 
                    "longitude": 13.235532586800218
                }, 
                "patient_name": "Tina Miller"
            }, 
            "act_5_8": {
                "duration": 30, 
                "time_window": {
                    "start": "2014-03-10T14:40:00", 
                    "finish": "2014-03-10T18:00:00"
                }, 
                "required_operators": 1, 
                "location": {
                    "latitude": 46.152222892936805, 
                    "longitude": 12.936348890792578
                }, 
                "patient_name": "Marie Ennen"
            }, 
            "act_5_9": {
                "duration": 30, 
                "time_window": {
                    "start": "2014-03-10T08:00:00", 
                    "finish": "2014-03-10T18:00:00"
                }, 
                "required_operators": 1, 
                "location": {
                    "latitude": 46.202002517754806, 
                    "longitude": 12.897739061825614
                }, 
                "patient_name": "Foster Scholz"
            }
        }
    ], 
    "operators": {
        "op_8": {
            "time_windows": [
                {
                    "start": "2014-03-05T08:00:00", 
                    "finish": "2014-03-05T18:00:00", 
                    "regular_worktime": "8:00:00"
                }, 
                {
                    "start": "2014-03-06T13:00:00", 
                    "finish": "2014-03-06T18:00:00", 
                    "regular_worktime": "4:00:00"
                }, 
                {
                    "start": "2014-03-07T08:00:00", 
                    "finish": "2014-03-07T18:00:00", 
                    "regular_worktime": "8:00:00"
                }, 
                {
                    "start": "2014-03-08T08:00:00", 
                    "finish": "2014-03-08T18:00:00", 
                    "regular_worktime": "8:00:00"
                }, 
                {
                    "start": "2014-03-09T08:00:00", 
                    "finish": "2014-03-09T18:00:00", 
                    "regular_worktime": "8:00:00"
                }, 
                {
                    "start": "2014-03-10T08:00:00", 
                    "finish": "2014-03-10T18:00:00", 
                    "regular_worktime": "8:00:00"
                }
            ], 
            "incompatible_activities": [
                "act_1_4", 
                "act_3_18", 
                "act_5_11", 
                "act_3_3"
            ], 
            "maximum_working_hours": "40:00:00", 
            "name": "Glenn Taylor", 
            "minimum_working_hours": "36:00:00"
        }, 
        "op_9": {
            "time_windows": [
                {
                    "start": "2014-03-05T08:00:00", 
                    "finish": "2014-03-05T18:00:00", 
                    "regular_worktime": "8:00:00"
                }, 
                {
                    "start": "2014-03-06T08:00:00", 
                    "finish": "2014-03-06T18:00:00", 
                    "regular_worktime": "8:00:00"
                }, 
                {
                    "start": "2014-03-07T08:00:00", 
                    "finish": "2014-03-07T18:00:00", 
                    "regular_worktime": "8:00:00"
                }, 
                {
                    "start": "2014-03-08T13:00:00", 
                    "finish": "2014-03-08T18:00:00", 
                    "regular_worktime": "4:00:00"
                }, 
                {
                    "start": "2014-03-09T08:00:00", 
                    "finish": "2014-03-09T18:00:00", 
                    "regular_worktime": "8:00:00"
                }, 
                {
                    "start": "2014-03-10T08:00:00", 
                    "finish": "2014-03-10T18:00:00", 
                    "regular_worktime": "8:00:00"
                }
            ], 
            "incompatible_activities": [
                "act_1_8", 
                "act_3_2", 
                "act_2_18", 
                "act_2_3"
            ], 
            "maximum_working_hours": "40:00:00", 
            "name": "Marcelo Lozano", 
            "minimum_working_hours": "36:00:00"
        }, 
        "op_4": {
            "time_windows": [
                {
                    "start": "2014-03-05T08:00:00", 
                    "finish": "2014-03-05T18:00:00", 
                    "regular_worktime": "8:00:00"
                }, 
                {
                    "start": "2014-03-06T08:00:00", 
                    "finish": "2014-03-06T18:00:00", 
                    "regular_worktime": "8:00:00"
                }, 
                {
                    "start": "2014-03-07T13:00:00", 
                    "finish": "2014-03-07T18:00:00", 
                    "regular_worktime": "4:00:00"
                }, 
                {
                    "start": "2014-03-08T08:00:00", 
                    "finish": "2014-03-08T18:00:00", 
                    "regular_worktime": "8:00:00"
                }, 
                {
                    "start": "2014-03-09T08:00:00", 
                    "finish": "2014-03-09T18:00:00", 
                    "regular_worktime": "8:00:00"
                }, 
                {
                    "start": "2014-03-10T08:00:00", 
                    "finish": "2014-03-10T18:00:00", 
                    "regular_worktime": "8:00:00"
                }
            ], 
            "incompatible_activities": [
                "act_1_2", 
                "act_3_7", 
                "act_4_11", 
                "act_3_15"
            ], 
            "maximum_working_hours": "40:00:00", 
            "name": "Francisco Abbey", 
            "minimum_working_hours": "36:00:00"
        }, 
        "op_5": {
            "time_windows": [
                {
                    "start": "2014-03-05T08:00:00", 
                    "finish": "2014-03-05T18:00:00", 
                    "regular_worktime": "8:00:00"
                }, 
                {
                    "start": "2014-03-06T08:00:00", 
                    "finish": "2014-03-06T18:00:00", 
                    "regular_worktime": "8:00:00"
                }, 
                {
                    "start": "2014-03-07T08:00:00", 
                    "finish": "2014-03-07T13:00:00", 
                    "regular_worktime": "4:00:00"
                }, 
                {
                    "start": "2014-03-08T08:00:00", 
                    "finish": "2014-03-08T18:00:00", 
                    "regular_worktime": "8:00:00"
                }, 
                {
                    "start": "2014-03-09T08:00:00", 
                    "finish": "2014-03-09T18:00:00", 
                    "regular_worktime": "8:00:00"
                }, 
                {
                    "start": "2014-03-10T08:00:00", 
                    "finish": "2014-03-10T18:00:00", 
                    "regular_worktime": "8:00:00"
                }
            ], 
            "incompatible_activities": [
                "act_5_19", 
                "act_2_18", 
                "act_5_7", 
                "act_2_12"
            ], 
            "maximum_working_hours": "40:00:00", 
            "name": "Jose Gordan", 
            "minimum_working_hours": "36:00:00"
        }, 
        "op_6": {
            "time_windows": [
                {
                    "start": "2014-03-05T08:00:00", 
                    "finish": "2014-03-05T18:00:00", 
                    "regular_worktime": "8:00:00"
                }, 
                {
                    "start": "2014-03-06T08:00:00", 
                    "finish": "2014-03-06T18:00:00", 
                    "regular_worktime": "8:00:00"
                }, 
                {
                    "start": "2014-03-07T08:00:00", 
                    "finish": "2014-03-07T18:00:00", 
                    "regular_worktime": "8:00:00"
                }, 
                {
                    "start": "2014-03-08T08:00:00", 
                    "finish": "2014-03-08T18:00:00", 
                    "regular_worktime": "8:00:00"
                }, 
                {
                    "start": "2014-03-09T08:00:00", 
                    "finish": "2014-03-09T18:00:00", 
                    "regular_worktime": "8:00:00"
                }, 
                {
                    "start": "2014-03-10T08:00:00", 
                    "finish": "2014-03-10T18:00:00", 
                    "regular_worktime": "8:00:00"
                }
            ], 
            "incompatible_activities": [
                "act_5_5", 
                "act_1_1", 
                "act_3_0", 
                "act_3_17"
            ], 
            "maximum_working_hours": "40:00:00", 
            "name": "Eric Williams", 
            "minimum_working_hours": "40:00:00"
        }, 
        "op_7": {
            "time_windows": [
                {
                    "start": "2014-03-05T08:00:00", 
                    "finish": "2014-03-05T18:00:00", 
                    "regular_worktime": "8:00:00"
                }, 
                {
                    "start": "2014-03-06T08:00:00", 
                    "finish": "2014-03-06T18:00:00", 
                    "regular_worktime": "8:00:00"
                }, 
                {
                    "start": "2014-03-07T08:00:00", 
                    "finish": "2014-03-07T18:00:00", 
                    "regular_worktime": "8:00:00"
                }, 
                {
                    "start": "2014-03-08T08:00:00", 
                    "finish": "2014-03-08T18:00:00", 
                    "regular_worktime": "8:00:00"
                }, 
                {
                    "start": "2014-03-09T08:00:00", 
                    "finish": "2014-03-09T18:00:00", 
                    "regular_worktime": "8:00:00"
                }, 
                {
                    "start": "2014-03-10T08:00:00", 
                    "finish": "2014-03-10T18:00:00", 
                    "regular_worktime": "8:00:00"
                }
            ], 
            "incompatible_activities": [
                "act_1_3", 
                "act_2_13", 
                "act_5_6", 
                "act_0_4"
            ], 
            "maximum_working_hours": "40:00:00", 
            "name": "Evelin Montgomery", 
            "minimum_working_hours": "40:00:00"
        }, 
        "op_0": {
            "time_windows": [
                {
                    "start": "2014-03-05T13:00:00", 
                    "finish": "2014-03-05T18:00:00", 
                    "regular_worktime": "4:00:00"
                }, 
                {
                    "start": "2014-03-06T08:00:00", 
                    "finish": "2014-03-06T18:00:00", 
                    "regular_worktime": "8:00:00"
                }, 
                {
                    "start": "2014-03-07T08:00:00", 
                    "finish": "2014-03-07T18:00:00", 
                    "regular_worktime": "8:00:00"
                }, 
                {
                    "start": "2014-03-08T08:00:00", 
                    "finish": "2014-03-08T13:00:00", 
                    "regular_worktime": "4:00:00"
                }, 
                {
                    "start": "2014-03-09T08:00:00", 
                    "finish": "2014-03-09T18:00:00", 
                    "regular_worktime": "8:00:00"
                }, 
                {
                    "start": "2014-03-10T08:00:00", 
                    "finish": "2014-03-10T18:00:00", 
                    "regular_worktime": "8:00:00"
                }
            ], 
            "incompatible_activities": [
                "act_0_10", 
                "act_5_2", 
                "act_0_3", 
                "act_4_5"
            ], 
            "maximum_working_hours": "36:00:00", 
            "name": "Candace Viner", 
            "minimum_working_hours": "32:00:00"
        }, 
        "op_1": {
            "time_windows": [
                {
                    "start": "2014-03-05T08:00:00", 
                    "finish": "2014-03-05T18:00:00", 
                    "regular_worktime": "8:00:00"
                }, 
                {
                    "start": "2014-03-06T13:00:00", 
                    "finish": "2014-03-06T18:00:00", 
                    "regular_worktime": "4:00:00"
                }, 
                {
                    "start": "2014-03-07T08:00:00", 
                    "finish": "2014-03-07T18:00:00", 
                    "regular_worktime": "8:00:00"
                }, 
                {
                    "start": "2014-03-08T08:00:00", 
                    "finish": "2014-03-08T18:00:00", 
                    "regular_worktime": "8:00:00"
                }, 
                {
                    "start": "2014-03-09T08:00:00", 
                    "finish": "2014-03-09T18:00:00", 
                    "regular_worktime": "8:00:00"
                }, 
                {
                    "start": "2014-03-10T13:00:00", 
                    "finish": "2014-03-10T18:00:00", 
                    "regular_worktime": "4:00:00"
                }
            ], 
            "incompatible_activities": [
                "act_1_2", 
                "act_5_18", 
                "act_3_18", 
                "act_0_18"
            ], 
            "maximum_working_hours": "36:00:00", 
            "name": "Kecia Chambers", 
            "minimum_working_hours": "32:00:00"
        }, 
        "op_2": {
            "time_windows": [
                {
                    "start": "2014-03-05T08:00:00", 
                    "finish": "2014-03-05T13:00:00", 
                    "regular_worktime": "4:00:00"
                }, 
                {
                    "start": "2014-03-06T13:00:00", 
                    "finish": "2014-03-06T18:00:00", 
                    "regular_worktime": "4:00:00"
                }, 
                {
                    "start": "2014-03-07T08:00:00", 
                    "finish": "2014-03-07T18:00:00", 
                    "regular_worktime": "8:00:00"
                }, 
                {
                    "start": "2014-03-08T08:00:00", 
                    "finish": "2014-03-08T18:00:00", 
                    "regular_worktime": "8:00:00"
                }, 
                {
                    "start": "2014-03-09T08:00:00", 
                    "finish": "2014-03-09T13:00:00", 
                    "regular_worktime": "4:00:00"
                }, 
                {
                    "start": "2014-03-10T13:00:00", 
                    "finish": "2014-03-10T18:00:00", 
                    "regular_worktime": "4:00:00"
                }
            ], 
            "incompatible_activities": [
                "act_4_1", 
                "act_0_4", 
                "act_1_10", 
                "act_0_5"
            ], 
            "maximum_working_hours": "28:00:00", 
            "name": "Natalie Platt", 
            "minimum_working_hours": "24:00:00"
        }, 
        "op_3": {
            "time_windows": [
                {
                    "start": "2014-03-05T08:00:00", 
                    "finish": "2014-03-05T13:00:00", 
                    "regular_worktime": "4:00:00"
                }, 
                {
                    "start": "2014-03-06T08:00:00", 
                    "finish": "2014-03-06T13:00:00", 
                    "regular_worktime": "4:00:00"
                }, 
                {
                    "start": "2014-03-07T08:00:00", 
                    "finish": "2014-03-07T18:00:00", 
                    "regular_worktime": "8:00:00"
                }, 
                {
                    "start": "2014-03-08T08:00:00", 
                    "finish": "2014-03-08T18:00:00", 
                    "regular_worktime": "8:00:00"
                }, 
                {
                    "start": "2014-03-09T08:00:00", 
                    "finish": "2014-03-09T18:00:00", 
                    "regular_worktime": "8:00:00"
                }, 
                {
                    "start": "2014-03-10T08:00:00", 
                    "finish": "2014-03-10T18:00:00", 
                    "regular_worktime": "8:00:00"
                }
            ], 
            "incompatible_activities": [
                "act_3_14", 
                "act_3_17", 
                "act_0_17", 
                "act_5_11"
            ], 
            "maximum_working_hours": "36:00:00", 
            "name": "Mario Benshoof", 
            "minimum_working_hours": "32:00:00"
        }
    }, 
    "meta": {
        "time_window": {
            "start": "08:00:00", 
            "finish": "18:00:00"
        }, 
        "horizon": 6, 
        "granularity": 10, 
        "geographic_area": {
            "upper_left": [
                46.259645, 
                12.860656
            ], 
            "lower_right": [
                45.936826, 
                13.485503
            ]
        }, 
        "max_consecutive_days": 5, 
        "finish_date": "2014-03-11T00:00:00", 
        "max_overtime_rate": 1.1, 
        "start_date": "2014-03-05T00:00:00"
    }
}