{
    "activities": [
        {
            "act_0_39": {
                "duration": 60, 
                "time_window": {
                    "start": "2014-03-05T13:00:00", 
                    "finish": "2014-03-05T18:00:00"
                }, 
                "required_operators": 1, 
                "location": {
                    "latitude": 45.98775363546671, 
                    "longitude": 13.22873426285648
                }, 
                "patient_name": "Louis Bretthauer"
            }, 
            "act_0_35": {
                "duration": 60, 
                "time_window": {
                    "start": "2014-03-05T08:00:00", 
                    "finish": "2014-03-05T13:00:00"
                }, 
                "required_operators": 2, 
                "location": {
                    "latitude": 45.988973213016095, 
                    "longitude": 13.194529579049489
                }, 
                "patient_name": "Barbara Lewis"
            }, 
            "act_0_34": {
                "duration": 30, 
                "time_window": {
                    "start": "2014-03-05T08:00:00", 
                    "finish": "2014-03-05T18:00:00"
                }, 
                "required_operators": 1, 
                "location": {
                    "latitude": 46.12176077371832, 
                    "longitude": 13.410086627036609
                }, 
                "patient_name": "Christopher Petros"
            }, 
            "act_0_37": {
                "duration": 60, 
                "time_window": {
                    "start": "2014-03-05T13:00:00", 
                    "finish": "2014-03-05T18:00:00"
                }, 
                "required_operators": 1, 
                "location": {
                    "latitude": 45.94090098254671, 
                    "longitude": 13.363870593542769
                }, 
                "patient_name": "Dorothy Benjamin"
            }, 
            "act_0_36": {
                "duration": 30, 
                "time_window": {
                    "start": "2014-03-05T08:00:00", 
                    "finish": "2014-03-05T18:00:00"
                }, 
                "required_operators": 1, 
                "location": {
                    "latitude": 46.17118159072823, 
                    "longitude": 13.29571789460127
                }, 
                "patient_name": "Ethel Jones"
            }, 
            "act_0_31": {
                "duration": 60, 
                "time_window": {
                    "start": "2014-03-05T13:00:00", 
                    "finish": "2014-03-05T18:00:00"
                }, 
                "required_operators": 1, 
                "location": {
                    "latitude": 45.94373200202283, 
                    "longitude": 13.18944936443145
                }, 
                "patient_name": "Susan Stamps"
            }, 
            "act_0_30": {
                "duration": 30, 
                "time_window": {
                    "start": "2014-03-05T08:00:00", 
                    "finish": "2014-03-05T11:20:00"
                }, 
                "required_operators": 2, 
                "location": {
                    "latitude": 46.22660224916185, 
                    "longitude": 13.16350435620887
                }, 
                "patient_name": "Matt Prince"
            }, 
            "act_0_19": {
                "duration": 30, 
                "time_window": {
                    "start": "2014-03-05T08:00:00", 
                    "finish": "2014-03-05T13:00:00"
                }, 
                "required_operators": 1, 
                "location": {
                    "latitude": 45.944529996215635, 
                    "longitude": 13.428518185375767
                }, 
                "patient_name": "Delores Henriquez"
            }, 
            "act_0_18": {
                "duration": 30, 
                "time_window": {
                    "start": "2014-03-05T08:00:00", 
                    "finish": "2014-03-05T11:20:00"
                }, 
                "required_operators": 2, 
                "location": {
                    "latitude": 46.091446120498475, 
                    "longitude": 12.94184228018139
                }, 
                "patient_name": "Jean Jackson"
            }, 
            "act_0_17": {
                "duration": 30, 
                "time_window": {
                    "start": "2014-03-05T08:00:00", 
                    "finish": "2014-03-05T18:00:00"
                }, 
                "required_operators": 1, 
                "location": {
                    "latitude": 46.15829677924198, 
                    "longitude": 13.431275487701324
                }, 
                "patient_name": "John Boyce"
            }, 
            "act_0_16": {
                "duration": 30, 
                "time_window": {
                    "start": "2014-03-05T08:00:00", 
                    "finish": "2014-03-05T11:20:00"
                }, 
                "required_operators": 1, 
                "location": {
                    "latitude": 45.942891436486825, 
                    "longitude": 13.074215271467388
                }, 
                "patient_name": "Scott Frey"
            }, 
            "act_0_15": {
                "duration": 60, 
                "time_window": {
                    "start": "2014-03-05T08:00:00", 
                    "finish": "2014-03-05T18:00:00"
                }, 
                "required_operators": 1, 
                "location": {
                    "latitude": 46.1712524890191, 
                    "longitude": 13.396450279266547
                }, 
                "patient_name": "Stephanie Bonner"
            }, 
            "act_0_14": {
                "duration": 30, 
                "time_window": {
                    "start": "2014-03-05T11:20:00", 
                    "finish": "2014-03-05T14:40:00"
                }, 
                "required_operators": 2, 
                "location": {
                    "latitude": 46.174356811066026, 
                    "longitude": 13.309309671961637
                }, 
                "patient_name": "Carol White"
            }, 
            "act_0_13": {
                "duration": 60, 
                "time_window": {
                    "start": "2014-03-05T13:00:00", 
                    "finish": "2014-03-05T18:00:00"
                }, 
                "required_operators": 1, 
                "location": {
                    "latitude": 46.08149312454475, 
                    "longitude": 13.398756272250427
                }, 
                "patient_name": "Daniel Clark"
            }, 
            "act_0_12": {
                "duration": 30, 
                "time_window": {
                    "start": "2014-03-05T08:00:00", 
                    "finish": "2014-03-05T11:20:00"
                }, 
                "required_operators": 1, 
                "location": {
                    "latitude": 46.03335651428883, 
                    "longitude": 12.957444355593395
                }, 
                "patient_name": "Bret Poulin"
            }, 
            "act_0_11": {
                "duration": 30, 
                "time_window": {
                    "start": "2014-03-05T13:00:00", 
                    "finish": "2014-03-05T18:00:00"
                }, 
                "required_operators": 1, 
                "location": {
                    "latitude": 46.206842220265614, 
                    "longitude": 13.40130827865604
                }, 
                "patient_name": "Michael Mcelfresh"
            }, 
            "act_0_10": {
                "duration": 60, 
                "time_window": {
                    "start": "2014-03-05T13:00:00", 
                    "finish": "2014-03-05T18:00:00"
                }, 
                "required_operators": 1, 
                "location": {
                    "latitude": 46.254462279125235, 
                    "longitude": 13.32713274753792
                }, 
                "patient_name": "Gene Sprinkle"
            }, 
            "act_0_33": {
                "duration": 60, 
                "time_window": {
                    "start": "2014-03-05T08:00:00", 
                    "finish": "2014-03-05T18:00:00"
                }, 
                "required_operators": 2, 
                "location": {
                    "latitude": 46.10691483766857, 
                    "longitude": 13.480294392928117
                }, 
                "patient_name": "Jeffrey Vanmiddleswor"
            }, 
            "act_0_38": {
                "duration": 30, 
                "time_window": {
                    "start": "2014-03-05T11:20:00", 
                    "finish": "2014-03-05T14:40:00"
                }, 
                "required_operators": 1, 
                "location": {
                    "latitude": 46.02864194110652, 
                    "longitude": 13.110373425775924
                }, 
                "patient_name": "Julius Mcwhorter"
            }, 
            "act_0_32": {
                "duration": 60, 
                "time_window": {
                    "start": "2014-03-05T13:00:00", 
                    "finish": "2014-03-05T18:00:00"
                }, 
                "required_operators": 1, 
                "location": {
                    "latitude": 45.98413609838243, 
                    "longitude": 13.025916145890669
                }, 
                "patient_name": "Frank Gonzalez"
            }, 
            "act_0_9": {
                "duration": 30, 
                "time_window": {
                    "start": "2014-03-05T08:00:00", 
                    "finish": "2014-03-05T18:00:00"
                }, 
                "required_operators": 1, 
                "location": {
                    "latitude": 46.22390095777774, 
                    "longitude": 13.332799820471555
                }, 
                "patient_name": "Andrew Neel"
            }, 
            "act_0_8": {
                "duration": 60, 
                "time_window": {
                    "start": "2014-03-05T13:00:00", 
                    "finish": "2014-03-05T18:00:00"
                }, 
                "required_operators": 1, 
                "location": {
                    "latitude": 46.11374920853701, 
                    "longitude": 13.050468106178643
                }, 
                "patient_name": "Joan Cooper"
            }, 
            "act_0_3": {
                "duration": 30, 
                "time_window": {
                    "start": "2014-03-05T08:00:00", 
                    "finish": "2014-03-05T18:00:00"
                }, 
                "required_operators": 2, 
                "location": {
                    "latitude": 46.23692827535256, 
                    "longitude": 13.212493479059868
                }, 
                "patient_name": "Susan Zepeda"
            }, 
            "act_0_2": {
                "duration": 30, 
                "time_window": {
                    "start": "2014-03-05T14:40:00", 
                    "finish": "2014-03-05T18:00:00"
                }, 
                "required_operators": 1, 
                "location": {
                    "latitude": 46.22607694664048, 
                    "longitude": 13.468698650676403
                }, 
                "patient_name": "Vivian Greenhalgh"
            }, 
            "act_0_1": {
                "duration": 30, 
                "time_window": {
                    "start": "2014-03-05T13:00:00", 
                    "finish": "2014-03-05T18:00:00"
                }, 
                "required_operators": 1, 
                "location": {
                    "latitude": 45.9909819464841, 
                    "longitude": 13.180777021721028
                }, 
                "patient_name": "Donald Serrano"
            }, 
            "act_0_0": {
                "duration": 60, 
                "time_window": {
                    "start": "2014-03-05T08:00:00", 
                    "finish": "2014-03-05T18:00:00"
                }, 
                "required_operators": 1, 
                "location": {
                    "latitude": 46.24596001622574, 
                    "longitude": 13.456117732852586
                }, 
                "patient_name": "Rogelio Siders"
            }, 
            "act_0_7": {
                "duration": 60, 
                "time_window": {
                    "start": "2014-03-05T13:00:00", 
                    "finish": "2014-03-05T18:00:00"
                }, 
                "required_operators": 1, 
                "location": {
                    "latitude": 46.18879323670796, 
                    "longitude": 12.952563433655369
                }, 
                "patient_name": "Michael Robinson"
            }, 
            "act_0_6": {
                "duration": 30, 
                "time_window": {
                    "start": "2014-03-05T08:00:00", 
                    "finish": "2014-03-05T18:00:00"
                }, 
                "required_operators": 1, 
                "location": {
                    "latitude": 46.06012285002125, 
                    "longitude": 13.079637873077704
                }, 
                "patient_name": "Milton Foy"
            }, 
            "act_0_5": {
                "duration": 30, 
                "time_window": {
                    "start": "2014-03-05T13:00:00", 
                    "finish": "2014-03-05T18:00:00"
                }, 
                "required_operators": 2, 
                "location": {
                    "latitude": 46.16833592291708, 
                    "longitude": 12.890486063808842
                }, 
                "patient_name": "Louise Rutherford"
            }, 
            "act_0_4": {
                "duration": 30, 
                "time_window": {
                    "start": "2014-03-05T08:00:00", 
                    "finish": "2014-03-05T11:20:00"
                }, 
                "required_operators": 1, 
                "location": {
                    "latitude": 46.18836155616271, 
                    "longitude": 13.12572674746513
                }, 
                "patient_name": "Nancy Dinatale"
            }, 
            "act_0_22": {
                "duration": 60, 
                "time_window": {
                    "start": "2014-03-05T11:20:00", 
                    "finish": "2014-03-05T14:40:00"
                }, 
                "required_operators": 1, 
                "location": {
                    "latitude": 46.14127354855304, 
                    "longitude": 12.9329070594068
                }, 
                "patient_name": "Victor Bradley"
            }, 
            "act_0_23": {
                "duration": 30, 
                "time_window": {
                    "start": "2014-03-05T13:00:00", 
                    "finish": "2014-03-05T18:00:00"
                }, 
                "required_operators": 2, 
                "location": {
                    "latitude": 46.22781647829507, 
                    "longitude": 13.140597776819924
                }, 
                "patient_name": "Janet Garnick"
            }, 
            "act_0_20": {
                "duration": 60, 
                "time_window": {
                    "start": "2014-03-05T14:40:00", 
                    "finish": "2014-03-05T18:00:00"
                }, 
                "required_operators": 1, 
                "location": {
                    "latitude": 46.24923407910296, 
                    "longitude": 13.302816910039226
                }, 
                "patient_name": "Armando Monopoli"
            }, 
            "act_0_21": {
                "duration": 30, 
                "time_window": {
                    "start": "2014-03-05T11:20:00", 
                    "finish": "2014-03-05T14:40:00"
                }, 
                "required_operators": 2, 
                "location": {
                    "latitude": 46.104343987422, 
                    "longitude": 12.972136419302318
                }, 
                "patient_name": "Kristi Moore"
            }, 
            "act_0_26": {
                "duration": 60, 
                "time_window": {
                    "start": "2014-03-05T08:00:00", 
                    "finish": "2014-03-05T13:00:00"
                }, 
                "required_operators": 1, 
                "location": {
                    "latitude": 46.12214265606524, 
                    "longitude": 13.376449886521852
                }, 
                "patient_name": "John Proctor"
            }, 
            "act_0_27": {
                "duration": 30, 
                "time_window": {
                    "start": "2014-03-05T11:20:00", 
                    "finish": "2014-03-05T14:40:00"
                }, 
                "required_operators": 1, 
                "location": {
                    "latitude": 46.244504995579256, 
                    "longitude": 12.874341831988266
                }, 
                "patient_name": "Wanda Wilson"
            }, 
            "act_0_24": {
                "duration": 60, 
                "time_window": {
                    "start": "2014-03-05T14:40:00", 
                    "finish": "2014-03-05T18:00:00"
                }, 
                "required_operators": 2, 
                "location": {
                    "latitude": 46.105236945264025, 
                    "longitude": 13.127781313962416
                }, 
                "patient_name": "Christal Ellis"
            }, 
            "act_0_25": {
                "duration": 30, 
                "time_window": {
                    "start": "2014-03-05T08:00:00", 
                    "finish": "2014-03-05T18:00:00"
                }, 
                "required_operators": 1, 
                "location": {
                    "latitude": 45.96624478998495, 
                    "longitude": 12.971162566077782
                }, 
                "patient_name": "Elizabeth Kinghorn"
            }, 
            "act_0_28": {
                "duration": 30, 
                "time_window": {
                    "start": "2014-03-05T08:00:00", 
                    "finish": "2014-03-05T13:00:00"
                }, 
                "required_operators": 1, 
                "location": {
                    "latitude": 46.2527191526419, 
                    "longitude": 13.085044387718913
                }, 
                "patient_name": "Justin Matthews"
            }, 
            "act_0_29": {
                "duration": 60, 
                "time_window": {
                    "start": "2014-03-05T08:00:00", 
                    "finish": "2014-03-05T11:20:00"
                }, 
                "required_operators": 1, 
                "location": {
                    "latitude": 46.17894670062047, 
                    "longitude": 13.211031794200483
                }, 
                "patient_name": "Anna Soto"
            }
        }, 
        {
            "act_1_38": {
                "duration": 30, 
                "time_window": {
                    "start": "2014-03-06T08:00:00", 
                    "finish": "2014-03-06T13:00:00"
                }, 
                "required_operators": 1, 
                "location": {
                    "latitude": 46.15542703647795, 
                    "longitude": 13.246759178502671
                }, 
                "patient_name": "Claude Kelly"
            }, 
            "act_1_39": {
                "duration": 60, 
                "time_window": {
                    "start": "2014-03-06T08:00:00", 
                    "finish": "2014-03-06T13:00:00"
                }, 
                "required_operators": 1, 
                "location": {
                    "latitude": 45.97629123720947, 
                    "longitude": 13.032309277595955
                }, 
                "patient_name": "Tammie Johnson"
            }, 
            "act_1_32": {
                "duration": 30, 
                "time_window": {
                    "start": "2014-03-06T13:00:00", 
                    "finish": "2014-03-06T18:00:00"
                }, 
                "required_operators": 2, 
                "location": {
                    "latitude": 45.97655649766775, 
                    "longitude": 13.199872265500327
                }, 
                "patient_name": "Jimmie Durkin"
            }, 
            "act_1_33": {
                "duration": 60, 
                "time_window": {
                    "start": "2014-03-06T08:00:00", 
                    "finish": "2014-03-06T13:00:00"
                }, 
                "required_operators": 1, 
                "location": {
                    "latitude": 46.210715445467464, 
                    "longitude": 13.179533870134787
                }, 
                "patient_name": "Fred Swartz"
            }, 
            "act_1_30": {
                "duration": 60, 
                "time_window": {
                    "start": "2014-03-06T11:20:00", 
                    "finish": "2014-03-06T14:40:00"
                }, 
                "required_operators": 1, 
                "location": {
                    "latitude": 46.25829960537681, 
                    "longitude": 13.188776124421997
                }, 
                "patient_name": "Kevin Zimmerman"
            }, 
            "act_1_31": {
                "duration": 30, 
                "time_window": {
                    "start": "2014-03-06T13:00:00", 
                    "finish": "2014-03-06T18:00:00"
                }, 
                "required_operators": 1, 
                "location": {
                    "latitude": 46.17191526134283, 
                    "longitude": 13.462103795727984
                }, 
                "patient_name": "Brenda Banas"
            }, 
            "act_1_36": {
                "duration": 30, 
                "time_window": {
                    "start": "2014-03-06T13:00:00", 
                    "finish": "2014-03-06T18:00:00"
                }, 
                "required_operators": 1, 
                "location": {
                    "latitude": 46.12824175596461, 
                    "longitude": 13.432406130962843
                }, 
                "patient_name": "Wanda Jones"
            }, 
            "act_1_37": {
                "duration": 60, 
                "time_window": {
                    "start": "2014-03-06T08:00:00", 
                    "finish": "2014-03-06T18:00:00"
                }, 
                "required_operators": 1, 
                "location": {
                    "latitude": 45.9507801360895, 
                    "longitude": 13.235699303788312
                }, 
                "patient_name": "Jeff Rinaldi"
            }, 
            "act_1_34": {
                "duration": 30, 
                "time_window": {
                    "start": "2014-03-06T11:20:00", 
                    "finish": "2014-03-06T14:40:00"
                }, 
                "required_operators": 1, 
                "location": {
                    "latitude": 46.126388181643335, 
                    "longitude": 13.11279699993309
                }, 
                "patient_name": "Frank Hubley"
            }, 
            "act_1_35": {
                "duration": 30, 
                "time_window": {
                    "start": "2014-03-06T08:00:00", 
                    "finish": "2014-03-06T13:00:00"
                }, 
                "required_operators": 1, 
                "location": {
                    "latitude": 46.0865693726105, 
                    "longitude": 13.028638408988531
                }, 
                "patient_name": "Carl Bales"
            }, 
            "act_1_14": {
                "duration": 30, 
                "time_window": {
                    "start": "2014-03-06T08:00:00", 
                    "finish": "2014-03-06T18:00:00"
                }, 
                "required_operators": 1, 
                "location": {
                    "latitude": 45.94536554898253, 
                    "longitude": 13.479886455074391
                }, 
                "patient_name": "George Keyes"
            }, 
            "act_1_15": {
                "duration": 30, 
                "time_window": {
                    "start": "2014-03-06T13:00:00", 
                    "finish": "2014-03-06T18:00:00"
                }, 
                "required_operators": 1, 
                "location": {
                    "latitude": 46.13201674697209, 
                    "longitude": 12.981591486628325
                }, 
                "patient_name": "Jonathan Hadley"
            }, 
            "act_1_16": {
                "duration": 30, 
                "time_window": {
                    "start": "2014-03-06T14:40:00", 
                    "finish": "2014-03-06T18:00:00"
                }, 
                "required_operators": 1, 
                "location": {
                    "latitude": 45.992929092702475, 
                    "longitude": 12.880352580651467
                }, 
                "patient_name": "Benny Glaser"
            }, 
            "act_1_17": {
                "duration": 30, 
                "time_window": {
                    "start": "2014-03-06T14:40:00", 
                    "finish": "2014-03-06T18:00:00"
                }, 
                "required_operators": 2, 
                "location": {
                    "latitude": 45.97258125766168, 
                    "longitude": 12.897515804924874
                }, 
                "patient_name": "Lonnie Paul"
            }, 
            "act_1_10": {
                "duration": 30, 
                "time_window": {
                    "start": "2014-03-06T11:20:00", 
                    "finish": "2014-03-06T14:40:00"
                }, 
                "required_operators": 2, 
                "location": {
                    "latitude": 45.983674128055085, 
                    "longitude": 13.247705032311027
                }, 
                "patient_name": "Paul Aranda"
            }, 
            "act_1_11": {
                "duration": 30, 
                "time_window": {
                    "start": "2014-03-06T08:00:00", 
                    "finish": "2014-03-06T11:20:00"
                }, 
                "required_operators": 1, 
                "location": {
                    "latitude": 45.95273068321437, 
                    "longitude": 13.103236652520495
                }, 
                "patient_name": "Alfred Glenn"
            }, 
            "act_1_12": {
                "duration": 30, 
                "time_window": {
                    "start": "2014-03-06T14:40:00", 
                    "finish": "2014-03-06T18:00:00"
                }, 
                "required_operators": 1, 
                "location": {
                    "latitude": 46.05324394580635, 
                    "longitude": 13.476809546626116
                }, 
                "patient_name": "Daniel Hall"
            }, 
            "act_1_13": {
                "duration": 30, 
                "time_window": {
                    "start": "2014-03-06T08:00:00", 
                    "finish": "2014-03-06T13:00:00"
                }, 
                "required_operators": 1, 
                "location": {
                    "latitude": 46.05918719202112, 
                    "longitude": 13.342305267105422
                }, 
                "patient_name": "Daniel Meade"
            }, 
            "act_1_18": {
                "duration": 60, 
                "time_window": {
                    "start": "2014-03-06T08:00:00", 
                    "finish": "2014-03-06T18:00:00"
                }, 
                "required_operators": 3, 
                "location": {
                    "latitude": 46.066379916280816, 
                    "longitude": 13.376922179846343
                }, 
                "patient_name": "Nakia Terry"
            }, 
            "act_1_19": {
                "duration": 30, 
                "time_window": {
                    "start": "2014-03-06T11:20:00", 
                    "finish": "2014-03-06T14:40:00"
                }, 
                "required_operators": 1, 
                "location": {
                    "latitude": 46.20347153317262, 
                    "longitude": 13.050248107480424
                }, 
                "patient_name": "Nellie Harrell"
            }, 
            "act_1_2": {
                "duration": 30, 
                "time_window": {
                    "start": "2014-03-06T08:00:00", 
                    "finish": "2014-03-06T18:00:00"
                }, 
                "required_operators": 1, 
                "location": {
                    "latitude": 46.12834389004387, 
                    "longitude": 13.407943102253425
                }, 
                "patient_name": "Anthony Gomez"
            }, 
            "act_1_3": {
                "duration": 30, 
                "time_window": {
                    "start": "2014-03-06T08:00:00", 
                    "finish": "2014-03-06T18:00:00"
                }, 
                "required_operators": 1, 
                "location": {
                    "latitude": 46.15361938074801, 
                    "longitude": 13.039602286392585
                }, 
                "patient_name": "Oswaldo Barney"
            }, 
            "act_1_0": {
                "duration": 30, 
                "time_window": {
                    "start": "2014-03-06T11:20:00", 
                    "finish": "2014-03-06T14:40:00"
                }, 
                "required_operators": 1, 
                "location": {
                    "latitude": 45.95796609129884, 
                    "longitude": 13.213944627562519
                }, 
                "patient_name": "Patricia Elsey"
            }, 
            "act_1_1": {
                "duration": 60, 
                "time_window": {
                    "start": "2014-03-06T11:20:00", 
                    "finish": "2014-03-06T14:40:00"
                }, 
                "required_operators": 1, 
                "location": {
                    "latitude": 46.084569791958366, 
                    "longitude": 13.205857929885525
                }, 
                "patient_name": "Emma Begay"
            }, 
            "act_1_6": {
                "duration": 30, 
                "time_window": {
                    "start": "2014-03-06T08:00:00", 
                    "finish": "2014-03-06T18:00:00"
                }, 
                "required_operators": 1, 
                "location": {
                    "latitude": 45.956578335271374, 
                    "longitude": 13.162182868582642
                }, 
                "patient_name": "Michael Kobayashi"
            }, 
            "act_1_7": {
                "duration": 30, 
                "time_window": {
                    "start": "2014-03-06T08:00:00", 
                    "finish": "2014-03-06T13:00:00"
                }, 
                "required_operators": 1, 
                "location": {
                    "latitude": 46.19623250254798, 
                    "longitude": 12.95864769581213
                }, 
                "patient_name": "Mildred Urbina"
            }, 
            "act_1_4": {
                "duration": 60, 
                "time_window": {
                    "start": "2014-03-06T11:20:00", 
                    "finish": "2014-03-06T14:40:00"
                }, 
                "required_operators": 1, 
                "location": {
                    "latitude": 45.988912913781036, 
                    "longitude": 12.891419374267306
                }, 
                "patient_name": "Jason Williams"
            }, 
            "act_1_5": {
                "duration": 60, 
                "time_window": {
                    "start": "2014-03-06T11:20:00", 
                    "finish": "2014-03-06T14:40:00"
                }, 
                "required_operators": 1, 
                "location": {
                    "latitude": 46.03418755657072, 
                    "longitude": 12.918360200054227
                }, 
                "patient_name": "Erin Greb"
            }, 
            "act_1_8": {
                "duration": 30, 
                "time_window": {
                    "start": "2014-03-06T11:20:00", 
                    "finish": "2014-03-06T14:40:00"
                }, 
                "required_operators": 1, 
                "location": {
                    "latitude": 46.028222974866466, 
                    "longitude": 12.909377578513432
                }, 
                "patient_name": "Angela Gentry"
            }, 
            "act_1_9": {
                "duration": 60, 
                "time_window": {
                    "start": "2014-03-06T13:00:00", 
                    "finish": "2014-03-06T18:00:00"
                }, 
                "required_operators": 1, 
                "location": {
                    "latitude": 45.96602053358591, 
                    "longitude": 12.875805265721294
                }, 
                "patient_name": "Isiah Klima"
            }, 
            "act_1_29": {
                "duration": 30, 
                "time_window": {
                    "start": "2014-03-06T14:40:00", 
                    "finish": "2014-03-06T18:00:00"
                }, 
                "required_operators": 1, 
                "location": {
                    "latitude": 46.13513671187413, 
                    "longitude": 13.438878596861953
                }, 
                "patient_name": "Theresa Gonzalez"
            }, 
            "act_1_28": {
                "duration": 30, 
                "time_window": {
                    "start": "2014-03-06T08:00:00", 
                    "finish": "2014-03-06T18:00:00"
                }, 
                "required_operators": 1, 
                "location": {
                    "latitude": 46.056241929660246, 
                    "longitude": 12.98852286221335
                }, 
                "patient_name": "Constance Walton"
            }, 
            "act_1_25": {
                "duration": 30, 
                "time_window": {
                    "start": "2014-03-06T08:00:00", 
                    "finish": "2014-03-06T13:00:00"
                }, 
                "required_operators": 1, 
                "location": {
                    "latitude": 46.14107914995319, 
                    "longitude": 13.167710383449265
                }, 
                "patient_name": "Alfredo Funke"
            }, 
            "act_1_24": {
                "duration": 60, 
                "time_window": {
                    "start": "2014-03-06T08:00:00", 
                    "finish": "2014-03-06T11:20:00"
                }, 
                "required_operators": 2, 
                "location": {
                    "latitude": 46.01714051797038, 
                    "longitude": 13.035778962038727
                }, 
                "patient_name": "Donald Bates"
            }, 
            "act_1_27": {
                "duration": 30, 
                "time_window": {
                    "start": "2014-03-06T08:00:00", 
                    "finish": "2014-03-06T18:00:00"
                }, 
                "required_operators": 1, 
                "location": {
                    "latitude": 45.94319238944869, 
                    "longitude": 13.468314431519442
                }, 
                "patient_name": "Mary Williams"
            }, 
            "act_1_26": {
                "duration": 30, 
                "time_window": {
                    "start": "2014-03-06T08:00:00", 
                    "finish": "2014-03-06T11:20:00"
                }, 
                "required_operators": 1, 
                "location": {
                    "latitude": 45.954963788774116, 
                    "longitude": 12.90777549291407
                }, 
                "patient_name": "Natalia Ezell"
            }, 
            "act_1_21": {
                "duration": 30, 
                "time_window": {
                    "start": "2014-03-06T13:00:00", 
                    "finish": "2014-03-06T18:00:00"
                }, 
                "required_operators": 1, 
                "location": {
                    "latitude": 46.248614528917194, 
                    "longitude": 12.893448831099919
                }, 
                "patient_name": "Heidi Cameron"
            }, 
            "act_1_20": {
                "duration": 60, 
                "time_window": {
                    "start": "2014-03-06T08:00:00", 
                    "finish": "2014-03-06T18:00:00"
                }, 
                "required_operators": 2, 
                "location": {
                    "latitude": 46.09973359213107, 
                    "longitude": 13.013866103772072
                }, 
                "patient_name": "Elizabeth Dunlop"
            }, 
            "act_1_23": {
                "duration": 30, 
                "time_window": {
                    "start": "2014-03-06T13:00:00", 
                    "finish": "2014-03-06T18:00:00"
                }, 
                "required_operators": 1, 
                "location": {
                    "latitude": 46.02464657355806, 
                    "longitude": 12.864061901550041
                }, 
                "patient_name": "Bertram Stafford"
            }, 
            "act_1_22": {
                "duration": 30, 
                "time_window": {
                    "start": "2014-03-06T08:00:00", 
                    "finish": "2014-03-06T13:00:00"
                }, 
                "required_operators": 2, 
                "location": {
                    "latitude": 46.23785661483332, 
                    "longitude": 13.178374548940154
                }, 
                "patient_name": "Barbara Bashore"
            }
        }, 
        {
            "act_2_19": {
                "duration": 30, 
                "time_window": {
                    "start": "2014-03-07T13:00:00", 
                    "finish": "2014-03-07T18:00:00"
                }, 
                "required_operators": 2, 
                "location": {
                    "latitude": 45.96003107449296, 
                    "longitude": 13.108094895170154
                }, 
                "patient_name": "Frank Talley"
            }, 
            "act_2_18": {
                "duration": 30, 
                "time_window": {
                    "start": "2014-03-07T08:00:00", 
                    "finish": "2014-03-07T13:00:00"
                }, 
                "required_operators": 1, 
                "location": {
                    "latitude": 46.13037023437963, 
                    "longitude": 13.189263185830773
                }, 
                "patient_name": "Betty Hambleton"
            }, 
            "act_2_11": {
                "duration": 30, 
                "time_window": {
                    "start": "2014-03-07T08:00:00", 
                    "finish": "2014-03-07T13:00:00"
                }, 
                "required_operators": 1, 
                "location": {
                    "latitude": 45.98068694460866, 
                    "longitude": 12.920376595760368
                }, 
                "patient_name": "Genevieve Smith"
            }, 
            "act_2_10": {
                "duration": 30, 
                "time_window": {
                    "start": "2014-03-07T14:40:00", 
                    "finish": "2014-03-07T18:00:00"
                }, 
                "required_operators": 1, 
                "location": {
                    "latitude": 46.08572259048954, 
                    "longitude": 13.183404230802607
                }, 
                "patient_name": "Michael Davis"
            }, 
            "act_2_13": {
                "duration": 60, 
                "time_window": {
                    "start": "2014-03-07T14:40:00", 
                    "finish": "2014-03-07T18:00:00"
                }, 
                "required_operators": 1, 
                "location": {
                    "latitude": 46.234405528699625, 
                    "longitude": 13.199026380362525
                }, 
                "patient_name": "Carolyn Pellham"
            }, 
            "act_2_12": {
                "duration": 60, 
                "time_window": {
                    "start": "2014-03-07T14:40:00", 
                    "finish": "2014-03-07T18:00:00"
                }, 
                "required_operators": 1, 
                "location": {
                    "latitude": 45.95048749377618, 
                    "longitude": 13.203190974612582
                }, 
                "patient_name": "Helen Ziegler"
            }, 
            "act_2_15": {
                "duration": 60, 
                "time_window": {
                    "start": "2014-03-07T11:20:00", 
                    "finish": "2014-03-07T14:40:00"
                }, 
                "required_operators": 3, 
                "location": {
                    "latitude": 46.14047681923868, 
                    "longitude": 13.372811344173344
                }, 
                "patient_name": "Michelle Shore"
            }, 
            "act_2_14": {
                "duration": 60, 
                "time_window": {
                    "start": "2014-03-07T14:40:00", 
                    "finish": "2014-03-07T18:00:00"
                }, 
                "required_operators": 1, 
                "location": {
                    "latitude": 46.213375625595, 
                    "longitude": 13.031982250654194
                }, 
                "patient_name": "Richard Sturtz"
            }, 
            "act_2_17": {
                "duration": 60, 
                "time_window": {
                    "start": "2014-03-07T11:20:00", 
                    "finish": "2014-03-07T14:40:00"
                }, 
                "required_operators": 1, 
                "location": {
                    "latitude": 46.00042654808333, 
                    "longitude": 12.997413227061314
                }, 
                "patient_name": "Ruben Spatz"
            }, 
            "act_2_16": {
                "duration": 60, 
                "time_window": {
                    "start": "2014-03-07T08:00:00", 
                    "finish": "2014-03-07T18:00:00"
                }, 
                "required_operators": 1, 
                "location": {
                    "latitude": 46.13708017983487, 
                    "longitude": 13.218531225895154
                }, 
                "patient_name": "Robin Yates"
            }, 
            "act_2_33": {
                "duration": 30, 
                "time_window": {
                    "start": "2014-03-07T08:00:00", 
                    "finish": "2014-03-07T18:00:00"
                }, 
                "required_operators": 1, 
                "location": {
                    "latitude": 45.99907769618069, 
                    "longitude": 12.902223483386253
                }, 
                "patient_name": "Ronald Richard"
            }, 
            "act_2_32": {
                "duration": 30, 
                "time_window": {
                    "start": "2014-03-07T14:40:00", 
                    "finish": "2014-03-07T18:00:00"
                }, 
                "required_operators": 2, 
                "location": {
                    "latitude": 46.02391407232946, 
                    "longitude": 12.936781393293733
                }, 
                "patient_name": "Leslie Vanduser"
            }, 
            "act_2_31": {
                "duration": 60, 
                "time_window": {
                    "start": "2014-03-07T08:00:00", 
                    "finish": "2014-03-07T13:00:00"
                }, 
                "required_operators": 2, 
                "location": {
                    "latitude": 46.1227451116335, 
                    "longitude": 13.332453235538681
                }, 
                "patient_name": "Jose Garcia"
            }, 
            "act_2_30": {
                "duration": 30, 
                "time_window": {
                    "start": "2014-03-07T08:00:00", 
                    "finish": "2014-03-07T13:00:00"
                }, 
                "required_operators": 1, 
                "location": {
                    "latitude": 45.94182815628831, 
                    "longitude": 13.266616272776451
                }, 
                "patient_name": "Dolores Sparaco"
            }, 
            "act_2_37": {
                "duration": 60, 
                "time_window": {
                    "start": "2014-03-07T08:00:00", 
                    "finish": "2014-03-07T13:00:00"
                }, 
                "required_operators": 1, 
                "location": {
                    "latitude": 45.95574161914265, 
                    "longitude": 12.861690674709992
                }, 
                "patient_name": "Henry Allen"
            }, 
            "act_2_36": {
                "duration": 30, 
                "time_window": {
                    "start": "2014-03-07T08:00:00", 
                    "finish": "2014-03-07T13:00:00"
                }, 
                "required_operators": 1, 
                "location": {
                    "latitude": 46.21477048128965, 
                    "longitude": 12.963535778272842
                }, 
                "patient_name": "Robert Keener"
            }, 
            "act_2_35": {
                "duration": 30, 
                "time_window": {
                    "start": "2014-03-07T14:40:00", 
                    "finish": "2014-03-07T18:00:00"
                }, 
                "required_operators": 1, 
                "location": {
                    "latitude": 46.00251961543213, 
                    "longitude": 13.09629799317064
                }, 
                "patient_name": "Patricia Wise"
            }, 
            "act_2_34": {
                "duration": 60, 
                "time_window": {
                    "start": "2014-03-07T08:00:00", 
                    "finish": "2014-03-07T11:20:00"
                }, 
                "required_operators": 1, 
                "location": {
                    "latitude": 45.97694986082025, 
                    "longitude": 13.0719770450689
                }, 
                "patient_name": "William Manigault"
            }, 
            "act_2_39": {
                "duration": 30, 
                "time_window": {
                    "start": "2014-03-07T08:00:00", 
                    "finish": "2014-03-07T18:00:00"
                }, 
                "required_operators": 1, 
                "location": {
                    "latitude": 46.05289509578726, 
                    "longitude": 13.481097171836497
                }, 
                "patient_name": "Leroy Walls"
            }, 
            "act_2_38": {
                "duration": 60, 
                "time_window": {
                    "start": "2014-03-07T08:00:00", 
                    "finish": "2014-03-07T18:00:00"
                }, 
                "required_operators": 2, 
                "location": {
                    "latitude": 46.09727317979681, 
                    "longitude": 13.215195212949798
                }, 
                "patient_name": "Emma Rosales"
            }, 
            "act_2_20": {
                "duration": 60, 
                "time_window": {
                    "start": "2014-03-07T13:00:00", 
                    "finish": "2014-03-07T18:00:00"
                }, 
                "required_operators": 1, 
                "location": {
                    "latitude": 46.027552615056685, 
                    "longitude": 13.202013535290309
                }, 
                "patient_name": "Jodi Bennett"
            }, 
            "act_2_21": {
                "duration": 60, 
                "time_window": {
                    "start": "2014-03-07T08:00:00", 
                    "finish": "2014-03-07T13:00:00"
                }, 
                "required_operators": 1, 
                "location": {
                    "latitude": 46.0201328329455, 
                    "longitude": 12.992694745964249
                }, 
                "patient_name": "James Clark"
            }, 
            "act_2_22": {
                "duration": 60, 
                "time_window": {
                    "start": "2014-03-07T14:40:00", 
                    "finish": "2014-03-07T18:00:00"
                }, 
                "required_operators": 1, 
                "location": {
                    "latitude": 46.18103290290926, 
                    "longitude": 13.418260643662093
                }, 
                "patient_name": "William Koch"
            }, 
            "act_2_23": {
                "duration": 60, 
                "time_window": {
                    "start": "2014-03-07T14:40:00", 
                    "finish": "2014-03-07T18:00:00"
                }, 
                "required_operators": 1, 
                "location": {
                    "latitude": 46.218474528385066, 
                    "longitude": 12.988204222271209
                }, 
                "patient_name": "Paul Lujan"
            }, 
            "act_2_24": {
                "duration": 30, 
                "time_window": {
                    "start": "2014-03-07T08:00:00", 
                    "finish": "2014-03-07T18:00:00"
                }, 
                "required_operators": 1, 
                "location": {
                    "latitude": 46.03376973420216, 
                    "longitude": 12.870518468783784
                }, 
                "patient_name": "Leonel Roberts"
            }, 
            "act_2_25": {
                "duration": 30, 
                "time_window": {
                    "start": "2014-03-07T08:00:00", 
                    "finish": "2014-03-07T11:20:00"
                }, 
                "required_operators": 1, 
                "location": {
                    "latitude": 46.037032530496894, 
                    "longitude": 13.2528581065764
                }, 
                "patient_name": "Carolyn Whitfield"
            }, 
            "act_2_26": {
                "duration": 30, 
                "time_window": {
                    "start": "2014-03-07T08:00:00", 
                    "finish": "2014-03-07T18:00:00"
                }, 
                "required_operators": 1, 
                "location": {
                    "latitude": 46.01382602138343, 
                    "longitude": 13.062747814086034
                }, 
                "patient_name": "Lydia Stewart"
            }, 
            "act_2_27": {
                "duration": 60, 
                "time_window": {
                    "start": "2014-03-07T13:00:00", 
                    "finish": "2014-03-07T18:00:00"
                }, 
                "required_operators": 1, 
                "location": {
                    "latitude": 45.94600594033431, 
                    "longitude": 13.093381144392469
                }, 
                "patient_name": "Mary Thomas"
            }, 
            "act_2_28": {
                "duration": 30, 
                "time_window": {
                    "start": "2014-03-07T08:00:00", 
                    "finish": "2014-03-07T18:00:00"
                }, 
                "required_operators": 1, 
                "location": {
                    "latitude": 46.186293723964724, 
                    "longitude": 13.015015856665118
                }, 
                "patient_name": "Gabrielle Biles"
            }, 
            "act_2_29": {
                "duration": 30, 
                "time_window": {
                    "start": "2014-03-07T14:40:00", 
                    "finish": "2014-03-07T18:00:00"
                }, 
                "required_operators": 1, 
                "location": {
                    "latitude": 46.238630002637706, 
                    "longitude": 13.31895932680165
                }, 
                "patient_name": "Joey Curry"
            }, 
            "act_2_9": {
                "duration": 30, 
                "time_window": {
                    "start": "2014-03-07T08:00:00", 
                    "finish": "2014-03-07T18:00:00"
                }, 
                "required_operators": 1, 
                "location": {
                    "latitude": 45.938281815549956, 
                    "longitude": 13.345181769450527
                }, 
                "patient_name": "Nathalie Vaughn"
            }, 
            "act_2_8": {
                "duration": 60, 
                "time_window": {
                    "start": "2014-03-07T14:40:00", 
                    "finish": "2014-03-07T18:00:00"
                }, 
                "required_operators": 1, 
                "location": {
                    "latitude": 46.08635986203842, 
                    "longitude": 13.118195895967439
                }, 
                "patient_name": "Terri Robins"
            }, 
            "act_2_5": {
                "duration": 60, 
                "time_window": {
                    "start": "2014-03-07T08:00:00", 
                    "finish": "2014-03-07T18:00:00"
                }, 
                "required_operators": 1, 
                "location": {
                    "latitude": 46.22104193696451, 
                    "longitude": 13.087768436170936
                }, 
                "patient_name": "Danny Barlow"
            }, 
            "act_2_4": {
                "duration": 30, 
                "time_window": {
                    "start": "2014-03-07T08:00:00", 
                    "finish": "2014-03-07T18:00:00"
                }, 
                "required_operators": 1, 
                "location": {
                    "latitude": 46.01573787324217, 
                    "longitude": 13.32817063876404
                }, 
                "patient_name": "Michelle Schultz"
            }, 
            "act_2_7": {
                "duration": 60, 
                "time_window": {
                    "start": "2014-03-07T08:00:00", 
                    "finish": "2014-03-07T11:20:00"
                }, 
                "required_operators": 2, 
                "location": {
                    "latitude": 46.13212082458939, 
                    "longitude": 12.935613911030666
                }, 
                "patient_name": "Billy Gonzales"
            }, 
            "act_2_6": {
                "duration": 30, 
                "time_window": {
                    "start": "2014-03-07T14:40:00", 
                    "finish": "2014-03-07T18:00:00"
                }, 
                "required_operators": 1, 
                "location": {
                    "latitude": 45.995714237715234, 
                    "longitude": 13.15213884935591
                }, 
                "patient_name": "Amanda Gilchrist"
            }, 
            "act_2_1": {
                "duration": 30, 
                "time_window": {
                    "start": "2014-03-07T08:00:00", 
                    "finish": "2014-03-07T18:00:00"
                }, 
                "required_operators": 2, 
                "location": {
                    "latitude": 45.98336830073533, 
                    "longitude": 13.055463687918513
                }, 
                "patient_name": "Teresa Fisher"
            }, 
            "act_2_0": {
                "duration": 30, 
                "time_window": {
                    "start": "2014-03-07T08:00:00", 
                    "finish": "2014-03-07T18:00:00"
                }, 
                "required_operators": 1, 
                "location": {
                    "latitude": 46.12185998696523, 
                    "longitude": 12.956790846667777
                }, 
                "patient_name": "Maribeth Leech"
            }, 
            "act_2_3": {
                "duration": 60, 
                "time_window": {
                    "start": "2014-03-07T08:00:00", 
                    "finish": "2014-03-07T18:00:00"
                }, 
                "required_operators": 1, 
                "location": {
                    "latitude": 46.09651124225598, 
                    "longitude": 13.148292290232044
                }, 
                "patient_name": "Micheal Potter"
            }, 
            "act_2_2": {
                "duration": 60, 
                "time_window": {
                    "start": "2014-03-07T11:20:00", 
                    "finish": "2014-03-07T14:40:00"
                }, 
                "required_operators": 1, 
                "location": {
                    "latitude": 46.076908397270365, 
                    "longitude": 12.9088090056845
                }, 
                "patient_name": "Jarvis Wiley"
            }
        }
    ], 
    "operators": {
        "op_12": {
            "time_windows": [
                {
                    "start": "2014-03-05T08:00:00", 
                    "finish": "2014-03-05T18:00:00", 
                    "regular_worktime": "8:00:00"
                }, 
                {
                    "start": "2014-03-06T08:00:00", 
                    "finish": "2014-03-06T18:00:00", 
                    "regular_worktime": "8:00:00"
                }, 
                {
                    "start": "2014-03-07T08:00:00", 
                    "finish": "2014-03-07T13:00:00", 
                    "regular_worktime": "4:00:00"
                }
            ], 
            "incompatible_activities": [
                "act_0_7", 
                "act_0_20", 
                "act_0_30", 
                "act_1_16", 
                "act_2_27", 
                "act_0_18", 
                "act_0_9", 
                "act_1_34"
            ], 
            "maximum_working_hours": "16:00:00", 
            "name": "Mary Sproles", 
            "minimum_working_hours": "12:00:00"
        }, 
        "op_15": {
            "time_windows": [
                {
                    "start": "2014-03-05T08:00:00", 
                    "finish": "2014-03-05T18:00:00", 
                    "regular_worktime": "8:00:00"
                }, 
                {
                    "start": "2014-03-06T08:00:00", 
                    "finish": "2014-03-06T18:00:00", 
                    "regular_worktime": "8:00:00"
                }, 
                {
                    "start": "2014-03-07T08:00:00", 
                    "finish": "2014-03-07T18:00:00", 
                    "regular_worktime": "8:00:00"
                }
            ], 
            "incompatible_activities": [
                "act_0_13", 
                "act_2_32", 
                "act_2_25", 
                "act_1_13", 
                "act_2_36", 
                "act_2_17", 
                "act_1_22", 
                "act_2_26"
            ], 
            "maximum_working_hours": "16:00:00", 
            "name": "Ruth Hurst", 
            "minimum_working_hours": "16:00:00"
        }, 
        "op_8": {
            "time_windows": [
                {
                    "start": "2014-03-05T08:00:00", 
                    "finish": "2014-03-05T18:00:00", 
                    "regular_worktime": "8:00:00"
                }, 
                {
                    "start": "2014-03-06T08:00:00", 
                    "finish": "2014-03-06T18:00:00", 
                    "regular_worktime": "8:00:00"
                }, 
                {
                    "start": "2014-03-07T08:00:00", 
                    "finish": "2014-03-07T18:00:00", 
                    "regular_worktime": "8:00:00"
                }
            ], 
            "incompatible_activities": [
                "act_2_14", 
                "act_2_23", 
                "act_0_0", 
                "act_1_2", 
                "act_2_26", 
                "act_1_31", 
                "act_0_20", 
                "act_1_1"
            ], 
            "maximum_working_hours": "16:00:00", 
            "name": "Tammy Favero", 
            "minimum_working_hours": "16:00:00"
        }, 
        "op_9": {
            "time_windows": [
                {
                    "start": "2014-03-05T08:00:00", 
                    "finish": "2014-03-05T13:00:00", 
                    "regular_worktime": "4:00:00"
                }, 
                {
                    "start": "2014-03-06T08:00:00", 
                    "finish": "2014-03-06T18:00:00", 
                    "regular_worktime": "8:00:00"
                }, 
                {
                    "start": "2014-03-07T08:00:00", 
                    "finish": "2014-03-07T18:00:00", 
                    "regular_worktime": "8:00:00"
                }
            ], 
            "incompatible_activities": [
                "act_1_14", 
                "act_2_23", 
                "act_1_18", 
                "act_0_38", 
                "act_2_20", 
                "act_0_24", 
                "act_1_22", 
                "act_1_4"
            ], 
            "maximum_working_hours": "16:00:00", 
            "name": "Melissa Riker", 
            "minimum_working_hours": "12:00:00"
        }, 
        "op_13": {
            "time_windows": [
                {
                    "start": "2014-03-05T08:00:00", 
                    "finish": "2014-03-05T18:00:00", 
                    "regular_worktime": "8:00:00"
                }, 
                {
                    "start": "2014-03-06T08:00:00", 
                    "finish": "2014-03-06T13:00:00", 
                    "regular_worktime": "4:00:00"
                }, 
                {
                    "start": "2014-03-07T08:00:00", 
                    "finish": "2014-03-07T18:00:00", 
                    "regular_worktime": "8:00:00"
                }
            ], 
            "incompatible_activities": [
                "act_0_20", 
                "act_2_0", 
                "act_1_39", 
                "act_2_29", 
                "act_0_22", 
                "act_2_6", 
                "act_1_26", 
                "act_2_3"
            ], 
            "maximum_working_hours": "16:00:00", 
            "name": "Marie Chappell", 
            "minimum_working_hours": "12:00:00"
        }, 
        "op_4": {
            "time_windows": [
                {
                    "start": "2014-03-05T13:00:00", 
                    "finish": "2014-03-05T18:00:00", 
                    "regular_worktime": "4:00:00"
                }, 
                {
                    "start": "2014-03-06T08:00:00", 
                    "finish": "2014-03-06T18:00:00", 
                    "regular_worktime": "8:00:00"
                }, 
                {
                    "start": "2014-03-07T08:00:00", 
                    "finish": "2014-03-07T18:00:00", 
                    "regular_worktime": "8:00:00"
                }
            ], 
            "incompatible_activities": [
                "act_1_13", 
                "act_2_5", 
                "act_0_17", 
                "act_2_13", 
                "act_0_14", 
                "act_2_14", 
                "act_2_29", 
                "act_0_35"
            ], 
            "maximum_working_hours": "16:00:00", 
            "name": "Francis Seely", 
            "minimum_working_hours": "12:00:00"
        }, 
        "op_5": {
            "time_windows": [
                {
                    "start": "2014-03-05T08:00:00", 
                    "finish": "2014-03-05T18:00:00", 
                    "regular_worktime": "8:00:00"
                }, 
                {
                    "start": "2014-03-06T08:00:00", 
                    "finish": "2014-03-06T13:00:00", 
                    "regular_worktime": "4:00:00"
                }, 
                {
                    "start": "2014-03-07T08:00:00", 
                    "finish": "2014-03-07T13:00:00", 
                    "regular_worktime": "4:00:00"
                }
            ], 
            "incompatible_activities": [
                "act_1_8", 
                "act_0_36", 
                "act_0_34", 
                "act_1_25", 
                "act_0_38", 
                "act_1_30", 
                "act_1_1", 
                "act_2_33"
            ], 
            "maximum_working_hours": "12:00:00", 
            "name": "Glenda Boggs", 
            "minimum_working_hours": "08:00:00"
        }, 
        "op_6": {
            "time_windows": [
                {
                    "start": "2014-03-05T08:00:00", 
                    "finish": "2014-03-05T13:00:00", 
                    "regular_worktime": "4:00:00"
                }, 
                {
                    "start": "2014-03-06T08:00:00", 
                    "finish": "2014-03-06T18:00:00", 
                    "regular_worktime": "8:00:00"
                }, 
                {
                    "start": "2014-03-07T08:00:00", 
                    "finish": "2014-03-07T18:00:00", 
                    "regular_worktime": "8:00:00"
                }
            ], 
            "incompatible_activities": [
                "act_2_26", 
                "act_0_35", 
                "act_2_3", 
                "act_1_12", 
                "act_2_15", 
                "act_1_28", 
                "act_1_32", 
                "act_1_23"
            ], 
            "maximum_working_hours": "16:00:00", 
            "name": "April Johnson", 
            "minimum_working_hours": "12:00:00"
        }, 
        "op_7": {
            "time_windows": [
                {
                    "start": "2014-03-05T08:00:00", 
                    "finish": "2014-03-05T18:00:00", 
                    "regular_worktime": "8:00:00"
                }, 
                {
                    "start": "2014-03-06T08:00:00", 
                    "finish": "2014-03-06T18:00:00", 
                    "regular_worktime": "8:00:00"
                }, 
                {
                    "start": "2014-03-07T08:00:00", 
                    "finish": "2014-03-07T18:00:00", 
                    "regular_worktime": "8:00:00"
                }
            ], 
            "incompatible_activities": [
                "act_1_34", 
                "act_0_20", 
                "act_0_24", 
                "act_2_11", 
                "act_0_5", 
                "act_1_38", 
                "act_0_35", 
                "act_0_34"
            ], 
            "maximum_working_hours": "16:00:00", 
            "name": "Amy Hobdy", 
            "minimum_working_hours": "16:00:00"
        }, 
        "op_0": {
            "time_windows": [
                {
                    "start": "2014-03-05T08:00:00", 
                    "finish": "2014-03-05T18:00:00", 
                    "regular_worktime": "8:00:00"
                }, 
                {
                    "start": "2014-03-06T08:00:00", 
                    "finish": "2014-03-06T18:00:00", 
                    "regular_worktime": "8:00:00"
                }, 
                {
                    "start": "2014-03-07T08:00:00", 
                    "finish": "2014-03-07T18:00:00", 
                    "regular_worktime": "8:00:00"
                }
            ], 
            "incompatible_activities": [
                "act_1_20", 
                "act_2_24", 
                "act_1_32", 
                "act_0_9", 
                "act_0_31", 
                "act_0_28", 
                "act_2_33", 
                "act_1_17"
            ], 
            "maximum_working_hours": "16:00:00", 
            "name": "Tula Jones", 
            "minimum_working_hours": "16:00:00"
        }, 
        "op_1": {
            "time_windows": [
                {
                    "start": "2014-03-05T08:00:00", 
                    "finish": "2014-03-05T13:00:00", 
                    "regular_worktime": "4:00:00"
                }, 
                {
                    "start": "2014-03-06T08:00:00", 
                    "finish": "2014-03-06T13:00:00", 
                    "regular_worktime": "4:00:00"
                }, 
                {
                    "start": "2014-03-07T08:00:00", 
                    "finish": "2014-03-07T13:00:00", 
                    "regular_worktime": "4:00:00"
                }
            ], 
            "incompatible_activities": [
                "act_2_30", 
                "act_1_39", 
                "act_0_25", 
                "act_0_4", 
                "act_1_13", 
                "act_2_19", 
                "act_2_21", 
                "act_2_7"
            ], 
            "maximum_working_hours": "08:00:00", 
            "name": "William Vargas", 
            "minimum_working_hours": "08:00:00"
        }, 
        "op_2": {
            "time_windows": [
                {
                    "start": "2014-03-05T08:00:00", 
                    "finish": "2014-03-05T18:00:00", 
                    "regular_worktime": "8:00:00"
                }, 
                {
                    "start": "2014-03-06T08:00:00", 
                    "finish": "2014-03-06T18:00:00", 
                    "regular_worktime": "8:00:00"
                }, 
                {
                    "start": "2014-03-07T08:00:00", 
                    "finish": "2014-03-07T18:00:00", 
                    "regular_worktime": "8:00:00"
                }
            ], 
            "incompatible_activities": [
                "act_1_18", 
                "act_0_18", 
                "act_0_29", 
                "act_0_19", 
                "act_2_22", 
                "act_1_34", 
                "act_2_2", 
                "act_2_21"
            ], 
            "maximum_working_hours": "16:00:00", 
            "name": "Anthony Hunter", 
            "minimum_working_hours": "16:00:00"
        }, 
        "op_3": {
            "time_windows": [
                {
                    "start": "2014-03-05T08:00:00", 
                    "finish": "2014-03-05T18:00:00", 
                    "regular_worktime": "8:00:00"
                }, 
                {
                    "start": "2014-03-06T08:00:00", 
                    "finish": "2014-03-06T18:00:00", 
                    "regular_worktime": "8:00:00"
                }, 
                {
                    "start": "2014-03-07T08:00:00", 
                    "finish": "2014-03-07T13:00:00", 
                    "regular_worktime": "4:00:00"
                }
            ], 
            "incompatible_activities": [
                "act_2_26", 
                "act_0_23", 
                "act_0_21", 
                "act_2_25", 
                "act_1_22", 
                "act_1_8", 
                "act_1_6", 
                "act_0_26"
            ], 
            "maximum_working_hours": "16:00:00", 
            "name": "Juliet Ali", 
            "minimum_working_hours": "12:00:00"
        }, 
        "op_16": {
            "time_windows": [
                {
                    "start": "2014-03-05T08:00:00", 
                    "finish": "2014-03-05T13:00:00", 
                    "regular_worktime": "4:00:00"
                }, 
                {
                    "start": "2014-03-06T08:00:00", 
                    "finish": "2014-03-06T18:00:00", 
                    "regular_worktime": "8:00:00"
                }, 
                {
                    "start": "2014-03-07T08:00:00", 
                    "finish": "2014-03-07T18:00:00", 
                    "regular_worktime": "8:00:00"
                }
            ], 
            "incompatible_activities": [
                "act_2_28", 
                "act_1_19", 
                "act_0_32", 
                "act_2_30", 
                "act_0_35", 
                "act_2_6", 
                "act_2_16", 
                "act_2_7"
            ], 
            "maximum_working_hours": "16:00:00", 
            "name": "Joan Mccarty", 
            "minimum_working_hours": "12:00:00"
        }, 
        "op_10": {
            "time_windows": [
                {
                    "start": "2014-03-05T08:00:00", 
                    "finish": "2014-03-05T13:00:00", 
                    "regular_worktime": "4:00:00"
                }, 
                {
                    "start": "2014-03-06T08:00:00", 
                    "finish": "2014-03-06T18:00:00", 
                    "regular_worktime": "8:00:00"
                }, 
                {
                    "start": "2014-03-07T08:00:00", 
                    "finish": "2014-03-07T18:00:00", 
                    "regular_worktime": "8:00:00"
                }
            ], 
            "incompatible_activities": [
                "act_0_18", 
                "act_0_20", 
                "act_0_5", 
                "act_0_6", 
                "act_2_9", 
                "act_2_5", 
                "act_1_17", 
                "act_2_3"
            ], 
            "maximum_working_hours": "16:00:00", 
            "name": "Gregory Hawkins", 
            "minimum_working_hours": "12:00:00"
        }, 
        "op_11": {
            "time_windows": [
                {
                    "start": "2014-03-05T08:00:00", 
                    "finish": "2014-03-05T13:00:00", 
                    "regular_worktime": "4:00:00"
                }, 
                {
                    "start": "2014-03-06T08:00:00", 
                    "finish": "2014-03-06T18:00:00", 
                    "regular_worktime": "8:00:00"
                }, 
                {
                    "start": "2014-03-07T08:00:00", 
                    "finish": "2014-03-07T18:00:00", 
                    "regular_worktime": "8:00:00"
                }
            ], 
            "incompatible_activities": [
                "act_0_5", 
                "act_1_20", 
                "act_1_10", 
                "act_0_1", 
                "act_0_19", 
                "act_2_4", 
                "act_0_27", 
                "act_2_33"
            ], 
            "maximum_working_hours": "16:00:00", 
            "name": "Robert Villa", 
            "minimum_working_hours": "12:00:00"
        }, 
        "op_14": {
            "time_windows": [
                {
                    "start": "2014-03-05T08:00:00", 
                    "finish": "2014-03-05T13:00:00", 
                    "regular_worktime": "4:00:00"
                }, 
                {
                    "start": "2014-03-06T08:00:00", 
                    "finish": "2014-03-06T18:00:00", 
                    "regular_worktime": "8:00:00"
                }, 
                {
                    "start": "2014-03-07T08:00:00", 
                    "finish": "2014-03-07T18:00:00", 
                    "regular_worktime": "8:00:00"
                }
            ], 
            "incompatible_activities": [
                "act_0_18", 
                "act_0_20", 
                "act_2_7", 
                "act_0_12", 
                "act_2_19", 
                "act_0_6", 
                "act_1_34", 
                "act_0_32"
            ], 
            "maximum_working_hours": "16:00:00", 
            "name": "John Pompi", 
            "minimum_working_hours": "12:00:00"
        }
    }, 
    "meta": {
        "time_window": {
            "start": "08:00:00", 
            "finish": "18:00:00"
        }, 
        "horizon": 3, 
        "granularity": 10, 
        "geographic_area": {
            "upper_left": [
                46.259645, 
                12.860656
            ], 
            "lower_right": [
                45.936826, 
                13.485503
            ]
        }, 
        "max_consecutive_days": 2, 
        "finish_date": "2014-03-08T00:00:00", 
        "max_overtime_rate": 1.1, 
        "start_date": "2014-03-05T00:00:00"
    }
}