{
    "activities": [
        {
            "act_0_39": {
                "duration": 60, 
                "time_window": {
                    "start": "2014-03-05T08:00:00", 
                    "finish": "2014-03-05T11:20:00"
                }, 
                "required_operators": 1, 
                "location": {
                    "latitude": 46.17307961906753, 
                    "longitude": 12.960448130933306
                }, 
                "patient_name": "Ricardo Peterson"
            }, 
            "act_0_35": {
                "duration": 60, 
                "time_window": {
                    "start": "2014-03-05T08:00:00", 
                    "finish": "2014-03-05T13:00:00"
                }, 
                "required_operators": 1, 
                "location": {
                    "latitude": 46.0473629500705, 
                    "longitude": 13.17440011099604
                }, 
                "patient_name": "Helen Nitkowski"
            }, 
            "act_0_34": {
                "duration": 30, 
                "time_window": {
                    "start": "2014-03-05T08:00:00", 
                    "finish": "2014-03-05T18:00:00"
                }, 
                "required_operators": 2, 
                "location": {
                    "latitude": 45.95094835760293, 
                    "longitude": 13.458098840596959
                }, 
                "patient_name": "Charlene Harsh"
            }, 
            "act_0_37": {
                "duration": 30, 
                "time_window": {
                    "start": "2014-03-05T08:00:00", 
                    "finish": "2014-03-05T13:00:00"
                }, 
                "required_operators": 1, 
                "location": {
                    "latitude": 46.1838953034675, 
                    "longitude": 13.033301577224425
                }, 
                "patient_name": "Ronald Cervera"
            }, 
            "act_0_36": {
                "duration": 30, 
                "time_window": {
                    "start": "2014-03-05T08:00:00", 
                    "finish": "2014-03-05T13:00:00"
                }, 
                "required_operators": 1, 
                "location": {
                    "latitude": 46.071147901196575, 
                    "longitude": 13.426526431179992
                }, 
                "patient_name": "Heidi Stewart"
            }, 
            "act_0_31": {
                "duration": 30, 
                "time_window": {
                    "start": "2014-03-05T08:00:00", 
                    "finish": "2014-03-05T18:00:00"
                }, 
                "required_operators": 2, 
                "location": {
                    "latitude": 46.23547283291923, 
                    "longitude": 12.866393531301979
                }, 
                "patient_name": "Violet Harden"
            }, 
            "act_0_30": {
                "duration": 30, 
                "time_window": {
                    "start": "2014-03-05T08:00:00", 
                    "finish": "2014-03-05T18:00:00"
                }, 
                "required_operators": 1, 
                "location": {
                    "latitude": 45.94048498813501, 
                    "longitude": 13.253834115571937
                }, 
                "patient_name": "Audrey Smith"
            }, 
            "act_0_19": {
                "duration": 60, 
                "time_window": {
                    "start": "2014-03-05T11:20:00", 
                    "finish": "2014-03-05T14:40:00"
                }, 
                "required_operators": 1, 
                "location": {
                    "latitude": 45.99469374353249, 
                    "longitude": 13.034776447491529
                }, 
                "patient_name": "Theodore Summers"
            }, 
            "act_0_18": {
                "duration": 30, 
                "time_window": {
                    "start": "2014-03-05T08:00:00", 
                    "finish": "2014-03-05T18:00:00"
                }, 
                "required_operators": 1, 
                "location": {
                    "latitude": 46.03318417101402, 
                    "longitude": 13.478566860508812
                }, 
                "patient_name": "Chad Brooks"
            }, 
            "act_0_17": {
                "duration": 30, 
                "time_window": {
                    "start": "2014-03-05T08:00:00", 
                    "finish": "2014-03-05T18:00:00"
                }, 
                "required_operators": 2, 
                "location": {
                    "latitude": 46.19732490297018, 
                    "longitude": 12.96797253099069
                }, 
                "patient_name": "Kris Gulick"
            }, 
            "act_0_16": {
                "duration": 30, 
                "time_window": {
                    "start": "2014-03-05T08:00:00", 
                    "finish": "2014-03-05T13:00:00"
                }, 
                "required_operators": 1, 
                "location": {
                    "latitude": 46.25222711292912, 
                    "longitude": 13.32052976385166
                }, 
                "patient_name": "Jason Degraff"
            }, 
            "act_0_15": {
                "duration": 60, 
                "time_window": {
                    "start": "2014-03-05T08:00:00", 
                    "finish": "2014-03-05T13:00:00"
                }, 
                "required_operators": 1, 
                "location": {
                    "latitude": 46.1334230028008, 
                    "longitude": 13.052128688561396
                }, 
                "patient_name": "Gertrude Reeves"
            }, 
            "act_0_14": {
                "duration": 60, 
                "time_window": {
                    "start": "2014-03-05T08:00:00", 
                    "finish": "2014-03-05T13:00:00"
                }, 
                "required_operators": 1, 
                "location": {
                    "latitude": 45.937217828814866, 
                    "longitude": 13.091560968447359
                }, 
                "patient_name": "Jack Gheen"
            }, 
            "act_0_13": {
                "duration": 30, 
                "time_window": {
                    "start": "2014-03-05T08:00:00", 
                    "finish": "2014-03-05T13:00:00"
                }, 
                "required_operators": 1, 
                "location": {
                    "latitude": 45.97804289417895, 
                    "longitude": 12.996539304449664
                }, 
                "patient_name": "Garland Evans"
            }, 
            "act_0_12": {
                "duration": 30, 
                "time_window": {
                    "start": "2014-03-05T08:00:00", 
                    "finish": "2014-03-05T18:00:00"
                }, 
                "required_operators": 1, 
                "location": {
                    "latitude": 46.102249239852235, 
                    "longitude": 13.172073347785233
                }, 
                "patient_name": "Brian Mcroberts"
            }, 
            "act_0_11": {
                "duration": 60, 
                "time_window": {
                    "start": "2014-03-05T08:00:00", 
                    "finish": "2014-03-05T18:00:00"
                }, 
                "required_operators": 1, 
                "location": {
                    "latitude": 46.02078726954309, 
                    "longitude": 13.395136089763156
                }, 
                "patient_name": "Jodi Skillom"
            }, 
            "act_0_10": {
                "duration": 60, 
                "time_window": {
                    "start": "2014-03-05T13:00:00", 
                    "finish": "2014-03-05T18:00:00"
                }, 
                "required_operators": 1, 
                "location": {
                    "latitude": 45.939573529448424, 
                    "longitude": 12.978609530328713
                }, 
                "patient_name": "Douglas Jobson"
            }, 
            "act_0_33": {
                "duration": 30, 
                "time_window": {
                    "start": "2014-03-05T14:40:00", 
                    "finish": "2014-03-05T18:00:00"
                }, 
                "required_operators": 2, 
                "location": {
                    "latitude": 46.12415292890615, 
                    "longitude": 13.29307275514003
                }, 
                "patient_name": "James Harris"
            }, 
            "act_0_38": {
                "duration": 60, 
                "time_window": {
                    "start": "2014-03-05T13:00:00", 
                    "finish": "2014-03-05T18:00:00"
                }, 
                "required_operators": 1, 
                "location": {
                    "latitude": 46.20065445265129, 
                    "longitude": 12.907500553887385
                }, 
                "patient_name": "Alma Johnson"
            }, 
            "act_0_32": {
                "duration": 60, 
                "time_window": {
                    "start": "2014-03-05T11:20:00", 
                    "finish": "2014-03-05T14:40:00"
                }, 
                "required_operators": 1, 
                "location": {
                    "latitude": 46.12204082446131, 
                    "longitude": 13.40078445176642
                }, 
                "patient_name": "Katherine Simmons"
            }, 
            "act_0_9": {
                "duration": 60, 
                "time_window": {
                    "start": "2014-03-05T08:00:00", 
                    "finish": "2014-03-05T18:00:00"
                }, 
                "required_operators": 1, 
                "location": {
                    "latitude": 46.07786070370297, 
                    "longitude": 13.426493118758728
                }, 
                "patient_name": "Hope Forman"
            }, 
            "act_0_8": {
                "duration": 60, 
                "time_window": {
                    "start": "2014-03-05T08:00:00", 
                    "finish": "2014-03-05T18:00:00"
                }, 
                "required_operators": 2, 
                "location": {
                    "latitude": 46.15226265866599, 
                    "longitude": 13.176378910637709
                }, 
                "patient_name": "Anthony Courtney"
            }, 
            "act_0_3": {
                "duration": 30, 
                "time_window": {
                    "start": "2014-03-05T11:20:00", 
                    "finish": "2014-03-05T14:40:00"
                }, 
                "required_operators": 1, 
                "location": {
                    "latitude": 46.160376657543914, 
                    "longitude": 13.245627199871238
                }, 
                "patient_name": "Alejandro Frazier"
            }, 
            "act_0_2": {
                "duration": 60, 
                "time_window": {
                    "start": "2014-03-05T08:00:00", 
                    "finish": "2014-03-05T11:20:00"
                }, 
                "required_operators": 1, 
                "location": {
                    "latitude": 46.11024668442285, 
                    "longitude": 13.283118316917506
                }, 
                "patient_name": "Danny Cunningham"
            }, 
            "act_0_1": {
                "duration": 30, 
                "time_window": {
                    "start": "2014-03-05T08:00:00", 
                    "finish": "2014-03-05T13:00:00"
                }, 
                "required_operators": 2, 
                "location": {
                    "latitude": 46.09935399772973, 
                    "longitude": 13.398832026232757
                }, 
                "patient_name": "Viola Cross"
            }, 
            "act_0_0": {
                "duration": 60, 
                "time_window": {
                    "start": "2014-03-05T08:00:00", 
                    "finish": "2014-03-05T13:00:00"
                }, 
                "required_operators": 1, 
                "location": {
                    "latitude": 46.107059599814015, 
                    "longitude": 13.281010018405107
                }, 
                "patient_name": "Scott Brown"
            }, 
            "act_0_7": {
                "duration": 30, 
                "time_window": {
                    "start": "2014-03-05T14:40:00", 
                    "finish": "2014-03-05T18:00:00"
                }, 
                "required_operators": 1, 
                "location": {
                    "latitude": 46.031299693271954, 
                    "longitude": 13.328057401266706
                }, 
                "patient_name": "Daniel Thielen"
            }, 
            "act_0_6": {
                "duration": 30, 
                "time_window": {
                    "start": "2014-03-05T08:00:00", 
                    "finish": "2014-03-05T11:20:00"
                }, 
                "required_operators": 1, 
                "location": {
                    "latitude": 45.94465998057988, 
                    "longitude": 13.202983308608369
                }, 
                "patient_name": "Yadira Mcmillan"
            }, 
            "act_0_5": {
                "duration": 30, 
                "time_window": {
                    "start": "2014-03-05T08:00:00", 
                    "finish": "2014-03-05T18:00:00"
                }, 
                "required_operators": 1, 
                "location": {
                    "latitude": 46.03146176088488, 
                    "longitude": 13.35700704958103
                }, 
                "patient_name": "Stephanie Oleary"
            }, 
            "act_0_4": {
                "duration": 60, 
                "time_window": {
                    "start": "2014-03-05T08:00:00", 
                    "finish": "2014-03-05T11:20:00"
                }, 
                "required_operators": 2, 
                "location": {
                    "latitude": 46.090997293801244, 
                    "longitude": 12.932172842866867
                }, 
                "patient_name": "John Holt"
            }, 
            "act_0_22": {
                "duration": 60, 
                "time_window": {
                    "start": "2014-03-05T14:40:00", 
                    "finish": "2014-03-05T18:00:00"
                }, 
                "required_operators": 1, 
                "location": {
                    "latitude": 45.99045021629387, 
                    "longitude": 12.87082047718479
                }, 
                "patient_name": "Floyd Nichols"
            }, 
            "act_0_23": {
                "duration": 30, 
                "time_window": {
                    "start": "2014-03-05T08:00:00", 
                    "finish": "2014-03-05T18:00:00"
                }, 
                "required_operators": 2, 
                "location": {
                    "latitude": 45.950544370615646, 
                    "longitude": 13.256503827130523
                }, 
                "patient_name": "Charles Wannamaker"
            }, 
            "act_0_20": {
                "duration": 60, 
                "time_window": {
                    "start": "2014-03-05T08:00:00", 
                    "finish": "2014-03-05T13:00:00"
                }, 
                "required_operators": 1, 
                "location": {
                    "latitude": 46.21951473962554, 
                    "longitude": 12.956396536811384
                }, 
                "patient_name": "Ryan Johnson"
            }, 
            "act_0_21": {
                "duration": 30, 
                "time_window": {
                    "start": "2014-03-05T14:40:00", 
                    "finish": "2014-03-05T18:00:00"
                }, 
                "required_operators": 1, 
                "location": {
                    "latitude": 46.19100328696256, 
                    "longitude": 13.251315486451718
                }, 
                "patient_name": "Teresa Woods"
            }, 
            "act_0_26": {
                "duration": 60, 
                "time_window": {
                    "start": "2014-03-05T08:00:00", 
                    "finish": "2014-03-05T18:00:00"
                }, 
                "required_operators": 1, 
                "location": {
                    "latitude": 46.0417948277004, 
                    "longitude": 12.972063404698714
                }, 
                "patient_name": "John Darou"
            }, 
            "act_0_27": {
                "duration": 30, 
                "time_window": {
                    "start": "2014-03-05T08:00:00", 
                    "finish": "2014-03-05T13:00:00"
                }, 
                "required_operators": 1, 
                "location": {
                    "latitude": 45.96924130465358, 
                    "longitude": 13.411205308970377
                }, 
                "patient_name": "Danny Martinez"
            }, 
            "act_0_24": {
                "duration": 60, 
                "time_window": {
                    "start": "2014-03-05T13:00:00", 
                    "finish": "2014-03-05T18:00:00"
                }, 
                "required_operators": 1, 
                "location": {
                    "latitude": 46.04094911886019, 
                    "longitude": 12.90034240587908
                }, 
                "patient_name": "Judy Randell"
            }, 
            "act_0_25": {
                "duration": 30, 
                "time_window": {
                    "start": "2014-03-05T14:40:00", 
                    "finish": "2014-03-05T18:00:00"
                }, 
                "required_operators": 2, 
                "location": {
                    "latitude": 46.03268487798898, 
                    "longitude": 13.280983677667823
                }, 
                "patient_name": "Travis Bell"
            }, 
            "act_0_28": {
                "duration": 60, 
                "time_window": {
                    "start": "2014-03-05T13:00:00", 
                    "finish": "2014-03-05T18:00:00"
                }, 
                "required_operators": 1, 
                "location": {
                    "latitude": 46.25548623093864, 
                    "longitude": 13.419109437585075
                }, 
                "patient_name": "Patricia Knight"
            }, 
            "act_0_29": {
                "duration": 30, 
                "time_window": {
                    "start": "2014-03-05T11:20:00", 
                    "finish": "2014-03-05T14:40:00"
                }, 
                "required_operators": 1, 
                "location": {
                    "latitude": 46.09811253206975, 
                    "longitude": 12.873698757753251
                }, 
                "patient_name": "Clara Sivels"
            }
        }, 
        {
            "act_1_38": {
                "duration": 30, 
                "time_window": {
                    "start": "2014-03-06T08:00:00", 
                    "finish": "2014-03-06T18:00:00"
                }, 
                "required_operators": 1, 
                "location": {
                    "latitude": 46.250934283812846, 
                    "longitude": 13.172510463341935
                }, 
                "patient_name": "Albert Kirk"
            }, 
            "act_1_39": {
                "duration": 30, 
                "time_window": {
                    "start": "2014-03-06T08:00:00", 
                    "finish": "2014-03-06T18:00:00"
                }, 
                "required_operators": 1, 
                "location": {
                    "latitude": 46.197637571062934, 
                    "longitude": 13.031195762438527
                }, 
                "patient_name": "Leona Martin"
            }, 
            "act_1_32": {
                "duration": 60, 
                "time_window": {
                    "start": "2014-03-06T14:40:00", 
                    "finish": "2014-03-06T18:00:00"
                }, 
                "required_operators": 2, 
                "location": {
                    "latitude": 46.15110662965906, 
                    "longitude": 13.404158536798459
                }, 
                "patient_name": "Eduardo Halseth"
            }, 
            "act_1_33": {
                "duration": 30, 
                "time_window": {
                    "start": "2014-03-06T08:00:00", 
                    "finish": "2014-03-06T18:00:00"
                }, 
                "required_operators": 1, 
                "location": {
                    "latitude": 45.97944436096483, 
                    "longitude": 13.463741303323406
                }, 
                "patient_name": "Raymond Knaub"
            }, 
            "act_1_30": {
                "duration": 30, 
                "time_window": {
                    "start": "2014-03-06T08:00:00", 
                    "finish": "2014-03-06T18:00:00"
                }, 
                "required_operators": 1, 
                "location": {
                    "latitude": 46.02779625926339, 
                    "longitude": 13.102188534894266
                }, 
                "patient_name": "Melanie Alsberry"
            }, 
            "act_1_31": {
                "duration": 30, 
                "time_window": {
                    "start": "2014-03-06T08:00:00", 
                    "finish": "2014-03-06T13:00:00"
                }, 
                "required_operators": 1, 
                "location": {
                    "latitude": 46.13435889136465, 
                    "longitude": 13.149532195634755
                }, 
                "patient_name": "Richard Zenz"
            }, 
            "act_1_36": {
                "duration": 60, 
                "time_window": {
                    "start": "2014-03-06T11:20:00", 
                    "finish": "2014-03-06T14:40:00"
                }, 
                "required_operators": 2, 
                "location": {
                    "latitude": 46.04898641526246, 
                    "longitude": 13.27383736964809
                }, 
                "patient_name": "Richard Shoun"
            }, 
            "act_1_37": {
                "duration": 30, 
                "time_window": {
                    "start": "2014-03-06T08:00:00", 
                    "finish": "2014-03-06T13:00:00"
                }, 
                "required_operators": 1, 
                "location": {
                    "latitude": 46.218126175722, 
                    "longitude": 13.321901214623924
                }, 
                "patient_name": "Minnie Castrey"
            }, 
            "act_1_34": {
                "duration": 60, 
                "time_window": {
                    "start": "2014-03-06T08:00:00", 
                    "finish": "2014-03-06T18:00:00"
                }, 
                "required_operators": 1, 
                "location": {
                    "latitude": 46.063632232814015, 
                    "longitude": 13.185067807146408
                }, 
                "patient_name": "Lottie Labeau"
            }, 
            "act_1_35": {
                "duration": 60, 
                "time_window": {
                    "start": "2014-03-06T08:00:00", 
                    "finish": "2014-03-06T13:00:00"
                }, 
                "required_operators": 1, 
                "location": {
                    "latitude": 46.06135153011592, 
                    "longitude": 13.234506406099749
                }, 
                "patient_name": "Lois Canfield"
            }, 
            "act_1_14": {
                "duration": 60, 
                "time_window": {
                    "start": "2014-03-06T08:00:00", 
                    "finish": "2014-03-06T18:00:00"
                }, 
                "required_operators": 1, 
                "location": {
                    "latitude": 46.06688641796743, 
                    "longitude": 13.272513847142518
                }, 
                "patient_name": "Robert Edsall"
            }, 
            "act_1_15": {
                "duration": 30, 
                "time_window": {
                    "start": "2014-03-06T13:00:00", 
                    "finish": "2014-03-06T18:00:00"
                }, 
                "required_operators": 1, 
                "location": {
                    "latitude": 46.18711397241636, 
                    "longitude": 13.126553593933664
                }, 
                "patient_name": "Michael Ore"
            }, 
            "act_1_16": {
                "duration": 30, 
                "time_window": {
                    "start": "2014-03-06T08:00:00", 
                    "finish": "2014-03-06T13:00:00"
                }, 
                "required_operators": 2, 
                "location": {
                    "latitude": 46.08432801427143, 
                    "longitude": 12.960720655618223
                }, 
                "patient_name": "Tiffany Mason"
            }, 
            "act_1_17": {
                "duration": 30, 
                "time_window": {
                    "start": "2014-03-06T08:00:00", 
                    "finish": "2014-03-06T18:00:00"
                }, 
                "required_operators": 1, 
                "location": {
                    "latitude": 46.150699007818965, 
                    "longitude": 13.471377771795733
                }, 
                "patient_name": "Salvatore Parks"
            }, 
            "act_1_10": {
                "duration": 30, 
                "time_window": {
                    "start": "2014-03-06T11:20:00", 
                    "finish": "2014-03-06T14:40:00"
                }, 
                "required_operators": 1, 
                "location": {
                    "latitude": 46.00502388072441, 
                    "longitude": 12.88768458501619
                }, 
                "patient_name": "Elizabeth Goodman"
            }, 
            "act_1_11": {
                "duration": 60, 
                "time_window": {
                    "start": "2014-03-06T08:00:00", 
                    "finish": "2014-03-06T18:00:00"
                }, 
                "required_operators": 1, 
                "location": {
                    "latitude": 45.97599565597399, 
                    "longitude": 12.982416645939004
                }, 
                "patient_name": "Robert Brown"
            }, 
            "act_1_12": {
                "duration": 30, 
                "time_window": {
                    "start": "2014-03-06T13:00:00", 
                    "finish": "2014-03-06T18:00:00"
                }, 
                "required_operators": 1, 
                "location": {
                    "latitude": 46.1023844542652, 
                    "longitude": 12.882094868635264
                }, 
                "patient_name": "Julian Corbitt"
            }, 
            "act_1_13": {
                "duration": 60, 
                "time_window": {
                    "start": "2014-03-06T08:00:00", 
                    "finish": "2014-03-06T13:00:00"
                }, 
                "required_operators": 1, 
                "location": {
                    "latitude": 46.05477618054247, 
                    "longitude": 13.174638660923135
                }, 
                "patient_name": "Timothy Hernandez"
            }, 
            "act_1_18": {
                "duration": 30, 
                "time_window": {
                    "start": "2014-03-06T08:00:00", 
                    "finish": "2014-03-06T18:00:00"
                }, 
                "required_operators": 1, 
                "location": {
                    "latitude": 46.164181710146075, 
                    "longitude": 13.337755399198832
                }, 
                "patient_name": "Constance Lombardi"
            }, 
            "act_1_19": {
                "duration": 60, 
                "time_window": {
                    "start": "2014-03-06T08:00:00", 
                    "finish": "2014-03-06T13:00:00"
                }, 
                "required_operators": 1, 
                "location": {
                    "latitude": 46.14247180828541, 
                    "longitude": 13.292213278239194
                }, 
                "patient_name": "Mark Griffith"
            }, 
            "act_1_2": {
                "duration": 60, 
                "time_window": {
                    "start": "2014-03-06T08:00:00", 
                    "finish": "2014-03-06T18:00:00"
                }, 
                "required_operators": 1, 
                "location": {
                    "latitude": 46.097225018325375, 
                    "longitude": 12.882534008394945
                }, 
                "patient_name": "Betty Snelgrove"
            }, 
            "act_1_3": {
                "duration": 30, 
                "time_window": {
                    "start": "2014-03-06T08:00:00", 
                    "finish": "2014-03-06T13:00:00"
                }, 
                "required_operators": 1, 
                "location": {
                    "latitude": 46.16019820936002, 
                    "longitude": 12.86364820495911
                }, 
                "patient_name": "Bonnie Flores"
            }, 
            "act_1_0": {
                "duration": 30, 
                "time_window": {
                    "start": "2014-03-06T11:20:00", 
                    "finish": "2014-03-06T14:40:00"
                }, 
                "required_operators": 1, 
                "location": {
                    "latitude": 46.11825145806513, 
                    "longitude": 13.374022028864394
                }, 
                "patient_name": "James Bornstein"
            }, 
            "act_1_1": {
                "duration": 30, 
                "time_window": {
                    "start": "2014-03-06T13:00:00", 
                    "finish": "2014-03-06T18:00:00"
                }, 
                "required_operators": 1, 
                "location": {
                    "latitude": 46.10318132124763, 
                    "longitude": 13.174846991990636
                }, 
                "patient_name": "William Litzenberger"
            }, 
            "act_1_6": {
                "duration": 30, 
                "time_window": {
                    "start": "2014-03-06T08:00:00", 
                    "finish": "2014-03-06T11:20:00"
                }, 
                "required_operators": 1, 
                "location": {
                    "latitude": 46.03546480353573, 
                    "longitude": 13.185884774270667
                }, 
                "patient_name": "Joyce Rendon"
            }, 
            "act_1_7": {
                "duration": 60, 
                "time_window": {
                    "start": "2014-03-06T14:40:00", 
                    "finish": "2014-03-06T18:00:00"
                }, 
                "required_operators": 1, 
                "location": {
                    "latitude": 46.201533711133415, 
                    "longitude": 12.948222884920378
                }, 
                "patient_name": "Brian Madden"
            }, 
            "act_1_4": {
                "duration": 60, 
                "time_window": {
                    "start": "2014-03-06T08:00:00", 
                    "finish": "2014-03-06T18:00:00"
                }, 
                "required_operators": 1, 
                "location": {
                    "latitude": 46.00101528405477, 
                    "longitude": 13.052149262208069
                }, 
                "patient_name": "Gregory Mader"
            }, 
            "act_1_5": {
                "duration": 30, 
                "time_window": {
                    "start": "2014-03-06T08:00:00", 
                    "finish": "2014-03-06T13:00:00"
                }, 
                "required_operators": 1, 
                "location": {
                    "latitude": 46.138495642360176, 
                    "longitude": 13.135759229268293
                }, 
                "patient_name": "Mike Raines"
            }, 
            "act_1_8": {
                "duration": 60, 
                "time_window": {
                    "start": "2014-03-06T13:00:00", 
                    "finish": "2014-03-06T18:00:00"
                }, 
                "required_operators": 1, 
                "location": {
                    "latitude": 46.04884095562717, 
                    "longitude": 13.249308631875921
                }, 
                "patient_name": "Lois Danger"
            }, 
            "act_1_9": {
                "duration": 30, 
                "time_window": {
                    "start": "2014-03-06T14:40:00", 
                    "finish": "2014-03-06T18:00:00"
                }, 
                "required_operators": 1, 
                "location": {
                    "latitude": 46.227207475707, 
                    "longitude": 12.91386470805254
                }, 
                "patient_name": "Evelyn Johnson"
            }, 
            "act_1_29": {
                "duration": 30, 
                "time_window": {
                    "start": "2014-03-06T08:00:00", 
                    "finish": "2014-03-06T18:00:00"
                }, 
                "required_operators": 1, 
                "location": {
                    "latitude": 46.03892248792048, 
                    "longitude": 13.244159607549413
                }, 
                "patient_name": "Jerome Pawlak"
            }, 
            "act_1_28": {
                "duration": 60, 
                "time_window": {
                    "start": "2014-03-06T08:00:00", 
                    "finish": "2014-03-06T13:00:00"
                }, 
                "required_operators": 1, 
                "location": {
                    "latitude": 45.981268263745086, 
                    "longitude": 13.348017550908942
                }, 
                "patient_name": "Lawrence Werkhoven"
            }, 
            "act_1_25": {
                "duration": 60, 
                "time_window": {
                    "start": "2014-03-06T08:00:00", 
                    "finish": "2014-03-06T13:00:00"
                }, 
                "required_operators": 1, 
                "location": {
                    "latitude": 46.03750711246832, 
                    "longitude": 13.032240648898986
                }, 
                "patient_name": "Jason Tamura"
            }, 
            "act_1_24": {
                "duration": 30, 
                "time_window": {
                    "start": "2014-03-06T08:00:00", 
                    "finish": "2014-03-06T13:00:00"
                }, 
                "required_operators": 2, 
                "location": {
                    "latitude": 46.21341913561756, 
                    "longitude": 13.390718666695955
                }, 
                "patient_name": "Lisa Westman"
            }, 
            "act_1_27": {
                "duration": 60, 
                "time_window": {
                    "start": "2014-03-06T08:00:00", 
                    "finish": "2014-03-06T13:00:00"
                }, 
                "required_operators": 1, 
                "location": {
                    "latitude": 45.9535740683186, 
                    "longitude": 12.94182969808014
                }, 
                "patient_name": "Sheila Byrd"
            }, 
            "act_1_26": {
                "duration": 60, 
                "time_window": {
                    "start": "2014-03-06T11:20:00", 
                    "finish": "2014-03-06T14:40:00"
                }, 
                "required_operators": 1, 
                "location": {
                    "latitude": 46.02502354303411, 
                    "longitude": 12.923275867515153
                }, 
                "patient_name": "Salvador Drey"
            }, 
            "act_1_21": {
                "duration": 60, 
                "time_window": {
                    "start": "2014-03-06T13:00:00", 
                    "finish": "2014-03-06T18:00:00"
                }, 
                "required_operators": 2, 
                "location": {
                    "latitude": 46.031690841459195, 
                    "longitude": 12.971554367077276
                }, 
                "patient_name": "Stacey Ginsburg"
            }, 
            "act_1_20": {
                "duration": 60, 
                "time_window": {
                    "start": "2014-03-06T08:00:00", 
                    "finish": "2014-03-06T18:00:00"
                }, 
                "required_operators": 1, 
                "location": {
                    "latitude": 45.995614148205235, 
                    "longitude": 13.348155607410188
                }, 
                "patient_name": "Sadie Sisk"
            }, 
            "act_1_23": {
                "duration": 30, 
                "time_window": {
                    "start": "2014-03-06T11:20:00", 
                    "finish": "2014-03-06T14:40:00"
                }, 
                "required_operators": 2, 
                "location": {
                    "latitude": 46.17622555270831, 
                    "longitude": 13.098577796079299
                }, 
                "patient_name": "Martha Coleman"
            }, 
            "act_1_22": {
                "duration": 30, 
                "time_window": {
                    "start": "2014-03-06T08:00:00", 
                    "finish": "2014-03-06T13:00:00"
                }, 
                "required_operators": 1, 
                "location": {
                    "latitude": 46.020718520853855, 
                    "longitude": 13.228042921893095
                }, 
                "patient_name": "Patricia Cline"
            }
        }, 
        {
            "act_2_19": {
                "duration": 60, 
                "time_window": {
                    "start": "2014-03-07T08:00:00", 
                    "finish": "2014-03-07T18:00:00"
                }, 
                "required_operators": 1, 
                "location": {
                    "latitude": 46.16301164670984, 
                    "longitude": 13.481379024645749
                }, 
                "patient_name": "Enrique Sparks"
            }, 
            "act_2_18": {
                "duration": 30, 
                "time_window": {
                    "start": "2014-03-07T11:20:00", 
                    "finish": "2014-03-07T14:40:00"
                }, 
                "required_operators": 1, 
                "location": {
                    "latitude": 46.12135075085949, 
                    "longitude": 13.36750095285473
                }, 
                "patient_name": "Thomas Creager"
            }, 
            "act_2_11": {
                "duration": 60, 
                "time_window": {
                    "start": "2014-03-07T08:00:00", 
                    "finish": "2014-03-07T18:00:00"
                }, 
                "required_operators": 1, 
                "location": {
                    "latitude": 46.13610530208576, 
                    "longitude": 13.209362518726346
                }, 
                "patient_name": "Scott Danley"
            }, 
            "act_2_10": {
                "duration": 30, 
                "time_window": {
                    "start": "2014-03-07T08:00:00", 
                    "finish": "2014-03-07T18:00:00"
                }, 
                "required_operators": 1, 
                "location": {
                    "latitude": 46.05968369579611, 
                    "longitude": 13.005643419985923
                }, 
                "patient_name": "Robert Akins"
            }, 
            "act_2_13": {
                "duration": 30, 
                "time_window": {
                    "start": "2014-03-07T08:00:00", 
                    "finish": "2014-03-07T18:00:00"
                }, 
                "required_operators": 1, 
                "location": {
                    "latitude": 46.206526294865384, 
                    "longitude": 13.315397534352858
                }, 
                "patient_name": "Ashley Rocha"
            }, 
            "act_2_12": {
                "duration": 30, 
                "time_window": {
                    "start": "2014-03-07T08:00:00", 
                    "finish": "2014-03-07T11:20:00"
                }, 
                "required_operators": 1, 
                "location": {
                    "latitude": 46.2500918494482, 
                    "longitude": 12.953153443116147
                }, 
                "patient_name": "George Brown"
            }, 
            "act_2_15": {
                "duration": 30, 
                "time_window": {
                    "start": "2014-03-07T14:40:00", 
                    "finish": "2014-03-07T18:00:00"
                }, 
                "required_operators": 1, 
                "location": {
                    "latitude": 46.01673482842923, 
                    "longitude": 13.30957798890118
                }, 
                "patient_name": "Carmelo Corbisiero"
            }, 
            "act_2_14": {
                "duration": 30, 
                "time_window": {
                    "start": "2014-03-07T08:00:00", 
                    "finish": "2014-03-07T13:00:00"
                }, 
                "required_operators": 1, 
                "location": {
                    "latitude": 46.15109248372576, 
                    "longitude": 12.964455767272723
                }, 
                "patient_name": "Rodney Saenz"
            }, 
            "act_2_17": {
                "duration": 30, 
                "time_window": {
                    "start": "2014-03-07T08:00:00", 
                    "finish": "2014-03-07T18:00:00"
                }, 
                "required_operators": 1, 
                "location": {
                    "latitude": 45.938315459027315, 
                    "longitude": 13.074478961313615
                }, 
                "patient_name": "Ken Farnsworth"
            }, 
            "act_2_16": {
                "duration": 30, 
                "time_window": {
                    "start": "2014-03-07T08:00:00", 
                    "finish": "2014-03-07T13:00:00"
                }, 
                "required_operators": 1, 
                "location": {
                    "latitude": 46.07155934059047, 
                    "longitude": 13.478838329562754
                }, 
                "patient_name": "Beatrice Aten"
            }, 
            "act_2_33": {
                "duration": 60, 
                "time_window": {
                    "start": "2014-03-07T08:00:00", 
                    "finish": "2014-03-07T13:00:00"
                }, 
                "required_operators": 1, 
                "location": {
                    "latitude": 46.15873040175919, 
                    "longitude": 13.154589734539085
                }, 
                "patient_name": "Michael Simon"
            }, 
            "act_2_32": {
                "duration": 30, 
                "time_window": {
                    "start": "2014-03-07T08:00:00", 
                    "finish": "2014-03-07T11:20:00"
                }, 
                "required_operators": 1, 
                "location": {
                    "latitude": 46.12176245567863, 
                    "longitude": 12.866621643274742
                }, 
                "patient_name": "Ashley Kennedy"
            }, 
            "act_2_31": {
                "duration": 30, 
                "time_window": {
                    "start": "2014-03-07T13:00:00", 
                    "finish": "2014-03-07T18:00:00"
                }, 
                "required_operators": 1, 
                "location": {
                    "latitude": 46.24736780462623, 
                    "longitude": 12.95691519636683
                }, 
                "patient_name": "Jeremy Macias"
            }, 
            "act_2_30": {
                "duration": 30, 
                "time_window": {
                    "start": "2014-03-07T13:00:00", 
                    "finish": "2014-03-07T18:00:00"
                }, 
                "required_operators": 1, 
                "location": {
                    "latitude": 46.04576501937859, 
                    "longitude": 12.998000676624994
                }, 
                "patient_name": "Edna Cunningham"
            }, 
            "act_2_37": {
                "duration": 30, 
                "time_window": {
                    "start": "2014-03-07T08:00:00", 
                    "finish": "2014-03-07T13:00:00"
                }, 
                "required_operators": 3, 
                "location": {
                    "latitude": 45.94518727190313, 
                    "longitude": 13.215824517968812
                }, 
                "patient_name": "Kevin Criss"
            }, 
            "act_2_36": {
                "duration": 60, 
                "time_window": {
                    "start": "2014-03-07T11:20:00", 
                    "finish": "2014-03-07T14:40:00"
                }, 
                "required_operators": 1, 
                "location": {
                    "latitude": 46.09543161261649, 
                    "longitude": 13.067000894539753
                }, 
                "patient_name": "Johnathan Washington"
            }, 
            "act_2_35": {
                "duration": 60, 
                "time_window": {
                    "start": "2014-03-07T14:40:00", 
                    "finish": "2014-03-07T18:00:00"
                }, 
                "required_operators": 1, 
                "location": {
                    "latitude": 46.22882789981091, 
                    "longitude": 13.249342996657296
                }, 
                "patient_name": "Larry Castrejon"
            }, 
            "act_2_34": {
                "duration": 30, 
                "time_window": {
                    "start": "2014-03-07T08:00:00", 
                    "finish": "2014-03-07T13:00:00"
                }, 
                "required_operators": 1, 
                "location": {
                    "latitude": 46.07157537732083, 
                    "longitude": 13.132678448709713
                }, 
                "patient_name": "Marlo Rooks"
            }, 
            "act_2_39": {
                "duration": 60, 
                "time_window": {
                    "start": "2014-03-07T08:00:00", 
                    "finish": "2014-03-07T13:00:00"
                }, 
                "required_operators": 1, 
                "location": {
                    "latitude": 46.036917769709106, 
                    "longitude": 12.91384018610952
                }, 
                "patient_name": "William Wolfe"
            }, 
            "act_2_38": {
                "duration": 60, 
                "time_window": {
                    "start": "2014-03-07T08:00:00", 
                    "finish": "2014-03-07T18:00:00"
                }, 
                "required_operators": 2, 
                "location": {
                    "latitude": 45.937990582691526, 
                    "longitude": 13.35665292337589
                }, 
                "patient_name": "Kent Thomas"
            }, 
            "act_2_20": {
                "duration": 60, 
                "time_window": {
                    "start": "2014-03-07T14:40:00", 
                    "finish": "2014-03-07T18:00:00"
                }, 
                "required_operators": 1, 
                "location": {
                    "latitude": 46.18634977208168, 
                    "longitude": 12.877976715233906
                }, 
                "patient_name": "Barbara Jaramillo"
            }, 
            "act_2_21": {
                "duration": 30, 
                "time_window": {
                    "start": "2014-03-07T08:00:00", 
                    "finish": "2014-03-07T18:00:00"
                }, 
                "required_operators": 1, 
                "location": {
                    "latitude": 46.25502476316894, 
                    "longitude": 13.463227924091708
                }, 
                "patient_name": "Rose Densmore"
            }, 
            "act_2_22": {
                "duration": 60, 
                "time_window": {
                    "start": "2014-03-07T13:00:00", 
                    "finish": "2014-03-07T18:00:00"
                }, 
                "required_operators": 1, 
                "location": {
                    "latitude": 46.24368295807577, 
                    "longitude": 13.233988461108043
                }, 
                "patient_name": "Emilia Wilson"
            }, 
            "act_2_23": {
                "duration": 30, 
                "time_window": {
                    "start": "2014-03-07T08:00:00", 
                    "finish": "2014-03-07T18:00:00"
                }, 
                "required_operators": 1, 
                "location": {
                    "latitude": 46.2254750640743, 
                    "longitude": 13.021442460962424
                }, 
                "patient_name": "James Perez"
            }, 
            "act_2_24": {
                "duration": 60, 
                "time_window": {
                    "start": "2014-03-07T13:00:00", 
                    "finish": "2014-03-07T18:00:00"
                }, 
                "required_operators": 1, 
                "location": {
                    "latitude": 46.11832046856404, 
                    "longitude": 12.961516091463219
                }, 
                "patient_name": "Stephen Gibson"
            }, 
            "act_2_25": {
                "duration": 30, 
                "time_window": {
                    "start": "2014-03-07T08:00:00", 
                    "finish": "2014-03-07T18:00:00"
                }, 
                "required_operators": 2, 
                "location": {
                    "latitude": 45.96465411832141, 
                    "longitude": 13.211964320787045
                }, 
                "patient_name": "Lashawn Pastian"
            }, 
            "act_2_26": {
                "duration": 60, 
                "time_window": {
                    "start": "2014-03-07T08:00:00", 
                    "finish": "2014-03-07T18:00:00"
                }, 
                "required_operators": 2, 
                "location": {
                    "latitude": 46.04161069242653, 
                    "longitude": 12.900552020760617
                }, 
                "patient_name": "Kay Lanier"
            }, 
            "act_2_27": {
                "duration": 30, 
                "time_window": {
                    "start": "2014-03-07T11:20:00", 
                    "finish": "2014-03-07T14:40:00"
                }, 
                "required_operators": 4, 
                "location": {
                    "latitude": 45.941544942439585, 
                    "longitude": 13.471774165474752
                }, 
                "patient_name": "Pamela Masser"
            }, 
            "act_2_28": {
                "duration": 30, 
                "time_window": {
                    "start": "2014-03-07T08:00:00", 
                    "finish": "2014-03-07T18:00:00"
                }, 
                "required_operators": 1, 
                "location": {
                    "latitude": 45.94714709870243, 
                    "longitude": 13.46039721080431
                }, 
                "patient_name": "Deborah Merritt"
            }, 
            "act_2_29": {
                "duration": 60, 
                "time_window": {
                    "start": "2014-03-07T13:00:00", 
                    "finish": "2014-03-07T18:00:00"
                }, 
                "required_operators": 1, 
                "location": {
                    "latitude": 46.05467126669367, 
                    "longitude": 13.355296744690587
                }, 
                "patient_name": "Nathan William"
            }, 
            "act_2_9": {
                "duration": 30, 
                "time_window": {
                    "start": "2014-03-07T08:00:00", 
                    "finish": "2014-03-07T18:00:00"
                }, 
                "required_operators": 1, 
                "location": {
                    "latitude": 46.220750709734666, 
                    "longitude": 13.452427848994635
                }, 
                "patient_name": "Jovita Ortega"
            }, 
            "act_2_8": {
                "duration": 30, 
                "time_window": {
                    "start": "2014-03-07T13:00:00", 
                    "finish": "2014-03-07T18:00:00"
                }, 
                "required_operators": 2, 
                "location": {
                    "latitude": 46.13622685716334, 
                    "longitude": 13.377408181919254
                }, 
                "patient_name": "Joshua Esparza"
            }, 
            "act_2_5": {
                "duration": 30, 
                "time_window": {
                    "start": "2014-03-07T11:20:00", 
                    "finish": "2014-03-07T14:40:00"
                }, 
                "required_operators": 1, 
                "location": {
                    "latitude": 46.127083831534044, 
                    "longitude": 12.969634076036982
                }, 
                "patient_name": "Frank Hepler"
            }, 
            "act_2_4": {
                "duration": 60, 
                "time_window": {
                    "start": "2014-03-07T08:00:00", 
                    "finish": "2014-03-07T13:00:00"
                }, 
                "required_operators": 2, 
                "location": {
                    "latitude": 46.03003614264233, 
                    "longitude": 13.134277321250018
                }, 
                "patient_name": "John Norris"
            }, 
            "act_2_7": {
                "duration": 60, 
                "time_window": {
                    "start": "2014-03-07T08:00:00", 
                    "finish": "2014-03-07T11:20:00"
                }, 
                "required_operators": 1, 
                "location": {
                    "latitude": 46.20854378246069, 
                    "longitude": 13.025898990446695
                }, 
                "patient_name": "Clint Ponce"
            }, 
            "act_2_6": {
                "duration": 30, 
                "time_window": {
                    "start": "2014-03-07T13:00:00", 
                    "finish": "2014-03-07T18:00:00"
                }, 
                "required_operators": 1, 
                "location": {
                    "latitude": 45.94005332218828, 
                    "longitude": 12.870190243375303
                }, 
                "patient_name": "Justina Pinkston"
            }, 
            "act_2_1": {
                "duration": 30, 
                "time_window": {
                    "start": "2014-03-07T08:00:00", 
                    "finish": "2014-03-07T18:00:00"
                }, 
                "required_operators": 1, 
                "location": {
                    "latitude": 46.23727665643327, 
                    "longitude": 13.048800373048708
                }, 
                "patient_name": "Robert Zapata"
            }, 
            "act_2_0": {
                "duration": 30, 
                "time_window": {
                    "start": "2014-03-07T13:00:00", 
                    "finish": "2014-03-07T18:00:00"
                }, 
                "required_operators": 1, 
                "location": {
                    "latitude": 46.127980117047514, 
                    "longitude": 13.237305039739297
                }, 
                "patient_name": "Harold Jacobs"
            }, 
            "act_2_3": {
                "duration": 30, 
                "time_window": {
                    "start": "2014-03-07T13:00:00", 
                    "finish": "2014-03-07T18:00:00"
                }, 
                "required_operators": 1, 
                "location": {
                    "latitude": 46.02649136036945, 
                    "longitude": 12.945937791987339
                }, 
                "patient_name": "Pia Glasser"
            }, 
            "act_2_2": {
                "duration": 60, 
                "time_window": {
                    "start": "2014-03-07T08:00:00", 
                    "finish": "2014-03-07T13:00:00"
                }, 
                "required_operators": 1, 
                "location": {
                    "latitude": 46.23512649355006, 
                    "longitude": 13.28380696275373
                }, 
                "patient_name": "Carli Sterling"
            }
        }
    ], 
    "operators": {
        "op_12": {
            "time_windows": [
                {
                    "start": "2014-03-05T08:00:00", 
                    "finish": "2014-03-05T18:00:00", 
                    "regular_worktime": "8:00:00"
                }, 
                {
                    "start": "2014-03-06T08:00:00", 
                    "finish": "2014-03-06T13:00:00", 
                    "regular_worktime": "4:00:00"
                }, 
                {
                    "start": "2014-03-07T08:00:00", 
                    "finish": "2014-03-07T13:00:00", 
                    "regular_worktime": "4:00:00"
                }
            ], 
            "incompatible_activities": [
                "act_1_19", 
                "act_0_29", 
                "act_2_14", 
                "act_0_14", 
                "act_2_37", 
                "act_0_32", 
                "act_0_33", 
                "act_2_31"
            ], 
            "maximum_working_hours": "12:00:00", 
            "name": "Thomas Lafontant", 
            "minimum_working_hours": "08:00:00"
        }, 
        "op_15": {
            "time_windows": [
                {
                    "start": "2014-03-05T08:00:00", 
                    "finish": "2014-03-05T18:00:00", 
                    "regular_worktime": "8:00:00"
                }, 
                {
                    "start": "2014-03-06T08:00:00", 
                    "finish": "2014-03-06T13:00:00", 
                    "regular_worktime": "4:00:00"
                }, 
                {
                    "start": "2014-03-07T08:00:00", 
                    "finish": "2014-03-07T13:00:00", 
                    "regular_worktime": "4:00:00"
                }
            ], 
            "incompatible_activities": [
                "act_0_4", 
                "act_2_6", 
                "act_0_23", 
                "act_1_10", 
                "act_0_9", 
                "act_0_20", 
                "act_1_39", 
                "act_1_21"
            ], 
            "maximum_working_hours": "12:00:00", 
            "name": "Mario Irvin", 
            "minimum_working_hours": "08:00:00"
        }, 
        "op_8": {
            "time_windows": [
                {
                    "start": "2014-03-05T08:00:00", 
                    "finish": "2014-03-05T18:00:00", 
                    "regular_worktime": "8:00:00"
                }, 
                {
                    "start": "2014-03-06T08:00:00", 
                    "finish": "2014-03-06T18:00:00", 
                    "regular_worktime": "8:00:00"
                }, 
                {
                    "start": "2014-03-07T08:00:00", 
                    "finish": "2014-03-07T18:00:00", 
                    "regular_worktime": "8:00:00"
                }
            ], 
            "incompatible_activities": [
                "act_2_32", 
                "act_0_9", 
                "act_2_7", 
                "act_1_15", 
                "act_2_21", 
                "act_2_17", 
                "act_2_3", 
                "act_1_26"
            ], 
            "maximum_working_hours": "16:00:00", 
            "name": "Amber Eldridge", 
            "minimum_working_hours": "16:00:00"
        }, 
        "op_9": {
            "time_windows": [
                {
                    "start": "2014-03-05T08:00:00", 
                    "finish": "2014-03-05T18:00:00", 
                    "regular_worktime": "8:00:00"
                }, 
                {
                    "start": "2014-03-06T08:00:00", 
                    "finish": "2014-03-06T13:00:00", 
                    "regular_worktime": "4:00:00"
                }, 
                {
                    "start": "2014-03-07T13:00:00", 
                    "finish": "2014-03-07T18:00:00", 
                    "regular_worktime": "4:00:00"
                }
            ], 
            "incompatible_activities": [
                "act_0_36", 
                "act_0_12", 
                "act_1_24", 
                "act_0_20", 
                "act_1_26", 
                "act_2_19", 
                "act_1_12", 
                "act_0_11"
            ], 
            "maximum_working_hours": "12:00:00", 
            "name": "Bradley Becker", 
            "minimum_working_hours": "08:00:00"
        }, 
        "op_13": {
            "time_windows": [
                {
                    "start": "2014-03-05T08:00:00", 
                    "finish": "2014-03-05T18:00:00", 
                    "regular_worktime": "8:00:00"
                }, 
                {
                    "start": "2014-03-06T08:00:00", 
                    "finish": "2014-03-06T18:00:00", 
                    "regular_worktime": "8:00:00"
                }, 
                {
                    "start": "2014-03-07T08:00:00", 
                    "finish": "2014-03-07T18:00:00", 
                    "regular_worktime": "8:00:00"
                }
            ], 
            "incompatible_activities": [
                "act_1_20", 
                "act_0_22", 
                "act_0_25", 
                "act_0_1", 
                "act_2_29", 
                "act_2_34", 
                "act_2_13", 
                "act_1_18"
            ], 
            "maximum_working_hours": "16:00:00", 
            "name": "Bertha Bowden", 
            "minimum_working_hours": "16:00:00"
        }, 
        "op_4": {
            "time_windows": [
                {
                    "start": "2014-03-05T13:00:00", 
                    "finish": "2014-03-05T18:00:00", 
                    "regular_worktime": "4:00:00"
                }, 
                {
                    "start": "2014-03-06T08:00:00", 
                    "finish": "2014-03-06T13:00:00", 
                    "regular_worktime": "4:00:00"
                }, 
                {
                    "start": "2014-03-07T08:00:00", 
                    "finish": "2014-03-07T18:00:00", 
                    "regular_worktime": "8:00:00"
                }
            ], 
            "incompatible_activities": [
                "act_1_4", 
                "act_1_10", 
                "act_1_13", 
                "act_2_30", 
                "act_2_1", 
                "act_2_38", 
                "act_1_33", 
                "act_2_10"
            ], 
            "maximum_working_hours": "12:00:00", 
            "name": "Janine Jackson", 
            "minimum_working_hours": "08:00:00"
        }, 
        "op_5": {
            "time_windows": [
                {
                    "start": "2014-03-05T08:00:00", 
                    "finish": "2014-03-05T13:00:00", 
                    "regular_worktime": "4:00:00"
                }, 
                {
                    "start": "2014-03-06T08:00:00", 
                    "finish": "2014-03-06T18:00:00", 
                    "regular_worktime": "8:00:00"
                }, 
                {
                    "start": "2014-03-07T08:00:00", 
                    "finish": "2014-03-07T13:00:00", 
                    "regular_worktime": "4:00:00"
                }
            ], 
            "incompatible_activities": [
                "act_0_12", 
                "act_2_18", 
                "act_2_24", 
                "act_0_17", 
                "act_0_1", 
                "act_1_13", 
                "act_0_2", 
                "act_1_27"
            ], 
            "maximum_working_hours": "12:00:00", 
            "name": "Kaitlin Maleh", 
            "minimum_working_hours": "08:00:00"
        }, 
        "op_6": {
            "time_windows": [
                {
                    "start": "2014-03-05T13:00:00", 
                    "finish": "2014-03-05T18:00:00", 
                    "regular_worktime": "4:00:00"
                }, 
                {
                    "start": "2014-03-06T08:00:00", 
                    "finish": "2014-03-06T13:00:00", 
                    "regular_worktime": "4:00:00"
                }, 
                {
                    "start": "2014-03-07T08:00:00", 
                    "finish": "2014-03-07T18:00:00", 
                    "regular_worktime": "8:00:00"
                }
            ], 
            "incompatible_activities": [
                "act_1_6", 
                "act_2_38", 
                "act_2_31", 
                "act_1_10", 
                "act_2_23", 
                "act_1_25", 
                "act_2_29", 
                "act_1_28"
            ], 
            "maximum_working_hours": "12:00:00", 
            "name": "Robert Duran", 
            "minimum_working_hours": "08:00:00"
        }, 
        "op_7": {
            "time_windows": [
                {
                    "start": "2014-03-05T13:00:00", 
                    "finish": "2014-03-05T18:00:00", 
                    "regular_worktime": "4:00:00"
                }, 
                {
                    "start": "2014-03-06T08:00:00", 
                    "finish": "2014-03-06T18:00:00", 
                    "regular_worktime": "8:00:00"
                }, 
                {
                    "start": "2014-03-07T08:00:00", 
                    "finish": "2014-03-07T18:00:00", 
                    "regular_worktime": "8:00:00"
                }
            ], 
            "incompatible_activities": [
                "act_1_27", 
                "act_0_34", 
                "act_0_11", 
                "act_0_1", 
                "act_0_14", 
                "act_2_18", 
                "act_2_30", 
                "act_1_14"
            ], 
            "maximum_working_hours": "16:00:00", 
            "name": "Richard Garcia", 
            "minimum_working_hours": "12:00:00"
        }, 
        "op_0": {
            "time_windows": [
                {
                    "start": "2014-03-05T08:00:00", 
                    "finish": "2014-03-05T18:00:00", 
                    "regular_worktime": "8:00:00"
                }, 
                {
                    "start": "2014-03-06T08:00:00", 
                    "finish": "2014-03-06T18:00:00", 
                    "regular_worktime": "8:00:00"
                }, 
                {
                    "start": "2014-03-07T08:00:00", 
                    "finish": "2014-03-07T18:00:00", 
                    "regular_worktime": "8:00:00"
                }
            ], 
            "incompatible_activities": [
                "act_1_4", 
                "act_1_16", 
                "act_2_12", 
                "act_1_13", 
                "act_0_23", 
                "act_2_30", 
                "act_0_22", 
                "act_0_38"
            ], 
            "maximum_working_hours": "16:00:00", 
            "name": "Herbert Chapman", 
            "minimum_working_hours": "16:00:00"
        }, 
        "op_1": {
            "time_windows": [
                {
                    "start": "2014-03-05T08:00:00", 
                    "finish": "2014-03-05T18:00:00", 
                    "regular_worktime": "8:00:00"
                }, 
                {
                    "start": "2014-03-06T08:00:00", 
                    "finish": "2014-03-06T18:00:00", 
                    "regular_worktime": "8:00:00"
                }, 
                {
                    "start": "2014-03-07T08:00:00", 
                    "finish": "2014-03-07T18:00:00", 
                    "regular_worktime": "8:00:00"
                }
            ], 
            "incompatible_activities": [
                "act_2_11", 
                "act_2_34", 
                "act_2_6", 
                "act_0_39", 
                "act_0_11", 
                "act_0_18", 
                "act_2_27", 
                "act_1_30"
            ], 
            "maximum_working_hours": "16:00:00", 
            "name": "Victor Young", 
            "minimum_working_hours": "16:00:00"
        }, 
        "op_2": {
            "time_windows": [
                {
                    "start": "2014-03-05T08:00:00", 
                    "finish": "2014-03-05T18:00:00", 
                    "regular_worktime": "8:00:00"
                }, 
                {
                    "start": "2014-03-06T13:00:00", 
                    "finish": "2014-03-06T18:00:00", 
                    "regular_worktime": "4:00:00"
                }, 
                {
                    "start": "2014-03-07T08:00:00", 
                    "finish": "2014-03-07T18:00:00", 
                    "regular_worktime": "8:00:00"
                }
            ], 
            "incompatible_activities": [
                "act_2_33", 
                "act_2_38", 
                "act_2_24", 
                "act_0_2", 
                "act_0_26", 
                "act_1_22", 
                "act_1_8", 
                "act_1_38"
            ], 
            "maximum_working_hours": "16:00:00", 
            "name": "Martha Trigg", 
            "minimum_working_hours": "12:00:00"
        }, 
        "op_3": {
            "time_windows": [
                {
                    "start": "2014-03-05T08:00:00", 
                    "finish": "2014-03-05T18:00:00", 
                    "regular_worktime": "8:00:00"
                }, 
                {
                    "start": "2014-03-06T08:00:00", 
                    "finish": "2014-03-06T13:00:00", 
                    "regular_worktime": "4:00:00"
                }, 
                {
                    "start": "2014-03-07T08:00:00", 
                    "finish": "2014-03-07T18:00:00", 
                    "regular_worktime": "8:00:00"
                }
            ], 
            "incompatible_activities": [
                "act_1_15", 
                "act_0_12", 
                "act_1_8", 
                "act_2_32", 
                "act_0_34", 
                "act_2_5", 
                "act_1_3", 
                "act_1_9"
            ], 
            "maximum_working_hours": "16:00:00", 
            "name": "Gladys Ortega", 
            "minimum_working_hours": "12:00:00"
        }, 
        "op_16": {
            "time_windows": [
                {
                    "start": "2014-03-05T08:00:00", 
                    "finish": "2014-03-05T18:00:00", 
                    "regular_worktime": "8:00:00"
                }, 
                {
                    "start": "2014-03-06T08:00:00", 
                    "finish": "2014-03-06T13:00:00", 
                    "regular_worktime": "4:00:00"
                }, 
                {
                    "start": "2014-03-07T13:00:00", 
                    "finish": "2014-03-07T18:00:00", 
                    "regular_worktime": "4:00:00"
                }
            ], 
            "incompatible_activities": [
                "act_1_18", 
                "act_2_5", 
                "act_2_4", 
                "act_2_24", 
                "act_1_6", 
                "act_0_37", 
                "act_0_35", 
                "act_2_35"
            ], 
            "maximum_working_hours": "12:00:00", 
            "name": "Agnes Hinds", 
            "minimum_working_hours": "08:00:00"
        }, 
        "op_10": {
            "time_windows": [
                {
                    "start": "2014-03-05T08:00:00", 
                    "finish": "2014-03-05T13:00:00", 
                    "regular_worktime": "4:00:00"
                }, 
                {
                    "start": "2014-03-06T08:00:00", 
                    "finish": "2014-03-06T18:00:00", 
                    "regular_worktime": "8:00:00"
                }, 
                {
                    "start": "2014-03-07T08:00:00", 
                    "finish": "2014-03-07T13:00:00", 
                    "regular_worktime": "4:00:00"
                }
            ], 
            "incompatible_activities": [
                "act_1_17", 
                "act_2_38", 
                "act_0_26", 
                "act_0_39", 
                "act_2_7", 
                "act_2_8", 
                "act_2_37", 
                "act_0_15"
            ], 
            "maximum_working_hours": "12:00:00", 
            "name": "Randall Hall", 
            "minimum_working_hours": "08:00:00"
        }, 
        "op_11": {
            "time_windows": [
                {
                    "start": "2014-03-05T08:00:00", 
                    "finish": "2014-03-05T18:00:00", 
                    "regular_worktime": "8:00:00"
                }, 
                {
                    "start": "2014-03-06T08:00:00", 
                    "finish": "2014-03-06T18:00:00", 
                    "regular_worktime": "8:00:00"
                }, 
                {
                    "start": "2014-03-07T08:00:00", 
                    "finish": "2014-03-07T18:00:00", 
                    "regular_worktime": "8:00:00"
                }
            ], 
            "incompatible_activities": [
                "act_2_1", 
                "act_0_30", 
                "act_2_10", 
                "act_0_20", 
                "act_1_34", 
                "act_2_18", 
                "act_1_17", 
                "act_0_39"
            ], 
            "maximum_working_hours": "16:00:00", 
            "name": "Catalina Richie", 
            "minimum_working_hours": "16:00:00"
        }, 
        "op_14": {
            "time_windows": [
                {
                    "start": "2014-03-05T08:00:00", 
                    "finish": "2014-03-05T18:00:00", 
                    "regular_worktime": "8:00:00"
                }, 
                {
                    "start": "2014-03-06T08:00:00", 
                    "finish": "2014-03-06T13:00:00", 
                    "regular_worktime": "4:00:00"
                }, 
                {
                    "start": "2014-03-07T08:00:00", 
                    "finish": "2014-03-07T18:00:00", 
                    "regular_worktime": "8:00:00"
                }
            ], 
            "incompatible_activities": [
                "act_1_7", 
                "act_0_32", 
                "act_0_2", 
                "act_0_13", 
                "act_1_17", 
                "act_0_22", 
                "act_2_18", 
                "act_1_37"
            ], 
            "maximum_working_hours": "16:00:00", 
            "name": "Willie Horne", 
            "minimum_working_hours": "12:00:00"
        }
    }, 
    "meta": {
        "time_window": {
            "start": "08:00:00", 
            "finish": "18:00:00"
        }, 
        "horizon": 3, 
        "granularity": 10, 
        "geographic_area": {
            "upper_left": [
                46.259645, 
                12.860656
            ], 
            "lower_right": [
                45.936826, 
                13.485503
            ]
        }, 
        "max_consecutive_days": 2, 
        "finish_date": "2014-03-08T00:00:00", 
        "max_overtime_rate": 1.1, 
        "start_date": "2014-03-05T00:00:00"
    }
}