{
    "activities": [
        {
            "act_0_9": {
                "duration": 30, 
                "time_window": {
                    "start": "2014-03-05T08:00:00", 
                    "finish": "2014-03-05T13:00:00"
                }, 
                "required_operators": 1, 
                "location": {
                    "latitude": 45.99829753320236, 
                    "longitude": 13.342906175974148
                }, 
                "patient_name": "Kristi Hill"
            }, 
            "act_0_8": {
                "duration": 30, 
                "time_window": {
                    "start": "2014-03-05T13:00:00", 
                    "finish": "2014-03-05T18:00:00"
                }, 
                "required_operators": 1, 
                "location": {
                    "latitude": 46.15708022288552, 
                    "longitude": 13.250684519906773
                }, 
                "patient_name": "Edgardo Johnson"
            }, 
            "act_0_3": {
                "duration": 30, 
                "time_window": {
                    "start": "2014-03-05T08:00:00", 
                    "finish": "2014-03-05T18:00:00"
                }, 
                "required_operators": 2, 
                "location": {
                    "latitude": 45.96734923388484, 
                    "longitude": 13.21767147420462
                }, 
                "patient_name": "Felix Bachman"
            }, 
            "act_0_2": {
                "duration": 30, 
                "time_window": {
                    "start": "2014-03-05T08:00:00", 
                    "finish": "2014-03-05T11:20:00"
                }, 
                "required_operators": 2, 
                "location": {
                    "latitude": 46.177642928900525, 
                    "longitude": 13.07742357383161
                }, 
                "patient_name": "Wanda Keesee"
            }, 
            "act_0_1": {
                "duration": 30, 
                "time_window": {
                    "start": "2014-03-05T08:00:00", 
                    "finish": "2014-03-05T18:00:00"
                }, 
                "required_operators": 1, 
                "location": {
                    "latitude": 46.03624912165592, 
                    "longitude": 12.99936970551519
                }, 
                "patient_name": "Reatha Waits"
            }, 
            "act_0_0": {
                "duration": 30, 
                "time_window": {
                    "start": "2014-03-05T08:00:00", 
                    "finish": "2014-03-05T18:00:00"
                }, 
                "required_operators": 1, 
                "location": {
                    "latitude": 46.020887266458104, 
                    "longitude": 13.28896600892422
                }, 
                "patient_name": "Billy Conaughty"
            }, 
            "act_0_7": {
                "duration": 60, 
                "time_window": {
                    "start": "2014-03-05T14:40:00", 
                    "finish": "2014-03-05T18:00:00"
                }, 
                "required_operators": 1, 
                "location": {
                    "latitude": 45.97733889260311, 
                    "longitude": 12.952359123087712
                }, 
                "patient_name": "Ronald Vajgrt"
            }, 
            "act_0_6": {
                "duration": 30, 
                "time_window": {
                    "start": "2014-03-05T08:00:00", 
                    "finish": "2014-03-05T11:20:00"
                }, 
                "required_operators": 1, 
                "location": {
                    "latitude": 46.241613750215095, 
                    "longitude": 13.0509062713121
                }, 
                "patient_name": "Tiffany Dilsaver"
            }, 
            "act_0_5": {
                "duration": 30, 
                "time_window": {
                    "start": "2014-03-05T13:00:00", 
                    "finish": "2014-03-05T18:00:00"
                }, 
                "required_operators": 1, 
                "location": {
                    "latitude": 45.95769374573304, 
                    "longitude": 13.00702987964545
                }, 
                "patient_name": "Eric Brown"
            }, 
            "act_0_4": {
                "duration": 30, 
                "time_window": {
                    "start": "2014-03-05T08:00:00", 
                    "finish": "2014-03-05T11:20:00"
                }, 
                "required_operators": 1, 
                "location": {
                    "latitude": 45.98518922027111, 
                    "longitude": 12.952218115878864
                }, 
                "patient_name": "Darwin West"
            }, 
            "act_0_19": {
                "duration": 60, 
                "time_window": {
                    "start": "2014-03-05T14:40:00", 
                    "finish": "2014-03-05T18:00:00"
                }, 
                "required_operators": 1, 
                "location": {
                    "latitude": 46.226841010962005, 
                    "longitude": 13.033506454576532
                }, 
                "patient_name": "Stephanie Andrada"
            }, 
            "act_0_18": {
                "duration": 30, 
                "time_window": {
                    "start": "2014-03-05T13:00:00", 
                    "finish": "2014-03-05T18:00:00"
                }, 
                "required_operators": 1, 
                "location": {
                    "latitude": 46.08968812992741, 
                    "longitude": 13.274629383713927
                }, 
                "patient_name": "Dorothy Gaiser"
            }, 
            "act_0_17": {
                "duration": 30, 
                "time_window": {
                    "start": "2014-03-05T13:00:00", 
                    "finish": "2014-03-05T18:00:00"
                }, 
                "required_operators": 1, 
                "location": {
                    "latitude": 45.93863344028717, 
                    "longitude": 13.013305128985884
                }, 
                "patient_name": "Valarie Stahr"
            }, 
            "act_0_16": {
                "duration": 30, 
                "time_window": {
                    "start": "2014-03-05T13:00:00", 
                    "finish": "2014-03-05T18:00:00"
                }, 
                "required_operators": 1, 
                "location": {
                    "latitude": 46.0408320692606, 
                    "longitude": 13.318167661560024
                }, 
                "patient_name": "Angela Sanchez"
            }, 
            "act_0_15": {
                "duration": 30, 
                "time_window": {
                    "start": "2014-03-05T14:40:00", 
                    "finish": "2014-03-05T18:00:00"
                }, 
                "required_operators": 1, 
                "location": {
                    "latitude": 46.03374885037928, 
                    "longitude": 12.905828141593306
                }, 
                "patient_name": "Sheila Henderson"
            }, 
            "act_0_14": {
                "duration": 60, 
                "time_window": {
                    "start": "2014-03-05T08:00:00", 
                    "finish": "2014-03-05T13:00:00"
                }, 
                "required_operators": 1, 
                "location": {
                    "latitude": 46.14519821769115, 
                    "longitude": 12.86792340539863
                }, 
                "patient_name": "James Whiting"
            }, 
            "act_0_13": {
                "duration": 30, 
                "time_window": {
                    "start": "2014-03-05T08:00:00", 
                    "finish": "2014-03-05T11:20:00"
                }, 
                "required_operators": 1, 
                "location": {
                    "latitude": 46.23915878573159, 
                    "longitude": 12.9275769588832
                }, 
                "patient_name": "June Rhodes"
            }, 
            "act_0_12": {
                "duration": 30, 
                "time_window": {
                    "start": "2014-03-05T08:00:00", 
                    "finish": "2014-03-05T18:00:00"
                }, 
                "required_operators": 2, 
                "location": {
                    "latitude": 46.14206418973185, 
                    "longitude": 12.882676273075274
                }, 
                "patient_name": "Ben Cuccia"
            }, 
            "act_0_11": {
                "duration": 60, 
                "time_window": {
                    "start": "2014-03-05T08:00:00", 
                    "finish": "2014-03-05T18:00:00"
                }, 
                "required_operators": 1, 
                "location": {
                    "latitude": 46.205748885851264, 
                    "longitude": 13.186587347806299
                }, 
                "patient_name": "Dennis Ward"
            }, 
            "act_0_10": {
                "duration": 30, 
                "time_window": {
                    "start": "2014-03-05T08:00:00", 
                    "finish": "2014-03-05T13:00:00"
                }, 
                "required_operators": 1, 
                "location": {
                    "latitude": 45.9477125675805, 
                    "longitude": 13.298244137046225
                }, 
                "patient_name": "Edna Sanchez"
            }
        }, 
        {
            "act_1_14": {
                "duration": 60, 
                "time_window": {
                    "start": "2014-03-06T13:00:00", 
                    "finish": "2014-03-06T18:00:00"
                }, 
                "required_operators": 1, 
                "location": {
                    "latitude": 46.098813741989936, 
                    "longitude": 13.233631302616832
                }, 
                "patient_name": "Evelyn Hamilton"
            }, 
            "act_1_15": {
                "duration": 30, 
                "time_window": {
                    "start": "2014-03-06T08:00:00", 
                    "finish": "2014-03-06T13:00:00"
                }, 
                "required_operators": 1, 
                "location": {
                    "latitude": 45.97171769858131, 
                    "longitude": 13.348173013807866
                }, 
                "patient_name": "Susan Iraheta"
            }, 
            "act_1_16": {
                "duration": 60, 
                "time_window": {
                    "start": "2014-03-06T14:40:00", 
                    "finish": "2014-03-06T18:00:00"
                }, 
                "required_operators": 1, 
                "location": {
                    "latitude": 46.12773738034258, 
                    "longitude": 13.307799716824917
                }, 
                "patient_name": "Maria Crawford"
            }, 
            "act_1_17": {
                "duration": 60, 
                "time_window": {
                    "start": "2014-03-06T08:00:00", 
                    "finish": "2014-03-06T18:00:00"
                }, 
                "required_operators": 2, 
                "location": {
                    "latitude": 46.248150775929076, 
                    "longitude": 13.407582239934955
                }, 
                "patient_name": "Pamela Belflower"
            }, 
            "act_1_10": {
                "duration": 60, 
                "time_window": {
                    "start": "2014-03-06T08:00:00", 
                    "finish": "2014-03-06T18:00:00"
                }, 
                "required_operators": 2, 
                "location": {
                    "latitude": 46.17044619782867, 
                    "longitude": 13.256494394675865
                }, 
                "patient_name": "Jane Ramos"
            }, 
            "act_1_11": {
                "duration": 30, 
                "time_window": {
                    "start": "2014-03-06T11:20:00", 
                    "finish": "2014-03-06T14:40:00"
                }, 
                "required_operators": 1, 
                "location": {
                    "latitude": 45.971829002800455, 
                    "longitude": 13.053171762524906
                }, 
                "patient_name": "Ida Cole"
            }, 
            "act_1_12": {
                "duration": 60, 
                "time_window": {
                    "start": "2014-03-06T08:00:00", 
                    "finish": "2014-03-06T18:00:00"
                }, 
                "required_operators": 1, 
                "location": {
                    "latitude": 46.19511249743887, 
                    "longitude": 12.92497616716086
                }, 
                "patient_name": "Darius Briant"
            }, 
            "act_1_13": {
                "duration": 30, 
                "time_window": {
                    "start": "2014-03-06T08:00:00", 
                    "finish": "2014-03-06T11:20:00"
                }, 
                "required_operators": 3, 
                "location": {
                    "latitude": 46.187824121262054, 
                    "longitude": 13.178384174164298
                }, 
                "patient_name": "Frances Washington"
            }, 
            "act_1_18": {
                "duration": 60, 
                "time_window": {
                    "start": "2014-03-06T11:20:00", 
                    "finish": "2014-03-06T14:40:00"
                }, 
                "required_operators": 1, 
                "location": {
                    "latitude": 46.22686388123757, 
                    "longitude": 13.468786041300792
                }, 
                "patient_name": "Bryan Clopton"
            }, 
            "act_1_19": {
                "duration": 60, 
                "time_window": {
                    "start": "2014-03-06T08:00:00", 
                    "finish": "2014-03-06T13:00:00"
                }, 
                "required_operators": 1, 
                "location": {
                    "latitude": 45.968831694011094, 
                    "longitude": 13.199175097067242
                }, 
                "patient_name": "Charles Cunningham"
            }, 
            "act_1_2": {
                "duration": 60, 
                "time_window": {
                    "start": "2014-03-06T08:00:00", 
                    "finish": "2014-03-06T13:00:00"
                }, 
                "required_operators": 1, 
                "location": {
                    "latitude": 46.17380469926238, 
                    "longitude": 13.472929810184812
                }, 
                "patient_name": "Annie Archie"
            }, 
            "act_1_3": {
                "duration": 60, 
                "time_window": {
                    "start": "2014-03-06T08:00:00", 
                    "finish": "2014-03-06T18:00:00"
                }, 
                "required_operators": 1, 
                "location": {
                    "latitude": 45.95486537245764, 
                    "longitude": 13.462666970150126
                }, 
                "patient_name": "Oscar Reyes"
            }, 
            "act_1_0": {
                "duration": 60, 
                "time_window": {
                    "start": "2014-03-06T11:20:00", 
                    "finish": "2014-03-06T14:40:00"
                }, 
                "required_operators": 1, 
                "location": {
                    "latitude": 46.06796823481177, 
                    "longitude": 13.165440417442293
                }, 
                "patient_name": "Michael Mcgovern"
            }, 
            "act_1_1": {
                "duration": 60, 
                "time_window": {
                    "start": "2014-03-06T08:00:00", 
                    "finish": "2014-03-06T13:00:00"
                }, 
                "required_operators": 2, 
                "location": {
                    "latitude": 46.1345142705896, 
                    "longitude": 13.057192064740082
                }, 
                "patient_name": "Mattie Byrne"
            }, 
            "act_1_6": {
                "duration": 60, 
                "time_window": {
                    "start": "2014-03-06T08:00:00", 
                    "finish": "2014-03-06T18:00:00"
                }, 
                "required_operators": 1, 
                "location": {
                    "latitude": 45.95847390691298, 
                    "longitude": 13.346636150320375
                }, 
                "patient_name": "David Plummer"
            }, 
            "act_1_7": {
                "duration": 30, 
                "time_window": {
                    "start": "2014-03-06T08:00:00", 
                    "finish": "2014-03-06T13:00:00"
                }, 
                "required_operators": 1, 
                "location": {
                    "latitude": 45.946078080795886, 
                    "longitude": 13.40993649543698
                }, 
                "patient_name": "Valerie Edwards"
            }, 
            "act_1_4": {
                "duration": 60, 
                "time_window": {
                    "start": "2014-03-06T13:00:00", 
                    "finish": "2014-03-06T18:00:00"
                }, 
                "required_operators": 1, 
                "location": {
                    "latitude": 46.11428516250135, 
                    "longitude": 13.059367094465962
                }, 
                "patient_name": "Faye Lasalle"
            }, 
            "act_1_5": {
                "duration": 60, 
                "time_window": {
                    "start": "2014-03-06T13:00:00", 
                    "finish": "2014-03-06T18:00:00"
                }, 
                "required_operators": 1, 
                "location": {
                    "latitude": 46.22696703968142, 
                    "longitude": 13.25241419950418
                }, 
                "patient_name": "Boyd Burkett"
            }, 
            "act_1_8": {
                "duration": 60, 
                "time_window": {
                    "start": "2014-03-06T08:00:00", 
                    "finish": "2014-03-06T13:00:00"
                }, 
                "required_operators": 1, 
                "location": {
                    "latitude": 46.104337465108394, 
                    "longitude": 13.24988591200459
                }, 
                "patient_name": "Myra Ibarra"
            }, 
            "act_1_9": {
                "duration": 30, 
                "time_window": {
                    "start": "2014-03-06T11:20:00", 
                    "finish": "2014-03-06T14:40:00"
                }, 
                "required_operators": 1, 
                "location": {
                    "latitude": 45.97485620207934, 
                    "longitude": 13.144271593630037
                }, 
                "patient_name": "Dorothy Marr"
            }
        }, 
        {
            "act_2_19": {
                "duration": 30, 
                "time_window": {
                    "start": "2014-03-07T08:00:00", 
                    "finish": "2014-03-07T11:20:00"
                }, 
                "required_operators": 1, 
                "location": {
                    "latitude": 45.96643393226686, 
                    "longitude": 13.114467215797568
                }, 
                "patient_name": "Teresa Johnson"
            }, 
            "act_2_18": {
                "duration": 30, 
                "time_window": {
                    "start": "2014-03-07T08:00:00", 
                    "finish": "2014-03-07T13:00:00"
                }, 
                "required_operators": 1, 
                "location": {
                    "latitude": 46.17079491848762, 
                    "longitude": 13.095093405600972
                }, 
                "patient_name": "Stephen Rosenholm"
            }, 
            "act_2_11": {
                "duration": 60, 
                "time_window": {
                    "start": "2014-03-07T14:40:00", 
                    "finish": "2014-03-07T18:00:00"
                }, 
                "required_operators": 1, 
                "location": {
                    "latitude": 46.10857715173615, 
                    "longitude": 13.237387950625076
                }, 
                "patient_name": "Patricia Wyman"
            }, 
            "act_2_10": {
                "duration": 30, 
                "time_window": {
                    "start": "2014-03-07T13:00:00", 
                    "finish": "2014-03-07T18:00:00"
                }, 
                "required_operators": 1, 
                "location": {
                    "latitude": 46.150337474052996, 
                    "longitude": 12.86926877461001
                }, 
                "patient_name": "Grace Cole"
            }, 
            "act_2_13": {
                "duration": 30, 
                "time_window": {
                    "start": "2014-03-07T08:00:00", 
                    "finish": "2014-03-07T18:00:00"
                }, 
                "required_operators": 1, 
                "location": {
                    "latitude": 46.02435764281048, 
                    "longitude": 12.877968719437748
                }, 
                "patient_name": "Charles Hartz"
            }, 
            "act_2_12": {
                "duration": 60, 
                "time_window": {
                    "start": "2014-03-07T11:20:00", 
                    "finish": "2014-03-07T14:40:00"
                }, 
                "required_operators": 1, 
                "location": {
                    "latitude": 46.18433972329022, 
                    "longitude": 13.081787486717817
                }, 
                "patient_name": "Claudia Moore"
            }, 
            "act_2_15": {
                "duration": 60, 
                "time_window": {
                    "start": "2014-03-07T08:00:00", 
                    "finish": "2014-03-07T11:20:00"
                }, 
                "required_operators": 1, 
                "location": {
                    "latitude": 45.942174881619536, 
                    "longitude": 13.317362795571185
                }, 
                "patient_name": "Tammy Romo"
            }, 
            "act_2_14": {
                "duration": 60, 
                "time_window": {
                    "start": "2014-03-07T08:00:00", 
                    "finish": "2014-03-07T18:00:00"
                }, 
                "required_operators": 1, 
                "location": {
                    "latitude": 45.98414214777468, 
                    "longitude": 13.281629085092968
                }, 
                "patient_name": "Kimberly James"
            }, 
            "act_2_17": {
                "duration": 30, 
                "time_window": {
                    "start": "2014-03-07T14:40:00", 
                    "finish": "2014-03-07T18:00:00"
                }, 
                "required_operators": 2, 
                "location": {
                    "latitude": 45.94031696456985, 
                    "longitude": 13.14312995753141
                }, 
                "patient_name": "Jonathan Sequeira"
            }, 
            "act_2_16": {
                "duration": 30, 
                "time_window": {
                    "start": "2014-03-07T13:00:00", 
                    "finish": "2014-03-07T18:00:00"
                }, 
                "required_operators": 3, 
                "location": {
                    "latitude": 45.96632531966605, 
                    "longitude": 13.301649993609141
                }, 
                "patient_name": "Sarah Frazier"
            }, 
            "act_2_9": {
                "duration": 30, 
                "time_window": {
                    "start": "2014-03-07T08:00:00", 
                    "finish": "2014-03-07T11:20:00"
                }, 
                "required_operators": 1, 
                "location": {
                    "latitude": 45.97899969462609, 
                    "longitude": 13.241785096335017
                }, 
                "patient_name": "Gertrude Christensen"
            }, 
            "act_2_8": {
                "duration": 30, 
                "time_window": {
                    "start": "2014-03-07T08:00:00", 
                    "finish": "2014-03-07T18:00:00"
                }, 
                "required_operators": 1, 
                "location": {
                    "latitude": 45.97423853491546, 
                    "longitude": 12.890767714876455
                }, 
                "patient_name": "Robert Music"
            }, 
            "act_2_5": {
                "duration": 30, 
                "time_window": {
                    "start": "2014-03-07T08:00:00", 
                    "finish": "2014-03-07T13:00:00"
                }, 
                "required_operators": 1, 
                "location": {
                    "latitude": 46.09011780299293, 
                    "longitude": 13.272436661656304
                }, 
                "patient_name": "Eric Edwards"
            }, 
            "act_2_4": {
                "duration": 60, 
                "time_window": {
                    "start": "2014-03-07T08:00:00", 
                    "finish": "2014-03-07T13:00:00"
                }, 
                "required_operators": 1, 
                "location": {
                    "latitude": 46.105444665233414, 
                    "longitude": 13.379813807134667
                }, 
                "patient_name": "Valentine Moyes"
            }, 
            "act_2_7": {
                "duration": 60, 
                "time_window": {
                    "start": "2014-03-07T13:00:00", 
                    "finish": "2014-03-07T18:00:00"
                }, 
                "required_operators": 1, 
                "location": {
                    "latitude": 46.07132560083459, 
                    "longitude": 13.358179369328063
                }, 
                "patient_name": "David Gragg"
            }, 
            "act_2_6": {
                "duration": 30, 
                "time_window": {
                    "start": "2014-03-07T14:40:00", 
                    "finish": "2014-03-07T18:00:00"
                }, 
                "required_operators": 1, 
                "location": {
                    "latitude": 46.10962812036027, 
                    "longitude": 13.127939882812214
                }, 
                "patient_name": "Clifton Gilstrap"
            }, 
            "act_2_1": {
                "duration": 30, 
                "time_window": {
                    "start": "2014-03-07T11:20:00", 
                    "finish": "2014-03-07T14:40:00"
                }, 
                "required_operators": 1, 
                "location": {
                    "latitude": 46.206363419485584, 
                    "longitude": 13.025519930994333
                }, 
                "patient_name": "Mattie Lewis"
            }, 
            "act_2_0": {
                "duration": 30, 
                "time_window": {
                    "start": "2014-03-07T11:20:00", 
                    "finish": "2014-03-07T14:40:00"
                }, 
                "required_operators": 1, 
                "location": {
                    "latitude": 46.08520407154384, 
                    "longitude": 12.881705347488152
                }, 
                "patient_name": "Barbara Bash"
            }, 
            "act_2_3": {
                "duration": 30, 
                "time_window": {
                    "start": "2014-03-07T11:20:00", 
                    "finish": "2014-03-07T14:40:00"
                }, 
                "required_operators": 1, 
                "location": {
                    "latitude": 45.94519583422021, 
                    "longitude": 13.366012970096259
                }, 
                "patient_name": "Randy Daniels"
            }, 
            "act_2_2": {
                "duration": 60, 
                "time_window": {
                    "start": "2014-03-07T08:00:00", 
                    "finish": "2014-03-07T13:00:00"
                }, 
                "required_operators": 1, 
                "location": {
                    "latitude": 46.241649018278316, 
                    "longitude": 13.164151497202319
                }, 
                "patient_name": "Camille Johnson"
            }
        }, 
        {
            "act_3_4": {
                "duration": 30, 
                "time_window": {
                    "start": "2014-03-08T08:00:00", 
                    "finish": "2014-03-08T18:00:00"
                }, 
                "required_operators": 1, 
                "location": {
                    "latitude": 46.135581161411956, 
                    "longitude": 13.400297088057698
                }, 
                "patient_name": "Mark Cornelius"
            }, 
            "act_3_5": {
                "duration": 30, 
                "time_window": {
                    "start": "2014-03-08T08:00:00", 
                    "finish": "2014-03-08T18:00:00"
                }, 
                "required_operators": 1, 
                "location": {
                    "latitude": 46.138724148018916, 
                    "longitude": 12.96281823963508
                }, 
                "patient_name": "Belinda Menchaca"
            }, 
            "act_3_6": {
                "duration": 30, 
                "time_window": {
                    "start": "2014-03-08T08:00:00", 
                    "finish": "2014-03-08T18:00:00"
                }, 
                "required_operators": 1, 
                "location": {
                    "latitude": 45.98149861150054, 
                    "longitude": 13.091759438460663
                }, 
                "patient_name": "Nelson Bradley"
            }, 
            "act_3_7": {
                "duration": 30, 
                "time_window": {
                    "start": "2014-03-08T08:00:00", 
                    "finish": "2014-03-08T18:00:00"
                }, 
                "required_operators": 1, 
                "location": {
                    "latitude": 46.1493398841722, 
                    "longitude": 13.425137565321627
                }, 
                "patient_name": "Marion Caraballo"
            }, 
            "act_3_0": {
                "duration": 60, 
                "time_window": {
                    "start": "2014-03-08T13:00:00", 
                    "finish": "2014-03-08T18:00:00"
                }, 
                "required_operators": 1, 
                "location": {
                    "latitude": 46.09327333564699, 
                    "longitude": 12.923321413963599
                }, 
                "patient_name": "Kelly Adames"
            }, 
            "act_3_1": {
                "duration": 60, 
                "time_window": {
                    "start": "2014-03-08T14:40:00", 
                    "finish": "2014-03-08T18:00:00"
                }, 
                "required_operators": 1, 
                "location": {
                    "latitude": 46.16682966603322, 
                    "longitude": 13.456354656596071
                }, 
                "patient_name": "Sara Wardlaw"
            }, 
            "act_3_2": {
                "duration": 60, 
                "time_window": {
                    "start": "2014-03-08T13:00:00", 
                    "finish": "2014-03-08T18:00:00"
                }, 
                "required_operators": 1, 
                "location": {
                    "latitude": 45.94867312020186, 
                    "longitude": 13.09510291583843
                }, 
                "patient_name": "William Martin"
            }, 
            "act_3_3": {
                "duration": 60, 
                "time_window": {
                    "start": "2014-03-08T08:00:00", 
                    "finish": "2014-03-08T18:00:00"
                }, 
                "required_operators": 1, 
                "location": {
                    "latitude": 46.16642490706249, 
                    "longitude": 12.970503272275911
                }, 
                "patient_name": "Michael Karns"
            }, 
            "act_3_8": {
                "duration": 60, 
                "time_window": {
                    "start": "2014-03-08T08:00:00", 
                    "finish": "2014-03-08T18:00:00"
                }, 
                "required_operators": 1, 
                "location": {
                    "latitude": 46.205614793110705, 
                    "longitude": 13.399236671430558
                }, 
                "patient_name": "Jon Mcclinton"
            }, 
            "act_3_9": {
                "duration": 60, 
                "time_window": {
                    "start": "2014-03-08T08:00:00", 
                    "finish": "2014-03-08T11:20:00"
                }, 
                "required_operators": 2, 
                "location": {
                    "latitude": 45.9614521324453, 
                    "longitude": 12.948121021812682
                }, 
                "patient_name": "Abraham Winslow"
            }, 
            "act_3_18": {
                "duration": 30, 
                "time_window": {
                    "start": "2014-03-08T13:00:00", 
                    "finish": "2014-03-08T18:00:00"
                }, 
                "required_operators": 1, 
                "location": {
                    "latitude": 45.94872370411407, 
                    "longitude": 12.874779103135333
                }, 
                "patient_name": "Sharlene Scoggins"
            }, 
            "act_3_19": {
                "duration": 60, 
                "time_window": {
                    "start": "2014-03-08T11:20:00", 
                    "finish": "2014-03-08T14:40:00"
                }, 
                "required_operators": 1, 
                "location": {
                    "latitude": 46.051639893638736, 
                    "longitude": 13.457571505635784
                }, 
                "patient_name": "Richard Oflaherty"
            }, 
            "act_3_16": {
                "duration": 60, 
                "time_window": {
                    "start": "2014-03-08T08:00:00", 
                    "finish": "2014-03-08T18:00:00"
                }, 
                "required_operators": 1, 
                "location": {
                    "latitude": 46.145813310395106, 
                    "longitude": 13.183608681143879
                }, 
                "patient_name": "John Minarik"
            }, 
            "act_3_17": {
                "duration": 60, 
                "time_window": {
                    "start": "2014-03-08T08:00:00", 
                    "finish": "2014-03-08T18:00:00"
                }, 
                "required_operators": 1, 
                "location": {
                    "latitude": 45.97410566727131, 
                    "longitude": 13.224993123901672
                }, 
                "patient_name": "Chastity Smith"
            }, 
            "act_3_14": {
                "duration": 30, 
                "time_window": {
                    "start": "2014-03-08T13:00:00", 
                    "finish": "2014-03-08T18:00:00"
                }, 
                "required_operators": 1, 
                "location": {
                    "latitude": 46.00732603031398, 
                    "longitude": 13.038716614387232
                }, 
                "patient_name": "Margaret Smith"
            }, 
            "act_3_15": {
                "duration": 60, 
                "time_window": {
                    "start": "2014-03-08T13:00:00", 
                    "finish": "2014-03-08T18:00:00"
                }, 
                "required_operators": 1, 
                "location": {
                    "latitude": 45.984656728030956, 
                    "longitude": 12.996564623468544
                }, 
                "patient_name": "Nathaniel Alkire"
            }, 
            "act_3_12": {
                "duration": 60, 
                "time_window": {
                    "start": "2014-03-08T08:00:00", 
                    "finish": "2014-03-08T18:00:00"
                }, 
                "required_operators": 1, 
                "location": {
                    "latitude": 46.175256891486484, 
                    "longitude": 13.43640248972053
                }, 
                "patient_name": "Leslie Adams"
            }, 
            "act_3_13": {
                "duration": 60, 
                "time_window": {
                    "start": "2014-03-08T14:40:00", 
                    "finish": "2014-03-08T18:00:00"
                }, 
                "required_operators": 1, 
                "location": {
                    "latitude": 46.143392423973445, 
                    "longitude": 13.290820275222186
                }, 
                "patient_name": "Michael Rogers"
            }, 
            "act_3_10": {
                "duration": 30, 
                "time_window": {
                    "start": "2014-03-08T08:00:00", 
                    "finish": "2014-03-08T13:00:00"
                }, 
                "required_operators": 1, 
                "location": {
                    "latitude": 46.100120331529794, 
                    "longitude": 13.112494474904002
                }, 
                "patient_name": "Richard Broussard"
            }, 
            "act_3_11": {
                "duration": 60, 
                "time_window": {
                    "start": "2014-03-08T13:00:00", 
                    "finish": "2014-03-08T18:00:00"
                }, 
                "required_operators": 1, 
                "location": {
                    "latitude": 46.04688277544335, 
                    "longitude": 13.424853590365577
                }, 
                "patient_name": "Carlos Parsons"
            }
        }, 
        {
            "act_4_13": {
                "duration": 30, 
                "time_window": {
                    "start": "2014-03-09T08:00:00", 
                    "finish": "2014-03-09T13:00:00"
                }, 
                "required_operators": 1, 
                "location": {
                    "latitude": 45.99650804849588, 
                    "longitude": 13.123138509017423
                }, 
                "patient_name": "Gerald Williams"
            }, 
            "act_4_12": {
                "duration": 60, 
                "time_window": {
                    "start": "2014-03-09T11:20:00", 
                    "finish": "2014-03-09T14:40:00"
                }, 
                "required_operators": 1, 
                "location": {
                    "latitude": 46.14529946194227, 
                    "longitude": 12.902218481969545
                }, 
                "patient_name": "Jesse Walker"
            }, 
            "act_4_11": {
                "duration": 60, 
                "time_window": {
                    "start": "2014-03-09T11:20:00", 
                    "finish": "2014-03-09T14:40:00"
                }, 
                "required_operators": 1, 
                "location": {
                    "latitude": 46.242784506942705, 
                    "longitude": 13.182740133154178
                }, 
                "patient_name": "Juan Martin"
            }, 
            "act_4_10": {
                "duration": 60, 
                "time_window": {
                    "start": "2014-03-09T08:00:00", 
                    "finish": "2014-03-09T18:00:00"
                }, 
                "required_operators": 1, 
                "location": {
                    "latitude": 46.0277544864597, 
                    "longitude": 13.143462810154952
                }, 
                "patient_name": "Isaac Whistler"
            }, 
            "act_4_17": {
                "duration": 60, 
                "time_window": {
                    "start": "2014-03-09T08:00:00", 
                    "finish": "2014-03-09T11:20:00"
                }, 
                "required_operators": 1, 
                "location": {
                    "latitude": 46.253606415639084, 
                    "longitude": 13.064471656697071
                }, 
                "patient_name": "Debra Bennett"
            }, 
            "act_4_15": {
                "duration": 30, 
                "time_window": {
                    "start": "2014-03-09T13:00:00", 
                    "finish": "2014-03-09T18:00:00"
                }, 
                "required_operators": 1, 
                "location": {
                    "latitude": 46.02280324417789, 
                    "longitude": 13.101537277520917
                }, 
                "patient_name": "Sang Walker"
            }, 
            "act_4_9": {
                "duration": 30, 
                "time_window": {
                    "start": "2014-03-09T08:00:00", 
                    "finish": "2014-03-09T18:00:00"
                }, 
                "required_operators": 1, 
                "location": {
                    "latitude": 46.093310505500256, 
                    "longitude": 13.049528008121909
                }, 
                "patient_name": "Chris Tracy"
            }, 
            "act_4_8": {
                "duration": 60, 
                "time_window": {
                    "start": "2014-03-09T08:00:00", 
                    "finish": "2014-03-09T18:00:00"
                }, 
                "required_operators": 1, 
                "location": {
                    "latitude": 45.96673485456887, 
                    "longitude": 13.050095775691636
                }, 
                "patient_name": "Elizabeth Johnson"
            }, 
            "act_4_7": {
                "duration": 60, 
                "time_window": {
                    "start": "2014-03-09T13:00:00", 
                    "finish": "2014-03-09T18:00:00"
                }, 
                "required_operators": 1, 
                "location": {
                    "latitude": 46.14622124711676, 
                    "longitude": 13.252135759519359
                }, 
                "patient_name": "Stephanie Stokes"
            }, 
            "act_4_6": {
                "duration": 60, 
                "time_window": {
                    "start": "2014-03-09T11:20:00", 
                    "finish": "2014-03-09T14:40:00"
                }, 
                "required_operators": 1, 
                "location": {
                    "latitude": 46.059354001750165, 
                    "longitude": 13.006708968124379
                }, 
                "patient_name": "Linda Morse"
            }, 
            "act_4_5": {
                "duration": 30, 
                "time_window": {
                    "start": "2014-03-09T11:20:00", 
                    "finish": "2014-03-09T14:40:00"
                }, 
                "required_operators": 1, 
                "location": {
                    "latitude": 45.95701138506051, 
                    "longitude": 13.355973321460725
                }, 
                "patient_name": "Tammy Lane"
            }, 
            "act_4_4": {
                "duration": 60, 
                "time_window": {
                    "start": "2014-03-09T14:40:00", 
                    "finish": "2014-03-09T18:00:00"
                }, 
                "required_operators": 1, 
                "location": {
                    "latitude": 46.05721908163665, 
                    "longitude": 13.312282252113883
                }, 
                "patient_name": "Manuel Farnell"
            }, 
            "act_4_3": {
                "duration": 30, 
                "time_window": {
                    "start": "2014-03-09T08:00:00", 
                    "finish": "2014-03-09T18:00:00"
                }, 
                "required_operators": 1, 
                "location": {
                    "latitude": 45.990210781918165, 
                    "longitude": 13.036218539715765
                }, 
                "patient_name": "Danny Church"
            }, 
            "act_4_2": {
                "duration": 30, 
                "time_window": {
                    "start": "2014-03-09T08:00:00", 
                    "finish": "2014-03-09T18:00:00"
                }, 
                "required_operators": 1, 
                "location": {
                    "latitude": 46.0516589421981, 
                    "longitude": 13.472843682516228
                }, 
                "patient_name": "Ronald Burton"
            }, 
            "act_4_1": {
                "duration": 30, 
                "time_window": {
                    "start": "2014-03-09T08:00:00", 
                    "finish": "2014-03-09T18:00:00"
                }, 
                "required_operators": 1, 
                "location": {
                    "latitude": 45.95297250801428, 
                    "longitude": 13.04118291378474
                }, 
                "patient_name": "Jacquelynn Christopher"
            }, 
            "act_4_0": {
                "duration": 60, 
                "time_window": {
                    "start": "2014-03-09T11:20:00", 
                    "finish": "2014-03-09T14:40:00"
                }, 
                "required_operators": 2, 
                "location": {
                    "latitude": 46.01328008956948, 
                    "longitude": 13.09920418585208
                }, 
                "patient_name": "Robert Houis"
            }, 
            "act_4_18": {
                "duration": 30, 
                "time_window": {
                    "start": "2014-03-09T08:00:00", 
                    "finish": "2014-03-09T18:00:00"
                }, 
                "required_operators": 1, 
                "location": {
                    "latitude": 46.06362094228165, 
                    "longitude": 13.33207653058577
                }, 
                "patient_name": "Irene Beshears"
            }, 
            "act_4_16": {
                "duration": 30, 
                "time_window": {
                    "start": "2014-03-09T08:00:00", 
                    "finish": "2014-03-09T13:00:00"
                }, 
                "required_operators": 1, 
                "location": {
                    "latitude": 46.109232677201945, 
                    "longitude": 13.031473781742111
                }, 
                "patient_name": "Pauline Greenwell"
            }, 
            "act_4_19": {
                "duration": 30, 
                "time_window": {
                    "start": "2014-03-09T08:00:00", 
                    "finish": "2014-03-09T13:00:00"
                }, 
                "required_operators": 1, 
                "location": {
                    "latitude": 46.17569288964265, 
                    "longitude": 13.025273902244336
                }, 
                "patient_name": "Janet Huffman"
            }, 
            "act_4_14": {
                "duration": 30, 
                "time_window": {
                    "start": "2014-03-09T08:00:00", 
                    "finish": "2014-03-09T18:00:00"
                }, 
                "required_operators": 1, 
                "location": {
                    "latitude": 46.16874460949602, 
                    "longitude": 13.15348093336428
                }, 
                "patient_name": "Shirley Gill"
            }
        }, 
        {
            "act_5_18": {
                "duration": 60, 
                "time_window": {
                    "start": "2014-03-10T13:00:00", 
                    "finish": "2014-03-10T18:00:00"
                }, 
                "required_operators": 1, 
                "location": {
                    "latitude": 46.06722661578885, 
                    "longitude": 13.450122317176005
                }, 
                "patient_name": "Alice Emberling"
            }, 
            "act_5_19": {
                "duration": 60, 
                "time_window": {
                    "start": "2014-03-10T11:20:00", 
                    "finish": "2014-03-10T14:40:00"
                }, 
                "required_operators": 1, 
                "location": {
                    "latitude": 46.11779133038512, 
                    "longitude": 13.26768120346548
                }, 
                "patient_name": "Mary Sojka"
            }, 
            "act_5_10": {
                "duration": 30, 
                "time_window": {
                    "start": "2014-03-10T08:00:00", 
                    "finish": "2014-03-10T11:20:00"
                }, 
                "required_operators": 1, 
                "location": {
                    "latitude": 46.098121667867595, 
                    "longitude": 12.957004344489336
                }, 
                "patient_name": "Bettye Court"
            }, 
            "act_5_11": {
                "duration": 30, 
                "time_window": {
                    "start": "2014-03-10T08:00:00", 
                    "finish": "2014-03-10T13:00:00"
                }, 
                "required_operators": 1, 
                "location": {
                    "latitude": 45.95031990337562, 
                    "longitude": 13.314167667679387
                }, 
                "patient_name": "Sherri Greeno"
            }, 
            "act_5_12": {
                "duration": 30, 
                "time_window": {
                    "start": "2014-03-10T14:40:00", 
                    "finish": "2014-03-10T18:00:00"
                }, 
                "required_operators": 1, 
                "location": {
                    "latitude": 46.15636388943831, 
                    "longitude": 12.91827534092739
                }, 
                "patient_name": "Andrew Speer"
            }, 
            "act_5_13": {
                "duration": 60, 
                "time_window": {
                    "start": "2014-03-10T11:20:00", 
                    "finish": "2014-03-10T14:40:00"
                }, 
                "required_operators": 1, 
                "location": {
                    "latitude": 46.0302568078819, 
                    "longitude": 13.140109130427497
                }, 
                "patient_name": "Angela Harris"
            }, 
            "act_5_14": {
                "duration": 30, 
                "time_window": {
                    "start": "2014-03-10T08:00:00", 
                    "finish": "2014-03-10T13:00:00"
                }, 
                "required_operators": 1, 
                "location": {
                    "latitude": 46.138396431220016, 
                    "longitude": 13.19544469387872
                }, 
                "patient_name": "Alice Steward"
            }, 
            "act_5_15": {
                "duration": 30, 
                "time_window": {
                    "start": "2014-03-10T08:00:00", 
                    "finish": "2014-03-10T18:00:00"
                }, 
                "required_operators": 1, 
                "location": {
                    "latitude": 46.10914290489497, 
                    "longitude": 12.969493852972915
                }, 
                "patient_name": "Howard Copeland"
            }, 
            "act_5_16": {
                "duration": 30, 
                "time_window": {
                    "start": "2014-03-10T08:00:00", 
                    "finish": "2014-03-10T18:00:00"
                }, 
                "required_operators": 1, 
                "location": {
                    "latitude": 45.94930780698352, 
                    "longitude": 12.89655356866284
                }, 
                "patient_name": "Linda Ranger"
            }, 
            "act_5_17": {
                "duration": 60, 
                "time_window": {
                    "start": "2014-03-10T08:00:00", 
                    "finish": "2014-03-10T13:00:00"
                }, 
                "required_operators": 1, 
                "location": {
                    "latitude": 46.07930199234815, 
                    "longitude": 13.394273934104696
                }, 
                "patient_name": "Jacqueline Atwater"
            }, 
            "act_5_6": {
                "duration": 30, 
                "time_window": {
                    "start": "2014-03-10T08:00:00", 
                    "finish": "2014-03-10T13:00:00"
                }, 
                "required_operators": 1, 
                "location": {
                    "latitude": 46.040161268938725, 
                    "longitude": 13.393416730898702
                }, 
                "patient_name": "Mario Orme"
            }, 
            "act_5_7": {
                "duration": 30, 
                "time_window": {
                    "start": "2014-03-10T08:00:00", 
                    "finish": "2014-03-10T13:00:00"
                }, 
                "required_operators": 1, 
                "location": {
                    "latitude": 46.1005645536596, 
                    "longitude": 13.296449988480248
                }, 
                "patient_name": "Winifred Curnow"
            }, 
            "act_5_4": {
                "duration": 60, 
                "time_window": {
                    "start": "2014-03-10T13:00:00", 
                    "finish": "2014-03-10T18:00:00"
                }, 
                "required_operators": 1, 
                "location": {
                    "latitude": 46.25392731066183, 
                    "longitude": 13.077464565837992
                }, 
                "patient_name": "Paul Camarillo"
            }, 
            "act_5_5": {
                "duration": 60, 
                "time_window": {
                    "start": "2014-03-10T08:00:00", 
                    "finish": "2014-03-10T11:20:00"
                }, 
                "required_operators": 1, 
                "location": {
                    "latitude": 46.056289179598195, 
                    "longitude": 13.240983921429006
                }, 
                "patient_name": "Michelle Newyear"
            }, 
            "act_5_2": {
                "duration": 30, 
                "time_window": {
                    "start": "2014-03-10T08:00:00", 
                    "finish": "2014-03-10T18:00:00"
                }, 
                "required_operators": 1, 
                "location": {
                    "latitude": 46.245656093214976, 
                    "longitude": 13.130810151029117
                }, 
                "patient_name": "Dennis Wells"
            }, 
            "act_5_3": {
                "duration": 30, 
                "time_window": {
                    "start": "2014-03-10T08:00:00", 
                    "finish": "2014-03-10T11:20:00"
                }, 
                "required_operators": 1, 
                "location": {
                    "latitude": 46.22684559749415, 
                    "longitude": 12.959182086841686
                }, 
                "patient_name": "Lawrence Cushman"
            }, 
            "act_5_0": {
                "duration": 60, 
                "time_window": {
                    "start": "2014-03-10T13:00:00", 
                    "finish": "2014-03-10T18:00:00"
                }, 
                "required_operators": 1, 
                "location": {
                    "latitude": 46.06587485178654, 
                    "longitude": 12.952559178615264
                }, 
                "patient_name": "Mattie Davis"
            }, 
            "act_5_1": {
                "duration": 60, 
                "time_window": {
                    "start": "2014-03-10T08:00:00", 
                    "finish": "2014-03-10T18:00:00"
                }, 
                "required_operators": 1, 
                "location": {
                    "latitude": 45.94235972412843, 
                    "longitude": 13.135397172372002
                }, 
                "patient_name": "Vivian Jackson"
            }, 
            "act_5_8": {
                "duration": 60, 
                "time_window": {
                    "start": "2014-03-10T13:00:00", 
                    "finish": "2014-03-10T18:00:00"
                }, 
                "required_operators": 1, 
                "location": {
                    "latitude": 46.24620548157177, 
                    "longitude": 13.079060699676763
                }, 
                "patient_name": "Betty Jobe"
            }, 
            "act_5_9": {
                "duration": 30, 
                "time_window": {
                    "start": "2014-03-10T11:20:00", 
                    "finish": "2014-03-10T14:40:00"
                }, 
                "required_operators": 1, 
                "location": {
                    "latitude": 46.09082055868008, 
                    "longitude": 13.464224743730774
                }, 
                "patient_name": "Trina Bossler"
            }
        }
    ], 
    "operators": {
        "op_4": {
            "time_windows": [
                {
                    "start": "2014-03-05T08:00:00", 
                    "finish": "2014-03-05T18:00:00", 
                    "regular_worktime": "8:00:00"
                }, 
                {
                    "start": "2014-03-06T08:00:00", 
                    "finish": "2014-03-06T18:00:00", 
                    "regular_worktime": "8:00:00"
                }, 
                {
                    "start": "2014-03-07T08:00:00", 
                    "finish": "2014-03-07T18:00:00", 
                    "regular_worktime": "8:00:00"
                }, 
                {
                    "start": "2014-03-08T08:00:00", 
                    "finish": "2014-03-08T13:00:00", 
                    "regular_worktime": "4:00:00"
                }, 
                {
                    "start": "2014-03-09T08:00:00", 
                    "finish": "2014-03-09T18:00:00", 
                    "regular_worktime": "8:00:00"
                }, 
                {
                    "start": "2014-03-10T08:00:00", 
                    "finish": "2014-03-10T18:00:00", 
                    "regular_worktime": "8:00:00"
                }
            ], 
            "incompatible_activities": [
                "act_4_14", 
                "act_5_1", 
                "act_4_7", 
                "act_4_10"
            ], 
            "maximum_working_hours": "40:00:00", 
            "name": "Roland Demers", 
            "minimum_working_hours": "36:00:00"
        }, 
        "op_5": {
            "time_windows": [
                {
                    "start": "2014-03-05T08:00:00", 
                    "finish": "2014-03-05T18:00:00", 
                    "regular_worktime": "8:00:00"
                }, 
                {
                    "start": "2014-03-06T08:00:00", 
                    "finish": "2014-03-06T18:00:00", 
                    "regular_worktime": "8:00:00"
                }, 
                {
                    "start": "2014-03-07T08:00:00", 
                    "finish": "2014-03-07T13:00:00", 
                    "regular_worktime": "4:00:00"
                }, 
                {
                    "start": "2014-03-08T08:00:00", 
                    "finish": "2014-03-08T18:00:00", 
                    "regular_worktime": "8:00:00"
                }, 
                {
                    "start": "2014-03-09T08:00:00", 
                    "finish": "2014-03-09T13:00:00", 
                    "regular_worktime": "4:00:00"
                }, 
                {}
            ], 
            "incompatible_activities": [
                "act_0_12", 
                "act_2_11", 
                "act_5_14", 
                "act_2_5"
            ], 
            "maximum_working_hours": "32:00:00", 
            "name": "Amy Bell", 
            "minimum_working_hours": "32:00:00"
        }, 
        "op_6": {
            "time_windows": [
                {
                    "start": "2014-03-05T08:00:00", 
                    "finish": "2014-03-05T18:00:00", 
                    "regular_worktime": "8:00:00"
                }, 
                {
                    "start": "2014-03-06T13:00:00", 
                    "finish": "2014-03-06T18:00:00", 
                    "regular_worktime": "4:00:00"
                }, 
                {
                    "start": "2014-03-07T08:00:00", 
                    "finish": "2014-03-07T13:00:00", 
                    "regular_worktime": "4:00:00"
                }, 
                {
                    "start": "2014-03-08T08:00:00", 
                    "finish": "2014-03-08T13:00:00", 
                    "regular_worktime": "4:00:00"
                }, 
                {
                    "start": "2014-03-09T13:00:00", 
                    "finish": "2014-03-09T18:00:00", 
                    "regular_worktime": "4:00:00"
                }, 
                {
                    "start": "2014-03-10T08:00:00", 
                    "finish": "2014-03-10T18:00:00", 
                    "regular_worktime": "8:00:00"
                }
            ], 
            "incompatible_activities": [
                "act_2_7", 
                "act_1_4", 
                "act_5_5", 
                "act_2_17"
            ], 
            "maximum_working_hours": "28:00:00", 
            "name": "Elda Stuckey", 
            "minimum_working_hours": "24:00:00"
        }, 
        "op_7": {
            "time_windows": [
                {
                    "start": "2014-03-05T08:00:00", 
                    "finish": "2014-03-05T18:00:00", 
                    "regular_worktime": "8:00:00"
                }, 
                {
                    "start": "2014-03-06T08:00:00", 
                    "finish": "2014-03-06T18:00:00", 
                    "regular_worktime": "8:00:00"
                }, 
                {
                    "start": "2014-03-07T08:00:00", 
                    "finish": "2014-03-07T18:00:00", 
                    "regular_worktime": "8:00:00"
                }, 
                {
                    "start": "2014-03-08T08:00:00", 
                    "finish": "2014-03-08T18:00:00", 
                    "regular_worktime": "8:00:00"
                }, 
                {
                    "start": "2014-03-09T08:00:00", 
                    "finish": "2014-03-09T18:00:00", 
                    "regular_worktime": "8:00:00"
                }, 
                {
                    "start": "2014-03-10T08:00:00", 
                    "finish": "2014-03-10T18:00:00", 
                    "regular_worktime": "8:00:00"
                }
            ], 
            "incompatible_activities": [
                "act_5_2", 
                "act_1_13", 
                "act_2_18", 
                "act_0_13"
            ], 
            "maximum_working_hours": "40:00:00", 
            "name": "Mary Goldman", 
            "minimum_working_hours": "40:00:00"
        }, 
        "op_0": {
            "time_windows": [
                {
                    "start": "2014-03-05T08:00:00", 
                    "finish": "2014-03-05T18:00:00", 
                    "regular_worktime": "8:00:00"
                }, 
                {
                    "start": "2014-03-06T08:00:00", 
                    "finish": "2014-03-06T18:00:00", 
                    "regular_worktime": "8:00:00"
                }, 
                {
                    "start": "2014-03-07T08:00:00", 
                    "finish": "2014-03-07T18:00:00", 
                    "regular_worktime": "8:00:00"
                }, 
                {
                    "start": "2014-03-08T08:00:00", 
                    "finish": "2014-03-08T18:00:00", 
                    "regular_worktime": "8:00:00"
                }, 
                {
                    "start": "2014-03-09T08:00:00", 
                    "finish": "2014-03-09T18:00:00", 
                    "regular_worktime": "8:00:00"
                }, 
                {
                    "start": "2014-03-10T08:00:00", 
                    "finish": "2014-03-10T18:00:00", 
                    "regular_worktime": "8:00:00"
                }
            ], 
            "incompatible_activities": [
                "act_5_4", 
                "act_0_4", 
                "act_3_1", 
                "act_5_1"
            ], 
            "maximum_working_hours": "40:00:00", 
            "name": "Robbie Leischner", 
            "minimum_working_hours": "40:00:00"
        }, 
        "op_1": {
            "time_windows": [
                {
                    "start": "2014-03-05T13:00:00", 
                    "finish": "2014-03-05T18:00:00", 
                    "regular_worktime": "4:00:00"
                }, 
                {
                    "start": "2014-03-06T08:00:00", 
                    "finish": "2014-03-06T18:00:00", 
                    "regular_worktime": "8:00:00"
                }, 
                {
                    "start": "2014-03-07T13:00:00", 
                    "finish": "2014-03-07T18:00:00", 
                    "regular_worktime": "4:00:00"
                }, 
                {
                    "start": "2014-03-08T08:00:00", 
                    "finish": "2014-03-08T18:00:00", 
                    "regular_worktime": "8:00:00"
                }, 
                {
                    "start": "2014-03-09T08:00:00", 
                    "finish": "2014-03-09T18:00:00", 
                    "regular_worktime": "8:00:00"
                }, 
                {
                    "start": "2014-03-10T08:00:00", 
                    "finish": "2014-03-10T13:00:00", 
                    "regular_worktime": "4:00:00"
                }
            ], 
            "incompatible_activities": [
                "act_5_3", 
                "act_0_5", 
                "act_1_11", 
                "act_5_13"
            ], 
            "maximum_working_hours": "32:00:00", 
            "name": "Virginia Mason", 
            "minimum_working_hours": "28:00:00"
        }, 
        "op_2": {
            "time_windows": [
                {
                    "start": "2014-03-05T08:00:00", 
                    "finish": "2014-03-05T18:00:00", 
                    "regular_worktime": "8:00:00"
                }, 
                {
                    "start": "2014-03-06T08:00:00", 
                    "finish": "2014-03-06T18:00:00", 
                    "regular_worktime": "8:00:00"
                }, 
                {
                    "start": "2014-03-07T13:00:00", 
                    "finish": "2014-03-07T18:00:00", 
                    "regular_worktime": "4:00:00"
                }, 
                {
                    "start": "2014-03-08T08:00:00", 
                    "finish": "2014-03-08T18:00:00", 
                    "regular_worktime": "8:00:00"
                }, 
                {
                    "start": "2014-03-09T08:00:00", 
                    "finish": "2014-03-09T18:00:00", 
                    "regular_worktime": "8:00:00"
                }, 
                {
                    "start": "2014-03-10T08:00:00", 
                    "finish": "2014-03-10T18:00:00", 
                    "regular_worktime": "8:00:00"
                }
            ], 
            "incompatible_activities": [
                "act_4_2", 
                "act_2_12", 
                "act_3_2", 
                "act_3_15"
            ], 
            "maximum_working_hours": "40:00:00", 
            "name": "Marty Mandell", 
            "minimum_working_hours": "36:00:00"
        }, 
        "op_3": {
            "time_windows": [
                {
                    "start": "2014-03-05T13:00:00", 
                    "finish": "2014-03-05T18:00:00", 
                    "regular_worktime": "4:00:00"
                }, 
                {
                    "start": "2014-03-06T08:00:00", 
                    "finish": "2014-03-06T18:00:00", 
                    "regular_worktime": "8:00:00"
                }, 
                {
                    "start": "2014-03-07T08:00:00", 
                    "finish": "2014-03-07T18:00:00", 
                    "regular_worktime": "8:00:00"
                }, 
                {
                    "start": "2014-03-08T08:00:00", 
                    "finish": "2014-03-08T18:00:00", 
                    "regular_worktime": "8:00:00"
                }, 
                {
                    "start": "2014-03-09T13:00:00", 
                    "finish": "2014-03-09T18:00:00", 
                    "regular_worktime": "4:00:00"
                }, 
                {
                    "start": "2014-03-10T08:00:00", 
                    "finish": "2014-03-10T13:00:00", 
                    "regular_worktime": "4:00:00"
                }
            ], 
            "incompatible_activities": [
                "act_4_17", 
                "act_3_12", 
                "act_4_3", 
                "act_4_18"
            ], 
            "maximum_working_hours": "32:00:00", 
            "name": "Kenneth Shah", 
            "minimum_working_hours": "28:00:00"
        }
    }, 
    "meta": {
        "time_window": {
            "start": "08:00:00", 
            "finish": "18:00:00"
        }, 
        "horizon": 6, 
        "granularity": 10, 
        "geographic_area": {
            "upper_left": [
                46.259645, 
                12.860656
            ], 
            "lower_right": [
                45.936826, 
                13.485503
            ]
        }, 
        "max_consecutive_days": 5, 
        "finish_date": "2014-03-11T00:00:00", 
        "max_overtime_rate": 1.1, 
        "start_date": "2014-03-05T00:00:00"
    }
}