{
    "activities": [
        {
            "act_0_39": {
                "duration": 60, 
                "time_window": {
                    "start": "2014-03-05T08:00:00", 
                    "finish": "2014-03-05T11:20:00"
                }, 
                "required_operators": 1, 
                "location": {
                    "latitude": 46.14583612943951, 
                    "longitude": 13.229233464765498
                }, 
                "patient_name": "Thomas Cole"
            }, 
            "act_0_35": {
                "duration": 60, 
                "time_window": {
                    "start": "2014-03-05T11:20:00", 
                    "finish": "2014-03-05T14:40:00"
                }, 
                "required_operators": 1, 
                "location": {
                    "latitude": 46.07585155020258, 
                    "longitude": 13.237131035711249
                }, 
                "patient_name": "Mariann Kraeger"
            }, 
            "act_0_34": {
                "duration": 60, 
                "time_window": {
                    "start": "2014-03-05T08:00:00", 
                    "finish": "2014-03-05T18:00:00"
                }, 
                "required_operators": 1, 
                "location": {
                    "latitude": 46.21915896850337, 
                    "longitude": 13.163774285680294
                }, 
                "patient_name": "Sara Devaney"
            }, 
            "act_0_37": {
                "duration": 30, 
                "time_window": {
                    "start": "2014-03-05T08:00:00", 
                    "finish": "2014-03-05T18:00:00"
                }, 
                "required_operators": 1, 
                "location": {
                    "latitude": 46.126726493237534, 
                    "longitude": 12.947736494577022
                }, 
                "patient_name": "Norman Ward"
            }, 
            "act_0_36": {
                "duration": 30, 
                "time_window": {
                    "start": "2014-03-05T13:00:00", 
                    "finish": "2014-03-05T18:00:00"
                }, 
                "required_operators": 1, 
                "location": {
                    "latitude": 46.111134236126055, 
                    "longitude": 13.013764933132022
                }, 
                "patient_name": "Grace Robles"
            }, 
            "act_0_31": {
                "duration": 60, 
                "time_window": {
                    "start": "2014-03-05T08:00:00", 
                    "finish": "2014-03-05T18:00:00"
                }, 
                "required_operators": 3, 
                "location": {
                    "latitude": 46.13560467137721, 
                    "longitude": 13.113739557619626
                }, 
                "patient_name": "Donna Wilson"
            }, 
            "act_0_30": {
                "duration": 60, 
                "time_window": {
                    "start": "2014-03-05T13:00:00", 
                    "finish": "2014-03-05T18:00:00"
                }, 
                "required_operators": 2, 
                "location": {
                    "latitude": 46.18121470709398, 
                    "longitude": 13.266320715341081
                }, 
                "patient_name": "Charles Pierre"
            }, 
            "act_0_19": {
                "duration": 60, 
                "time_window": {
                    "start": "2014-03-05T13:00:00", 
                    "finish": "2014-03-05T18:00:00"
                }, 
                "required_operators": 1, 
                "location": {
                    "latitude": 46.032125048553524, 
                    "longitude": 13.45908787441624
                }, 
                "patient_name": "Jeanette Pannenbacker"
            }, 
            "act_0_18": {
                "duration": 60, 
                "time_window": {
                    "start": "2014-03-05T08:00:00", 
                    "finish": "2014-03-05T13:00:00"
                }, 
                "required_operators": 2, 
                "location": {
                    "latitude": 45.97916265117451, 
                    "longitude": 13.099355182761299
                }, 
                "patient_name": "Marjorie Sticker"
            }, 
            "act_0_17": {
                "duration": 30, 
                "time_window": {
                    "start": "2014-03-05T08:00:00", 
                    "finish": "2014-03-05T18:00:00"
                }, 
                "required_operators": 1, 
                "location": {
                    "latitude": 46.18689983762423, 
                    "longitude": 13.208440597011707
                }, 
                "patient_name": "Jennifer Scott"
            }, 
            "act_0_16": {
                "duration": 60, 
                "time_window": {
                    "start": "2014-03-05T08:00:00", 
                    "finish": "2014-03-05T18:00:00"
                }, 
                "required_operators": 1, 
                "location": {
                    "latitude": 45.99319249954191, 
                    "longitude": 13.114409876344187
                }, 
                "patient_name": "Theresa Hooker"
            }, 
            "act_0_15": {
                "duration": 60, 
                "time_window": {
                    "start": "2014-03-05T08:00:00", 
                    "finish": "2014-03-05T18:00:00"
                }, 
                "required_operators": 1, 
                "location": {
                    "latitude": 46.19575017781285, 
                    "longitude": 12.989800312062004
                }, 
                "patient_name": "Don Daly"
            }, 
            "act_0_14": {
                "duration": 30, 
                "time_window": {
                    "start": "2014-03-05T14:40:00", 
                    "finish": "2014-03-05T18:00:00"
                }, 
                "required_operators": 1, 
                "location": {
                    "latitude": 46.169056248700144, 
                    "longitude": 12.87368857145015
                }, 
                "patient_name": "Joseph Riederer"
            }, 
            "act_0_13": {
                "duration": 60, 
                "time_window": {
                    "start": "2014-03-05T14:40:00", 
                    "finish": "2014-03-05T18:00:00"
                }, 
                "required_operators": 1, 
                "location": {
                    "latitude": 46.09137011223402, 
                    "longitude": 13.211058514759785
                }, 
                "patient_name": "Aurora Goldman"
            }, 
            "act_0_12": {
                "duration": 30, 
                "time_window": {
                    "start": "2014-03-05T14:40:00", 
                    "finish": "2014-03-05T18:00:00"
                }, 
                "required_operators": 4, 
                "location": {
                    "latitude": 46.22075878589973, 
                    "longitude": 13.105835898999091
                }, 
                "patient_name": "David Graham"
            }, 
            "act_0_11": {
                "duration": 60, 
                "time_window": {
                    "start": "2014-03-05T08:00:00", 
                    "finish": "2014-03-05T18:00:00"
                }, 
                "required_operators": 1, 
                "location": {
                    "latitude": 46.23428409731801, 
                    "longitude": 13.33053257095506
                }, 
                "patient_name": "Charles Lewis"
            }, 
            "act_0_10": {
                "duration": 30, 
                "time_window": {
                    "start": "2014-03-05T08:00:00", 
                    "finish": "2014-03-05T13:00:00"
                }, 
                "required_operators": 1, 
                "location": {
                    "latitude": 46.23094876444957, 
                    "longitude": 13.468420787476695
                }, 
                "patient_name": "Lynn Thomas"
            }, 
            "act_0_33": {
                "duration": 30, 
                "time_window": {
                    "start": "2014-03-05T08:00:00", 
                    "finish": "2014-03-05T13:00:00"
                }, 
                "required_operators": 1, 
                "location": {
                    "latitude": 46.21597855729157, 
                    "longitude": 12.919161364088598
                }, 
                "patient_name": "Amy Pearson"
            }, 
            "act_0_38": {
                "duration": 30, 
                "time_window": {
                    "start": "2014-03-05T08:00:00", 
                    "finish": "2014-03-05T18:00:00"
                }, 
                "required_operators": 1, 
                "location": {
                    "latitude": 46.100306743427616, 
                    "longitude": 13.274197028510779
                }, 
                "patient_name": "Nina Smith"
            }, 
            "act_0_32": {
                "duration": 60, 
                "time_window": {
                    "start": "2014-03-05T08:00:00", 
                    "finish": "2014-03-05T18:00:00"
                }, 
                "required_operators": 1, 
                "location": {
                    "latitude": 46.20824760275697, 
                    "longitude": 12.972988546094681
                }, 
                "patient_name": "Mary Kochheiser"
            }, 
            "act_0_9": {
                "duration": 30, 
                "time_window": {
                    "start": "2014-03-05T08:00:00", 
                    "finish": "2014-03-05T13:00:00"
                }, 
                "required_operators": 3, 
                "location": {
                    "latitude": 46.03307901625032, 
                    "longitude": 13.430598622072019
                }, 
                "patient_name": "Dora Kelly"
            }, 
            "act_0_8": {
                "duration": 30, 
                "time_window": {
                    "start": "2014-03-05T08:00:00", 
                    "finish": "2014-03-05T18:00:00"
                }, 
                "required_operators": 1, 
                "location": {
                    "latitude": 46.20568634160089, 
                    "longitude": 12.95672772471225
                }, 
                "patient_name": "Heather Sapienza"
            }, 
            "act_0_3": {
                "duration": 30, 
                "time_window": {
                    "start": "2014-03-05T08:00:00", 
                    "finish": "2014-03-05T18:00:00"
                }, 
                "required_operators": 1, 
                "location": {
                    "latitude": 46.16566881390978, 
                    "longitude": 12.985232045857298
                }, 
                "patient_name": "Antonietta Russell"
            }, 
            "act_0_2": {
                "duration": 60, 
                "time_window": {
                    "start": "2014-03-05T08:00:00", 
                    "finish": "2014-03-05T13:00:00"
                }, 
                "required_operators": 1, 
                "location": {
                    "latitude": 45.97543075985563, 
                    "longitude": 13.304284475858445
                }, 
                "patient_name": "Douglas Hairston"
            }, 
            "act_0_1": {
                "duration": 60, 
                "time_window": {
                    "start": "2014-03-05T14:40:00", 
                    "finish": "2014-03-05T18:00:00"
                }, 
                "required_operators": 2, 
                "location": {
                    "latitude": 46.2056618480536, 
                    "longitude": 13.31565662072391
                }, 
                "patient_name": "Tracy Mooney"
            }, 
            "act_0_0": {
                "duration": 30, 
                "time_window": {
                    "start": "2014-03-05T08:00:00", 
                    "finish": "2014-03-05T18:00:00"
                }, 
                "required_operators": 1, 
                "location": {
                    "latitude": 46.078725847861314, 
                    "longitude": 13.325719603128233
                }, 
                "patient_name": "Frank Rice"
            }, 
            "act_0_7": {
                "duration": 30, 
                "time_window": {
                    "start": "2014-03-05T08:00:00", 
                    "finish": "2014-03-05T18:00:00"
                }, 
                "required_operators": 1, 
                "location": {
                    "latitude": 46.20329213721963, 
                    "longitude": 13.040771198184604
                }, 
                "patient_name": "Johnathan Crook"
            }, 
            "act_0_6": {
                "duration": 30, 
                "time_window": {
                    "start": "2014-03-05T11:20:00", 
                    "finish": "2014-03-05T14:40:00"
                }, 
                "required_operators": 1, 
                "location": {
                    "latitude": 45.99795036314067, 
                    "longitude": 13.37524802580038
                }, 
                "patient_name": "Anthony Brizuela"
            }, 
            "act_0_5": {
                "duration": 30, 
                "time_window": {
                    "start": "2014-03-05T13:00:00", 
                    "finish": "2014-03-05T18:00:00"
                }, 
                "required_operators": 2, 
                "location": {
                    "latitude": 46.12209507251202, 
                    "longitude": 13.159483800335844
                }, 
                "patient_name": "Joshua Hess"
            }, 
            "act_0_4": {
                "duration": 30, 
                "time_window": {
                    "start": "2014-03-05T08:00:00", 
                    "finish": "2014-03-05T13:00:00"
                }, 
                "required_operators": 1, 
                "location": {
                    "latitude": 46.12937410045875, 
                    "longitude": 12.871423259788372
                }, 
                "patient_name": "Celine Schorn"
            }, 
            "act_0_22": {
                "duration": 30, 
                "time_window": {
                    "start": "2014-03-05T08:00:00", 
                    "finish": "2014-03-05T18:00:00"
                }, 
                "required_operators": 1, 
                "location": {
                    "latitude": 45.97878796412563, 
                    "longitude": 13.40104357279855
                }, 
                "patient_name": "Edgar Lemmon"
            }, 
            "act_0_23": {
                "duration": 30, 
                "time_window": {
                    "start": "2014-03-05T11:20:00", 
                    "finish": "2014-03-05T14:40:00"
                }, 
                "required_operators": 2, 
                "location": {
                    "latitude": 46.15831204388547, 
                    "longitude": 13.243768349905858
                }, 
                "patient_name": "Les Bishop"
            }, 
            "act_0_20": {
                "duration": 30, 
                "time_window": {
                    "start": "2014-03-05T08:00:00", 
                    "finish": "2014-03-05T13:00:00"
                }, 
                "required_operators": 1, 
                "location": {
                    "latitude": 46.08593468039069, 
                    "longitude": 13.419473162104588
                }, 
                "patient_name": "Bonnie Degnan"
            }, 
            "act_0_21": {
                "duration": 30, 
                "time_window": {
                    "start": "2014-03-05T08:00:00", 
                    "finish": "2014-03-05T13:00:00"
                }, 
                "required_operators": 1, 
                "location": {
                    "latitude": 46.2163587822554, 
                    "longitude": 13.11141154275172
                }, 
                "patient_name": "Imelda Horne"
            }, 
            "act_0_26": {
                "duration": 60, 
                "time_window": {
                    "start": "2014-03-05T11:20:00", 
                    "finish": "2014-03-05T14:40:00"
                }, 
                "required_operators": 1, 
                "location": {
                    "latitude": 46.09575921112842, 
                    "longitude": 13.252277836567291
                }, 
                "patient_name": "Karena Savage"
            }, 
            "act_0_27": {
                "duration": 60, 
                "time_window": {
                    "start": "2014-03-05T08:00:00", 
                    "finish": "2014-03-05T13:00:00"
                }, 
                "required_operators": 1, 
                "location": {
                    "latitude": 46.19775736590328, 
                    "longitude": 12.87884762671814
                }, 
                "patient_name": "Brenda Nolazco"
            }, 
            "act_0_24": {
                "duration": 30, 
                "time_window": {
                    "start": "2014-03-05T08:00:00", 
                    "finish": "2014-03-05T11:20:00"
                }, 
                "required_operators": 1, 
                "location": {
                    "latitude": 46.059624304964636, 
                    "longitude": 13.063462826698755
                }, 
                "patient_name": "Richard Bonsall"
            }, 
            "act_0_25": {
                "duration": 30, 
                "time_window": {
                    "start": "2014-03-05T08:00:00", 
                    "finish": "2014-03-05T18:00:00"
                }, 
                "required_operators": 1, 
                "location": {
                    "latitude": 46.00710942371762, 
                    "longitude": 13.409741479208895
                }, 
                "patient_name": "David Pursell"
            }, 
            "act_0_28": {
                "duration": 30, 
                "time_window": {
                    "start": "2014-03-05T08:00:00", 
                    "finish": "2014-03-05T18:00:00"
                }, 
                "required_operators": 2, 
                "location": {
                    "latitude": 46.21106235915492, 
                    "longitude": 13.259556729457877
                }, 
                "patient_name": "Lester Lotzer"
            }, 
            "act_0_29": {
                "duration": 30, 
                "time_window": {
                    "start": "2014-03-05T08:00:00", 
                    "finish": "2014-03-05T18:00:00"
                }, 
                "required_operators": 1, 
                "location": {
                    "latitude": 46.11654173647519, 
                    "longitude": 13.2423335062476
                }, 
                "patient_name": "Geri Lopez"
            }
        }, 
        {
            "act_1_38": {
                "duration": 30, 
                "time_window": {
                    "start": "2014-03-06T08:00:00", 
                    "finish": "2014-03-06T18:00:00"
                }, 
                "required_operators": 1, 
                "location": {
                    "latitude": 46.186341116683394, 
                    "longitude": 12.933190509884449
                }, 
                "patient_name": "Sharon Beckstead"
            }, 
            "act_1_39": {
                "duration": 30, 
                "time_window": {
                    "start": "2014-03-06T08:00:00", 
                    "finish": "2014-03-06T18:00:00"
                }, 
                "required_operators": 1, 
                "location": {
                    "latitude": 46.073780294624186, 
                    "longitude": 13.359834019265978
                }, 
                "patient_name": "Larry Boyne"
            }, 
            "act_1_32": {
                "duration": 30, 
                "time_window": {
                    "start": "2014-03-06T08:00:00", 
                    "finish": "2014-03-06T18:00:00"
                }, 
                "required_operators": 1, 
                "location": {
                    "latitude": 46.07855728245559, 
                    "longitude": 13.038573239030582
                }, 
                "patient_name": "Paul Dishon"
            }, 
            "act_1_33": {
                "duration": 30, 
                "time_window": {
                    "start": "2014-03-06T08:00:00", 
                    "finish": "2014-03-06T18:00:00"
                }, 
                "required_operators": 1, 
                "location": {
                    "latitude": 46.14288450394972, 
                    "longitude": 13.254072523507736
                }, 
                "patient_name": "David Robinson"
            }, 
            "act_1_30": {
                "duration": 60, 
                "time_window": {
                    "start": "2014-03-06T08:00:00", 
                    "finish": "2014-03-06T13:00:00"
                }, 
                "required_operators": 1, 
                "location": {
                    "latitude": 46.16791587414455, 
                    "longitude": 13.289261806458837
                }, 
                "patient_name": "Linda Patton"
            }, 
            "act_1_31": {
                "duration": 60, 
                "time_window": {
                    "start": "2014-03-06T08:00:00", 
                    "finish": "2014-03-06T18:00:00"
                }, 
                "required_operators": 1, 
                "location": {
                    "latitude": 46.08980708912557, 
                    "longitude": 13.063378236033309
                }, 
                "patient_name": "Pedro Workman"
            }, 
            "act_1_36": {
                "duration": 60, 
                "time_window": {
                    "start": "2014-03-06T13:00:00", 
                    "finish": "2014-03-06T18:00:00"
                }, 
                "required_operators": 2, 
                "location": {
                    "latitude": 46.03970834342819, 
                    "longitude": 13.25561812122628
                }, 
                "patient_name": "Rita Harris"
            }, 
            "act_1_37": {
                "duration": 60, 
                "time_window": {
                    "start": "2014-03-06T14:40:00", 
                    "finish": "2014-03-06T18:00:00"
                }, 
                "required_operators": 1, 
                "location": {
                    "latitude": 46.233384737108466, 
                    "longitude": 12.988526645812055
                }, 
                "patient_name": "Howard Cotton"
            }, 
            "act_1_34": {
                "duration": 30, 
                "time_window": {
                    "start": "2014-03-06T08:00:00", 
                    "finish": "2014-03-06T18:00:00"
                }, 
                "required_operators": 2, 
                "location": {
                    "latitude": 46.14478798185389, 
                    "longitude": 13.368467359371214
                }, 
                "patient_name": "Lisa Crutchfield"
            }, 
            "act_1_35": {
                "duration": 60, 
                "time_window": {
                    "start": "2014-03-06T14:40:00", 
                    "finish": "2014-03-06T18:00:00"
                }, 
                "required_operators": 1, 
                "location": {
                    "latitude": 46.182661715436645, 
                    "longitude": 13.433187873112784
                }, 
                "patient_name": "Leslie Lovick"
            }, 
            "act_1_14": {
                "duration": 60, 
                "time_window": {
                    "start": "2014-03-06T08:00:00", 
                    "finish": "2014-03-06T18:00:00"
                }, 
                "required_operators": 1, 
                "location": {
                    "latitude": 46.15436809450401, 
                    "longitude": 13.394541558777242
                }, 
                "patient_name": "Sue Morales"
            }, 
            "act_1_15": {
                "duration": 60, 
                "time_window": {
                    "start": "2014-03-06T11:20:00", 
                    "finish": "2014-03-06T14:40:00"
                }, 
                "required_operators": 1, 
                "location": {
                    "latitude": 45.9571607990524, 
                    "longitude": 13.258353635117054
                }, 
                "patient_name": "Leonard Soo"
            }, 
            "act_1_16": {
                "duration": 60, 
                "time_window": {
                    "start": "2014-03-06T08:00:00", 
                    "finish": "2014-03-06T13:00:00"
                }, 
                "required_operators": 1, 
                "location": {
                    "latitude": 46.1601168433369, 
                    "longitude": 13.094186731445188
                }, 
                "patient_name": "Tiffany Wiens"
            }, 
            "act_1_17": {
                "duration": 30, 
                "time_window": {
                    "start": "2014-03-06T08:00:00", 
                    "finish": "2014-03-06T18:00:00"
                }, 
                "required_operators": 1, 
                "location": {
                    "latitude": 46.16572698680001, 
                    "longitude": 12.997493976278122
                }, 
                "patient_name": "Robert King"
            }, 
            "act_1_10": {
                "duration": 30, 
                "time_window": {
                    "start": "2014-03-06T13:00:00", 
                    "finish": "2014-03-06T18:00:00"
                }, 
                "required_operators": 1, 
                "location": {
                    "latitude": 46.113358968314, 
                    "longitude": 13.2046506505138
                }, 
                "patient_name": "Karen Kern"
            }, 
            "act_1_11": {
                "duration": 60, 
                "time_window": {
                    "start": "2014-03-06T08:00:00", 
                    "finish": "2014-03-06T13:00:00"
                }, 
                "required_operators": 1, 
                "location": {
                    "latitude": 46.22302953727506, 
                    "longitude": 13.115940626738492
                }, 
                "patient_name": "Craig Wong"
            }, 
            "act_1_12": {
                "duration": 30, 
                "time_window": {
                    "start": "2014-03-06T08:00:00", 
                    "finish": "2014-03-06T13:00:00"
                }, 
                "required_operators": 2, 
                "location": {
                    "latitude": 45.99077181914034, 
                    "longitude": 13.455374165242288
                }, 
                "patient_name": "Nathan Barnett"
            }, 
            "act_1_13": {
                "duration": 60, 
                "time_window": {
                    "start": "2014-03-06T08:00:00", 
                    "finish": "2014-03-06T18:00:00"
                }, 
                "required_operators": 1, 
                "location": {
                    "latitude": 46.16774662003266, 
                    "longitude": 13.174036515225687
                }, 
                "patient_name": "Brian Albert"
            }, 
            "act_1_18": {
                "duration": 30, 
                "time_window": {
                    "start": "2014-03-06T08:00:00", 
                    "finish": "2014-03-06T18:00:00"
                }, 
                "required_operators": 1, 
                "location": {
                    "latitude": 46.186901027024696, 
                    "longitude": 12.958917704717988
                }, 
                "patient_name": "Patricia Peay"
            }, 
            "act_1_19": {
                "duration": 30, 
                "time_window": {
                    "start": "2014-03-06T08:00:00", 
                    "finish": "2014-03-06T18:00:00"
                }, 
                "required_operators": 2, 
                "location": {
                    "latitude": 45.994226742151945, 
                    "longitude": 12.998138816024968
                }, 
                "patient_name": "Tracy Chapman"
            }, 
            "act_1_2": {
                "duration": 60, 
                "time_window": {
                    "start": "2014-03-06T08:00:00", 
                    "finish": "2014-03-06T18:00:00"
                }, 
                "required_operators": 1, 
                "location": {
                    "latitude": 46.24488616693098, 
                    "longitude": 13.020684342238063
                }, 
                "patient_name": "Peggy Koonce"
            }, 
            "act_1_3": {
                "duration": 60, 
                "time_window": {
                    "start": "2014-03-06T11:20:00", 
                    "finish": "2014-03-06T14:40:00"
                }, 
                "required_operators": 1, 
                "location": {
                    "latitude": 46.13793053341879, 
                    "longitude": 13.441855903247
                }, 
                "patient_name": "Heath Brown"
            }, 
            "act_1_0": {
                "duration": 30, 
                "time_window": {
                    "start": "2014-03-06T08:00:00", 
                    "finish": "2014-03-06T11:20:00"
                }, 
                "required_operators": 1, 
                "location": {
                    "latitude": 46.07553363183403, 
                    "longitude": 13.220231265660164
                }, 
                "patient_name": "Samantha Watson"
            }, 
            "act_1_1": {
                "duration": 30, 
                "time_window": {
                    "start": "2014-03-06T14:40:00", 
                    "finish": "2014-03-06T18:00:00"
                }, 
                "required_operators": 1, 
                "location": {
                    "latitude": 46.25011693987437, 
                    "longitude": 12.972473413450864
                }, 
                "patient_name": "Danny Oliver"
            }, 
            "act_1_6": {
                "duration": 30, 
                "time_window": {
                    "start": "2014-03-06T08:00:00", 
                    "finish": "2014-03-06T18:00:00"
                }, 
                "required_operators": 1, 
                "location": {
                    "latitude": 46.13559112373474, 
                    "longitude": 12.900003262842612
                }, 
                "patient_name": "Marion Sullivan"
            }, 
            "act_1_7": {
                "duration": 30, 
                "time_window": {
                    "start": "2014-03-06T13:00:00", 
                    "finish": "2014-03-06T18:00:00"
                }, 
                "required_operators": 1, 
                "location": {
                    "latitude": 46.101167095266575, 
                    "longitude": 13.431626667191017
                }, 
                "patient_name": "James Baldino"
            }, 
            "act_1_4": {
                "duration": 30, 
                "time_window": {
                    "start": "2014-03-06T13:00:00", 
                    "finish": "2014-03-06T18:00:00"
                }, 
                "required_operators": 1, 
                "location": {
                    "latitude": 46.24105125032032, 
                    "longitude": 12.911271274181843
                }, 
                "patient_name": "Nicole Abrams"
            }, 
            "act_1_5": {
                "duration": 30, 
                "time_window": {
                    "start": "2014-03-06T08:00:00", 
                    "finish": "2014-03-06T11:20:00"
                }, 
                "required_operators": 1, 
                "location": {
                    "latitude": 46.17395639148239, 
                    "longitude": 12.980681707119238
                }, 
                "patient_name": "Marcia Gainey"
            }, 
            "act_1_8": {
                "duration": 30, 
                "time_window": {
                    "start": "2014-03-06T08:00:00", 
                    "finish": "2014-03-06T18:00:00"
                }, 
                "required_operators": 1, 
                "location": {
                    "latitude": 46.23716923698709, 
                    "longitude": 13.272259097789226
                }, 
                "patient_name": "Traci Nelson"
            }, 
            "act_1_9": {
                "duration": 60, 
                "time_window": {
                    "start": "2014-03-06T13:00:00", 
                    "finish": "2014-03-06T18:00:00"
                }, 
                "required_operators": 1, 
                "location": {
                    "latitude": 46.11789848900988, 
                    "longitude": 13.334343222177438
                }, 
                "patient_name": "Stephanie Bonner"
            }, 
            "act_1_29": {
                "duration": 60, 
                "time_window": {
                    "start": "2014-03-06T14:40:00", 
                    "finish": "2014-03-06T18:00:00"
                }, 
                "required_operators": 1, 
                "location": {
                    "latitude": 46.0212388983649, 
                    "longitude": 13.043299271129374
                }, 
                "patient_name": "Diane Farver"
            }, 
            "act_1_28": {
                "duration": 60, 
                "time_window": {
                    "start": "2014-03-06T08:00:00", 
                    "finish": "2014-03-06T18:00:00"
                }, 
                "required_operators": 1, 
                "location": {
                    "latitude": 45.98721333107822, 
                    "longitude": 13.280218830539072
                }, 
                "patient_name": "Theresa Wagoner"
            }, 
            "act_1_25": {
                "duration": 30, 
                "time_window": {
                    "start": "2014-03-06T11:20:00", 
                    "finish": "2014-03-06T14:40:00"
                }, 
                "required_operators": 1, 
                "location": {
                    "latitude": 45.981982039054856, 
                    "longitude": 13.265361959072797
                }, 
                "patient_name": "Debra Roberts"
            }, 
            "act_1_24": {
                "duration": 30, 
                "time_window": {
                    "start": "2014-03-06T08:00:00", 
                    "finish": "2014-03-06T18:00:00"
                }, 
                "required_operators": 1, 
                "location": {
                    "latitude": 46.11539401316663, 
                    "longitude": 13.117951525854588
                }, 
                "patient_name": "Amanda Hibbert"
            }, 
            "act_1_27": {
                "duration": 60, 
                "time_window": {
                    "start": "2014-03-06T13:00:00", 
                    "finish": "2014-03-06T18:00:00"
                }, 
                "required_operators": 1, 
                "location": {
                    "latitude": 46.12498441660205, 
                    "longitude": 13.043980445963406
                }, 
                "patient_name": "Robert Pieper"
            }, 
            "act_1_26": {
                "duration": 60, 
                "time_window": {
                    "start": "2014-03-06T08:00:00", 
                    "finish": "2014-03-06T18:00:00"
                }, 
                "required_operators": 1, 
                "location": {
                    "latitude": 46.00501563644808, 
                    "longitude": 13.20620059336535
                }, 
                "patient_name": "Sydney Caine"
            }, 
            "act_1_21": {
                "duration": 30, 
                "time_window": {
                    "start": "2014-03-06T08:00:00", 
                    "finish": "2014-03-06T18:00:00"
                }, 
                "required_operators": 1, 
                "location": {
                    "latitude": 46.25820019337494, 
                    "longitude": 13.11176089095435
                }, 
                "patient_name": "Susan Whitman"
            }, 
            "act_1_20": {
                "duration": 60, 
                "time_window": {
                    "start": "2014-03-06T08:00:00", 
                    "finish": "2014-03-06T13:00:00"
                }, 
                "required_operators": 1, 
                "location": {
                    "latitude": 46.03119103388553, 
                    "longitude": 13.234679719916134
                }, 
                "patient_name": "Candice Weekley"
            }, 
            "act_1_23": {
                "duration": 60, 
                "time_window": {
                    "start": "2014-03-06T08:00:00", 
                    "finish": "2014-03-06T13:00:00"
                }, 
                "required_operators": 1, 
                "location": {
                    "latitude": 46.04455920206702, 
                    "longitude": 12.91588205065367
                }, 
                "patient_name": "Gerardo Naccarato"
            }, 
            "act_1_22": {
                "duration": 60, 
                "time_window": {
                    "start": "2014-03-06T08:00:00", 
                    "finish": "2014-03-06T13:00:00"
                }, 
                "required_operators": 1, 
                "location": {
                    "latitude": 46.24673635692103, 
                    "longitude": 13.42945956733655
                }, 
                "patient_name": "Tiffany Hardy"
            }
        }, 
        {
            "act_2_19": {
                "duration": 30, 
                "time_window": {
                    "start": "2014-03-07T13:00:00", 
                    "finish": "2014-03-07T18:00:00"
                }, 
                "required_operators": 1, 
                "location": {
                    "latitude": 46.082116802120304, 
                    "longitude": 13.053269364787687
                }, 
                "patient_name": "Rebecca Guest"
            }, 
            "act_2_18": {
                "duration": 30, 
                "time_window": {
                    "start": "2014-03-07T08:00:00", 
                    "finish": "2014-03-07T18:00:00"
                }, 
                "required_operators": 1, 
                "location": {
                    "latitude": 46.08125473548011, 
                    "longitude": 12.921514822886847
                }, 
                "patient_name": "Sarah Ramos"
            }, 
            "act_2_11": {
                "duration": 30, 
                "time_window": {
                    "start": "2014-03-07T08:00:00", 
                    "finish": "2014-03-07T18:00:00"
                }, 
                "required_operators": 1, 
                "location": {
                    "latitude": 45.967817869896884, 
                    "longitude": 13.292734267589186
                }, 
                "patient_name": "David Bell"
            }, 
            "act_2_10": {
                "duration": 60, 
                "time_window": {
                    "start": "2014-03-07T08:00:00", 
                    "finish": "2014-03-07T13:00:00"
                }, 
                "required_operators": 1, 
                "location": {
                    "latitude": 45.938741574744036, 
                    "longitude": 13.23369507902932
                }, 
                "patient_name": "Tony Taylor"
            }, 
            "act_2_13": {
                "duration": 30, 
                "time_window": {
                    "start": "2014-03-07T11:20:00", 
                    "finish": "2014-03-07T14:40:00"
                }, 
                "required_operators": 1, 
                "location": {
                    "latitude": 46.0889028574832, 
                    "longitude": 13.305033696122045
                }, 
                "patient_name": "Juanita Keding"
            }, 
            "act_2_12": {
                "duration": 60, 
                "time_window": {
                    "start": "2014-03-07T08:00:00", 
                    "finish": "2014-03-07T18:00:00"
                }, 
                "required_operators": 2, 
                "location": {
                    "latitude": 46.19907641258606, 
                    "longitude": 12.882329960442089
                }, 
                "patient_name": "Richard Price"
            }, 
            "act_2_15": {
                "duration": 30, 
                "time_window": {
                    "start": "2014-03-07T08:00:00", 
                    "finish": "2014-03-07T18:00:00"
                }, 
                "required_operators": 2, 
                "location": {
                    "latitude": 46.2203088128905, 
                    "longitude": 13.162147192929332
                }, 
                "patient_name": "Edmund Brooks"
            }, 
            "act_2_14": {
                "duration": 30, 
                "time_window": {
                    "start": "2014-03-07T08:00:00", 
                    "finish": "2014-03-07T13:00:00"
                }, 
                "required_operators": 2, 
                "location": {
                    "latitude": 46.00680304838405, 
                    "longitude": 13.040716857836998
                }, 
                "patient_name": "Fredrick Ballas"
            }, 
            "act_2_17": {
                "duration": 60, 
                "time_window": {
                    "start": "2014-03-07T08:00:00", 
                    "finish": "2014-03-07T18:00:00"
                }, 
                "required_operators": 1, 
                "location": {
                    "latitude": 46.193417599478614, 
                    "longitude": 12.885110695788052
                }, 
                "patient_name": "Doreen Latta"
            }, 
            "act_2_16": {
                "duration": 30, 
                "time_window": {
                    "start": "2014-03-07T08:00:00", 
                    "finish": "2014-03-07T13:00:00"
                }, 
                "required_operators": 1, 
                "location": {
                    "latitude": 45.97521554345706, 
                    "longitude": 12.92123163527035
                }, 
                "patient_name": "Yevette Charles"
            }, 
            "act_2_33": {
                "duration": 60, 
                "time_window": {
                    "start": "2014-03-07T08:00:00", 
                    "finish": "2014-03-07T13:00:00"
                }, 
                "required_operators": 1, 
                "location": {
                    "latitude": 46.21250165403508, 
                    "longitude": 13.04011829923543
                }, 
                "patient_name": "William Ramirez"
            }, 
            "act_2_32": {
                "duration": 30, 
                "time_window": {
                    "start": "2014-03-07T11:20:00", 
                    "finish": "2014-03-07T14:40:00"
                }, 
                "required_operators": 1, 
                "location": {
                    "latitude": 46.006208471346376, 
                    "longitude": 13.335325690226199
                }, 
                "patient_name": "Sandra Crittenden"
            }, 
            "act_2_31": {
                "duration": 30, 
                "time_window": {
                    "start": "2014-03-07T13:00:00", 
                    "finish": "2014-03-07T18:00:00"
                }, 
                "required_operators": 1, 
                "location": {
                    "latitude": 46.062551781477865, 
                    "longitude": 12.916882664428751
                }, 
                "patient_name": "Maria Ziegler"
            }, 
            "act_2_30": {
                "duration": 60, 
                "time_window": {
                    "start": "2014-03-07T13:00:00", 
                    "finish": "2014-03-07T18:00:00"
                }, 
                "required_operators": 2, 
                "location": {
                    "latitude": 46.092382830593834, 
                    "longitude": 13.191717950557143
                }, 
                "patient_name": "Connie Flores"
            }, 
            "act_2_37": {
                "duration": 60, 
                "time_window": {
                    "start": "2014-03-07T13:00:00", 
                    "finish": "2014-03-07T18:00:00"
                }, 
                "required_operators": 1, 
                "location": {
                    "latitude": 46.01536574721372, 
                    "longitude": 13.284340712100711
                }, 
                "patient_name": "Marc Marker"
            }, 
            "act_2_36": {
                "duration": 60, 
                "time_window": {
                    "start": "2014-03-07T11:20:00", 
                    "finish": "2014-03-07T14:40:00"
                }, 
                "required_operators": 2, 
                "location": {
                    "latitude": 46.130388522558874, 
                    "longitude": 12.972937412989145
                }, 
                "patient_name": "Dawn Egersdorf"
            }, 
            "act_2_35": {
                "duration": 30, 
                "time_window": {
                    "start": "2014-03-07T08:00:00", 
                    "finish": "2014-03-07T11:20:00"
                }, 
                "required_operators": 1, 
                "location": {
                    "latitude": 46.15081446371046, 
                    "longitude": 13.254647662649267
                }, 
                "patient_name": "Homer Brown"
            }, 
            "act_2_34": {
                "duration": 30, 
                "time_window": {
                    "start": "2014-03-07T08:00:00", 
                    "finish": "2014-03-07T13:00:00"
                }, 
                "required_operators": 2, 
                "location": {
                    "latitude": 46.12134845769693, 
                    "longitude": 13.049674242669807
                }, 
                "patient_name": "Tisha Beierle"
            }, 
            "act_2_39": {
                "duration": 30, 
                "time_window": {
                    "start": "2014-03-07T08:00:00", 
                    "finish": "2014-03-07T18:00:00"
                }, 
                "required_operators": 1, 
                "location": {
                    "latitude": 46.126073627849465, 
                    "longitude": 13.221058054582365
                }, 
                "patient_name": "Mark Chang"
            }, 
            "act_2_38": {
                "duration": 60, 
                "time_window": {
                    "start": "2014-03-07T08:00:00", 
                    "finish": "2014-03-07T11:20:00"
                }, 
                "required_operators": 1, 
                "location": {
                    "latitude": 46.22062829909355, 
                    "longitude": 13.223513736381744
                }, 
                "patient_name": "Eleanor Goldberg"
            }, 
            "act_2_20": {
                "duration": 60, 
                "time_window": {
                    "start": "2014-03-07T13:00:00", 
                    "finish": "2014-03-07T18:00:00"
                }, 
                "required_operators": 1, 
                "location": {
                    "latitude": 46.21480525475594, 
                    "longitude": 12.895076178809658
                }, 
                "patient_name": "Donna Parker"
            }, 
            "act_2_21": {
                "duration": 30, 
                "time_window": {
                    "start": "2014-03-07T14:40:00", 
                    "finish": "2014-03-07T18:00:00"
                }, 
                "required_operators": 1, 
                "location": {
                    "latitude": 46.137401865733914, 
                    "longitude": 13.191383599924281
                }, 
                "patient_name": "Constance White"
            }, 
            "act_2_22": {
                "duration": 30, 
                "time_window": {
                    "start": "2014-03-07T13:00:00", 
                    "finish": "2014-03-07T18:00:00"
                }, 
                "required_operators": 1, 
                "location": {
                    "latitude": 46.15940599478932, 
                    "longitude": 13.272788512782132
                }, 
                "patient_name": "Mammie Hanes"
            }, 
            "act_2_23": {
                "duration": 30, 
                "time_window": {
                    "start": "2014-03-07T14:40:00", 
                    "finish": "2014-03-07T18:00:00"
                }, 
                "required_operators": 1, 
                "location": {
                    "latitude": 46.07659180755452, 
                    "longitude": 13.169816381466058
                }, 
                "patient_name": "Michelle Cannon"
            }, 
            "act_2_24": {
                "duration": 60, 
                "time_window": {
                    "start": "2014-03-07T08:00:00", 
                    "finish": "2014-03-07T18:00:00"
                }, 
                "required_operators": 1, 
                "location": {
                    "latitude": 45.955558757101734, 
                    "longitude": 13.109248173002516
                }, 
                "patient_name": "Jacob Davis"
            }, 
            "act_2_25": {
                "duration": 30, 
                "time_window": {
                    "start": "2014-03-07T08:00:00", 
                    "finish": "2014-03-07T18:00:00"
                }, 
                "required_operators": 1, 
                "location": {
                    "latitude": 46.113454798915186, 
                    "longitude": 13.253825808498569
                }, 
                "patient_name": "Debra Huls"
            }, 
            "act_2_26": {
                "duration": 30, 
                "time_window": {
                    "start": "2014-03-07T11:20:00", 
                    "finish": "2014-03-07T14:40:00"
                }, 
                "required_operators": 1, 
                "location": {
                    "latitude": 46.093535490852375, 
                    "longitude": 13.394682282684542
                }, 
                "patient_name": "Jose Trejo"
            }, 
            "act_2_27": {
                "duration": 30, 
                "time_window": {
                    "start": "2014-03-07T14:40:00", 
                    "finish": "2014-03-07T18:00:00"
                }, 
                "required_operators": 1, 
                "location": {
                    "latitude": 46.092812150675556, 
                    "longitude": 13.46470493462621
                }, 
                "patient_name": "Loren Nguyen"
            }, 
            "act_2_28": {
                "duration": 30, 
                "time_window": {
                    "start": "2014-03-07T08:00:00", 
                    "finish": "2014-03-07T18:00:00"
                }, 
                "required_operators": 2, 
                "location": {
                    "latitude": 45.97488711325471, 
                    "longitude": 13.377990881909666
                }, 
                "patient_name": "Janet Mason"
            }, 
            "act_2_29": {
                "duration": 60, 
                "time_window": {
                    "start": "2014-03-07T08:00:00", 
                    "finish": "2014-03-07T11:20:00"
                }, 
                "required_operators": 1, 
                "location": {
                    "latitude": 46.074304785681825, 
                    "longitude": 13.314713183870175
                }, 
                "patient_name": "Jayne Krause"
            }, 
            "act_2_9": {
                "duration": 30, 
                "time_window": {
                    "start": "2014-03-07T13:00:00", 
                    "finish": "2014-03-07T18:00:00"
                }, 
                "required_operators": 2, 
                "location": {
                    "latitude": 46.1356938301764, 
                    "longitude": 13.230526910207956
                }, 
                "patient_name": "Noah Walton"
            }, 
            "act_2_8": {
                "duration": 30, 
                "time_window": {
                    "start": "2014-03-07T08:00:00", 
                    "finish": "2014-03-07T13:00:00"
                }, 
                "required_operators": 2, 
                "location": {
                    "latitude": 45.98517824063399, 
                    "longitude": 13.341183771396057
                }, 
                "patient_name": "John Melillo"
            }, 
            "act_2_5": {
                "duration": 30, 
                "time_window": {
                    "start": "2014-03-07T14:40:00", 
                    "finish": "2014-03-07T18:00:00"
                }, 
                "required_operators": 1, 
                "location": {
                    "latitude": 46.107959165527895, 
                    "longitude": 12.878618105639735
                }, 
                "patient_name": "David Swanson"
            }, 
            "act_2_4": {
                "duration": 30, 
                "time_window": {
                    "start": "2014-03-07T13:00:00", 
                    "finish": "2014-03-07T18:00:00"
                }, 
                "required_operators": 1, 
                "location": {
                    "latitude": 45.95436271320278, 
                    "longitude": 13.411319242572999
                }, 
                "patient_name": "Kayleigh Stacy"
            }, 
            "act_2_7": {
                "duration": 60, 
                "time_window": {
                    "start": "2014-03-07T08:00:00", 
                    "finish": "2014-03-07T18:00:00"
                }, 
                "required_operators": 1, 
                "location": {
                    "latitude": 46.15849795635675, 
                    "longitude": 12.879475585442298
                }, 
                "patient_name": "Mary Moreno"
            }, 
            "act_2_6": {
                "duration": 60, 
                "time_window": {
                    "start": "2014-03-07T13:00:00", 
                    "finish": "2014-03-07T18:00:00"
                }, 
                "required_operators": 1, 
                "location": {
                    "latitude": 46.18677307262737, 
                    "longitude": 12.946683167267995
                }, 
                "patient_name": "William Griffin"
            }, 
            "act_2_1": {
                "duration": 60, 
                "time_window": {
                    "start": "2014-03-07T13:00:00", 
                    "finish": "2014-03-07T18:00:00"
                }, 
                "required_operators": 1, 
                "location": {
                    "latitude": 46.11834373400199, 
                    "longitude": 13.02269169625243
                }, 
                "patient_name": "John Sierra"
            }, 
            "act_2_0": {
                "duration": 30, 
                "time_window": {
                    "start": "2014-03-07T14:40:00", 
                    "finish": "2014-03-07T18:00:00"
                }, 
                "required_operators": 1, 
                "location": {
                    "latitude": 46.104468589350496, 
                    "longitude": 13.345958746580813
                }, 
                "patient_name": "Eric Keys"
            }, 
            "act_2_3": {
                "duration": 30, 
                "time_window": {
                    "start": "2014-03-07T08:00:00", 
                    "finish": "2014-03-07T18:00:00"
                }, 
                "required_operators": 1, 
                "location": {
                    "latitude": 46.22613113349451, 
                    "longitude": 12.923549683673627
                }, 
                "patient_name": "John Mauney"
            }, 
            "act_2_2": {
                "duration": 60, 
                "time_window": {
                    "start": "2014-03-07T14:40:00", 
                    "finish": "2014-03-07T18:00:00"
                }, 
                "required_operators": 1, 
                "location": {
                    "latitude": 46.055138599757065, 
                    "longitude": 13.331895830521947
                }, 
                "patient_name": "James Biggers"
            }
        }
    ], 
    "operators": {
        "op_12": {
            "time_windows": [
                {
                    "start": "2014-03-05T08:00:00", 
                    "finish": "2014-03-05T18:00:00", 
                    "regular_worktime": "8:00:00"
                }, 
                {
                    "start": "2014-03-06T08:00:00", 
                    "finish": "2014-03-06T18:00:00", 
                    "regular_worktime": "8:00:00"
                }, 
                {
                    "start": "2014-03-07T08:00:00", 
                    "finish": "2014-03-07T18:00:00", 
                    "regular_worktime": "8:00:00"
                }
            ], 
            "incompatible_activities": [
                "act_0_9", 
                "act_2_17", 
                "act_2_34", 
                "act_0_30", 
                "act_2_5", 
                "act_2_19", 
                "act_1_36", 
                "act_0_24"
            ], 
            "maximum_working_hours": "16:00:00", 
            "name": "Paul Reier", 
            "minimum_working_hours": "16:00:00"
        }, 
        "op_15": {
            "time_windows": [
                {
                    "start": "2014-03-05T08:00:00", 
                    "finish": "2014-03-05T18:00:00", 
                    "regular_worktime": "8:00:00"
                }, 
                {
                    "start": "2014-03-06T08:00:00", 
                    "finish": "2014-03-06T18:00:00", 
                    "regular_worktime": "8:00:00"
                }, 
                {
                    "start": "2014-03-07T08:00:00", 
                    "finish": "2014-03-07T18:00:00", 
                    "regular_worktime": "8:00:00"
                }
            ], 
            "incompatible_activities": [
                "act_2_32", 
                "act_2_21", 
                "act_2_27", 
                "act_2_9", 
                "act_1_30", 
                "act_1_11", 
                "act_0_6", 
                "act_2_36"
            ], 
            "maximum_working_hours": "16:00:00", 
            "name": "Stacy Dunham", 
            "minimum_working_hours": "16:00:00"
        }, 
        "op_8": {
            "time_windows": [
                {
                    "start": "2014-03-05T08:00:00", 
                    "finish": "2014-03-05T18:00:00", 
                    "regular_worktime": "8:00:00"
                }, 
                {
                    "start": "2014-03-06T08:00:00", 
                    "finish": "2014-03-06T18:00:00", 
                    "regular_worktime": "8:00:00"
                }, 
                {
                    "start": "2014-03-07T08:00:00", 
                    "finish": "2014-03-07T18:00:00", 
                    "regular_worktime": "8:00:00"
                }
            ], 
            "incompatible_activities": [
                "act_1_29", 
                "act_0_1", 
                "act_2_12", 
                "act_2_16", 
                "act_1_5", 
                "act_1_24", 
                "act_0_28", 
                "act_2_10"
            ], 
            "maximum_working_hours": "16:00:00", 
            "name": "Courtney Miller", 
            "minimum_working_hours": "16:00:00"
        }, 
        "op_9": {
            "time_windows": [
                {
                    "start": "2014-03-05T08:00:00", 
                    "finish": "2014-03-05T18:00:00", 
                    "regular_worktime": "8:00:00"
                }, 
                {
                    "start": "2014-03-06T08:00:00", 
                    "finish": "2014-03-06T18:00:00", 
                    "regular_worktime": "8:00:00"
                }, 
                {
                    "start": "2014-03-07T13:00:00", 
                    "finish": "2014-03-07T18:00:00", 
                    "regular_worktime": "4:00:00"
                }
            ], 
            "incompatible_activities": [
                "act_0_33", 
                "act_2_19", 
                "act_1_37", 
                "act_1_31", 
                "act_2_29", 
                "act_2_39", 
                "act_2_35", 
                "act_2_26"
            ], 
            "maximum_working_hours": "16:00:00", 
            "name": "Wallace Epps", 
            "minimum_working_hours": "12:00:00"
        }, 
        "op_18": {
            "time_windows": [
                {
                    "start": "2014-03-05T08:00:00", 
                    "finish": "2014-03-05T18:00:00", 
                    "regular_worktime": "8:00:00"
                }, 
                {
                    "start": "2014-03-06T08:00:00", 
                    "finish": "2014-03-06T18:00:00", 
                    "regular_worktime": "8:00:00"
                }, 
                {
                    "start": "2014-03-07T08:00:00", 
                    "finish": "2014-03-07T18:00:00", 
                    "regular_worktime": "8:00:00"
                }
            ], 
            "incompatible_activities": [
                "act_2_13", 
                "act_2_30", 
                "act_2_27", 
                "act_0_28", 
                "act_1_8", 
                "act_2_19", 
                "act_2_20", 
                "act_1_6"
            ], 
            "maximum_working_hours": "16:00:00", 
            "name": "John Hilton", 
            "minimum_working_hours": "16:00:00"
        }, 
        "op_13": {
            "time_windows": [
                {
                    "start": "2014-03-05T08:00:00", 
                    "finish": "2014-03-05T18:00:00", 
                    "regular_worktime": "8:00:00"
                }, 
                {
                    "start": "2014-03-06T08:00:00", 
                    "finish": "2014-03-06T18:00:00", 
                    "regular_worktime": "8:00:00"
                }, 
                {
                    "start": "2014-03-07T08:00:00", 
                    "finish": "2014-03-07T18:00:00", 
                    "regular_worktime": "8:00:00"
                }
            ], 
            "incompatible_activities": [
                "act_2_14", 
                "act_2_20", 
                "act_2_28", 
                "act_0_33", 
                "act_2_33", 
                "act_2_10", 
                "act_2_38", 
                "act_1_18"
            ], 
            "maximum_working_hours": "16:00:00", 
            "name": "Michael Meador", 
            "minimum_working_hours": "16:00:00"
        }, 
        "op_4": {
            "time_windows": [
                {
                    "start": "2014-03-05T08:00:00", 
                    "finish": "2014-03-05T18:00:00", 
                    "regular_worktime": "8:00:00"
                }, 
                {
                    "start": "2014-03-06T08:00:00", 
                    "finish": "2014-03-06T18:00:00", 
                    "regular_worktime": "8:00:00"
                }, 
                {
                    "start": "2014-03-07T13:00:00", 
                    "finish": "2014-03-07T18:00:00", 
                    "regular_worktime": "4:00:00"
                }
            ], 
            "incompatible_activities": [
                "act_2_27", 
                "act_0_2", 
                "act_1_34", 
                "act_1_10", 
                "act_0_6", 
                "act_0_29", 
                "act_0_19", 
                "act_0_9"
            ], 
            "maximum_working_hours": "16:00:00", 
            "name": "Larry Alves", 
            "minimum_working_hours": "12:00:00"
        }, 
        "op_5": {
            "time_windows": [
                {
                    "start": "2014-03-05T08:00:00", 
                    "finish": "2014-03-05T18:00:00", 
                    "regular_worktime": "8:00:00"
                }, 
                {
                    "start": "2014-03-06T08:00:00", 
                    "finish": "2014-03-06T18:00:00", 
                    "regular_worktime": "8:00:00"
                }, 
                {
                    "start": "2014-03-07T13:00:00", 
                    "finish": "2014-03-07T18:00:00", 
                    "regular_worktime": "4:00:00"
                }
            ], 
            "incompatible_activities": [
                "act_0_23", 
                "act_2_16", 
                "act_2_27", 
                "act_2_22", 
                "act_1_10", 
                "act_2_12", 
                "act_0_15", 
                "act_2_6"
            ], 
            "maximum_working_hours": "16:00:00", 
            "name": "Jose Cheng", 
            "minimum_working_hours": "12:00:00"
        }, 
        "op_6": {
            "time_windows": [
                {
                    "start": "2014-03-05T08:00:00", 
                    "finish": "2014-03-05T18:00:00", 
                    "regular_worktime": "8:00:00"
                }, 
                {
                    "start": "2014-03-06T08:00:00", 
                    "finish": "2014-03-06T18:00:00", 
                    "regular_worktime": "8:00:00"
                }, 
                {
                    "start": "2014-03-07T08:00:00", 
                    "finish": "2014-03-07T18:00:00", 
                    "regular_worktime": "8:00:00"
                }
            ], 
            "incompatible_activities": [
                "act_0_16", 
                "act_1_19", 
                "act_2_11", 
                "act_2_13", 
                "act_0_34", 
                "act_2_29", 
                "act_2_4", 
                "act_0_0"
            ], 
            "maximum_working_hours": "16:00:00", 
            "name": "William Brooks", 
            "minimum_working_hours": "16:00:00"
        }, 
        "op_7": {
            "time_windows": [
                {
                    "start": "2014-03-05T08:00:00", 
                    "finish": "2014-03-05T18:00:00", 
                    "regular_worktime": "8:00:00"
                }, 
                {
                    "start": "2014-03-06T08:00:00", 
                    "finish": "2014-03-06T18:00:00", 
                    "regular_worktime": "8:00:00"
                }, 
                {
                    "start": "2014-03-07T08:00:00", 
                    "finish": "2014-03-07T18:00:00", 
                    "regular_worktime": "8:00:00"
                }
            ], 
            "incompatible_activities": [
                "act_2_13", 
                "act_0_13", 
                "act_1_20", 
                "act_1_13", 
                "act_1_38", 
                "act_0_26", 
                "act_0_15", 
                "act_2_2"
            ], 
            "maximum_working_hours": "16:00:00", 
            "name": "Christopher Poirier", 
            "minimum_working_hours": "16:00:00"
        }, 
        "op_0": {
            "time_windows": [
                {
                    "start": "2014-03-05T08:00:00", 
                    "finish": "2014-03-05T18:00:00", 
                    "regular_worktime": "8:00:00"
                }, 
                {
                    "start": "2014-03-06T08:00:00", 
                    "finish": "2014-03-06T18:00:00", 
                    "regular_worktime": "8:00:00"
                }, 
                {
                    "start": "2014-03-07T08:00:00", 
                    "finish": "2014-03-07T13:00:00", 
                    "regular_worktime": "4:00:00"
                }
            ], 
            "incompatible_activities": [
                "act_0_26", 
                "act_0_27", 
                "act_2_2", 
                "act_0_3", 
                "act_2_31", 
                "act_0_28", 
                "act_1_32", 
                "act_2_27"
            ], 
            "maximum_working_hours": "16:00:00", 
            "name": "Nicholas Bailey", 
            "minimum_working_hours": "12:00:00"
        }, 
        "op_1": {
            "time_windows": [
                {
                    "start": "2014-03-05T08:00:00", 
                    "finish": "2014-03-05T18:00:00", 
                    "regular_worktime": "8:00:00"
                }, 
                {
                    "start": "2014-03-06T08:00:00", 
                    "finish": "2014-03-06T18:00:00", 
                    "regular_worktime": "8:00:00"
                }, 
                {
                    "start": "2014-03-07T08:00:00", 
                    "finish": "2014-03-07T18:00:00", 
                    "regular_worktime": "8:00:00"
                }
            ], 
            "incompatible_activities": [
                "act_0_3", 
                "act_1_17", 
                "act_1_39", 
                "act_2_24", 
                "act_0_32", 
                "act_1_30", 
                "act_0_18", 
                "act_2_19"
            ], 
            "maximum_working_hours": "16:00:00", 
            "name": "Katrina Ridley", 
            "minimum_working_hours": "16:00:00"
        }, 
        "op_2": {
            "time_windows": [
                {
                    "start": "2014-03-05T08:00:00", 
                    "finish": "2014-03-05T18:00:00", 
                    "regular_worktime": "8:00:00"
                }, 
                {
                    "start": "2014-03-06T13:00:00", 
                    "finish": "2014-03-06T18:00:00", 
                    "regular_worktime": "4:00:00"
                }, 
                {
                    "start": "2014-03-07T08:00:00", 
                    "finish": "2014-03-07T18:00:00", 
                    "regular_worktime": "8:00:00"
                }
            ], 
            "incompatible_activities": [
                "act_1_13", 
                "act_2_7", 
                "act_0_5", 
                "act_1_24", 
                "act_2_3", 
                "act_0_32", 
                "act_2_26", 
                "act_2_34"
            ], 
            "maximum_working_hours": "16:00:00", 
            "name": "Robert Odom", 
            "minimum_working_hours": "12:00:00"
        }, 
        "op_3": {
            "time_windows": [
                {
                    "start": "2014-03-05T08:00:00", 
                    "finish": "2014-03-05T18:00:00", 
                    "regular_worktime": "8:00:00"
                }, 
                {
                    "start": "2014-03-06T08:00:00", 
                    "finish": "2014-03-06T13:00:00", 
                    "regular_worktime": "4:00:00"
                }, 
                {
                    "start": "2014-03-07T08:00:00", 
                    "finish": "2014-03-07T18:00:00", 
                    "regular_worktime": "8:00:00"
                }
            ], 
            "incompatible_activities": [
                "act_2_22", 
                "act_1_17", 
                "act_1_4", 
                "act_1_7", 
                "act_1_23", 
                "act_1_6", 
                "act_2_25", 
                "act_0_36"
            ], 
            "maximum_working_hours": "16:00:00", 
            "name": "Lawrence Fisher", 
            "minimum_working_hours": "12:00:00"
        }, 
        "op_16": {
            "time_windows": [
                {
                    "start": "2014-03-05T08:00:00", 
                    "finish": "2014-03-05T18:00:00", 
                    "regular_worktime": "8:00:00"
                }, 
                {
                    "start": "2014-03-06T08:00:00", 
                    "finish": "2014-03-06T18:00:00", 
                    "regular_worktime": "8:00:00"
                }, 
                {
                    "start": "2014-03-07T08:00:00", 
                    "finish": "2014-03-07T13:00:00", 
                    "regular_worktime": "4:00:00"
                }
            ], 
            "incompatible_activities": [
                "act_2_0", 
                "act_0_35", 
                "act_2_23", 
                "act_1_17", 
                "act_0_26", 
                "act_2_13", 
                "act_2_17", 
                "act_0_20"
            ], 
            "maximum_working_hours": "16:00:00", 
            "name": "George Mcduffy", 
            "minimum_working_hours": "12:00:00"
        }, 
        "op_19": {
            "time_windows": [
                {
                    "start": "2014-03-05T08:00:00", 
                    "finish": "2014-03-05T13:00:00", 
                    "regular_worktime": "4:00:00"
                }, 
                {
                    "start": "2014-03-06T13:00:00", 
                    "finish": "2014-03-06T18:00:00", 
                    "regular_worktime": "4:00:00"
                }, 
                {
                    "start": "2014-03-07T13:00:00", 
                    "finish": "2014-03-07T18:00:00", 
                    "regular_worktime": "4:00:00"
                }
            ], 
            "incompatible_activities": [
                "act_2_0", 
                "act_1_35", 
                "act_0_33", 
                "act_1_33", 
                "act_0_5", 
                "act_0_21", 
                "act_0_26", 
                "act_1_7"
            ], 
            "maximum_working_hours": "08:00:00", 
            "name": "Kevin Lund", 
            "minimum_working_hours": "08:00:00"
        }, 
        "op_10": {
            "time_windows": [
                {
                    "start": "2014-03-05T08:00:00", 
                    "finish": "2014-03-05T18:00:00", 
                    "regular_worktime": "8:00:00"
                }, 
                {
                    "start": "2014-03-06T08:00:00", 
                    "finish": "2014-03-06T18:00:00", 
                    "regular_worktime": "8:00:00"
                }, 
                {
                    "start": "2014-03-07T08:00:00", 
                    "finish": "2014-03-07T13:00:00", 
                    "regular_worktime": "4:00:00"
                }
            ], 
            "incompatible_activities": [
                "act_1_13", 
                "act_1_5", 
                "act_0_39", 
                "act_0_3", 
                "act_0_18", 
                "act_0_26", 
                "act_0_5", 
                "act_2_7"
            ], 
            "maximum_working_hours": "16:00:00", 
            "name": "Frankie Mansfield", 
            "minimum_working_hours": "12:00:00"
        }, 
        "op_17": {
            "time_windows": [
                {
                    "start": "2014-03-05T08:00:00", 
                    "finish": "2014-03-05T13:00:00", 
                    "regular_worktime": "4:00:00"
                }, 
                {
                    "start": "2014-03-06T08:00:00", 
                    "finish": "2014-03-06T18:00:00", 
                    "regular_worktime": "8:00:00"
                }, 
                {
                    "start": "2014-03-07T13:00:00", 
                    "finish": "2014-03-07T18:00:00", 
                    "regular_worktime": "4:00:00"
                }
            ], 
            "incompatible_activities": [
                "act_2_26", 
                "act_1_26", 
                "act_0_11", 
                "act_0_31", 
                "act_2_32", 
                "act_2_20", 
                "act_1_5", 
                "act_2_34"
            ], 
            "maximum_working_hours": "12:00:00", 
            "name": "Lora Sotak", 
            "minimum_working_hours": "08:00:00"
        }, 
        "op_11": {
            "time_windows": [
                {
                    "start": "2014-03-05T08:00:00", 
                    "finish": "2014-03-05T13:00:00", 
                    "regular_worktime": "4:00:00"
                }, 
                {
                    "start": "2014-03-06T08:00:00", 
                    "finish": "2014-03-06T18:00:00", 
                    "regular_worktime": "8:00:00"
                }, 
                {
                    "start": "2014-03-07T08:00:00", 
                    "finish": "2014-03-07T18:00:00", 
                    "regular_worktime": "8:00:00"
                }
            ], 
            "incompatible_activities": [
                "act_2_0", 
                "act_0_5", 
                "act_2_3", 
                "act_1_11", 
                "act_2_33", 
                "act_2_35", 
                "act_0_39", 
                "act_2_10"
            ], 
            "maximum_working_hours": "16:00:00", 
            "name": "Robert Cartwright", 
            "minimum_working_hours": "12:00:00"
        }, 
        "op_14": {
            "time_windows": [
                {
                    "start": "2014-03-05T08:00:00", 
                    "finish": "2014-03-05T13:00:00", 
                    "regular_worktime": "4:00:00"
                }, 
                {
                    "start": "2014-03-06T08:00:00", 
                    "finish": "2014-03-06T18:00:00", 
                    "regular_worktime": "8:00:00"
                }, 
                {
                    "start": "2014-03-07T08:00:00", 
                    "finish": "2014-03-07T18:00:00", 
                    "regular_worktime": "8:00:00"
                }
            ], 
            "incompatible_activities": [
                "act_2_10", 
                "act_0_11", 
                "act_0_4", 
                "act_1_33", 
                "act_1_37", 
                "act_1_31", 
                "act_2_14", 
                "act_0_9"
            ], 
            "maximum_working_hours": "16:00:00", 
            "name": "Rosemary Hall", 
            "minimum_working_hours": "12:00:00"
        }
    }, 
    "meta": {
        "time_window": {
            "start": "08:00:00", 
            "finish": "18:00:00"
        }, 
        "horizon": 3, 
        "granularity": 10, 
        "geographic_area": {
            "upper_left": [
                46.259645, 
                12.860656
            ], 
            "lower_right": [
                45.936826, 
                13.485503
            ]
        }, 
        "max_consecutive_days": 2, 
        "finish_date": "2014-03-08T00:00:00", 
        "max_overtime_rate": 1.1, 
        "start_date": "2014-03-05T00:00:00"
    }
}